[
 {
  "Number": 0,
  "Words": [
   {
    "Word": "girl",
    "Rel": 0.046903928760109584
   },
   {
    "Word": "white",
    "Rel": 0.03126788901223009
   },
   {
    "Word": "world",
    "Rel": 0.031265798002609806
   },
   {
    "Word": "kind",
    "Rel": 0.031265451161697204
   },
   {
    "Word": "fine",
    "Rel": 0.031258625591033755
   },
   {
    "Word": "time",
    "Rel": 0.03123711444135873
   },
   {
    "Word": "man",
    "Rel": 0.031208258673532576
   },
   {
    "Word": "night",
    "Rel": 0.03118267488657732
   },
   {
    "Word": "wall",
    "Rel": 0.015634437279986035
   },
   {
    "Word": "role",
    "Rel": 0.015633119287327506
   }
  ]
 },
 {
  "Number": 1,
  "Words": [
   {
    "Word": "time",
    "Rel": 0.14579090034590048
   },
   {
    "Word": "night",
    "Rel": 0.04658249429722837
   },
   {
    "Word": "heart",
    "Rel": 0.02756418881675267
   },
   {
    "Word": "someone",
    "Rel": 0.01892946458845724
   },
   {
    "Word": "love",
    "Rel": 0.016556412842145065
   },
   {
    "Word": "girl",
    "Rel": 0.01627932255574098
   },
   {
    "Word": "home",
    "Rel": 0.016112249794183495
   },
   {
    "Word": "man",
    "Rel": 0.015722222973763644
   },
   {
    "Word": "world",
    "Rel": 0.009725440749376047
   },
   {
    "Word": "baby",
    "Rel": 0.00933699410743125
   }
  ]
 },
 {
  "Number": 2,
  "Words": [
   {
    "Word": "touch",
    "Rel": 0.01852892671543048
   },
   {
    "Word": "bread",
    "Rel": 0.01852783307706201
   },
   {
    "Word": "thoughts",
    "Rel": 0.01852683490736627
   },
   {
    "Word": "furs",
    "Rel": 0.01852682742135535
   },
   {
    "Word": "seventh",
    "Rel": 0.018526823330422503
   },
   {
    "Word": "wave",
    "Rel": 0.018526820002060976
   },
   {
    "Word": "diamonds",
    "Rel": 0.01852681759918962
   },
   {
    "Word": "coy",
    "Rel": 0.018526810303656206
   },
   {
    "Word": "fur",
    "Rel": 0.018526809284743984
   },
   {
    "Word": "minds",
    "Rel": 0.01852680693211781
   }
  ]
 },
 {
  "Number": 3,
  "Words": [
   {
    "Word": "heart",
    "Rel": 0.06940262673520789
   },
   {
    "Word": "love",
    "Rel": 0.03467740233778734
   },
   {
    "Word": "touch",
    "Rel": 0.034542873528096874
   },
   {
    "Word": "timing",
    "Rel": 0.03432758291714507
   },
   {
    "Word": "press",
    "Rel": 0.03432755430427676
   },
   {
    "Word": "magic",
    "Rel": 0.034327526158774775
   },
   {
    "Word": "sidewalks",
    "Rel": 0.03432750997295401
   },
   {
    "Word": "remedy",
    "Rel": 0.03432750172055811
   },
   {
    "Word": "streets",
    "Rel": 0.03432633229269192
   },
   {
    "Word": "lips",
    "Rel": 0.03432032342146293
   }
  ]
 },
 {
  "Number": 4,
  "Words": [
   {
    "Word": "night",
    "Rel": 0.045474107604070314
   },
   {
    "Word": "control",
    "Rel": 0.04546904965328196
   },
   {
    "Word": "light",
    "Rel": 0.022738372658194565
   },
   {
    "Word": "sweet",
    "Rel": 0.022733290508237834
   },
   {
    "Word": "name",
    "Rel": 0.022732509643433707
   },
   {
    "Word": "street",
    "Rel": 0.02273233321446184
   },
   {
    "Word": "song",
    "Rel": 0.022732092801984932
   },
   {
    "Word": "guy",
    "Rel": 0.02273038593226067
   },
   {
    "Word": "music",
    "Rel": 0.02272980544883607
   },
   {
    "Word": "story",
    "Rel": 0.02272960942897691
   }
  ]
 },
 {
  "Number": 5,
  "Words": [
   {
    "Word": "time",
    "Rel": 0.06264391903548712
   },
   {
    "Word": "night",
    "Rel": 0.06254946023075798
   },
   {
    "Word": "picture",
    "Rel": 0.03129074139611165
   },
   {
    "Word": "alright",
    "Rel": 0.03126169956718499
   },
   {
    "Word": "girl",
    "Rel": 0.031258222296465216
   },
   {
    "Word": "boys",
    "Rel": 0.0312524009770603
   },
   {
    "Word": "face",
    "Rel": 0.03124893831787987
   },
   {
    "Word": "lovers",
    "Rel": 0.031244226631986727
   },
   {
    "Word": "cry",
    "Rel": 0.031240394404174435
   },
   {
    "Word": "hearts",
    "Rel": 0.03123958245155761
   }
  ]
 },
 {
  "Number": 6,
  "Words": [
   {
    "Word": "love",
    "Rel": 0.022747010746401054
   },
   {
    "Word": "sweet",
    "Rel": 0.02274539228490141
   },
   {
    "Word": "words",
    "Rel": 0.022738746509096814
   },
   {
    "Word": "lies",
    "Rel": 0.022736781074586758
   },
   {
    "Word": "wicked",
    "Rel": 0.022736442404594995
   },
   {
    "Word": "green",
    "Rel": 0.02273470276270926
   },
   {
    "Word": "gold",
    "Rel": 0.022734681386137077
   },
   {
    "Word": "addiction",
    "Rel": 0.02273467706391238
   },
   {
    "Word": "chameleon",
    "Rel": 0.02273467391008484
   },
   {
    "Word": "colors",
    "Rel": 0.0227346609764302
   }
  ]
 },
 {
  "Number": 7,
  "Words": [
   {
    "Word": "girls",
    "Rel": 0.07616388627981813
   },
   {
    "Word": "phone",
    "Rel": 0.07607965329086154
   },
   {
    "Word": "man",
    "Rel": 0.04237318610914837
   },
   {
    "Word": "baby",
    "Rel": 0.04236197222293688
   },
   {
    "Word": "better",
    "Rel": 0.04233819953743727
   },
   {
    "Word": "bed",
    "Rel": 0.0423173751659027
   },
   {
    "Word": "good",
    "Rel": 0.04231410275469899
   },
   {
    "Word": "ghost",
    "Rel": 0.04229325869740552
   },
   {
    "Word": "ow",
    "Rel": 0.0422932446639629
   },
   {
    "Word": "ghostbusters",
    "Rel": 0.04229324129299128
   }
  ]
 },
 {
  "Number": 8,
  "Words": [
   {
    "Word": "time",
    "Rel": 0.12005491422518694
   },
   {
    "Word": "heart",
    "Rel": 0.038022804948540635
   },
   {
    "Word": "night",
    "Rel": 0.026902121582658225
   },
   {
    "Word": "love",
    "Rel": 0.022823197313392714
   },
   {
    "Word": "man",
    "Rel": 0.018951145447140327
   },
   {
    "Word": "someone",
    "Rel": 0.017670595593079853
   },
   {
    "Word": "girl",
    "Rel": 0.015888861182085785
   },
   {
    "Word": "home",
    "Rel": 0.013255923097965087
   },
   {
    "Word": "baby",
    "Rel": 0.010260935233651748
   },
   {
    "Word": "world",
    "Rel": 0.009518341599567083
   }
  ]
 },
 {
  "Number": 9,
  "Words": [
   {
    "Word": "heart",
    "Rel": 0.06933437701306047
   },
   {
    "Word": "arms",
    "Rel": 0.06893271003729169
   },
   {
    "Word": "love",
    "Rel": 0.03467473274348066
   },
   {
    "Word": "baby",
    "Rel": 0.03449570455457124
   },
   {
    "Word": "pain",
    "Rel": 0.03448409362690212
   },
   {
    "Word": "crazy",
    "Rel": 0.03448105241714185
   },
   {
    "Word": "stop",
    "Rel": 0.03447874181670542
   },
   {
    "Word": "feels",
    "Rel": 0.03447843958967651
   },
   {
    "Word": "honey",
    "Rel": 0.0344777114967484
   },
   {
    "Word": "prisoner",
    "Rel": 0.03447769023697672
   }
  ]
 },
 {
  "Number": 10,
  "Words": [
   {
    "Word": "time",
    "Rel": 0.08570094257132396
   },
   {
    "Word": "heart",
    "Rel": 0.0332441735436588
   },
   {
    "Word": "night",
    "Rel": 0.025684924319330903
   },
   {
    "Word": "love",
    "Rel": 0.02347002821235008
   },
   {
    "Word": "man",
    "Rel": 0.0194013822753816
   },
   {
    "Word": "girl",
    "Rel": 0.017819576881633582
   },
   {
    "Word": "someone",
    "Rel": 0.01667761525450849
   },
   {
    "Word": "home",
    "Rel": 0.015066776188724637
   },
   {
    "Word": "baby",
    "Rel": 0.01070611783573421
   },
   {
    "Word": "world",
    "Rel": 0.01039609555018431
   }
  ]
 },
 {
  "Number": 11,
  "Words": [
   {
    "Word": "time",
    "Rel": 0.10616801595608834
   },
   {
    "Word": "heart",
    "Rel": 0.03233104786835015
   },
   {
    "Word": "night",
    "Rel": 0.026931189999595487
   },
   {
    "Word": "love",
    "Rel": 0.019693146132152013
   },
   {
    "Word": "girl",
    "Rel": 0.01812140463455241
   },
   {
    "Word": "someone",
    "Rel": 0.016320433597552687
   },
   {
    "Word": "man",
    "Rel": 0.015923418126749123
   },
   {
    "Word": "home",
    "Rel": 0.014619255249990767
   },
   {
    "Word": "world",
    "Rel": 0.009916591375898768
   },
   {
    "Word": "baby",
    "Rel": 0.009734333334062345
   }
  ]
 },
 {
  "Number": 12,
  "Words": [
   {
    "Word": "time",
    "Rel": 0.1086272025818328
   },
   {
    "Word": "heart",
    "Rel": 0.044259152445365914
   },
   {
    "Word": "night",
    "Rel": 0.02499368422346341
   },
   {
    "Word": "love",
    "Rel": 0.018936203404369904
   },
   {
    "Word": "girl",
    "Rel": 0.01628706439594376
   },
   {
    "Word": "man",
    "Rel": 0.01572848653258156
   },
   {
    "Word": "someone",
    "Rel": 0.015648606268296818
   },
   {
    "Word": "home",
    "Rel": 0.013600400010256579
   },
   {
    "Word": "world",
    "Rel": 0.010621089211803053
   },
   {
    "Word": "baby",
    "Rel": 0.009761120166334203
   }
  ]
 },
 {
  "Number": 13,
  "Words": [
   {
    "Word": "time",
    "Rel": 0.08214428717663728
   },
   {
    "Word": "heart",
    "Rel": 0.035277168591437424
   },
   {
    "Word": "night",
    "Rel": 0.031915517117979735
   },
   {
    "Word": "love",
    "Rel": 0.025660275433629545
   },
   {
    "Word": "man",
    "Rel": 0.01965974408512961
   },
   {
    "Word": "girl",
    "Rel": 0.01673531976704757
   },
   {
    "Word": "someone",
    "Rel": 0.01631644760594167
   },
   {
    "Word": "home",
    "Rel": 0.014070654339321816
   },
   {
    "Word": "baby",
    "Rel": 0.01138211653032045
   },
   {
    "Word": "world",
    "Rel": 0.010592543624678487
   }
  ]
 },
 {
  "Number": 14,
  "Words": [
   {
    "Word": "time",
    "Rel": 0.08362905862839394
   },
   {
    "Word": "love",
    "Rel": 0.03851929217116846
   },
   {
    "Word": "heart",
    "Rel": 0.034763195128031034
   },
   {
    "Word": "night",
    "Rel": 0.02448715970854063
   },
   {
    "Word": "girl",
    "Rel": 0.019199270958927272
   },
   {
    "Word": "someone",
    "Rel": 0.018102401779253697
   },
   {
    "Word": "man",
    "Rel": 0.01660881146822453
   },
   {
    "Word": "home",
    "Rel": 0.013765296921026345
   },
   {
    "Word": "world",
    "Rel": 0.010221557416930566
   },
   {
    "Word": "baby",
    "Rel": 0.009702955017447256
   }
  ]
 },
 {
  "Number": 15,
  "Words": [
   {
    "Word": "world",
    "Rel": 0.047682849122060306
   },
   {
    "Word": "dream",
    "Rel": 0.047647656686567064
   },
   {
    "Word": "mother",
    "Rel": 0.0476459393366406
   },
   {
    "Word": "father",
    "Rel": 0.047643381268468676
   },
   {
    "Word": "ocean",
    "Rel": 0.04762506039732881
   },
   {
    "Word": "bloom",
    "Rel": 0.04760878385028111
   },
   {
    "Word": "animals",
    "Rel": 0.0476087693436172
   },
   {
    "Word": "violets",
    "Rel": 0.04760876490570181
   },
   {
    "Word": "heat",
    "Rel": 0.04760876342111678
   },
   {
    "Word": "poses",
    "Rel": 0.047608760663396345
   }
  ]
 },
 {
  "Number": 16,
  "Words": [
   {
    "Word": "real",
    "Rel": 0.057144782107151425
   },
   {
    "Word": "home",
    "Rel": 0.028594863121773423
   },
   {
    "Word": "girl",
    "Rel": 0.028594048135694813
   },
   {
    "Word": "hand",
    "Rel": 0.028584960674502016
   },
   {
    "Word": "face",
    "Rel": 0.028579771205318672
   },
   {
    "Word": "direction",
    "Rel": 0.028579704488587612
   },
   {
    "Word": "boy",
    "Rel": 0.028578879736074987
   },
   {
    "Word": "tear",
    "Rel": 0.02857754809404538
   },
   {
    "Word": "fine",
    "Rel": 0.02857650888395927
   },
   {
    "Word": "games",
    "Rel": 0.0285761923143693
   }
  ]
 },
 {
  "Number": 17,
  "Words": [
   {
    "Word": "someone",
    "Rel": 0.03128682951861282
   },
   {
    "Word": "home",
    "Rel": 0.031274399866013054
   },
   {
    "Word": "hair",
    "Rel": 0.03126116045547698
   },
   {
    "Word": "man",
    "Rel": 0.0312554220554245
   },
   {
    "Word": "safe",
    "Rel": 0.03125165074545405
   },
   {
    "Word": "people",
    "Rel": 0.03125029723515147
   },
   {
    "Word": "work",
    "Rel": 0.031249916842384144
   },
   {
    "Word": "price",
    "Rel": 0.031248899598225324
   },
   {
    "Word": "dream",
    "Rel": 0.03124859898612011
   },
   {
    "Word": "psycho",
    "Rel": 0.031247890648624915
   }
  ]
 },
 {
  "Number": 18,
  "Words": [
   {
    "Word": "someone",
    "Rel": 0.05269365845886448
   },
   {
    "Word": "reaction",
    "Rel": 0.026324340711813818
   },
   {
    "Word": "excuse",
    "Rel": 0.02632379837793497
   },
   {
    "Word": "quiet",
    "Rel": 0.02632378459730699
   },
   {
    "Word": "painful",
    "Rel": 0.026323777829841022
   },
   {
    "Word": "shell",
    "Rel": 0.02632376978453883
   },
   {
    "Word": "promise",
    "Rel": 0.026323765952722192
   },
   {
    "Word": "aah",
    "Rel": 0.026323765781126454
   },
   {
    "Word": "happen",
    "Rel": 0.02632376407440555
   },
   {
    "Word": "war",
    "Rel": 0.02632376376743393
   }
  ]
 },
 {
  "Number": 19,
  "Words": [
   {
    "Word": "sun",
    "Rel": 0.02439818861859745
   },
   {
    "Word": "world",
    "Rel": 0.024393188922523824
   },
   {
    "Word": "friendly",
    "Rel": 0.024391638472602672
   },
   {
    "Word": "purple",
    "Rel": 0.02439163823109277
   },
   {
    "Word": "banana",
    "Rel": 0.02439163573541964
   },
   {
    "Word": "shrink",
    "Rel": 0.024391621934297922
   },
   {
    "Word": "nuts",
    "Rel": 0.02439162065417497
   },
   {
    "Word": "electric",
    "Rel": 0.024391620616380377
   },
   {
    "Word": "lady",
    "Rel": 0.024391615859933907
   },
   {
    "Word": "wrong",
    "Rel": 0.02439161243904612
   }
  ]
 },
 {
  "Number": 20,
  "Words": [
   {
    "Word": "time",
    "Rel": 0.06700364997688217
   },
   {
    "Word": "home",
    "Rel": 0.06680756938515256
   },
   {
    "Word": "man",
    "Rel": 0.06678377597689551
   },
   {
    "Word": "soul",
    "Rel": 0.06666092053052332
   },
   {
    "Word": "hard",
    "Rel": 0.06665005097414252
   },
   {
    "Word": "tomorrow",
    "Rel": 0.0666266290446869
   },
   {
    "Word": "troubles",
    "Rel": 0.06661663008007987
   },
   {
    "Word": "mighty",
    "Rel": 0.06661381278516128
   },
   {
    "Word": "woman",
    "Rel": 0.06661278687942962
   },
   {
    "Word": "fool",
    "Rel": 0.06660957353048905
   }
  ]
 },
 {
  "Number": 21,
  "Words": [
   {
    "Word": "time",
    "Rel": 0.14397321092171514
   },
   {
    "Word": "night",
    "Rel": 0.03237397506837737
   },
   {
    "Word": "heart",
    "Rel": 0.0290687395630323
   },
   {
    "Word": "love",
    "Rel": 0.018481052509461138
   },
   {
    "Word": "girl",
    "Rel": 0.017287654631422067
   },
   {
    "Word": "someone",
    "Rel": 0.01700126532492871
   },
   {
    "Word": "man",
    "Rel": 0.014797005808199006
   },
   {
    "Word": "home",
    "Rel": 0.012715848716340569
   },
   {
    "Word": "world",
    "Rel": 0.009773554037908291
   },
   {
    "Word": "baby",
    "Rel": 0.009375484592424467
   }
  ]
 },
 {
  "Number": 22,
  "Words": [
   {
    "Word": "time",
    "Rel": 0.09065176021329874
   },
   {
    "Word": "heart",
    "Rel": 0.03945445374699312
   },
   {
    "Word": "night",
    "Rel": 0.025113275034052116
   },
   {
    "Word": "love",
    "Rel": 0.023371859719135038
   },
   {
    "Word": "girl",
    "Rel": 0.017182143674504973
   },
   {
    "Word": "someone",
    "Rel": 0.016653927606757817
   },
   {
    "Word": "man",
    "Rel": 0.01659789073900769
   },
   {
    "Word": "home",
    "Rel": 0.01390548012722896
   },
   {
    "Word": "world",
    "Rel": 0.010302748639511923
   },
   {
    "Word": "baby",
    "Rel": 0.009898974492949747
   }
  ]
 },
 {
  "Number": 23,
  "Words": [
   {
    "Word": "heart",
    "Rel": 0.07734590544284195
   },
   {
    "Word": "night",
    "Rel": 0.07721436444018677
   },
   {
    "Word": "dreams",
    "Rel": 0.07699009611401537
   },
   {
    "Word": "arms",
    "Rel": 0.07691885577403641
   },
   {
    "Word": "secrets",
    "Rel": 0.07687006277976775
   },
   {
    "Word": "truth",
    "Rel": 0.07686784210605872
   },
   {
    "Word": "sleepin",
    "Rel": 0.07683050216420094
   },
   {
    "Word": "mystery",
    "Rel": 0.07682281617650381
   },
   {
    "Word": "heartbeat",
    "Rel": 0.07682275844217791
   },
   {
    "Word": "sound",
    "Rel": 0.07682271948683322
   }
  ]
 },
 {
  "Number": 24,
  "Words": [
   {
    "Word": "jump",
    "Rel": 0.18599122726293638
   },
   {
    "Word": "tough",
    "Rel": 0.10096878501268389
   },
   {
    "Word": "real",
    "Rel": 0.1009448912593236
   },
   {
    "Word": "record",
    "Rel": 0.10082075568672685
   },
   {
    "Word": "worst",
    "Rel": 0.10082072737464874
   },
   {
    "Word": "toughest",
    "Rel": 0.10082068076712791
   },
   {
    "Word": "back",
    "Rel": 0.1008206367211234
   },
   {
    "Word": "machine",
    "Rel": 0.10082061381089698
   },
   {
    "Word": "punches",
    "Rel": 0.1008206102224467
   },
   {
    "Word": "move",
    "Rel": 0.0011484410442189116
   }
  ]
 },
 {
  "Number": 25,
  "Words": [
   {
    "Word": "morning",
    "Rel": 0.03427964768197247
   },
   {
    "Word": "home",
    "Rel": 0.034271815737791825
   },
   {
    "Word": "world",
    "Rel": 0.03426439722673482
   },
   {
    "Word": "sick",
    "Rel": 0.017141029157311305
   },
   {
    "Word": "shoulders",
    "Rel": 0.01714102745306803
   },
   {
    "Word": "action",
    "Rel": 0.017141026315539615
   },
   {
    "Word": "joke",
    "Rel": 0.017141011861018417
   },
   {
    "Word": "gun",
    "Rel": 0.017141009130782436
   },
   {
    "Word": "book",
    "Rel": 0.017141007364765242
   },
   {
    "Word": "laugh",
    "Rel": 0.017141005617629507
   }
  ]
 },
 {
  "Number": 26,
  "Words": [
   {
    "Word": "heart",
    "Rel": 0.03861700628889713
   },
   {
    "Word": "love",
    "Rel": 0.03861312203165813
   },
   {
    "Word": "reason",
    "Rel": 0.03856670864760778
   },
   {
    "Word": "better",
    "Rel": 0.03848230485115972
   },
   {
    "Word": "real",
    "Rel": 0.03845342696126886
   },
   {
    "Word": "story",
    "Rel": 0.038451531404477365
   },
   {
    "Word": "thinking",
    "Rel": 0.03844829892204107
   },
   {
    "Word": "broken",
    "Rel": 0.03844787418404867
   },
   {
    "Word": "move",
    "Rel": 0.0384455622836571
   },
   {
    "Word": "free",
    "Rel": 0.0384437592042881
   }
  ]
 },
 {
  "Number": 27,
  "Words": [
   {
    "Word": "time",
    "Rel": 0.10792093839987535
   },
   {
    "Word": "heart",
    "Rel": 0.03629774877483926
   },
   {
    "Word": "night",
    "Rel": 0.030929787344379078
   },
   {
    "Word": "love",
    "Rel": 0.022739341043009276
   },
   {
    "Word": "someone",
    "Rel": 0.0181324309625292
   },
   {
    "Word": "girl",
    "Rel": 0.01636694254458365
   },
   {
    "Word": "man",
    "Rel": 0.01632967336164274
   },
   {
    "Word": "home",
    "Rel": 0.01379528125958854
   },
   {
    "Word": "baby",
    "Rel": 0.010907799526536921
   },
   {
    "Word": "world",
    "Rel": 0.010469749721351332
   }
  ]
 },
 {
  "Number": 28,
  "Words": [
   {
    "Word": "time",
    "Rel": 0.08049457615264033
   },
   {
    "Word": "heart",
    "Rel": 0.031416589848338373
   },
   {
    "Word": "night",
    "Rel": 0.03137114340447975
   },
   {
    "Word": "love",
    "Rel": 0.01969965391653375
   },
   {
    "Word": "girl",
    "Rel": 0.019110207557064482
   },
   {
    "Word": "man",
    "Rel": 0.019100125870723718
   },
   {
    "Word": "someone",
    "Rel": 0.017277661747176695
   },
   {
    "Word": "home",
    "Rel": 0.014369190102480455
   },
   {
    "Word": "baby",
    "Rel": 0.010613558234866316
   },
   {
    "Word": "world",
    "Rel": 0.009974189706960335
   }
  ]
 },
 {
  "Number": 29,
  "Words": [
   {
    "Word": "time",
    "Rel": 0.050097456483357665
   },
   {
    "Word": "night",
    "Rel": 0.050042764470584124
   },
   {
    "Word": "better",
    "Rel": 0.050021884634712487
   },
   {
    "Word": "tight",
    "Rel": 0.049993728411782956
   },
   {
    "Word": "zone",
    "Rel": 0.04999360141098654
   },
   {
    "Word": "danger",
    "Rel": 0.04999117267457986
   },
   {
    "Word": "chaperone",
    "Rel": 0.049988949553140864
   },
   {
    "Word": "magazine",
    "Rel": 0.04998894712143732
   },
   {
    "Word": "vibrations",
    "Rel": 0.049988944098588936
   },
   {
    "Word": "law",
    "Rel": 0.04998894284910169
   }
  ]
 },
 {
  "Number": 30,
  "Words": [
   {
    "Word": "none",
    "Rel": 0.9988125058473302
   },
   {
    "Word": "time",
    "Rel": 0.000022106333823779422
   },
   {
    "Word": "night",
    "Rel": 0.00001447471639774429
   },
   {
    "Word": "love",
    "Rel": 0.000013580431548239447
   },
   {
    "Word": "heart",
    "Rel": 0.000013292183262385079
   },
   {
    "Word": "girl",
    "Rel": 0.000011708517167790155
   },
   {
    "Word": "man",
    "Rel": 0.000011517598968072477
   },
   {
    "Word": "someone",
    "Rel": 0.000011260935551045281
   },
   {
    "Word": "home",
    "Rel": 0.000010075870410899
   },
   {
    "Word": "baby",
    "Rel": 0.000007987861348079194
   }
  ]
 },
 {
  "Number": 31,
  "Words": [
   {
    "Word": "time",
    "Rel": 0.07765716079139236
   },
   {
    "Word": "night",
    "Rel": 0.03669156086157785
   },
   {
    "Word": "heart",
    "Rel": 0.03499050691141306
   },
   {
    "Word": "love",
    "Rel": 0.020928475104460536
   },
   {
    "Word": "girl",
    "Rel": 0.017838629590250343
   },
   {
    "Word": "someone",
    "Rel": 0.016879310064643188
   },
   {
    "Word": "man",
    "Rel": 0.016828048517650344
   },
   {
    "Word": "home",
    "Rel": 0.014368257448030403
   },
   {
    "Word": "world",
    "Rel": 0.010060628582192616
   },
   {
    "Word": "baby",
    "Rel": 0.010032220272321972
   }
  ]
 },
 {
  "Number": 32,
  "Words": [
   {
    "Word": "time",
    "Rel": 0.04008726457749316
   },
   {
    "Word": "heart",
    "Rel": 0.040067026032704865
   },
   {
    "Word": "feeling",
    "Rel": 0.04002133045107711
   },
   {
    "Word": "feet",
    "Rel": 0.04002025458963962
   },
   {
    "Word": "hard",
    "Rel": 0.040003658969058616
   },
   {
    "Word": "hold",
    "Rel": 0.04000352060078923
   },
   {
    "Word": "ground",
    "Rel": 0.04000255589612632
   },
   {
    "Word": "everybody",
    "Rel": 0.03999970647477294
   },
   {
    "Word": "town",
    "Rel": 0.039996045425986046
   },
   {
    "Word": "blues",
    "Rel": 0.039995031649227554
   }
  ]
 },
 {
  "Number": 33,
  "Words": [
   {
    "Word": "pain",
    "Rel": 0.07700651528373248
   },
   {
    "Word": "tears",
    "Rel": 0.076989761705236
   },
   {
    "Word": "good",
    "Rel": 0.07695421222288472
   },
   {
    "Word": "reasons",
    "Rel": 0.07694006907415392
   },
   {
    "Word": "memory",
    "Rel": 0.07693572625597621
   },
   {
    "Word": "space",
    "Rel": 0.07691382601383577
   },
   {
    "Word": "breath",
    "Rel": 0.07690677837245162
   },
   {
    "Word": "trace",
    "Rel": 0.07688832211965152
   },
   {
    "Word": "laughter",
    "Rel": 0.0768883028910817
   },
   {
    "Word": "odds",
    "Rel": 0.07688828381063356
   }
  ]
 },
 {
  "Number": 34,
  "Words": [
   {
    "Word": "close",
    "Rel": 0.0298960977161136
   },
   {
    "Word": "drinking",
    "Rel": 0.01494724679634197
   },
   {
    "Word": "vegas",
    "Rel": 0.014947242466863226
   },
   {
    "Word": "mad",
    "Rel": 0.014947240485916315
   },
   {
    "Word": "fall",
    "Rel": 0.014947233603602596
   },
   {
    "Word": "human",
    "Rel": 0.014947232551575639
   },
   {
    "Word": "wine",
    "Rel": 0.014947231125687068
   },
   {
    "Word": "gigolo",
    "Rel": 0.01494722887499551
   },
   {
    "Word": "car",
    "Rel": 0.01494722885478397
   },
   {
    "Word": "bus",
    "Rel": 0.014947226534396287
   }
  ]
 },
 {
  "Number": 35,
  "Words": [
   {
    "Word": "girl",
    "Rel": 0.05272511694605381
   },
   {
    "Word": "night",
    "Rel": 0.05268542685786421
   },
   {
    "Word": "dream",
    "Rel": 0.05265077249631181
   },
   {
    "Word": "reason",
    "Rel": 0.052643902967485806
   },
   {
    "Word": "ground",
    "Rel": 0.05263218016143088
   },
   {
    "Word": "nobody",
    "Rel": 0.05262317656636311
   },
   {
    "Word": "past",
    "Rel": 0.052617133223021986
   },
   {
    "Word": "stride",
    "Rel": 0.052617129971174494
   },
   {
    "Word": "rocky",
    "Rel": 0.052617127464355616
   },
   {
    "Word": "repeat",
    "Rel": 0.05261712333289809
   }
  ]
 },
 {
  "Number": 36,
  "Words": [
   {
    "Word": "warm",
    "Rel": 0.026335708483858185
   },
   {
    "Word": "song",
    "Rel": 0.026331895016138467
   },
   {
    "Word": "words",
    "Rel": 0.026320120542726325
   },
   {
    "Word": "care",
    "Rel": 0.026320057981566346
   },
   {
    "Word": "first",
    "Rel": 0.026318544451208264
   },
   {
    "Word": "high",
    "Rel": 0.026318442306391195
   },
   {
    "Word": "summer",
    "Rel": 0.026317292921915692
   },
   {
    "Word": "june",
    "Rel": 0.02631631139337414
   },
   {
    "Word": "july",
    "Rel": 0.02631630937729886
   },
   {
    "Word": "halloween",
    "Rel": 0.026316307754876818
   }
  ]
 },
 {
  "Number": 37,
  "Words": [
   {
    "Word": "hand",
    "Rel": 0.027046372792292363
   },
   {
    "Word": "ride",
    "Rel": 0.02704227529664426
   },
   {
    "Word": "time",
    "Rel": 0.027034226245581324
   },
   {
    "Word": "emotion",
    "Rel": 0.027033456806734264
   },
   {
    "Word": "dark",
    "Rel": 0.027032994783945743
   },
   {
    "Word": "high",
    "Rel": 0.027032605365559334
   },
   {
    "Word": "line",
    "Rel": 0.02703050636546124
   },
   {
    "Word": "tv",
    "Rel": 0.027027006442502555
   },
   {
    "Word": "open",
    "Rel": 0.027026797302078527
   },
   {
    "Word": "valentine",
    "Rel": 0.027026578356720374
   }
  ]
 },
 {
  "Number": 38,
  "Words": [
   {
    "Word": "world",
    "Rel": 0.033349769754116236
   },
   {
    "Word": "name",
    "Rel": 0.03334692589095327
   },
   {
    "Word": "heart",
    "Rel": 0.033344141632041135
   },
   {
    "Word": "time",
    "Rel": 0.03334241365844174
   },
   {
    "Word": "circles",
    "Rel": 0.03334237412675524
   },
   {
    "Word": "smile",
    "Rel": 0.03334123811370426
   },
   {
    "Word": "long",
    "Rel": 0.033335751234105586
   },
   {
    "Word": "line",
    "Rel": 0.033335344703173606
   },
   {
    "Word": "message",
    "Rel": 0.033335059779908756
   },
   {
    "Word": "friends",
    "Rel": 0.03333330919819446
   }
  ]
 },
 {
  "Number": 39,
  "Words": [
   {
    "Word": "time",
    "Rel": 0.11440842547164685
   },
   {
    "Word": "heart",
    "Rel": 0.030385304910038522
   },
   {
    "Word": "night",
    "Rel": 0.0272723696999322
   },
   {
    "Word": "love",
    "Rel": 0.019364876533748396
   },
   {
    "Word": "girl",
    "Rel": 0.016495489673560137
   },
   {
    "Word": "someone",
    "Rel": 0.016328047318822213
   },
   {
    "Word": "man",
    "Rel": 0.014739324061318549
   },
   {
    "Word": "home",
    "Rel": 0.014135671690834989
   },
   {
    "Word": "world",
    "Rel": 0.01036450454691604
   },
   {
    "Word": "baby",
    "Rel": 0.010024076682615325
   }
  ]
 }
]