[
 {
  "Number": 0,
  "Words": [
   {
    "Word": "name",
    "Rel": 0.08370000617789725
   },
   {
    "Word": "night",
    "Rel": 0.08369953244033404
   },
   {
    "Word": "twist",
    "Rel": 0.08333117939848812
   },
   {
    "Word": "street",
    "Rel": 0.0832883479136523
   },
   {
    "Word": "dance",
    "Rel": 0.08322240446285614
   },
   {
    "Word": "jump",
    "Rel": 0.08320416556182164
   },
   {
    "Word": "okay",
    "Rel": 0.08314397442338513
   },
   {
    "Word": "yey",
    "Rel": 0.08314368795831707
   },
   {
    "Word": "peppermint",
    "Rel": 0.08314331840226667
   },
   {
    "Word": "twisters",
    "Rel": 0.08314284279351523
   }
  ]
 },
 {
  "Number": 1,
  "Words": [
   {
    "Word": "girl",
    "Rel": 0.3260246800043151
   },
   {
    "Word": "romance",
    "Rel": 0.031734941519549725
   },
   {
    "Word": "eye",
    "Rel": 0.027113119596915293
   },
   {
    "Word": "anymore",
    "Rel": 0.019779718365530847
   },
   {
    "Word": "kisses",
    "Rel": 0.0179452246818748
   },
   {
    "Word": "love",
    "Rel": 0.016754857319892656
   },
   {
    "Word": "goodbye",
    "Rel": 0.014803427675417504
   },
   {
    "Word": "kiss",
    "Rel": 0.012656305157567025
   },
   {
    "Word": "heart",
    "Rel": 0.011719646079067178
   },
   {
    "Word": "child",
    "Rel": 0.011279330024545432
   }
  ]
 },
 {
  "Number": 2,
  "Words": [
   {
    "Word": "girl",
    "Rel": 0.08633724862621395
   },
   {
    "Word": "love",
    "Rel": 0.04077609412195178
   },
   {
    "Word": "kisses",
    "Rel": 0.017715326279016144
   },
   {
    "Word": "everybody",
    "Rel": 0.017048913659710712
   },
   {
    "Word": "romance",
    "Rel": 0.01703620796502294
   },
   {
    "Word": "night",
    "Rel": 0.01630778020910752
   },
   {
    "Word": "goodbye",
    "Rel": 0.013496849024558636
   },
   {
    "Word": "baby",
    "Rel": 0.013364712231648517
   },
   {
    "Word": "eye",
    "Rel": 0.011804567049461374
   },
   {
    "Word": "heart",
    "Rel": 0.011340589222537724
   }
  ]
 },
 {
  "Number": 3,
  "Words": [
   {
    "Word": "love",
    "Rel": 0.06239885297930202
   },
   {
    "Word": "night",
    "Rel": 0.04149685272220525
   },
   {
    "Word": "heart",
    "Rel": 0.041450861695719904
   },
   {
    "Word": "goodbye",
    "Rel": 0.020865257127200693
   },
   {
    "Word": "kiss",
    "Rel": 0.020862786164847307
   },
   {
    "Word": "gold",
    "Rel": 0.020850907416591066
   },
   {
    "Word": "delight",
    "Rel": 0.020850746948327576
   },
   {
    "Word": "horse",
    "Rel": 0.020850738256984035
   },
   {
    "Word": "happiness",
    "Rel": 0.020850575519720842
   },
   {
    "Word": "penny",
    "Rel": 0.020850512950853606
   }
  ]
 },
 {
  "Number": 4,
  "Words": [
   {
    "Word": "girl",
    "Rel": 0.2625960762677225
   },
   {
    "Word": "love",
    "Rel": 0.04913449970484555
   },
   {
    "Word": "eye",
    "Rel": 0.01776945256058923
   },
   {
    "Word": "name",
    "Rel": 0.01526380004006749
   },
   {
    "Word": "anymore",
    "Rel": 0.014012235290654469
   },
   {
    "Word": "kisses",
    "Rel": 0.013286810083178027
   },
   {
    "Word": "goodbye",
    "Rel": 0.011630316135543021
   },
   {
    "Word": "romance",
    "Rel": 0.011325341494504766
   },
   {
    "Word": "night",
    "Rel": 0.011128506038912744
   },
   {
    "Word": "kiss",
    "Rel": 0.01030285016361667
   }
  ]
 },
 {
  "Number": 5,
  "Words": [
   {
    "Word": "night",
    "Rel": 0.0476791001010558
   },
   {
    "Word": "world",
    "Rel": 0.04765573621862245
   },
   {
    "Word": "words",
    "Rel": 0.0476119472016806
   },
   {
    "Word": "chance",
    "Rel": 0.04759615436329997
   },
   {
    "Word": "mary",
    "Rel": 0.047595746550586925
   },
   {
    "Word": "people",
    "Rel": 0.04758838444408511
   },
   {
    "Word": "trouble",
    "Rel": 0.04758791954738349
   },
   {
    "Word": "darkness",
    "Rel": 0.04758753132356417
   },
   {
    "Word": "wisdom",
    "Rel": 0.04758722566137108
   },
   {
    "Word": "agree",
    "Rel": 0.0475868635715173
   }
  ]
 },
 {
  "Number": 6,
  "Words": [
   {
    "Word": "girl",
    "Rel": 0.1635831181405506
   },
   {
    "Word": "love",
    "Rel": 0.04335902317344705
   },
   {
    "Word": "night",
    "Rel": 0.021733915476029004
   },
   {
    "Word": "kisses",
    "Rel": 0.020418598927670024
   },
   {
    "Word": "romance",
    "Rel": 0.014373917408807231
   },
   {
    "Word": "goodbye",
    "Rel": 0.014195866581632566
   },
   {
    "Word": "eye",
    "Rel": 0.012777410607186606
   },
   {
    "Word": "heart",
    "Rel": 0.01183108943764828
   },
   {
    "Word": "anymore",
    "Rel": 0.010840351319913552
   },
   {
    "Word": "good",
    "Rel": 0.010794466206679723
   }
  ]
 },
 {
  "Number": 7,
  "Words": [
   {
    "Word": "baby",
    "Rel": 0.0771334648293503
   },
   {
    "Word": "funny",
    "Rel": 0.0768710668356222
   },
   {
    "Word": "mama",
    "Rel": 0.07686399179877634
   },
   {
    "Word": "home",
    "Rel": 0.07686312523453202
   },
   {
    "Word": "money",
    "Rel": 0.0768488158476679
   },
   {
    "Word": "fields",
    "Rel": 0.07684651928587084
   },
   {
    "Word": "cradle",
    "Rel": 0.07684646406176082
   },
   {
    "Word": "cotton",
    "Rel": 0.07684609986046216
   },
   {
    "Word": "texarkana",
    "Rel": 0.07684253506199343
   },
   {
    "Word": "louisiana",
    "Rel": 0.07684157998024595
   }
  ]
 },
 {
  "Number": 8,
  "Words": [
   {
    "Word": "none",
    "Rel": 0.9971386383790154
   },
   {
    "Word": "fine",
    "Rel": 0.000020616883285343715
   },
   {
    "Word": "name",
    "Rel": 0.000018078027645455222
   },
   {
    "Word": "baby",
    "Rel": 0.000016993815364847307
   },
   {
    "Word": "goodbye",
    "Rel": 0.000016766543490840787
   },
   {
    "Word": "girl",
    "Rel": 0.00001612301203828179
   },
   {
    "Word": "love",
    "Rel": 0.000015934792615726295
   },
   {
    "Word": "rhythm",
    "Rel": 0.000014501606653309653
   },
   {
    "Word": "girls",
    "Rel": 0.000014393251424208943
   },
   {
    "Word": "chain",
    "Rel": 0.000013666082060280032
   }
  ]
 },
 {
  "Number": 9,
  "Words": [
   {
    "Word": "lovers",
    "Rel": 0.052620971368333574
   },
   {
    "Word": "flo",
    "Rel": 0.0526157660819604
   },
   {
    "Word": "fade",
    "Rel": 0.052609848253646924
   },
   {
    "Word": "stompin",
    "Rel": 0.05260873753767704
   },
   {
    "Word": "oor",
    "Rel": 0.0526078823504509
   },
   {
    "Word": "movin",
    "Rel": 0.05260769884853344
   },
   {
    "Word": "jumpin",
    "Rel": 0.052607581045550356
   },
   {
    "Word": "shade",
    "Rel": 0.052606560180546776
   },
   {
    "Word": "friend",
    "Rel": 0.05260615025898905
   },
   {
    "Word": "eat",
    "Rel": 0.05260603929883655
   }
  ]
 },
 {
  "Number": 10,
  "Words": [
   {
    "Word": "toy",
    "Rel": 0.06251496213084476
   },
   {
    "Word": "joy",
    "Rel": 0.06251248686391671
   },
   {
    "Word": "love",
    "Rel": 0.06243000138020727
   },
   {
    "Word": "line",
    "Rel": 0.0313176312692795
   },
   {
    "Word": "girls",
    "Rel": 0.031282056348270124
   },
   {
    "Word": "kind",
    "Rel": 0.03127274494112644
   },
   {
    "Word": "goodbye",
    "Rel": 0.031267051311849446
   },
   {
    "Word": "book",
    "Rel": 0.03126016414542717
   },
   {
    "Word": "girl",
    "Rel": 0.03125928993333939
   },
   {
    "Word": "others",
    "Rel": 0.031258267981871056
   }
  ]
 },
 {
  "Number": 11,
  "Words": [
   {
    "Word": "girl",
    "Rel": 0.26524967361123813
   },
   {
    "Word": "love",
    "Rel": 0.02603552648989548
   },
   {
    "Word": "kisses",
    "Rel": 0.025381493993908988
   },
   {
    "Word": "anymore",
    "Rel": 0.02173089322115642
   },
   {
    "Word": "romance",
    "Rel": 0.018245049722086324
   },
   {
    "Word": "goodbye",
    "Rel": 0.01648809012418126
   },
   {
    "Word": "eye",
    "Rel": 0.016339312739421363
   },
   {
    "Word": "night",
    "Rel": 0.010906282657903105
   },
   {
    "Word": "kiss",
    "Rel": 0.009831445026184663
   },
   {
    "Word": "good",
    "Rel": 0.007774714816926345
   }
  ]
 },
 {
  "Number": 12,
  "Words": [
   {
    "Word": "night",
    "Rel": 0.08360099893742494
   },
   {
    "Word": "heart",
    "Rel": 0.08353319993847891
   },
   {
    "Word": "man",
    "Rel": 0.08337333530844487
   },
   {
    "Word": "free",
    "Rel": 0.08327198763030454
   },
   {
    "Word": "tight",
    "Rel": 0.08323542118177854
   },
   {
    "Word": "minute",
    "Rel": 0.0832318833491413
   },
   {
    "Word": "hour",
    "Rel": 0.08318039169915194
   },
   {
    "Word": "pillow",
    "Rel": 0.08317856964848586
   },
   {
    "Word": "tears",
    "Rel": 0.08317831133352203
   },
   {
    "Word": "empty",
    "Rel": 0.08317827471955799
   }
  ]
 },
 {
  "Number": 13,
  "Words": [
   {
    "Word": "letter",
    "Rel": 0.030852194218036335
   },
   {
    "Word": "fine",
    "Rel": 0.030848581262861288
   },
   {
    "Word": "baby",
    "Rel": 0.030825740188727725
   },
   {
    "Word": "twist",
    "Rel": 0.03080537630716388
   },
   {
    "Word": "goodbye",
    "Rel": 0.030773007435134826
   },
   {
    "Word": "time",
    "Rel": 0.030772849256891718
   },
   {
    "Word": "kiss",
    "Rel": 0.030772266487081788
   },
   {
    "Word": "honey",
    "Rel": 0.01542863430724277
   },
   {
    "Word": "latest",
    "Rel": 0.015427394723089039
   },
   {
    "Word": "postman",
    "Rel": 0.015427253801950152
   }
  ]
 },
 {
  "Number": 14,
  "Words": [
   {
    "Word": "girl",
    "Rel": 0.17802467156512095
   },
   {
    "Word": "night",
    "Rel": 0.02729338984214757
   },
   {
    "Word": "romance",
    "Rel": 0.017839794812448902
   },
   {
    "Word": "love",
    "Rel": 0.016448815863885087
   },
   {
    "Word": "heart",
    "Rel": 0.015912146246303268
   },
   {
    "Word": "eye",
    "Rel": 0.01581452753540198
   },
   {
    "Word": "goodbye",
    "Rel": 0.014897238384761598
   },
   {
    "Word": "girls",
    "Rel": 0.013436649287848079
   },
   {
    "Word": "kisses",
    "Rel": 0.012198706281026912
   },
   {
    "Word": "anymore",
    "Rel": 0.011982739535494913
   }
  ]
 },
 {
  "Number": 15,
  "Words": [
   {
    "Word": "girl",
    "Rel": 0.1381868399238943
   },
   {
    "Word": "love",
    "Rel": 0.014968832584140208
   },
   {
    "Word": "eye",
    "Rel": 0.01449405170314762
   },
   {
    "Word": "goodbye",
    "Rel": 0.014288316822650294
   },
   {
    "Word": "anymore",
    "Rel": 0.014153988254363392
   },
   {
    "Word": "kisses",
    "Rel": 0.013277951613015518
   },
   {
    "Word": "night",
    "Rel": 0.012258842970092623
   },
   {
    "Word": "romance",
    "Rel": 0.011920726251479448
   },
   {
    "Word": "girls",
    "Rel": 0.01133316746142401
   },
   {
    "Word": "heart",
    "Rel": 0.010630916570382783
   }
  ]
 },
 {
  "Number": 16,
  "Words": [
   {
    "Word": "love",
    "Rel": 0.08352432398109272
   },
   {
    "Word": "dreams",
    "Rel": 0.08341192877566107
   },
   {
    "Word": "stranger",
    "Rel": 0.08328077730644642
   },
   {
    "Word": "ship",
    "Rel": 0.08325523950206073
   },
   {
    "Word": "return",
    "Rel": 0.08324749518407192
   },
   {
    "Word": "wailing",
    "Rel": 0.08324610438150538
   },
   {
    "Word": "dreamsand",
    "Rel": 0.08324601918297113
   },
   {
    "Word": "sighing",
    "Rel": 0.0832448560930774
   },
   {
    "Word": "tide",
    "Rel": 0.0832411132713867
   },
   {
    "Word": "waves",
    "Rel": 0.08323823150395396
   }
  ]
 },
 {
  "Number": 17,
  "Words": [
   {
    "Word": "everybody",
    "Rel": 0.040020540574665246
   },
   {
    "Word": "street",
    "Rel": 0.04000006219402043
   },
   {
    "Word": "joe",
    "Rel": 0.03999496310533407
   },
   {
    "Word": "red",
    "Rel": 0.03999204208747046
   },
   {
    "Word": "twist",
    "Rel": 0.03999188123123832
   },
   {
    "Word": "fish",
    "Rel": 0.039989755253708646
   },
   {
    "Word": "mary",
    "Rel": 0.03998659159357803
   },
   {
    "Word": "party",
    "Rel": 0.03998578082220368
   },
   {
    "Word": "clark",
    "Rel": 0.03998545653271788
   },
   {
    "Word": "scene",
    "Rel": 0.03998542692917472
   }
  ]
 },
 {
  "Number": 18,
  "Words": [
   {
    "Word": "girl",
    "Rel": 0.10132538444779043
   },
   {
    "Word": "love",
    "Rel": 0.10046569698555324
   },
   {
    "Word": "heart",
    "Rel": 0.10029853763886909
   },
   {
    "Word": "world",
    "Rel": 0.09999557894170738
   },
   {
    "Word": "boy",
    "Rel": 0.09955616597817465
   },
   {
    "Word": "shore",
    "Rel": 0.09952965785750828
   },
   {
    "Word": "first",
    "Rel": 0.09949141592461355
   },
   {
    "Word": "foreign",
    "Rel": 0.09948729906438097
   },
   {
    "Word": "soldier",
    "Rel": 0.09948684566639665
   },
   {
    "Word": "port",
    "Rel": 0.09948428381974808
   }
  ]
 },
 {
  "Number": 19,
  "Words": [
   {
    "Word": "time",
    "Rel": 0.1670451667527831
   },
   {
    "Word": "tears",
    "Rel": 0.16640442092800534
   },
   {
    "Word": "pain",
    "Rel": 0.16637349770452114
   },
   {
    "Word": "longer",
    "Rel": 0.1662152708301419
   },
   {
    "Word": "part",
    "Rel": 0.16620739328883744
   },
   {
    "Word": "break",
    "Rel": 0.1662039384756893
   },
   {
    "Word": "dreams",
    "Rel": 0.000013563253919380902
   },
   {
    "Word": "none",
    "Rel": 0.000013254631404746708
   },
   {
    "Word": "twist",
    "Rel": 0.000011886889616274873
   },
   {
    "Word": "lady",
    "Rel": 0.000010616619170941458
   }
  ]
 },
 {
  "Number": 20,
  "Words": [
   {
    "Word": "girl",
    "Rel": 0.038102964982200754
   },
   {
    "Word": "cincinatti",
    "Rel": 0.0192531301320736
   },
   {
    "Word": "asia",
    "Rel": 0.01925312794841552
   },
   {
    "Word": "ready",
    "Rel": 0.019253112897461847
   },
   {
    "Word": "chicago",
    "Rel": 0.019252754251306042
   },
   {
    "Word": "st",
    "Rel": 0.019252660436436947
   },
   {
    "Word": "wailin",
    "Rel": 0.019252601973632318
   },
   {
    "Word": "kansas",
    "Rel": 0.019252590693385033
   },
   {
    "Word": "detroit",
    "Rel": 0.019252564292751274
   },
   {
    "Word": "baltimore",
    "Rel": 0.019252558261248897
   }
  ]
 },
 {
  "Number": 21,
  "Words": [
   {
    "Word": "girl",
    "Rel": 0.09709014051737312
   },
   {
    "Word": "kisses",
    "Rel": 0.030692899369559726
   },
   {
    "Word": "anymore",
    "Rel": 0.02676306615918904
   },
   {
    "Word": "goodbye",
    "Rel": 0.022142170905058985
   },
   {
    "Word": "night",
    "Rel": 0.02121547787787393
   },
   {
    "Word": "eye",
    "Rel": 0.020985217985671753
   },
   {
    "Word": "love",
    "Rel": 0.020506735648148165
   },
   {
    "Word": "romance",
    "Rel": 0.016623052587792748
   },
   {
    "Word": "kiss",
    "Rel": 0.01530854597198505
   },
   {
    "Word": "good",
    "Rel": 0.01304047873183421
   }
  ]
 },
 {
  "Number": 22,
  "Words": [
   {
    "Word": "kisses",
    "Rel": 0.04548402534575342
   },
   {
    "Word": "love",
    "Rel": 0.04537024283783633
   },
   {
    "Word": "heart",
    "Rel": 0.045324828236410625
   },
   {
    "Word": "knows",
    "Rel": 0.04529035334690403
   },
   {
    "Word": "bill",
    "Rel": 0.045273151109608764
   },
   {
    "Word": "huggin",
    "Rel": 0.045272244127441096
   },
   {
    "Word": "darlin",
    "Rel": 0.04527214963158415
   },
   {
    "Word": "phone",
    "Rel": 0.04527172702617573
   },
   {
    "Word": "lovey",
    "Rel": 0.04527165184775248
   },
   {
    "Word": "joey",
    "Rel": 0.04527134392526269
   }
  ]
 },
 {
  "Number": 23,
  "Words": [
   {
    "Word": "girl",
    "Rel": 0.09484237008802271
   },
   {
    "Word": "night",
    "Rel": 0.035521395767193806
   },
   {
    "Word": "romance",
    "Rel": 0.027827053409827978
   },
   {
    "Word": "love",
    "Rel": 0.02220224748484426
   },
   {
    "Word": "anymore",
    "Rel": 0.018276582744422475
   },
   {
    "Word": "goodbye",
    "Rel": 0.013905408971585872
   },
   {
    "Word": "fine",
    "Rel": 0.01381721380002697
   },
   {
    "Word": "kisses",
    "Rel": 0.012349748231644132
   },
   {
    "Word": "eye",
    "Rel": 0.011800518536238726
   },
   {
    "Word": "baby",
    "Rel": 0.010444186304140167
   }
  ]
 },
 {
  "Number": 24,
  "Words": [
   {
    "Word": "girl",
    "Rel": 0.10171256725518163
   },
   {
    "Word": "world",
    "Rel": 0.10026272172213288
   },
   {
    "Word": "dom",
    "Rel": 0.09965718061214388
   },
   {
    "Word": "duchess",
    "Rel": 0.09965412919006075
   },
   {
    "Word": "fades",
    "Rel": 0.09965148007089561
   },
   {
    "Word": "earl",
    "Rel": 0.09965042131858007
   },
   {
    "Word": "duke",
    "Rel": 0.09964958292883479
   },
   {
    "Word": "ho",
    "Rel": 0.09964816985899086
   },
   {
    "Word": "share",
    "Rel": 0.09964533302164247
   },
   {
    "Word": "paradise",
    "Rel": 0.09964198023346041
   }
  ]
 },
 {
  "Number": 25,
  "Words": [
   {
    "Word": "girl",
    "Rel": 0.12048388371049125
   },
   {
    "Word": "love",
    "Rel": 0.030462517918574128
   },
   {
    "Word": "kisses",
    "Rel": 0.02289206636710117
   },
   {
    "Word": "romance",
    "Rel": 0.01989656416235233
   },
   {
    "Word": "eye",
    "Rel": 0.015554901932813829
   },
   {
    "Word": "night",
    "Rel": 0.013541117065021542
   },
   {
    "Word": "anymore",
    "Rel": 0.013527999717989996
   },
   {
    "Word": "goodbye",
    "Rel": 0.009952745489220021
   },
   {
    "Word": "girls",
    "Rel": 0.009549852979506288
   },
   {
    "Word": "good",
    "Rel": 0.00937264633845394
   }
  ]
 },
 {
  "Number": 26,
  "Words": [
   {
    "Word": "heart",
    "Rel": 0.07158582197951277
   },
   {
    "Word": "dreams",
    "Rel": 0.07148459990419903
   },
   {
    "Word": "time",
    "Rel": 0.07145914328702657
   },
   {
    "Word": "happy",
    "Rel": 0.07140550309441727
   },
   {
    "Word": "lonesome",
    "Rel": 0.071368333261927
   },
   {
    "Word": "broken",
    "Rel": 0.07134673986896946
   },
   {
    "Word": "memory",
    "Rel": 0.07134553795037757
   },
   {
    "Word": "times",
    "Rel": 0.07134519203417782
   },
   {
    "Word": "useless",
    "Rel": 0.07134355143469366
   },
   {
    "Word": "hours",
    "Rel": 0.0713432142104074
   }
  ]
 },
 {
  "Number": 27,
  "Words": [
   {
    "Word": "girl",
    "Rel": 0.032311186944931916
   },
   {
    "Word": "kiss",
    "Rel": 0.032298239025672616
   },
   {
    "Word": "girls",
    "Rel": 0.03228216153832032
   },
   {
    "Word": "night",
    "Rel": 0.03225404168313573
   },
   {
    "Word": "love",
    "Rel": 0.032252058504457566
   },
   {
    "Word": "hands",
    "Rel": 0.03224716867163539
   },
   {
    "Word": "ride",
    "Rel": 0.032246013496660904
   },
   {
    "Word": "hot",
    "Rel": 0.032245579373106854
   },
   {
    "Word": "dog",
    "Rel": 0.032245464489541374
   },
   {
    "Word": "ferris",
    "Rel": 0.032245340432994034
   }
  ]
 },
 {
  "Number": 28,
  "Words": [
   {
    "Word": "fine",
    "Rel": 0.05562544998810086
   },
   {
    "Word": "baby",
    "Rel": 0.05556524294297455
   },
   {
    "Word": "motion",
    "Rel": 0.02780676439652905
   },
   {
    "Word": "good",
    "Rel": 0.027806762874448943
   },
   {
    "Word": "floor",
    "Rel": 0.027794071612838124
   },
   {
    "Word": "wow",
    "Rel": 0.02779255336249926
   },
   {
    "Word": "nice",
    "Rel": 0.02779224332812827
   },
   {
    "Word": "easier",
    "Rel": 0.02779223316756522
   },
   {
    "Word": "soul",
    "Rel": 0.027792098905903794
   },
   {
    "Word": "notion",
    "Rel": 0.02779204666230483
   }
  ]
 },
 {
  "Number": 29,
  "Words": [
   {
    "Word": "love",
    "Rel": 0.07166791848738698
   },
   {
    "Word": "girl",
    "Rel": 0.05898365468956978
   },
   {
    "Word": "romance",
    "Rel": 0.022360164446918095
   },
   {
    "Word": "night",
    "Rel": 0.018605428428693303
   },
   {
    "Word": "eye",
    "Rel": 0.01814589275811669
   },
   {
    "Word": "kisses",
    "Rel": 0.01655378879236114
   },
   {
    "Word": "anymore",
    "Rel": 0.01315337385447315
   },
   {
    "Word": "heart",
    "Rel": 0.012716695951855981
   },
   {
    "Word": "none",
    "Rel": 0.011554785384929113
   },
   {
    "Word": "fine",
    "Rel": 0.010604900653048775
   }
  ]
 },
 {
  "Number": 30,
  "Words": [
   {
    "Word": "girl",
    "Rel": 0.12252010655089414
   },
   {
    "Word": "heart",
    "Rel": 0.022006145113590492
   },
   {
    "Word": "love",
    "Rel": 0.01924995678639237
   },
   {
    "Word": "good",
    "Rel": 0.01558617049271913
   },
   {
    "Word": "romance",
    "Rel": 0.015012169786058087
   },
   {
    "Word": "kisses",
    "Rel": 0.014541679825454438
   },
   {
    "Word": "eye",
    "Rel": 0.013823769113256983
   },
   {
    "Word": "goodbye",
    "Rel": 0.012594052269046953
   },
   {
    "Word": "night",
    "Rel": 0.012287210035320763
   },
   {
    "Word": "anymore",
    "Rel": 0.01090723339779436
   }
  ]
 },
 {
  "Number": 31,
  "Words": [
   {
    "Word": "girl",
    "Rel": 0.050074434596151116
   },
   {
    "Word": "name",
    "Rel": 0.05004275734657007
   },
   {
    "Word": "love",
    "Rel": 0.05000309442589057
   },
   {
    "Word": "dear",
    "Rel": 0.04998571408264155
   },
   {
    "Word": "sweet",
    "Rel": 0.049984775630416464
   },
   {
    "Word": "fine",
    "Rel": 0.025008521995877657
   },
   {
    "Word": "letter",
    "Rel": 0.024997113241405102
   },
   {
    "Word": "nosey",
    "Rel": 0.024995207755730477
   },
   {
    "Word": "long",
    "Rel": 0.024994987866205347
   },
   {
    "Word": "whispers",
    "Rel": 0.024994759056501215
   }
  ]
 },
 {
  "Number": 32,
  "Words": [
   {
    "Word": "heart",
    "Rel": 0.08365470721001536
   },
   {
    "Word": "time",
    "Rel": 0.0834651389496013
   },
   {
    "Word": "heaven",
    "Rel": 0.08329601222430928
   },
   {
    "Word": "date",
    "Rel": 0.08322721852678483
   },
   {
    "Word": "dream",
    "Rel": 0.08321336927485164
   },
   {
    "Word": "johnny",
    "Rel": 0.08321292919229686
   },
   {
    "Word": "angel",
    "Rel": 0.08321263771635853
   },
   {
    "Word": "tingle",
    "Rel": 0.08321260275554765
   },
   {
    "Word": "sit",
    "Rel": 0.0832122536215519
   },
   {
    "Word": "concentrate",
    "Rel": 0.08321203992947347
   }
  ]
 },
 {
  "Number": 33,
  "Words": [
   {
    "Word": "girls",
    "Rel": 0.02705361682445604
   },
   {
    "Word": "name",
    "Rel": 0.027042346154481818
   },
   {
    "Word": "pretty",
    "Rel": 0.02704111569851308
   },
   {
    "Word": "care",
    "Rel": 0.02703654945172359
   },
   {
    "Word": "girl",
    "Rel": 0.027034844999966934
   },
   {
    "Word": "guy",
    "Rel": 0.02703407125387842
   },
   {
    "Word": "town",
    "Rel": 0.02703346313936835
   },
   {
    "Word": "drive",
    "Rel": 0.027031072419561392
   },
   {
    "Word": "rosie",
    "Rel": 0.02703101623173539
   },
   {
    "Word": "shirt",
    "Rel": 0.02703097140920841
   }
  ]
 },
 {
  "Number": 34,
  "Words": [
   {
    "Word": "girl",
    "Rel": 0.20079367224156341
   },
   {
    "Word": "love",
    "Rel": 0.04140822046059893
   },
   {
    "Word": "anymore",
    "Rel": 0.02018160740913014
   },
   {
    "Word": "romance",
    "Rel": 0.016064075991039733
   },
   {
    "Word": "kiss",
    "Rel": 0.015737974361819493
   },
   {
    "Word": "heart",
    "Rel": 0.015722365652382567
   },
   {
    "Word": "goodbye",
    "Rel": 0.01559845321151143
   },
   {
    "Word": "none",
    "Rel": 0.013178905721415925
   },
   {
    "Word": "good",
    "Rel": 0.01310114649682053
   },
   {
    "Word": "eye",
    "Rel": 0.012743154108165365
   }
  ]
 },
 {
  "Number": 35,
  "Words": [
   {
    "Word": "romance",
    "Rel": 0.0628583415225935
   },
   {
    "Word": "love",
    "Rel": 0.0626382183054582
   },
   {
    "Word": "night",
    "Rel": 0.06259736125489519
   },
   {
    "Word": "time",
    "Rel": 0.062492711123414736
   },
   {
    "Word": "twist",
    "Rel": 0.06245576684907206
   },
   {
    "Word": "dawn",
    "Rel": 0.06242407478503103
   },
   {
    "Word": "feet",
    "Rel": 0.062409778913944
   },
   {
    "Word": "lady",
    "Rel": 0.06240617196773667
   },
   {
    "Word": "dear",
    "Rel": 0.06239566109058728
   },
   {
    "Word": "sweet",
    "Rel": 0.06239350562940145
   }
  ]
 },
 {
  "Number": 36,
  "Words": [
   {
    "Word": "night",
    "Rel": 0.03450543855983092
   },
   {
    "Word": "everybody",
    "Rel": 0.034498528775367715
   },
   {
    "Word": "man",
    "Rel": 0.03448444157348299
   },
   {
    "Word": "york",
    "Rel": 0.034478344229917614
   },
   {
    "Word": "twistin",
    "Rel": 0.034478130608986614
   },
   {
    "Word": "nothin",
    "Rel": 0.03447484312250247
   },
   {
    "Word": "time",
    "Rel": 0.03447246556198266
   },
   {
    "Word": "fun",
    "Rel": 0.034470521172391265
   },
   {
    "Word": "great",
    "Rel": 0.034469594713613216
   },
   {
    "Word": "feelin",
    "Rel": 0.03446906404653769
   }
  ]
 },
 {
  "Number": 37,
  "Words": [
   {
    "Word": "girl",
    "Rel": 0.16572025696535378
   },
   {
    "Word": "love",
    "Rel": 0.0233020335034355
   },
   {
    "Word": "kisses",
    "Rel": 0.018741079238764877
   },
   {
    "Word": "fine",
    "Rel": 0.017949868566214278
   },
   {
    "Word": "none",
    "Rel": 0.017464411971968383
   },
   {
    "Word": "night",
    "Rel": 0.01685919014760064
   },
   {
    "Word": "romance",
    "Rel": 0.01474168652964074
   },
   {
    "Word": "eye",
    "Rel": 0.011327132313111075
   },
   {
    "Word": "heart",
    "Rel": 0.011297910180763104
   },
   {
    "Word": "kiss",
    "Rel": 0.011272158521510083
   }
  ]
 },
 {
  "Number": 38,
  "Words": [
   {
    "Word": "girl",
    "Rel": 0.05312398787209035
   },
   {
    "Word": "romance",
    "Rel": 0.05298065431893385
   },
   {
    "Word": "love",
    "Rel": 0.05269414496896487
   },
   {
    "Word": "good",
    "Rel": 0.052669561214291505
   },
   {
    "Word": "twist",
    "Rel": 0.05257833405521353
   },
   {
    "Word": "chance",
    "Rel": 0.052548741611490236
   },
   {
    "Word": "watusi",
    "Rel": 0.05254309593061808
   },
   {
    "Word": "dance",
    "Rel": 0.052540467473177935
   },
   {
    "Word": "potatoes",
    "Rel": 0.05253989682274995
   },
   {
    "Word": "wavin",
    "Rel": 0.05253696706772757
   }
  ]
 },
 {
  "Number": 39,
  "Words": [
   {
    "Word": "knife",
    "Rel": 0.03847201237511741
   },
   {
    "Word": "gun",
    "Rel": 0.038471396276224
   },
   {
    "Word": "love",
    "Rel": 0.038420947633308354
   },
   {
    "Word": "honey",
    "Rel": 0.01924420987110237
   },
   {
    "Word": "clowers",
    "Rel": 0.019236344163796337
   },
   {
    "Word": "wife",
    "Rel": 0.019236319056583205
   },
   {
    "Word": "bears",
    "Rel": 0.019236257035009297
   },
   {
    "Word": "lips",
    "Rel": 0.019236198021870116
   },
   {
    "Word": "clifton",
    "Rel": 0.019236093695845183
   },
   {
    "Word": "handy",
    "Rel": 0.019236038562513384
   }
  ]
 }
]