[
 {
  "Number": 0,
  "Words": [
   {
    "Word": "nobody",
    "Rel": 0.016964991956296006
   },
   {
    "Word": "baby",
    "Rel": 0.016963882466650898
   },
   {
    "Word": "plan",
    "Rel": 0.016954370631083435
   },
   {
    "Word": "world",
    "Rel": 0.016952745875208362
   },
   {
    "Word": "club",
    "Rel": 0.016952452238492646
   },
   {
    "Word": "body",
    "Rel": 0.01695000142658125
   },
   {
    "Word": "real",
    "Rel": 0.01694953082494044
   },
   {
    "Word": "fantasy",
    "Rel": 0.01694948373883926
   },
   {
    "Word": "slow",
    "Rel": 0.01694948195857187
   },
   {
    "Word": "girl",
    "Rel": 0.01694947568380223
   }
  ]
 },
 {
  "Number": 1,
  "Words": [
   {
    "Word": "time",
    "Rel": 0.032083421152706106
   },
   {
    "Word": "good",
    "Rel": 0.018449211844476784
   },
   {
    "Word": "girl",
    "Rel": 0.015148713161838388
   },
   {
    "Word": "better",
    "Rel": 0.012140507226340856
   },
   {
    "Word": "man",
    "Rel": 0.010788349277588698
   },
   {
    "Word": "baby",
    "Rel": 0.008956016019812113
   },
   {
    "Word": "heart",
    "Rel": 0.00848562262508369
   },
   {
    "Word": "hard",
    "Rel": 0.007855151441510317
   },
   {
    "Word": "love",
    "Rel": 0.006875513355131809
   },
   {
    "Word": "words",
    "Rel": 0.0066999787267798755
   }
  ]
 },
 {
  "Number": 2,
  "Words": [
   {
    "Word": "first",
    "Rel": 0.035741833226792585
   },
   {
    "Word": "voice",
    "Rel": 0.03574066212622891
   },
   {
    "Word": "smile",
    "Rel": 0.03573542833539779
   },
   {
    "Word": "love",
    "Rel": 0.03573411179857448
   },
   {
    "Word": "tears",
    "Rel": 0.03572916310545895
   },
   {
    "Word": "sense",
    "Rel": 0.035721981500532456
   },
   {
    "Word": "round",
    "Rel": 0.03571698022721483
   },
   {
    "Word": "child",
    "Rel": 0.03571376590978883
   },
   {
    "Word": "reason",
    "Rel": 0.03571376525952524
   },
   {
    "Word": "song",
    "Rel": 0.03571346632510336
   }
  ]
 },
 {
  "Number": 3,
  "Words": [
   {
    "Word": "beautiful",
    "Rel": 0.03856212425188919
   },
   {
    "Word": "better",
    "Rel": 0.038534727465842945
   },
   {
    "Word": "people",
    "Rel": 0.03851525024268965
   },
   {
    "Word": "words",
    "Rel": 0.0385006856494666
   },
   {
    "Word": "sense",
    "Rel": 0.03847019815005531
   },
   {
    "Word": "shame",
    "Rel": 0.03844779733973762
   },
   {
    "Word": "corridor",
    "Rel": 0.03844779469396341
   },
   {
    "Word": "waiter",
    "Rel": 0.0384477906118857
   },
   {
    "Word": "bridesmaid",
    "Rel": 0.03844778476711877
   },
   {
    "Word": "kinds",
    "Rel": 0.038447783408667224
   }
  ]
 },
 {
  "Number": 4,
  "Words": [
   {
    "Word": "time",
    "Rel": 0.061268879269542297
   },
   {
    "Word": "good",
    "Rel": 0.01918858555336768
   },
   {
    "Word": "girl",
    "Rel": 0.016445892401413992
   },
   {
    "Word": "baby",
    "Rel": 0.009929914627349327
   },
   {
    "Word": "real",
    "Rel": 0.009679252985190468
   },
   {
    "Word": "name",
    "Rel": 0.009444986639197482
   },
   {
    "Word": "girls",
    "Rel": 0.009314086491959646
   },
   {
    "Word": "man",
    "Rel": 0.007634136599586173
   },
   {
    "Word": "better",
    "Rel": 0.007057763870758724
   },
   {
    "Word": "heart",
    "Rel": 0.006703020842883808
   }
  ]
 },
 {
  "Number": 5,
  "Words": [
   {
    "Word": "good",
    "Rel": 0.03711479500785439
   },
   {
    "Word": "time",
    "Rel": 0.03708633993027989
   },
   {
    "Word": "heart",
    "Rel": 0.037070823859893944
   },
   {
    "Word": "voice",
    "Rel": 0.037066708419050014
   },
   {
    "Word": "words",
    "Rel": 0.03706120031173201
   },
   {
    "Word": "lives",
    "Rel": 0.03705619033660983
   },
   {
    "Word": "first",
    "Rel": 0.037055774619745574
   },
   {
    "Word": "love",
    "Rel": 0.03704501402880492
   },
   {
    "Word": "dance",
    "Rel": 0.03703770233909809
   },
   {
    "Word": "joke",
    "Rel": 0.03702681391084516
   }
  ]
 },
 {
  "Number": 6,
  "Words": [
   {
    "Word": "liver",
    "Rel": 0.02360340778079952
   },
   {
    "Word": "enormous",
    "Rel": 0.023599991530887925
   },
   {
    "Word": "hold",
    "Rel": 0.023557125461147955
   },
   {
    "Word": "tarnations",
    "Rel": 0.023372029932109614
   },
   {
    "Word": "doormant",
    "Rel": 0.023304327613683506
   },
   {
    "Word": "encore",
    "Rel": 0.023296751504974823
   },
   {
    "Word": "nails",
    "Rel": 0.023266207392165672
   },
   {
    "Word": "chest",
    "Rel": 0.022977503622311417
   },
   {
    "Word": "clean",
    "Rel": 0.02295772879573626
   },
   {
    "Word": "gold",
    "Rel": 0.022791320649221264
   }
  ]
 },
 {
  "Number": 7,
  "Words": [
   {
    "Word": "friend",
    "Rel": 0.013498587893844099
   },
   {
    "Word": "baby",
    "Rel": 0.013087822444250913
   },
   {
    "Word": "money",
    "Rel": 0.01308765073581698
   },
   {
    "Word": "white",
    "Rel": 0.013087649923550779
   },
   {
    "Word": "nice",
    "Rel": 0.013087614574350698
   },
   {
    "Word": "week",
    "Rel": 0.013087612292360473
   },
   {
    "Word": "doctor",
    "Rel": 0.01308742969573398
   },
   {
    "Word": "michael",
    "Rel": 0.013087253542273284
   },
   {
    "Word": "car",
    "Rel": 0.013087252355456247
   },
   {
    "Word": "shoulda",
    "Rel": 0.013087251509934875
   }
  ]
 },
 {
  "Number": 8,
  "Words": [
   {
    "Word": "good",
    "Rel": 0.024141843302724435
   },
   {
    "Word": "time",
    "Rel": 0.02397840867913287
   },
   {
    "Word": "man",
    "Rel": 0.012335543022808286
   },
   {
    "Word": "girl",
    "Rel": 0.012181834537035955
   },
   {
    "Word": "baby",
    "Rel": 0.010374413261799728
   },
   {
    "Word": "heart",
    "Rel": 0.008641726730300354
   },
   {
    "Word": "hard",
    "Rel": 0.008617106521734023
   },
   {
    "Word": "better",
    "Rel": 0.00821313385400474
   },
   {
    "Word": "love",
    "Rel": 0.006675999900813562
   },
   {
    "Word": "words",
    "Rel": 0.006484391383540923
   }
  ]
 },
 {
  "Number": 9,
  "Words": [
   {
    "Word": "good",
    "Rel": 0.027724439066077973
   },
   {
    "Word": "time",
    "Rel": 0.023189321820658918
   },
   {
    "Word": "heart",
    "Rel": 0.011361099893273429
   },
   {
    "Word": "girl",
    "Rel": 0.01107501447102867
   },
   {
    "Word": "baby",
    "Rel": 0.010304303083612503
   },
   {
    "Word": "man",
    "Rel": 0.00985018326101358
   },
   {
    "Word": "hard",
    "Rel": 0.009770388097392111
   },
   {
    "Word": "better",
    "Rel": 0.008944426378652654
   },
   {
    "Word": "smile",
    "Rel": 0.0063635371629176115
   },
   {
    "Word": "love",
    "Rel": 0.006238737232453349
   }
  ]
 },
 {
  "Number": 10,
  "Words": [
   {
    "Word": "words",
    "Rel": 0.03125432888583664
   },
   {
    "Word": "hard",
    "Rel": 0.031253855916625946
   },
   {
    "Word": "angel",
    "Rel": 0.01562920960388762
   },
   {
    "Word": "hot",
    "Rel": 0.015628997978495693
   },
   {
    "Word": "rest",
    "Rel": 0.01562749129675706
   },
   {
    "Word": "unspoken",
    "Rel": 0.01562746095923276
   },
   {
    "Word": "loud",
    "Rel": 0.015627232441522653
   },
   {
    "Word": "arms",
    "Rel": 0.01562712934017988
   },
   {
    "Word": "tossin",
    "Rel": 0.01562695860996585
   },
   {
    "Word": "dancer",
    "Rel": 0.01562694868623279
   }
  ]
 },
 {
  "Number": 11,
  "Words": [
   {
    "Word": "cars",
    "Rel": 0.009525077543573752
   },
   {
    "Word": "seats",
    "Rel": 0.009524871394422004
   },
   {
    "Word": "trunk",
    "Rel": 0.009524869932675577
   },
   {
    "Word": "pockets",
    "Rel": 0.009524844759699287
   },
   {
    "Word": "counting",
    "Rel": 0.00952472429083443
   },
   {
    "Word": "jest",
    "Rel": 0.009524717798618723
   },
   {
    "Word": "zone",
    "Rel": 0.009524717478251316
   },
   {
    "Word": "bar",
    "Rel": 0.009524715186658967
   },
   {
    "Word": "bucket",
    "Rel": 0.009524713706906825
   },
   {
    "Word": "choose",
    "Rel": 0.009524710147251484
   }
  ]
 },
 {
  "Number": 12,
  "Words": [
   {
    "Word": "men",
    "Rel": 0.020003303488714912
   },
   {
    "Word": "south",
    "Rel": 0.0200014553668544
   },
   {
    "Word": "face",
    "Rel": 0.02000128813733484
   },
   {
    "Word": "boss",
    "Rel": 0.0200011102074611
   },
   {
    "Word": "reppin",
    "Rel": 0.0200011069713892
   },
   {
    "Word": "crown",
    "Rel": 0.020001010270826184
   },
   {
    "Word": "thug",
    "Rel": 0.020000932850823352
   },
   {
    "Word": "loss",
    "Rel": 0.020000930297045277
   },
   {
    "Word": "wankstas",
    "Rel": 0.020000923037470086
   },
   {
    "Word": "beyoncé",
    "Rel": 0.020000921210960147
   }
  ]
 },
 {
  "Number": 13,
  "Words": [
   {
    "Word": "time",
    "Rel": 0.03634502683456972
   },
   {
    "Word": "times",
    "Rel": 0.018189656308031637
   },
   {
    "Word": "couple",
    "Rel": 0.01818663240040675
   },
   {
    "Word": "present",
    "Rel": 0.01818635029706971
   },
   {
    "Word": "front",
    "Rel": 0.018186300075087286
   },
   {
    "Word": "wheel",
    "Rel": 0.018185358380096238
   },
   {
    "Word": "goodbye",
    "Rel": 0.01818528471980993
   },
   {
    "Word": "record",
    "Rel": 0.018185238838111465
   },
   {
    "Word": "school",
    "Rel": 0.018185234499830987
   },
   {
    "Word": "hell",
    "Rel": 0.018185190827944533
   }
  ]
 },
 {
  "Number": 14,
  "Words": [
   {
    "Word": "colder",
    "Rel": 0.008391504664663678
   },
   {
    "Word": "news",
    "Rel": 0.008390161243838857
   },
   {
    "Word": "dream",
    "Rel": 0.00838750632492014
   },
   {
    "Word": "winter",
    "Rel": 0.008387057969026782
   },
   {
    "Word": "hotter",
    "Rel": 0.008386376320543728
   },
   {
    "Word": "installment",
    "Rel": 0.008386036650041187
   },
   {
    "Word": "corrupt",
    "Rel": 0.008385629907618066
   },
   {
    "Word": "maker",
    "Rel": 0.008385338009913989
   },
   {
    "Word": "summer",
    "Rel": 0.00838444109569954
   },
   {
    "Word": "rectulness",
    "Rel": 0.008384354828218131
   }
  ]
 },
 {
  "Number": 15,
  "Words": [
   {
    "Word": "time",
    "Rel": 0.019254593669524697
   },
   {
    "Word": "good",
    "Rel": 0.0186604112887027
   },
   {
    "Word": "better",
    "Rel": 0.010541261119048921
   },
   {
    "Word": "man",
    "Rel": 0.010168513019479512
   },
   {
    "Word": "girl",
    "Rel": 0.010141485450913342
   },
   {
    "Word": "heart",
    "Rel": 0.009865747739698316
   },
   {
    "Word": "hard",
    "Rel": 0.009435710787577
   },
   {
    "Word": "baby",
    "Rel": 0.00880133257237205
   },
   {
    "Word": "smile",
    "Rel": 0.006325298320473966
   },
   {
    "Word": "first",
    "Rel": 0.006135470019434114
   }
  ]
 },
 {
  "Number": 16,
  "Words": [
   {
    "Word": "time",
    "Rel": 0.0556655962120656
   },
   {
    "Word": "heart",
    "Rel": 0.05563867185256366
   },
   {
    "Word": "lives",
    "Rel": 0.05560914976269217
   },
   {
    "Word": "crazy",
    "Rel": 0.05557856742295177
   },
   {
    "Word": "soul",
    "Rel": 0.05553685047961919
   },
   {
    "Word": "emotions",
    "Rel": 0.05553479574479986
   },
   {
    "Word": "echo",
    "Rel": 0.05553478197928071
   },
   {
    "Word": "coincidence",
    "Rel": 0.055534781822151644
   },
   {
    "Word": "thinkin",
    "Rel": 0.05553477260769024
   },
   {
    "Word": "advice",
    "Rel": 0.05553476811976464
   }
  ]
 },
 {
  "Number": 17,
  "Words": [
   {
    "Word": "baby",
    "Rel": 0.025666962497881345
   },
   {
    "Word": "good",
    "Rel": 0.025666018505695717
   },
   {
    "Word": "boy",
    "Rel": 0.02565430740891775
   },
   {
    "Word": "beat",
    "Rel": 0.02564634100301614
   },
   {
    "Word": "game",
    "Rel": 0.025644704337872866
   },
   {
    "Word": "mama",
    "Rel": 0.025644413250265858
   },
   {
    "Word": "shirt",
    "Rel": 0.025642784927545327
   },
   {
    "Word": "type",
    "Rel": 0.02564264821167188
   },
   {
    "Word": "hood",
    "Rel": 0.025642635549368735
   },
   {
    "Word": "clothes",
    "Rel": 0.025642599346739944
   }
  ]
 },
 {
  "Number": 18,
  "Words": [
   {
    "Word": "everybody",
    "Rel": 0.0114981763370005
   },
   {
    "Word": "nobody",
    "Rel": 0.011498048020655635
   },
   {
    "Word": "block",
    "Rel": 0.01149548746064278
   },
   {
    "Word": "nigga",
    "Rel": 0.011495222724268884
   },
   {
    "Word": "pop",
    "Rel": 0.011495153182198181
   },
   {
    "Word": "mess",
    "Rel": 0.01149513751346815
   },
   {
    "Word": "neck",
    "Rel": 0.01149492058111044
   },
   {
    "Word": "drop",
    "Rel": 0.011494914678450008
   },
   {
    "Word": "club",
    "Rel": 0.011494887219978338
   },
   {
    "Word": "tool",
    "Rel": 0.01149488631286377
   }
  ]
 },
 {
  "Number": 19,
  "Words": [
   {
    "Word": "baby",
    "Rel": 0.015390172381034115
   },
   {
    "Word": "plan",
    "Rel": 0.015389412884502929
   },
   {
    "Word": "club",
    "Rel": 0.01538800638205349
   },
   {
    "Word": "work",
    "Rel": 0.01538728262463483
   },
   {
    "Word": "show",
    "Rel": 0.015387067543729288
   },
   {
    "Word": "ass",
    "Rel": 0.015387000091593458
   },
   {
    "Word": "boy",
    "Rel": 0.01538689775460083
   },
   {
    "Word": "good",
    "Rel": 0.015386874532440283
   },
   {
    "Word": "girl",
    "Rel": 0.015386757491930256
   },
   {
    "Word": "money",
    "Rel": 0.015386699991650918
   }
  ]
 },
 {
  "Number": 20,
  "Words": [
   {
    "Word": "time",
    "Rel": 0.03850962490974353
   },
   {
    "Word": "man",
    "Rel": 0.038498603015808666
   },
   {
    "Word": "girls",
    "Rel": 0.03848703358388111
   },
   {
    "Word": "sky",
    "Rel": 0.03848142652665102
   },
   {
    "Word": "air",
    "Rel": 0.03847014345577354
   },
   {
    "Word": "guy",
    "Rel": 0.03846894655791868
   },
   {
    "Word": "love",
    "Rel": 0.03846827250960242
   },
   {
    "Word": "late",
    "Rel": 0.03846771038241966
   },
   {
    "Word": "reason",
    "Rel": 0.03845504585877582
   },
   {
    "Word": "lie",
    "Rel": 0.03845431110717867
   }
  ]
 },
 {
  "Number": 21,
  "Words": [
   {
    "Word": "hard",
    "Rel": 0.058938769063747454
   },
   {
    "Word": "heart",
    "Rel": 0.058931203843063905
   },
   {
    "Word": "tears",
    "Rel": 0.058889898098591326
   },
   {
    "Word": "words",
    "Rel": 0.058876021931838336
   },
   {
    "Word": "friends",
    "Rel": 0.05882923219433663
   },
   {
    "Word": "smile",
    "Rel": 0.0588290688782787
   },
   {
    "Word": "love",
    "Rel": 0.05881884935645819
   },
   {
    "Word": "okay",
    "Rel": 0.058817437777505
   },
   {
    "Word": "pain",
    "Rel": 0.05881264851438151
   },
   {
    "Word": "rain",
    "Rel": 0.05880576753965125
   }
  ]
 },
 {
  "Number": 22,
  "Words": [
   {
    "Word": "everybody",
    "Rel": 0.009092456255166427
   },
   {
    "Word": "nobody",
    "Rel": 0.009092382415898324
   },
   {
    "Word": "bricks",
    "Rel": 0.00909145253633888
   },
   {
    "Word": "chain",
    "Rel": 0.009091410096417344
   },
   {
    "Word": "store",
    "Rel": 0.009091356340046835
   },
   {
    "Word": "wall",
    "Rel": 0.009091349034741285
   },
   {
    "Word": "lights",
    "Rel": 0.009091345482387667
   },
   {
    "Word": "hit",
    "Rel": 0.00909133534547848
   },
   {
    "Word": "light",
    "Rel": 0.009091327359793025
   },
   {
    "Word": "foreman",
    "Rel": 0.009091322778855482
   }
  ]
 },
 {
  "Number": 23,
  "Words": [
   {
    "Word": "eye",
    "Rel": 0.023525848215658268
   },
   {
    "Word": "clear",
    "Rel": 0.023521892429854478
   },
   {
    "Word": "boy",
    "Rel": 0.023521177423831793
   },
   {
    "Word": "time",
    "Rel": 0.02350774844620338
   },
   {
    "Word": "man",
    "Rel": 0.021329773617226384
   },
   {
    "Word": "end",
    "Rel": 0.01176240901224559
   },
   {
    "Word": "swell",
    "Rel": 0.011761250235632457
   },
   {
    "Word": "work",
    "Rel": 0.011761120679294752
   },
   {
    "Word": "share",
    "Rel": 0.011761011263163468
   },
   {
    "Word": "deh",
    "Rel": 0.011760950129330053
   }
  ]
 },
 {
  "Number": 24,
  "Words": [
   {
    "Word": "everybody",
    "Rel": 0.015396736717664741
   },
   {
    "Word": "nobody",
    "Rel": 0.015396534269652477
   },
   {
    "Word": "baby",
    "Rel": 0.015393094373664672
   },
   {
    "Word": "end",
    "Rel": 0.015388257277596776
   },
   {
    "Word": "truth",
    "Rel": 0.015387953635569118
   },
   {
    "Word": "name",
    "Rel": 0.01538751293858354
   },
   {
    "Word": "world",
    "Rel": 0.015387079351492517
   },
   {
    "Word": "light",
    "Rel": 0.015386749990822693
   },
   {
    "Word": "kind",
    "Rel": 0.015386498645161442
   },
   {
    "Word": "planet",
    "Rel": 0.015386399624638001
   }
  ]
 },
 {
  "Number": 25,
  "Words": [
   {
    "Word": "better",
    "Rel": 0.045521013380566376
   },
   {
    "Word": "hard",
    "Rel": 0.04551518750799314
   },
   {
    "Word": "heart",
    "Rel": 0.0455076106781885
   },
   {
    "Word": "weakness",
    "Rel": 0.04548910206038125
   },
   {
    "Word": "sleep",
    "Rel": 0.045480368174959186
   },
   {
    "Word": "smile",
    "Rel": 0.04546726430189263
   },
   {
    "Word": "anyone",
    "Rel": 0.0454609016531592
   },
   {
    "Word": "everyone",
    "Rel": 0.04545926770525245
   },
   {
    "Word": "night",
    "Rel": 0.04545515105256159
   },
   {
    "Word": "pain",
    "Rel": 0.04545327944961356
   }
  ]
 },
 {
  "Number": 26,
  "Words": [
   {
    "Word": "girl",
    "Rel": 0.022230035000138038
   },
   {
    "Word": "boy",
    "Rel": 0.022229205915617393
   },
   {
    "Word": "real",
    "Rel": 0.02222693380967904
   },
   {
    "Word": "girls",
    "Rel": 0.022225742357150843
   },
   {
    "Word": "woah",
    "Rel": 0.022225394706112428
   },
   {
    "Word": "floor",
    "Rel": 0.02222522671018187
   },
   {
    "Word": "fly",
    "Rel": 0.022224951832681434
   },
   {
    "Word": "slow",
    "Rel": 0.022224914186772648
   },
   {
    "Word": "body",
    "Rel": 0.022224622152567496
   },
   {
    "Word": "honey",
    "Rel": 0.02222349920006548
   }
  ]
 },
 {
  "Number": 27,
  "Words": [
   {
    "Word": "baby",
    "Rel": 0.03576906353234091
   },
   {
    "Word": "people",
    "Rel": 0.0357475883861884
   },
   {
    "Word": "time",
    "Rel": 0.03574133891466075
   },
   {
    "Word": "hard",
    "Rel": 0.035738691494219946
   },
   {
    "Word": "bad",
    "Rel": 0.03573523916890574
   },
   {
    "Word": "heart",
    "Rel": 0.035734655456710306
   },
   {
    "Word": "hands",
    "Rel": 0.03573114604429572
   },
   {
    "Word": "real",
    "Rel": 0.035730323856927954
   },
   {
    "Word": "shit",
    "Rel": 0.03571511342646324
   },
   {
    "Word": "crazy",
    "Rel": 0.035712168524956525
   }
  ]
 },
 {
  "Number": 28,
  "Words": [
   {
    "Word": "pure",
    "Rel": 0.006897504205807732
   },
   {
    "Word": "missin",
    "Rel": 0.0068973749478893
   },
   {
    "Word": "clique",
    "Rel": 0.006897374069889806
   },
   {
    "Word": "shooter",
    "Rel": 0.006897370071926572
   },
   {
    "Word": "fixed",
    "Rel": 0.00689736900164352
   },
   {
    "Word": "meat",
    "Rel": 0.006897367058176325
   },
   {
    "Word": "guerillas",
    "Rel": 0.0068973635904211895
   },
   {
    "Word": "crack",
    "Rel": 0.006897363397492414
   },
   {
    "Word": "heard",
    "Rel": 0.006897363268210514
   },
   {
    "Word": "rougher",
    "Rel": 0.006897363250907904
   }
  ]
 },
 {
  "Number": 29,
  "Words": [
   {
    "Word": "time",
    "Rel": 0.02337946002368753
   },
   {
    "Word": "good",
    "Rel": 0.017717071840861194
   },
   {
    "Word": "baby",
    "Rel": 0.012360391279606376
   },
   {
    "Word": "man",
    "Rel": 0.010996156323759793
   },
   {
    "Word": "girl",
    "Rel": 0.010838138677127383
   },
   {
    "Word": "heart",
    "Rel": 0.009569747237836495
   },
   {
    "Word": "hard",
    "Rel": 0.00826728359521608
   },
   {
    "Word": "better",
    "Rel": 0.007937336579929373
   },
   {
    "Word": "love",
    "Rel": 0.0068524981449302755
   },
   {
    "Word": "words",
    "Rel": 0.006034175479944385
   }
  ]
 },
 {
  "Number": 30,
  "Words": [
   {
    "Word": "love",
    "Rel": 0.03172604599754969
   },
   {
    "Word": "time",
    "Rel": 0.03172156212281029
   },
   {
    "Word": "everybody",
    "Rel": 0.015884150083685135
   },
   {
    "Word": "club",
    "Rel": 0.015881073084542
   },
   {
    "Word": "lips",
    "Rel": 0.015880385870783737
   },
   {
    "Word": "ass",
    "Rel": 0.01588006031054416
   },
   {
    "Word": "news",
    "Rel": 0.015879431462405297
   },
   {
    "Word": "pen",
    "Rel": 0.01587908756170277
   },
   {
    "Word": "fuck",
    "Rel": 0.01587903626477193
   },
   {
    "Word": "goose",
    "Rel": 0.015878999609442723
   }
  ]
 },
 {
  "Number": 31,
  "Words": [
   {
    "Word": "girl",
    "Rel": 0.04772655905344001
   },
   {
    "Word": "better",
    "Rel": 0.047721885166043365
   },
   {
    "Word": "smile",
    "Rel": 0.04766497101743346
   },
   {
    "Word": "ready",
    "Rel": 0.047626805966290854
   },
   {
    "Word": "back",
    "Rel": 0.04762175168097352
   },
   {
    "Word": "child",
    "Rel": 0.04761945335239829
   },
   {
    "Word": "dirty",
    "Rel": 0.047616782087429664
   },
   {
    "Word": "boys",
    "Rel": 0.04761595127364361
   },
   {
    "Word": "vip",
    "Rel": 0.04760920222417951
   },
   {
    "Word": "hips",
    "Rel": 0.04760745063092912
   }
  ]
 },
 {
  "Number": 32,
  "Words": [
   {
    "Word": "arms",
    "Rel": 0.02703989709127649
   },
   {
    "Word": "open",
    "Rel": 0.013519968845271804
   },
   {
    "Word": "distance",
    "Rel": 0.013519968344769947
   },
   {
    "Word": "unplanned",
    "Rel": 0.013519968320237679
   },
   {
    "Word": "skin",
    "Rel": 0.013519967870414845
   },
   {
    "Word": "tries",
    "Rel": 0.013519967432222734
   },
   {
    "Word": "wide",
    "Rel": 0.013519967260389018
   },
   {
    "Word": "inhibitions",
    "Rel": 0.013519966832952833
   },
   {
    "Word": "undefined",
    "Rel": 0.013519962304672737
   },
   {
    "Word": "tradition",
    "Rel": 0.013519962260895182
   }
  ]
 },
 {
  "Number": 33,
  "Words": [
   {
    "Word": "good",
    "Rel": 0.11195135783857711
   },
   {
    "Word": "ready",
    "Rel": 0.11115861970063441
   },
   {
    "Word": "guys",
    "Rel": 0.11110161754725884
   },
   {
    "Word": "cool",
    "Rel": 0.11104937706964232
   },
   {
    "Word": "move",
    "Rel": 0.11097703558491485
   },
   {
    "Word": "call",
    "Rel": 0.11095454938471813
   },
   {
    "Word": "busy",
    "Rel": 0.11091726443584227
   },
   {
    "Word": "nextselection",
    "Rel": 0.11091726363477919
   },
   {
    "Word": "think",
    "Rel": 0.11091726129004967
   },
   {
    "Word": "love",
    "Rel": 3.4616586603885263e-7
   }
  ]
 },
 {
  "Number": 34,
  "Words": [
   {
    "Word": "good",
    "Rel": 0.03373830074442629
   },
   {
    "Word": "time",
    "Rel": 0.024058500978672126
   },
   {
    "Word": "girl",
    "Rel": 0.02064060340270798
   },
   {
    "Word": "better",
    "Rel": 0.014015094930558596
   },
   {
    "Word": "man",
    "Rel": 0.010631789752759016
   },
   {
    "Word": "baby",
    "Rel": 0.010550021886122125
   },
   {
    "Word": "heart",
    "Rel": 0.00863130841641369
   },
   {
    "Word": "hard",
    "Rel": 0.0074727650452684835
   },
   {
    "Word": "smile",
    "Rel": 0.007425992768562941
   },
   {
    "Word": "words",
    "Rel": 0.006164626563404808
   }
  ]
 },
 {
  "Number": 35,
  "Words": [
   {
    "Word": "time",
    "Rel": 0.04354998068609188
   },
   {
    "Word": "bad",
    "Rel": 0.04350794305384725
   },
   {
    "Word": "sky",
    "Rel": 0.04349875963276444
   },
   {
    "Word": "moment",
    "Rel": 0.04349281099013445
   },
   {
    "Word": "smile",
    "Rel": 0.04349198922640946
   },
   {
    "Word": "low",
    "Rel": 0.04346708424478988
   },
   {
    "Word": "strong",
    "Rel": 0.04346307064371649
   },
   {
    "Word": "ride",
    "Rel": 0.043454260264824976
   },
   {
    "Word": "song",
    "Rel": 0.043454170807662576
   },
   {
    "Word": "camera",
    "Rel": 0.04345378123254125
   }
  ]
 },
 {
  "Number": 36,
  "Words": [
   {
    "Word": "higher",
    "Rel": 0.010640747466764704
   },
   {
    "Word": "perfect",
    "Rel": 0.010639515394698072
   },
   {
    "Word": "chain",
    "Rel": 0.01063894751091921
   },
   {
    "Word": "full",
    "Rel": 0.010638895778441662
   },
   {
    "Word": "shot",
    "Rel": 0.010638878164561587
   },
   {
    "Word": "spot",
    "Rel": 0.010638833014490229
   },
   {
    "Word": "pistol",
    "Rel": 0.010638776630372913
   },
   {
    "Word": "feet",
    "Rel": 0.010638768640777983
   },
   {
    "Word": "hoes",
    "Rel": 0.010638672984222058
   },
   {
    "Word": "gangsters",
    "Rel": 0.010638672096928804
   }
  ]
 },
 {
  "Number": 37,
  "Words": [
   {
    "Word": "somethin",
    "Rel": 0.12983314910334484
   },
   {
    "Word": "moon",
    "Rel": 0.12311340362836032
   },
   {
    "Word": "man",
    "Rel": 0.10856372601702247
   },
   {
    "Word": "red",
    "Rel": 0.09136634369072036
   },
   {
    "Word": "bed",
    "Rel": 0.09118757522062557
   },
   {
    "Word": "stars",
    "Rel": 0.09117876352357834
   },
   {
    "Word": "livin",
    "Rel": 0.09116623968109941
   },
   {
    "Word": "lyin",
    "Rel": 0.09113404092524986
   },
   {
    "Word": "rockets",
    "Rel": 0.09113401476968133
   },
   {
    "Word": "meaning",
    "Rel": 0.09113400247758034
   }
  ]
 },
 {
  "Number": 38,
  "Words": [
   {
    "Word": "night",
    "Rel": 0.059516810483747164
   },
   {
    "Word": "wrong",
    "Rel": 0.05950958110441141
   },
   {
    "Word": "hands",
    "Rel": 0.0297736287132348
   },
   {
    "Word": "cold",
    "Rel": 0.02977357493650361
   },
   {
    "Word": "ends",
    "Rel": 0.029772553131774824
   },
   {
    "Word": "hope",
    "Rel": 0.02977253024219843
   },
   {
    "Word": "fill",
    "Rel": 0.029772512900402306
   },
   {
    "Word": "thinking",
    "Rel": 0.02977251018496027
   },
   {
    "Word": "everyone",
    "Rel": 0.029769018965090533
   },
   {
    "Word": "pain",
    "Rel": 0.029755103552510855
   }
  ]
 },
 {
  "Number": 39,
  "Words": [
   {
    "Word": "show",
    "Rel": 0.014293691734751925
   },
   {
    "Word": "test",
    "Rel": 0.014292548352239106
   },
   {
    "Word": "hand",
    "Rel": 0.014292406020108079
   },
   {
    "Word": "girls",
    "Rel": 0.014292196973936239
   },
   {
    "Word": "floor",
    "Rel": 0.014292103486392359
   },
   {
    "Word": "chest",
    "Rel": 0.014291903590427773
   },
   {
    "Word": "act",
    "Rel": 0.014291882389071992
   },
   {
    "Word": "mi",
    "Rel": 0.014291858832867774
   },
   {
    "Word": "cold",
    "Rel": 0.014291850996736905
   },
   {
    "Word": "woman",
    "Rel": 0.014291807610148964
   }
  ]
 }
]