[
 {
  "Number": 0,
  "Words": [
   {
    "Word": "time",
    "Rel": 0.08339605128557788
   },
   {
    "Word": "heart",
    "Rel": 0.08334915345867744
   },
   {
    "Word": "okay",
    "Rel": 0.04167584343018701
   },
   {
    "Word": "fool",
    "Rel": 0.0416750232938302
   },
   {
    "Word": "confused",
    "Rel": 0.041666725016924595
   },
   {
    "Word": "man",
    "Rel": 0.041663419104259566
   },
   {
    "Word": "late",
    "Rel": 0.041657718929387674
   },
   {
    "Word": "signs",
    "Rel": 0.04165756818627737
   },
   {
    "Word": "despair",
    "Rel": 0.04165712689436246
   },
   {
    "Word": "busy",
    "Rel": 0.0416569464237527
   }
  ]
 },
 {
  "Number": 1,
  "Words": [
   {
    "Word": "night",
    "Rel": 0.043519951452333554
   },
   {
    "Word": "baby",
    "Rel": 0.04351407446397624
   },
   {
    "Word": "world",
    "Rel": 0.043503114458283004
   },
   {
    "Word": "sorry",
    "Rel": 0.04349968727918543
   },
   {
    "Word": "pain",
    "Rel": 0.04348645975789694
   },
   {
    "Word": "times",
    "Rel": 0.043470063339635635
   },
   {
    "Word": "someone",
    "Rel": 0.04345661870486762
   },
   {
    "Word": "better",
    "Rel": 0.04345561887292173
   },
   {
    "Word": "cold",
    "Rel": 0.04345439644529512
   },
   {
    "Word": "empty",
    "Rel": 0.04345427064839486
   }
  ]
 },
 {
  "Number": 2,
  "Words": [
   {
    "Word": "heart",
    "Rel": 0.012884794607502111
   },
   {
    "Word": "none",
    "Rel": 0.010324434749595018
   },
   {
    "Word": "time",
    "Rel": 0.00997457613408997
   },
   {
    "Word": "pay",
    "Rel": 0.006907882904989051
   },
   {
    "Word": "chance",
    "Rel": 0.006648333633480161
   },
   {
    "Word": "mama",
    "Rel": 0.00655025519110511
   },
   {
    "Word": "real",
    "Rel": 0.006489822807962164
   },
   {
    "Word": "wrong",
    "Rel": 0.006052638158314947
   },
   {
    "Word": "girl",
    "Rel": 0.00590369666497601
   },
   {
    "Word": "baby",
    "Rel": 0.005511268960379009
   }
  ]
 },
 {
  "Number": 3,
  "Words": [
   {
    "Word": "free",
    "Rel": 0.07158379182972713
   },
   {
    "Word": "beauty",
    "Rel": 0.07140781999586764
   },
   {
    "Word": "white",
    "Rel": 0.07140019411696294
   },
   {
    "Word": "sense",
    "Rel": 0.07137469454761781
   },
   {
    "Word": "hungry",
    "Rel": 0.0713566694111939
   },
   {
    "Word": "silence",
    "Rel": 0.0713563377000682
   },
   {
    "Word": "silent",
    "Rel": 0.07135623298442612
   },
   {
    "Word": "wave",
    "Rel": 0.07135584536555717
   },
   {
    "Word": "rage",
    "Rel": 0.07135574339869157
   },
   {
    "Word": "passion",
    "Rel": 0.07135562578976473
   }
  ]
 },
 {
  "Number": 4,
  "Words": [
   {
    "Word": "stay",
    "Rel": 0.055669521829100614
   },
   {
    "Word": "free",
    "Rel": 0.05566174633563267
   },
   {
    "Word": "time",
    "Rel": 0.05561654474328593
   },
   {
    "Word": "chance",
    "Rel": 0.05559883554505911
   },
   {
    "Word": "pain",
    "Rel": 0.05554176429953789
   },
   {
    "Word": "friends",
    "Rel": 0.05552545118347492
   },
   {
    "Word": "land",
    "Rel": 0.05552252865561466
   },
   {
    "Word": "settles",
    "Rel": 0.05548332363958729
   },
   {
    "Word": "dust",
    "Rel": 0.055482433744560855
   },
   {
    "Word": "statement",
    "Rel": 0.05548236010242338
   }
  ]
 },
 {
  "Number": 5,
  "Words": [
   {
    "Word": "hell",
    "Rel": 0.009901211854282936
   },
   {
    "Word": "check",
    "Rel": 0.009901018852764752
   },
   {
    "Word": "birthday",
    "Rel": 0.009900658272222583
   },
   {
    "Word": "creek",
    "Rel": 0.009900635298398032
   },
   {
    "Word": "present",
    "Rel": 0.009900626377460366
   },
   {
    "Word": "beating",
    "Rel": 0.00990062324358905
   },
   {
    "Word": "shit",
    "Rel": 0.009900613342493333
   },
   {
    "Word": "ruler",
    "Rel": 0.009900605647574445
   },
   {
    "Word": "war",
    "Rel": 0.009900594153812009
   },
   {
    "Word": "utmost",
    "Rel": 0.009900571721500967
   }
  ]
 },
 {
  "Number": 6,
  "Words": [
   {
    "Word": "corner",
    "Rel": 0.029435851747116163
   },
   {
    "Word": "high",
    "Rel": 0.029435459298617267
   },
   {
    "Word": "star",
    "Rel": 0.02943456738706235
   },
   {
    "Word": "control",
    "Rel": 0.02943414158662254
   },
   {
    "Word": "living",
    "Rel": 0.029433960403545588
   },
   {
    "Word": "lips",
    "Rel": 0.02943269999124324
   },
   {
    "Word": "higher",
    "Rel": 0.029432452223946554
   },
   {
    "Word": "hips",
    "Rel": 0.029432317697253397
   },
   {
    "Word": "guitar",
    "Rel": 0.029432278873307537
   },
   {
    "Word": "gun",
    "Rel": 0.029432272617908067
   }
  ]
 },
 {
  "Number": 7,
  "Words": [
   {
    "Word": "night",
    "Rel": 0.03175860343510596
   },
   {
    "Word": "alright",
    "Rel": 0.031752528608989014
   },
   {
    "Word": "time",
    "Rel": 0.031730673445102546
   },
   {
    "Word": "dance",
    "Rel": 0.015884090880285737
   },
   {
    "Word": "floor",
    "Rel": 0.015878000522983094
   },
   {
    "Word": "hard",
    "Rel": 0.015877603231061955
   },
   {
    "Word": "haters",
    "Rel": 0.01587751445729582
   },
   {
    "Word": "drama",
    "Rel": 0.01587746615068672
   },
   {
    "Word": "cop",
    "Rel": 0.01587725507680931
   },
   {
    "Word": "spot",
    "Rel": 0.01587709079235269
   }
  ]
 },
 {
  "Number": 8,
  "Words": [
   {
    "Word": "heart",
    "Rel": 0.08363604587379658
   },
   {
    "Word": "love",
    "Rel": 0.0834627252436934
   },
   {
    "Word": "reach",
    "Rel": 0.08335534850266375
   },
   {
    "Word": "sky",
    "Rel": 0.0833002986784949
   },
   {
    "Word": "face",
    "Rel": 0.08325360432541284
   },
   {
    "Word": "light",
    "Rel": 0.08324446026358662
   },
   {
    "Word": "times",
    "Rel": 0.0832026899210229
   },
   {
    "Word": "ways",
    "Rel": 0.08320131490227703
   },
   {
    "Word": "dreams",
    "Rel": 0.08318293976766457
   },
   {
    "Word": "part",
    "Rel": 0.08314083874860145
   }
  ]
 },
 {
  "Number": 9,
  "Words": [
   {
    "Word": "wrong",
    "Rel": 0.06251018421365521
   },
   {
    "Word": "feelings",
    "Rel": 0.0624934176386192
   },
   {
    "Word": "chance",
    "Rel": 0.062412884501237234
   },
   {
    "Word": "real",
    "Rel": 0.03126883890641887
   },
   {
    "Word": "heart",
    "Rel": 0.031261247296380384
   },
   {
    "Word": "free",
    "Rel": 0.03126111493058608
   },
   {
    "Word": "baby",
    "Rel": 0.03125898799305555
   },
   {
    "Word": "love",
    "Rel": 0.03125744997318888
   },
   {
    "Word": "story",
    "Rel": 0.03125731343804566
   },
   {
    "Word": "deeper",
    "Rel": 0.03125300198759158
   }
  ]
 },
 {
  "Number": 10,
  "Words": [
   {
    "Word": "reason",
    "Rel": 0.02110416257963536
   },
   {
    "Word": "twenty",
    "Rel": 0.01691291283074388
   },
   {
    "Word": "fires",
    "Rel": 0.016288960887808752
   },
   {
    "Word": "beauty",
    "Rel": 0.015830577837669935
   },
   {
    "Word": "dreams",
    "Rel": 0.015780834313382067
   },
   {
    "Word": "xia",
    "Rel": 0.015493015725498927
   },
   {
    "Word": "bitter",
    "Rel": 0.01516340028786527
   },
   {
    "Word": "edge",
    "Rel": 0.01488034978580692
   },
   {
    "Word": "wildest",
    "Rel": 0.014546550022398073
   },
   {
    "Word": "cat",
    "Rel": 0.014250498034703726
   }
  ]
 },
 {
  "Number": 11,
  "Words": [
   {
    "Word": "stress",
    "Rel": 0.023253015808938408
   },
   {
    "Word": "blast",
    "Rel": 0.02325257582933207
   },
   {
    "Word": "happiness",
    "Rel": 0.023252575577706023
   },
   {
    "Word": "darkness",
    "Rel": 0.023252516354764823
   },
   {
    "Word": "years",
    "Rel": 0.023252292557948424
   },
   {
    "Word": "mama",
    "Rel": 0.023251669874771508
   },
   {
    "Word": "self",
    "Rel": 0.02325165201101304
   },
   {
    "Word": "lastin",
    "Rel": 0.02325160427117656
   },
   {
    "Word": "pray",
    "Rel": 0.023251512962918944
   },
   {
    "Word": "sexy",
    "Rel": 0.023250997011022505
   }
  ]
 },
 {
  "Number": 12,
  "Words": [
   {
    "Word": "heart",
    "Rel": 0.047728406189503345
   },
   {
    "Word": "girl",
    "Rel": 0.04767237302731317
   },
   {
    "Word": "free",
    "Rel": 0.047669863540399794
   },
   {
    "Word": "baby",
    "Rel": 0.04766427008028038
   },
   {
    "Word": "strong",
    "Rel": 0.04764179727391244
   },
   {
    "Word": "face",
    "Rel": 0.04762376389863193
   },
   {
    "Word": "soul",
    "Rel": 0.04762298296217151
   },
   {
    "Word": "queen",
    "Rel": 0.047577693273169214
   },
   {
    "Word": "anything",
    "Rel": 0.04757684560462612
   },
   {
    "Word": "trace",
    "Rel": 0.04757648926627643
   }
  ]
 },
 {
  "Number": 13,
  "Words": [
   {
    "Word": "none",
    "Rel": 0.019961346022713797
   },
   {
    "Word": "girl",
    "Rel": 0.011631430400318627
   },
   {
    "Word": "heart",
    "Rel": 0.011274945791698045
   },
   {
    "Word": "love",
    "Rel": 0.007309488632175981
   },
   {
    "Word": "night",
    "Rel": 0.006974316283966678
   },
   {
    "Word": "first",
    "Rel": 0.006904314139926233
   },
   {
    "Word": "soul",
    "Rel": 0.006236131164222767
   },
   {
    "Word": "time",
    "Rel": 0.005667480850115823
   },
   {
    "Word": "good",
    "Rel": 0.005517228315407849
   },
   {
    "Word": "arms",
    "Rel": 0.005422492289103603
   }
  ]
 },
 {
  "Number": 14,
  "Words": [
   {
    "Word": "dark",
    "Rel": 0.02381551863415704
   },
   {
    "Word": "first",
    "Rel": 0.023812970217507796
   },
   {
    "Word": "strong",
    "Rel": 0.023812223277075502
   },
   {
    "Word": "girl",
    "Rel": 0.023811249585548335
   },
   {
    "Word": "time",
    "Rel": 0.02381098875718685
   },
   {
    "Word": "single",
    "Rel": 0.023808874196156078
   },
   {
    "Word": "blonde",
    "Rel": 0.023806246631408404
   },
   {
    "Word": "tough",
    "Rel": 0.023805698044260474
   },
   {
    "Word": "men",
    "Rel": 0.023805346103840136
   },
   {
    "Word": "rough",
    "Rel": 0.023805263610233832
   }
  ]
 },
 {
  "Number": 15,
  "Words": [
   {
    "Word": "heart",
    "Rel": 0.05891585648018066
   },
   {
    "Word": "chance",
    "Rel": 0.05889378595840616
   },
   {
    "Word": "wrong",
    "Rel": 0.05886695406200619
   },
   {
    "Word": "chain",
    "Rel": 0.058821807767225794
   },
   {
    "Word": "pain",
    "Rel": 0.05881796514394303
   },
   {
    "Word": "sun",
    "Rel": 0.05880015248684792
   },
   {
    "Word": "mistake",
    "Rel": 0.05877363464736546
   },
   {
    "Word": "ball",
    "Rel": 0.0587548778813616
   },
   {
    "Word": "shadow",
    "Rel": 0.05875455281216881
   },
   {
    "Word": "steps",
    "Rel": 0.058754206924230355
   }
  ]
 },
 {
  "Number": 16,
  "Words": [
   {
    "Word": "none",
    "Rel": 0.3139792539433844
   },
   {
    "Word": "time",
    "Rel": 0.007466612264940299
   },
   {
    "Word": "love",
    "Rel": 0.006532706488008197
   },
   {
    "Word": "chance",
    "Rel": 0.005584614884649726
   },
   {
    "Word": "heart",
    "Rel": 0.0047747180244122524
   },
   {
    "Word": "dance",
    "Rel": 0.0036192022185858592
   },
   {
    "Word": "free",
    "Rel": 0.0035814598702452643
   },
   {
    "Word": "girl",
    "Rel": 0.003571034354710988
   },
   {
    "Word": "pain",
    "Rel": 0.0034911508697696722
   },
   {
    "Word": "face",
    "Rel": 0.0034549492830191313
   }
  ]
 },
 {
  "Number": 17,
  "Words": [
   {
    "Word": "reason",
    "Rel": 0.015627428829923264
   },
   {
    "Word": "night",
    "Rel": 0.01562536311284413
   },
   {
    "Word": "man",
    "Rel": 0.015625274525095097
   },
   {
    "Word": "screams",
    "Rel": 0.01562497635943777
   },
   {
    "Word": "words",
    "Rel": 0.015624958855338322
   },
   {
    "Word": "floor",
    "Rel": 0.01562489134672901
   },
   {
    "Word": "camera",
    "Rel": 0.0156246727046499
   },
   {
    "Word": "sorry",
    "Rel": 0.015624452137052675
   },
   {
    "Word": "red",
    "Rel": 0.015624181746936154
   },
   {
    "Word": "back",
    "Rel": 0.015624128226899868
   }
  ]
 },
 {
  "Number": 18,
  "Words": [
   {
    "Word": "love",
    "Rel": 0.02857644570876683
   },
   {
    "Word": "world",
    "Rel": 0.028575373550642873
   },
   {
    "Word": "time",
    "Rel": 0.02857505925621797
   },
   {
    "Word": "free",
    "Rel": 0.02857368027033595
   },
   {
    "Word": "beautiful",
    "Rel": 0.028572462832489074
   },
   {
    "Word": "water",
    "Rel": 0.028571331628067964
   },
   {
    "Word": "hair",
    "Rel": 0.028568598645442936
   },
   {
    "Word": "street",
    "Rel": 0.028568197164464782
   },
   {
    "Word": "women",
    "Rel": 0.028566604671393474
   },
   {
    "Word": "open",
    "Rel": 0.02856511718547385
   }
  ]
 },
 {
  "Number": 19,
  "Words": [
   {
    "Word": "lovin",
    "Rel": 0.02174512807733221
   },
   {
    "Word": "world",
    "Rel": 0.021740797031731374
   },
   {
    "Word": "good",
    "Rel": 0.021739936685506576
   },
   {
    "Word": "wrong",
    "Rel": 0.021738777390331764
   },
   {
    "Word": "girl",
    "Rel": 0.02173811352506515
   },
   {
    "Word": "strong",
    "Rel": 0.021737942777078946
   },
   {
    "Word": "fool",
    "Rel": 0.02173649157620835
   },
   {
    "Word": "nice",
    "Rel": 0.021735280876462117
   },
   {
    "Word": "nation",
    "Rel": 0.02173407644074366
   },
   {
    "Word": "appreciation",
    "Rel": 0.021733994097264554
   }
  ]
 },
 {
  "Number": 20,
  "Words": [
   {
    "Word": "girl",
    "Rel": 0.035727105962784465
   },
   {
    "Word": "good",
    "Rel": 0.03572490441174132
   },
   {
    "Word": "world",
    "Rel": 0.03571672133429051
   },
   {
    "Word": "heart",
    "Rel": 0.03571402082562703
   },
   {
    "Word": "high",
    "Rel": 0.03571346535401067
   },
   {
    "Word": "love",
    "Rel": 0.03571217508256233
   },
   {
    "Word": "cool",
    "Rel": 0.035707996705897256
   },
   {
    "Word": "change",
    "Rel": 0.03570226185475562
   },
   {
    "Word": "sleeve",
    "Rel": 0.03570195449138761
   },
   {
    "Word": "slow",
    "Rel": 0.03570065586472003
   }
  ]
 },
 {
  "Number": 21,
  "Words": [
   {
    "Word": "none",
    "Rel": 0.02190896203154697
   },
   {
    "Word": "love",
    "Rel": 0.01999155317348068
   },
   {
    "Word": "free",
    "Rel": 0.013200458470618409
   },
   {
    "Word": "heart",
    "Rel": 0.0130262058274686
   },
   {
    "Word": "baby",
    "Rel": 0.012213746349549866
   },
   {
    "Word": "wrong",
    "Rel": 0.010695538594391306
   },
   {
    "Word": "time",
    "Rel": 0.010525972731046525
   },
   {
    "Word": "arms",
    "Rel": 0.008456636941422513
   },
   {
    "Word": "strong",
    "Rel": 0.007953953467090713
   },
   {
    "Word": "chance",
    "Rel": 0.007536241145677352
   }
  ]
 },
 {
  "Number": 22,
  "Words": [
   {
    "Word": "dance",
    "Rel": 0.033706552283467126
   },
   {
    "Word": "listen",
    "Rel": 0.024340505291449183
   },
   {
    "Word": "bitches",
    "Rel": 0.02412074301261475
   },
   {
    "Word": "city",
    "Rel": 0.023379003060876705
   },
   {
    "Word": "crist",
    "Rel": 0.023033523285042566
   },
   {
    "Word": "rock",
    "Rel": 0.02246311018757594
   },
   {
    "Word": "icy",
    "Rel": 0.021232193585012837
   },
   {
    "Word": "knock",
    "Rel": 0.021177133454218684
   },
   {
    "Word": "first",
    "Rel": 0.02116847326269724
   },
   {
    "Word": "wrist",
    "Rel": 0.021139484460960332
   }
  ]
 },
 {
  "Number": 23,
  "Words": [
   {
    "Word": "soul",
    "Rel": 0.03173339955911236
   },
   {
    "Word": "love",
    "Rel": 0.03172004293431602
   },
   {
    "Word": "time",
    "Rel": 0.031718940693620176
   },
   {
    "Word": "fall",
    "Rel": 0.015873920887578837
   },
   {
    "Word": "permanent",
    "Rel": 0.015873883114419778
   },
   {
    "Word": "bo",
    "Rel": 0.015873874375825145
   },
   {
    "Word": "fried",
    "Rel": 0.015873827003178242
   },
   {
    "Word": "mozart",
    "Rel": 0.015873826666622015
   },
   {
    "Word": "tae",
    "Rel": 0.0158737174038151
   },
   {
    "Word": "vacation",
    "Rel": 0.015873705055091326
   }
  ]
 },
 {
  "Number": 24,
  "Words": [
   {
    "Word": "black",
    "Rel": 0.04999914107667558
   },
   {
    "Word": "carpet",
    "Rel": 0.04998736673177318
   },
   {
    "Word": "sunday",
    "Rel": 0.049973801309083826
   },
   {
    "Word": "intimidation",
    "Rel": 0.049973715882465096
   },
   {
    "Word": "criminal",
    "Rel": 0.04997329242329173
   },
   {
    "Word": "annie",
    "Rel": 0.04997316751894112
   },
   {
    "Word": "bedroom",
    "Rel": 0.04997294062924013
   },
   {
    "Word": "outway",
    "Rel": 0.04997280761723485
   },
   {
    "Word": "sign",
    "Rel": 0.04997280028754472
   },
   {
    "Word": "smooth",
    "Rel": 0.04997276839353199
   }
  ]
 },
 {
  "Number": 25,
  "Words": [
   {
    "Word": "time",
    "Rel": 0.05268174535187278
   },
   {
    "Word": "girl",
    "Rel": 0.05268052206674411
   },
   {
    "Word": "face",
    "Rel": 0.0526293612815619
   },
   {
    "Word": "line",
    "Rel": 0.05262906988492988
   },
   {
    "Word": "pain",
    "Rel": 0.052624688239854285
   },
   {
    "Word": "signs",
    "Rel": 0.05261794444989674
   },
   {
    "Word": "shoe",
    "Rel": 0.05259042059723656
   },
   {
    "Word": "laugh",
    "Rel": 0.05259034875047522
   },
   {
    "Word": "divine",
    "Rel": 0.052590280036181034
   },
   {
    "Word": "boy",
    "Rel": 0.05258993512983433
   }
  ]
 },
 {
  "Number": 26,
  "Words": [
   {
    "Word": "heart",
    "Rel": 0.014774863240664281
   },
   {
    "Word": "girl",
    "Rel": 0.011294622105316421
   },
   {
    "Word": "time",
    "Rel": 0.011134064209609534
   },
   {
    "Word": "free",
    "Rel": 0.006606356961079538
   },
   {
    "Word": "real",
    "Rel": 0.006582573800356177
   },
   {
    "Word": "dance",
    "Rel": 0.006172054522669799
   },
   {
    "Word": "none",
    "Rel": 0.006056432863149127
   },
   {
    "Word": "love",
    "Rel": 0.0052906661436845385
   },
   {
    "Word": "baby",
    "Rel": 0.004960876485394028
   },
   {
    "Word": "wrong",
    "Rel": 0.004820951154023931
   }
  ]
 },
 {
  "Number": 27,
  "Words": [
   {
    "Word": "towards",
    "Rel": 0.009182493565324298
   },
   {
    "Word": "video",
    "Rel": 0.00918247700439616
   },
   {
    "Word": "gold",
    "Rel": 0.009182444887964884
   },
   {
    "Word": "attitude",
    "Rel": 0.009182439121547143
   },
   {
    "Word": "measurements",
    "Rel": 0.009182434864521945
   },
   {
    "Word": "stylish",
    "Rel": 0.009182369404400313
   },
   {
    "Word": "home",
    "Rel": 0.00918231917381798
   },
   {
    "Word": "shame",
    "Rel": 0.009182248966119314
   },
   {
    "Word": "club",
    "Rel": 0.0091822142193654
   },
   {
    "Word": "ride",
    "Rel": 0.009182120291818837
   }
  ]
 },
 {
  "Number": 28,
  "Words": [
   {
    "Word": "none",
    "Rel": 0.028638342630366197
   },
   {
    "Word": "time",
    "Rel": 0.020447608512672966
   },
   {
    "Word": "heart",
    "Rel": 0.01074639709218491
   },
   {
    "Word": "love",
    "Rel": 0.009563754778247929
   },
   {
    "Word": "arms",
    "Rel": 0.007980937739775158
   },
   {
    "Word": "strong",
    "Rel": 0.007297246120268766
   },
   {
    "Word": "sorry",
    "Rel": 0.006908527401030962
   },
   {
    "Word": "baby",
    "Rel": 0.006907762817725367
   },
   {
    "Word": "reason",
    "Rel": 0.0066257597518474725
   },
   {
    "Word": "soul",
    "Rel": 0.00602293253111177
   }
  ]
 },
 {
  "Number": 29,
  "Words": [
   {
    "Word": "arms",
    "Rel": 0.041738300853822595
   },
   {
    "Word": "bird",
    "Rel": 0.04169313246891134
   },
   {
    "Word": "seeds",
    "Rel": 0.041661922044680146
   },
   {
    "Word": "eye",
    "Rel": 0.041652879763057864
   },
   {
    "Word": "bitter",
    "Rel": 0.04164908005499828
   },
   {
    "Word": "song",
    "Rel": 0.041647466896501444
   },
   {
    "Word": "sky",
    "Rel": 0.041646670700667326
   },
   {
    "Word": "purpose",
    "Rel": 0.04164366552746872
   },
   {
    "Word": "power",
    "Rel": 0.04164354575898626
   },
   {
    "Word": "worries",
    "Rel": 0.041643504569637425
   }
  ]
 },
 {
  "Number": 30,
  "Words": [
   {
    "Word": "girl",
    "Rel": 0.04001290737283575
   },
   {
    "Word": "love",
    "Rel": 0.04000664007651691
   },
   {
    "Word": "back",
    "Rel": 0.04000202398360908
   },
   {
    "Word": "tears",
    "Rel": 0.0399972107315896
   },
   {
    "Word": "soul",
    "Rel": 0.03999573582786589
   },
   {
    "Word": "game",
    "Rel": 0.03998791793468969
   },
   {
    "Word": "path",
    "Rel": 0.039987605926048365
   },
   {
    "Word": "afraid",
    "Rel": 0.03998662038057497
   },
   {
    "Word": "special",
    "Rel": 0.03998445615170926
   },
   {
    "Word": "goal",
    "Rel": 0.03998436884823992
   }
  ]
 },
 {
  "Number": 31,
  "Words": [
   {
    "Word": "time",
    "Rel": 0.01791130983076648
   },
   {
    "Word": "girl",
    "Rel": 0.01238428118679683
   },
   {
    "Word": "pain",
    "Rel": 0.008362746219598281
   },
   {
    "Word": "love",
    "Rel": 0.007748378163590124
   },
   {
    "Word": "strong",
    "Rel": 0.007253194161123923
   },
   {
    "Word": "wrong",
    "Rel": 0.007029671253839325
   },
   {
    "Word": "arms",
    "Rel": 0.006799770252528733
   },
   {
    "Word": "heart",
    "Rel": 0.006475259989404672
   },
   {
    "Word": "none",
    "Rel": 0.006183750511578394
   },
   {
    "Word": "baby",
    "Rel": 0.005989860947811192
   }
  ]
 },
 {
  "Number": 32,
  "Words": [
   {
    "Word": "time",
    "Rel": 0.03046302078572928
   },
   {
    "Word": "none",
    "Rel": 0.0174774901259714
   },
   {
    "Word": "heart",
    "Rel": 0.009092577922999024
   },
   {
    "Word": "girl",
    "Rel": 0.008092153798322415
   },
   {
    "Word": "light",
    "Rel": 0.008000465833105801
   },
   {
    "Word": "water",
    "Rel": 0.007750677894391826
   },
   {
    "Word": "free",
    "Rel": 0.007747846043050472
   },
   {
    "Word": "chain",
    "Rel": 0.006648850239020527
   },
   {
    "Word": "world",
    "Rel": 0.0066146789541075375
   },
   {
    "Word": "yard",
    "Rel": 0.006473407878256744
   }
  ]
 },
 {
  "Number": 33,
  "Words": [
   {
    "Word": "swan",
    "Rel": 0.006580422580746517
   },
   {
    "Word": "addiction",
    "Rel": 0.006580412862100361
   },
   {
    "Word": "malignerance",
    "Rel": 0.006580386969712782
   },
   {
    "Word": "feds",
    "Rel": 0.006580372923307555
   },
   {
    "Word": "cuffed",
    "Rel": 0.006580367617956222
   },
   {
    "Word": "seconds",
    "Rel": 0.006580363206669287
   },
   {
    "Word": "chaos",
    "Rel": 0.006580335588381299
   },
   {
    "Word": "ninety",
    "Rel": 0.0065803206364900835
   },
   {
    "Word": "verbs",
    "Rel": 0.006580306273786634
   },
   {
    "Word": "genius",
    "Rel": 0.006580260966945857
   }
  ]
 },
 {
  "Number": 34,
  "Words": [
   {
    "Word": "none",
    "Rel": 0.025855885530679055
   },
   {
    "Word": "heart",
    "Rel": 0.01059960452841365
   },
   {
    "Word": "time",
    "Rel": 0.009085774746786634
   },
   {
    "Word": "girl",
    "Rel": 0.008878751837121765
   },
   {
    "Word": "baby",
    "Rel": 0.008605439223361185
   },
   {
    "Word": "wrong",
    "Rel": 0.008341635485676083
   },
   {
    "Word": "love",
    "Rel": 0.0075267337383128265
   },
   {
    "Word": "chance",
    "Rel": 0.006458794293534664
   },
   {
    "Word": "sky",
    "Rel": 0.006424792971951213
   },
   {
    "Word": "sorry",
    "Rel": 0.005188292801111142
   }
  ]
 },
 {
  "Number": 35,
  "Words": [
   {
    "Word": "none",
    "Rel": 0.9978998919542106
   },
   {
    "Word": "sky",
    "Rel": 0.00001739047733615833
   },
   {
    "Word": "control",
    "Rel": 0.000014414969737747879
   },
   {
    "Word": "strung",
    "Rel": 0.000013491407876344151
   },
   {
    "Word": "sun",
    "Rel": 0.000012413437674754122
   },
   {
    "Word": "soul",
    "Rel": 0.00001234787773970611
   },
   {
    "Word": "high",
    "Rel": 0.000011827436956458958
   },
   {
    "Word": "living",
    "Rel": 0.000010357244727585511
   },
   {
    "Word": "gun",
    "Rel": 0.00000960325031283503
   },
   {
    "Word": "cigar",
    "Rel": 0.000008776656749717332
   }
  ]
 },
 {
  "Number": 36,
  "Words": [
   {
    "Word": "none",
    "Rel": 0.021802818834423615
   },
   {
    "Word": "heart",
    "Rel": 0.012490788495594828
   },
   {
    "Word": "man",
    "Rel": 0.008351105393089421
   },
   {
    "Word": "cash",
    "Rel": 0.007645150167122867
   },
   {
    "Word": "baby",
    "Rel": 0.007439255214244061
   },
   {
    "Word": "high",
    "Rel": 0.0072109673678937515
   },
   {
    "Word": "love",
    "Rel": 0.006937787417110544
   },
   {
    "Word": "chick",
    "Rel": 0.006853712296787448
   },
   {
    "Word": "girl",
    "Rel": 0.006328223608424643
   },
   {
    "Word": "happiness",
    "Rel": 0.006144049465722566
   }
  ]
 },
 {
  "Number": 37,
  "Words": [
   {
    "Word": "love",
    "Rel": 0.027769411395450597
   },
   {
    "Word": "cash",
    "Rel": 0.01389051006428451
   },
   {
    "Word": "think",
    "Rel": 0.013890473174924799
   },
   {
    "Word": "valet",
    "Rel": 0.013890384950262468
   },
   {
    "Word": "matters",
    "Rel": 0.013890131887034923
   },
   {
    "Word": "rollie",
    "Rel": 0.0138901273905535
   },
   {
    "Word": "toast",
    "Rel": 0.013890121387466113
   },
   {
    "Word": "floss",
    "Rel": 0.01389006226540135
   },
   {
    "Word": "rich",
    "Rel": 0.01389004254024292
   },
   {
    "Word": "truck",
    "Rel": 0.013890029255156642
   }
  ]
 },
 {
  "Number": 38,
  "Words": [
   {
    "Word": "sick",
    "Rel": 0.009524866327879597
   },
   {
    "Word": "breathe",
    "Rel": 0.009524847629483954
   },
   {
    "Word": "hazard",
    "Rel": 0.009524847116494458
   },
   {
    "Word": "excitement",
    "Rel": 0.009524798690864542
   },
   {
    "Word": "weavin",
    "Rel": 0.009524766988335747
   },
   {
    "Word": "pad",
    "Rel": 0.009524765420760932
   },
   {
    "Word": "relax",
    "Rel": 0.009524758878506
   },
   {
    "Word": "drastic",
    "Rel": 0.009524735822593422
   },
   {
    "Word": "stash",
    "Rel": 0.009524726209973038
   },
   {
    "Word": "ganster",
    "Rel": 0.009524701435889292
   }
  ]
 },
 {
  "Number": 39,
  "Words": [
   {
    "Word": "someone",
    "Rel": 0.07140514112631317
   },
   {
    "Word": "heart",
    "Rel": 0.035729447067406384
   },
   {
    "Word": "lovin",
    "Rel": 0.0357286818999401
   },
   {
    "Word": "tears",
    "Rel": 0.03572084932545067
   },
   {
    "Word": "hurt",
    "Rel": 0.03571099803518966
   },
   {
    "Word": "sky",
    "Rel": 0.03570977087500143
   },
   {
    "Word": "fallin",
    "Rel": 0.035709526774560185
   },
   {
    "Word": "wild",
    "Rel": 0.035707264224191744
   },
   {
    "Word": "butterfly",
    "Rel": 0.03570711308633617
   },
   {
    "Word": "glass",
    "Rel": 0.03570700646732346
   }
  ]
 }
]