[
 {
  "Number": 0,
  "Words": [
   {
    "Word": "love",
    "Rel": 0.02013855921119614
   },
   {
    "Word": "know",
    "Rel": 0.020136127120009072
   },
   {
    "Word": "girl",
    "Rel": 0.013463485199380633
   },
   {
    "Word": "feel",
    "Rel": 0.013444040452469988
   },
   {
    "Word": "heart",
    "Rel": 0.013444006375217143
   },
   {
    "Word": "time",
    "Rel": 0.013443339028520244
   },
   {
    "Word": "break",
    "Rel": 0.010098314597371679
   },
   {
    "Word": "make",
    "Rel": 0.010093602133965271
   },
   {
    "Word": "strong",
    "Rel": 0.010046020203337747
   },
   {
    "Word": "life",
    "Rel": 0.010045453766662842
   }
  ]
 },
 {
  "Number": 1,
  "Words": [
   {
    "Word": "let",
    "Rel": 0.019654770307926752
   },
   {
    "Word": "take",
    "Rel": 0.019652676333545886
   },
   {
    "Word": "know",
    "Rel": 0.01964961077612875
   },
   {
    "Word": "time",
    "Rel": 0.019633241830930685
   },
   {
    "Word": "love",
    "Rel": 0.01962600031841059
   },
   {
    "Word": "hold",
    "Rel": 0.014741699742083095
   },
   {
    "Word": "need",
    "Rel": 0.01474015516704826
   },
   {
    "Word": "sorry",
    "Rel": 0.014738887290155083
   },
   {
    "Word": "say",
    "Rel": 0.014735849397306554
   },
   {
    "Word": "said",
    "Rel": 0.014734688855493594
   }
  ]
 },
 {
  "Number": 2,
  "Words": [
   {
    "Word": "say",
    "Rel": 0.021109923753736496
   },
   {
    "Word": "nothing",
    "Rel": 0.015829002637062075
   },
   {
    "Word": "love",
    "Rel": 0.01582826711675714
   },
   {
    "Word": "hold",
    "Rel": 0.010561557524660774
   },
   {
    "Word": "tell",
    "Rel": 0.01055580844087202
   },
   {
    "Word": "find",
    "Rel": 0.010553119923815555
   },
   {
    "Word": "get",
    "Rel": 0.010549883459268748
   },
   {
    "Word": "need",
    "Rel": 0.010549708427029921
   },
   {
    "Word": "yesterday",
    "Rel": 0.010549499817505918
   },
   {
    "Word": "song",
    "Rel": 0.010549045830496727
   }
  ]
 },
 {
  "Number": 3,
  "Words": [
   {
    "Word": "think",
    "Rel": 0.0193419718876685
   },
   {
    "Word": "go",
    "Rel": 0.019320305360127094
   },
   {
    "Word": "time",
    "Rel": 0.019311014737648576
   },
   {
    "Word": "find",
    "Rel": 0.019283405637440267
   },
   {
    "Word": "waiting",
    "Rel": 0.019243042635165863
   },
   {
    "Word": "slow",
    "Rel": 0.019220846443106312
   },
   {
    "Word": "bed",
    "Rel": 0.01920338723692622
   },
   {
    "Word": "catch",
    "Rel": 0.019202516261213547
   },
   {
    "Word": "want",
    "Rel": 0.009683809725971014
   },
   {
    "Word": "baby",
    "Rel": 0.009674808914693274
   }
  ]
 },
 {
  "Number": 4,
  "Words": [
   {
    "Word": "feel",
    "Rel": 0.018618028431173182
   },
   {
    "Word": "night",
    "Rel": 0.018613730325104574
   },
   {
    "Word": "love",
    "Rel": 0.014053466995349295
   },
   {
    "Word": "baby",
    "Rel": 0.014007286475708243
   },
   {
    "Word": "wait",
    "Rel": 0.013996925447835332
   },
   {
    "Word": "see",
    "Rel": 0.013973551552661334
   },
   {
    "Word": "know",
    "Rel": 0.013971503914029071
   },
   {
    "Word": "mind",
    "Rel": 0.01391209800534382
   },
   {
    "Word": "make",
    "Rel": 0.013903270137988753
   },
   {
    "Word": "give",
    "Rel": 0.01390326120283881
   }
  ]
 },
 {
  "Number": 5,
  "Words": [
   {
    "Word": "see",
    "Rel": 0.017212531437872262
   },
   {
    "Word": "love",
    "Rel": 0.013758896469182366
   },
   {
    "Word": "say",
    "Rel": 0.013758579505111584
   },
   {
    "Word": "know",
    "Rel": 0.013757162328298302
   },
   {
    "Word": "things",
    "Rel": 0.01028381313720055
   },
   {
    "Word": "life",
    "Rel": 0.010283772789426188
   },
   {
    "Word": "tell",
    "Rel": 0.010281598920537087
   },
   {
    "Word": "heart",
    "Rel": 0.010276994808101753
   },
   {
    "Word": "baby",
    "Rel": 0.010275014527877735
   },
   {
    "Word": "lie",
    "Rel": 0.006928730464310499
   }
  ]
 },
 {
  "Number": 6,
  "Words": [
   {
    "Word": "see",
    "Rel": 0.02091853492147033
   },
   {
    "Word": "girl",
    "Rel": 0.015738699591448174
   },
   {
    "Word": "say",
    "Rel": 0.015727864266417122
   },
   {
    "Word": "love",
    "Rel": 0.015719330746818715
   },
   {
    "Word": "little",
    "Rel": 0.015616111575245218
   },
   {
    "Word": "got",
    "Rel": 0.015614415693458908
   },
   {
    "Word": "home",
    "Rel": 0.010537761439539866
   },
   {
    "Word": "good",
    "Rel": 0.010537353549655204
   },
   {
    "Word": "wrong",
    "Rel": 0.010534492970007204
   },
   {
    "Word": "know",
    "Rel": 0.010490064809601572
   }
  ]
 },
 {
  "Number": 7,
  "Words": [
   {
    "Word": "come",
    "Rel": 0.015195481000761268
   },
   {
    "Word": "want",
    "Rel": 0.015115512248313579
   },
   {
    "Word": "know",
    "Rel": 0.015100670412895447
   },
   {
    "Word": "make",
    "Rel": 0.01015547061412818
   },
   {
    "Word": "eyes",
    "Rel": 0.010155068836608187
   },
   {
    "Word": "hard",
    "Rel": 0.010151564706477715
   },
   {
    "Word": "need",
    "Rel": 0.010140873124563115
   },
   {
    "Word": "leave",
    "Rel": 0.010139213637910434
   },
   {
    "Word": "long",
    "Rel": 0.010131140116977775
   },
   {
    "Word": "done",
    "Rel": 0.010128230280724803
   }
  ]
 },
 {
  "Number": 8,
  "Words": [
   {
    "Word": "keep",
    "Rel": 0.016256875410972878
   },
   {
    "Word": "way",
    "Rel": 0.016254709857614517
   },
   {
    "Word": "see",
    "Rel": 0.016174478868639434
   },
   {
    "Word": "get",
    "Rel": 0.016166143557203312
   },
   {
    "Word": "loving",
    "Rel": 0.01218903329082487
   },
   {
    "Word": "want",
    "Rel": 0.012180941604072997
   },
   {
    "Word": "heart",
    "Rel": 0.012171394511450441
   },
   {
    "Word": "say",
    "Rel": 0.012165282843436724
   },
   {
    "Word": "love",
    "Rel": 0.012145071636914716
   },
   {
    "Word": "give",
    "Rel": 0.012120433301241731
   }
  ]
 },
 {
  "Number": 9,
  "Words": [
   {
    "Word": "fall",
    "Rel": 0.017040491793110225
   },
   {
    "Word": "say",
    "Rel": 0.012780684300773577
   },
   {
    "Word": "know",
    "Rel": 0.012768247833290064
   },
   {
    "Word": "life",
    "Rel": 0.012768220741357326
   },
   {
    "Word": "strong",
    "Rel": 0.008540276922437097
   },
   {
    "Word": "gone",
    "Rel": 0.008539645744992386
   },
   {
    "Word": "done",
    "Rel": 0.008520256919289107
   },
   {
    "Word": "deep",
    "Rel": 0.008518987962414501
   },
   {
    "Word": "arms",
    "Rel": 0.008518224250324192
   },
   {
    "Word": "tell",
    "Rel": 0.008517555856684678
   }
  ]
 },
 {
  "Number": 10,
  "Words": [
   {
    "Word": "say",
    "Rel": 0.024140399416804157
   },
   {
    "Word": "love",
    "Rel": 0.01814121053758552
   },
   {
    "Word": "hold",
    "Rel": 0.018114609969529512
   },
   {
    "Word": "heart",
    "Rel": 0.01810774867113284
   },
   {
    "Word": "trying",
    "Rel": 0.018071708324343926
   },
   {
    "Word": "know",
    "Rel": 0.018011311472087947
   },
   {
    "Word": "baby",
    "Rel": 0.012124635742437823
   },
   {
    "Word": "look",
    "Rel": 0.012111689467181327
   },
   {
    "Word": "think",
    "Rel": 0.012109183052392497
   },
   {
    "Word": "hard",
    "Rel": 0.012104550382734919
   }
  ]
 },
 {
  "Number": 11,
  "Words": [
   {
    "Word": "see",
    "Rel": 0.02024878510313847
   },
   {
    "Word": "feel",
    "Rel": 0.020242712800840668
   },
   {
    "Word": "come",
    "Rel": 0.020242598701445035
   },
   {
    "Word": "love",
    "Rel": 0.02024030636585035
   },
   {
    "Word": "know",
    "Rel": 0.020238085525894945
   },
   {
    "Word": "door",
    "Rel": 0.020180160178100596
   },
   {
    "Word": "hard",
    "Rel": 0.02017839116731014
   },
   {
    "Word": "way",
    "Rel": 0.010184609431974634
   },
   {
    "Word": "night",
    "Rel": 0.010183488284428619
   },
   {
    "Word": "go",
    "Rel": 0.010181261658056924
   }
  ]
 },
 {
  "Number": 12,
  "Words": [
   {
    "Word": "good",
    "Rel": 0.021115365753551725
   },
   {
    "Word": "girls",
    "Rel": 0.021015031945815776
   },
   {
    "Word": "night",
    "Rel": 0.010597748398477156
   },
   {
    "Word": "want",
    "Rel": 0.01058227808143824
   },
   {
    "Word": "hold",
    "Rel": 0.010580148110905836
   },
   {
    "Word": "girl",
    "Rel": 0.010576683221780403
   },
   {
    "Word": "time",
    "Rel": 0.01057646923394508
   },
   {
    "Word": "love",
    "Rel": 0.010573452031991776
   },
   {
    "Word": "need",
    "Rel": 0.010572616704023133
   },
   {
    "Word": "someone",
    "Rel": 0.0105687006419767
   }
  ]
 },
 {
  "Number": 13,
  "Words": [
   {
    "Word": "know",
    "Rel": 0.015438626087335776
   },
   {
    "Word": "time",
    "Rel": 0.014825038692815758
   },
   {
    "Word": "night",
    "Rel": 0.01159359072424316
   },
   {
    "Word": "come",
    "Rel": 0.011593504494723733
   },
   {
    "Word": "line",
    "Rel": 0.011590416860407043
   },
   {
    "Word": "place",
    "Rel": 0.011578560698123125
   },
   {
    "Word": "get",
    "Rel": 0.01082339708437301
   },
   {
    "Word": "steal",
    "Rel": 0.007743200931867276
   },
   {
    "Word": "tease",
    "Rel": 0.007742085792103785
   },
   {
    "Word": "second",
    "Rel": 0.00773509802319054
   }
  ]
 },
 {
  "Number": 14,
  "Words": [
   {
    "Word": "life",
    "Rel": 0.013565738076794268
   },
   {
    "Word": "love",
    "Rel": 0.013341173277599563
   },
   {
    "Word": "got",
    "Rel": 0.011644378456832171
   },
   {
    "Word": "know",
    "Rel": 0.011625256531754082
   },
   {
    "Word": "tell",
    "Rel": 0.009344813698500622
   },
   {
    "Word": "girl",
    "Rel": 0.009339553408733998
   },
   {
    "Word": "time",
    "Rel": 0.009325527623290947
   },
   {
    "Word": "come",
    "Rel": 0.009323023567217157
   },
   {
    "Word": "want",
    "Rel": 0.009315098572310462
   },
   {
    "Word": "night",
    "Rel": 0.009308668915203096
   }
  ]
 },
 {
  "Number": 15,
  "Words": [
   {
    "Word": "love",
    "Rel": 0.02603209797006386
   },
   {
    "Word": "want",
    "Rel": 0.01741616814207176
   },
   {
    "Word": "baby",
    "Rel": 0.017394775300140403
   },
   {
    "Word": "way",
    "Rel": 0.017389041559343735
   },
   {
    "Word": "feel",
    "Rel": 0.017386780342299926
   },
   {
    "Word": "need",
    "Rel": 0.01738121088650247
   },
   {
    "Word": "things",
    "Rel": 0.01737732777089742
   },
   {
    "Word": "get",
    "Rel": 0.01736711179934051
   },
   {
    "Word": "touch",
    "Rel": 0.017360044226286026
   },
   {
    "Word": "lost",
    "Rel": 0.017326903590212994
   }
  ]
 },
 {
  "Number": 16,
  "Words": [
   {
    "Word": "going",
    "Rel": 0.01279859613089521
   },
   {
    "Word": "take",
    "Rel": 0.0127974937368619
   },
   {
    "Word": "time",
    "Rel": 0.012788303632377535
   },
   {
    "Word": "got",
    "Rel": 0.012781984943358601
   },
   {
    "Word": "know",
    "Rel": 0.01277663156503706
   },
   {
    "Word": "everybody",
    "Rel": 0.012713212846570952
   },
   {
    "Word": "fun",
    "Rel": 0.012710146631431926
   },
   {
    "Word": "say",
    "Rel": 0.012696481897338583
   },
   {
    "Word": "go",
    "Rel": 0.012678772060316361
   },
   {
    "Word": "feeling",
    "Rel": 0.008537882710151698
   }
  ]
 },
 {
  "Number": 17,
  "Words": [
   {
    "Word": "see",
    "Rel": 0.018472273412408313
   },
   {
    "Word": "feeling",
    "Rel": 0.013948403541749622
   },
   {
    "Word": "give",
    "Rel": 0.013937954929028188
   },
   {
    "Word": "come",
    "Rel": 0.013937304477373473
   },
   {
    "Word": "get",
    "Rel": 0.013855525135371477
   },
   {
    "Word": "let",
    "Rel": 0.013854525344086547
   },
   {
    "Word": "know",
    "Rel": 0.013851527805682301
   },
   {
    "Word": "body",
    "Rel": 0.01384135359609363
   },
   {
    "Word": "got",
    "Rel": 0.013840654927365454
   },
   {
    "Word": "baby",
    "Rel": 0.0093274096982768
   }
  ]
 },
 {
  "Number": 18,
  "Words": [
   {
    "Word": "baby",
    "Rel": 0.017491829073696095
   },
   {
    "Word": "make",
    "Rel": 0.017482034422868768
   },
   {
    "Word": "big",
    "Rel": 0.01745147166353099
   },
   {
    "Word": "girl",
    "Rel": 0.011667118872611043
   },
   {
    "Word": "much",
    "Rel": 0.01166191059415419
   },
   {
    "Word": "said",
    "Rel": 0.011660428607022323
   },
   {
    "Word": "made",
    "Rel": 0.0116591506094994
   },
   {
    "Word": "little",
    "Rel": 0.011655255655422449
   },
   {
    "Word": "love",
    "Rel": 0.011652321181875728
   },
   {
    "Word": "knows",
    "Rel": 0.011651221970561525
   }
  ]
 },
 {
  "Number": 19,
  "Words": [
   {
    "Word": "please",
    "Rel": 0.041979868658191914
   },
   {
    "Word": "love",
    "Rel": 0.032232107168685055
   },
   {
    "Word": "know",
    "Rel": 0.028167509046336674
   },
   {
    "Word": "heart",
    "Rel": 0.028105032336800593
   },
   {
    "Word": "try",
    "Rel": 0.027987942281952647
   },
   {
    "Word": "hands",
    "Rel": 0.02787037650343392
   },
   {
    "Word": "babe",
    "Rel": 0.027264744426442094
   },
   {
    "Word": "let",
    "Rel": 0.02229623728919462
   },
   {
    "Word": "little",
    "Rel": 0.021448187690603165
   },
   {
    "Word": "keep",
    "Rel": 0.01961613320728582
   }
  ]
 },
 {
  "Number": 20,
  "Words": [
   {
    "Word": "love",
    "Rel": 0.028239406362909548
   },
   {
    "Word": "know",
    "Rel": 0.024680894742545225
   },
   {
    "Word": "say",
    "Rel": 0.02461562937753321
   },
   {
    "Word": "way",
    "Rel": 0.02105186756858048
   },
   {
    "Word": "understand",
    "Rel": 0.020942544530367712
   },
   {
    "Word": "stay",
    "Rel": 0.020909514052780107
   },
   {
    "Word": "hold",
    "Rel": 0.017878744445722645
   },
   {
    "Word": "come",
    "Rel": 0.0177823890306145
   },
   {
    "Word": "see",
    "Rel": 0.014202102956956978
   },
   {
    "Word": "mind",
    "Rel": 0.014191331857219358
   }
  ]
 },
 {
  "Number": 21,
  "Words": [
   {
    "Word": "baby",
    "Rel": 0.016346676603053677
   },
   {
    "Word": "know",
    "Rel": 0.016331003145150586
   },
   {
    "Word": "love",
    "Rel": 0.016308777797656552
   },
   {
    "Word": "girl",
    "Rel": 0.016290259032750668
   },
   {
    "Word": "men",
    "Rel": 0.016279824474938295
   },
   {
    "Word": "said",
    "Rel": 0.016264866004385405
   },
   {
    "Word": "talk",
    "Rel": 0.016246197085715442
   },
   {
    "Word": "cool",
    "Rel": 0.016243280746682708
   },
   {
    "Word": "rule",
    "Rel": 0.01622984480823174
   },
   {
    "Word": "come",
    "Rel": 0.008170606138728574
   }
  ]
 },
 {
  "Number": 22,
  "Words": [
   {
    "Word": "none",
    "Rel": 0.12420321102555591
   },
   {
    "Word": "know",
    "Rel": 0.01158452606802277
   },
   {
    "Word": "night",
    "Rel": 0.011580929107948862
   },
   {
    "Word": "see",
    "Rel": 0.011579950041136993
   },
   {
    "Word": "time",
    "Rel": 0.011579010380817776
   },
   {
    "Word": "say",
    "Rel": 0.011576635608823677
   },
   {
    "Word": "go",
    "Rel": 0.011572423228673552
   },
   {
    "Word": "tell",
    "Rel": 0.01156854163097177
   },
   {
    "Word": "make",
    "Rel": 0.011563654761900338
   },
   {
    "Word": "let",
    "Rel": 0.011563532437838489
   }
  ]
 },
 {
  "Number": 23,
  "Words": [
   {
    "Word": "know",
    "Rel": 0.02340163778623885
   },
   {
    "Word": "want",
    "Rel": 0.019663698564644134
   },
   {
    "Word": "got",
    "Rel": 0.019553917114762998
   },
   {
    "Word": "say",
    "Rel": 0.01953556281681682
   },
   {
    "Word": "think",
    "Rel": 0.014718245849341796
   },
   {
    "Word": "give",
    "Rel": 0.014714225790228864
   },
   {
    "Word": "take",
    "Rel": 0.01460863133937273
   },
   {
    "Word": "life",
    "Rel": 0.012779983093590276
   },
   {
    "Word": "see",
    "Rel": 0.01196747285108631
   },
   {
    "Word": "need",
    "Rel": 0.00986289829602599
   }
  ]
 },
 {
  "Number": 24,
  "Words": [
   {
    "Word": "know",
    "Rel": 0.01634588777951543
   },
   {
    "Word": "life",
    "Rel": 0.016339579317729544
   },
   {
    "Word": "get",
    "Rel": 0.016331953951545408
   },
   {
    "Word": "want",
    "Rel": 0.008222697716447241
   },
   {
    "Word": "true",
    "Rel": 0.008220647679467388
   },
   {
    "Word": "keep",
    "Rel": 0.008218568731704125
   },
   {
    "Word": "give",
    "Rel": 0.00821690165198674
   },
   {
    "Word": "way",
    "Rel": 0.00821673356280613
   },
   {
    "Word": "feel",
    "Rel": 0.008215866608286045
   },
   {
    "Word": "told",
    "Rel": 0.008215596458959334
   }
  ]
 },
 {
  "Number": 25,
  "Words": [
   {
    "Word": "fall",
    "Rel": 0.03282126351530655
   },
   {
    "Word": "love",
    "Rel": 0.03275164900366068
   },
   {
    "Word": "face",
    "Rel": 0.03225921483037434
   },
   {
    "Word": "eyes",
    "Rel": 0.03206577820572276
   },
   {
    "Word": "arms",
    "Rel": 0.02260097719981231
   },
   {
    "Word": "let",
    "Rel": 0.0226007065739973
   },
   {
    "Word": "space",
    "Rel": 0.02250886054171402
   },
   {
    "Word": "serious",
    "Rel": 0.022428889441409132
   },
   {
    "Word": "much",
    "Rel": 0.019344333231405577
   },
   {
    "Word": "grace",
    "Rel": 0.01872467616472316
   }
  ]
 },
 {
  "Number": 26,
  "Words": [
   {
    "Word": "know",
    "Rel": 0.01954679615537765
   },
   {
    "Word": "way",
    "Rel": 0.013040488240680477
   },
   {
    "Word": "say",
    "Rel": 0.01303267459477793
   },
   {
    "Word": "mind",
    "Rel": 0.01301932473019077
   },
   {
    "Word": "thing",
    "Rel": 0.013017184382106643
   },
   {
    "Word": "heart",
    "Rel": 0.013016078950793077
   },
   {
    "Word": "love",
    "Rel": 0.013013131646288596
   },
   {
    "Word": "sure",
    "Rel": 0.013010160892868517
   },
   {
    "Word": "friends",
    "Rel": 0.013000636818578307
   },
   {
    "Word": "right",
    "Rel": 0.012994104036613488
   }
  ]
 },
 {
  "Number": 27,
  "Words": [
   {
    "Word": "know",
    "Rel": 0.020471181320846764
   },
   {
    "Word": "love",
    "Rel": 0.020447000866047463
   },
   {
    "Word": "see",
    "Rel": 0.016387226885636427
   },
   {
    "Word": "give",
    "Rel": 0.01636459795676211
   },
   {
    "Word": "stop",
    "Rel": 0.01636166040350094
   },
   {
    "Word": "shake",
    "Rel": 0.01634606094927029
   },
   {
    "Word": "let",
    "Rel": 0.01632400911693222
   },
   {
    "Word": "night",
    "Rel": 0.012296648454571863
   },
   {
    "Word": "call",
    "Rel": 0.012289209622634033
   },
   {
    "Word": "tell",
    "Rel": 0.012284774890615812
   }
  ]
 },
 {
  "Number": 28,
  "Words": [
   {
    "Word": "love",
    "Rel": 0.019874744214357507
   },
   {
    "Word": "go",
    "Rel": 0.011936916330028
   },
   {
    "Word": "eyes",
    "Rel": 0.011934071244238747
   },
   {
    "Word": "baby",
    "Rel": 0.011920263179758993
   },
   {
    "Word": "take",
    "Rel": 0.011918706754096262
   },
   {
    "Word": "hearts",
    "Rel": 0.011913938725039822
   },
   {
    "Word": "dance",
    "Rel": 0.011902945305195003
   },
   {
    "Word": "feel",
    "Rel": 0.011901434205177919
   },
   {
    "Word": "mine",
    "Rel": 0.007954898903068884
   },
   {
    "Word": "girl",
    "Rel": 0.007954457302282262
   }
  ]
 },
 {
  "Number": 29,
  "Words": [
   {
    "Word": "want",
    "Rel": 0.011332112356575632
   },
   {
    "Word": "walk",
    "Rel": 0.011328225155400495
   },
   {
    "Word": "baby",
    "Rel": 0.011327603580444705
   },
   {
    "Word": "look",
    "Rel": 0.01131565196875911
   },
   {
    "Word": "know",
    "Rel": 0.011315544878567984
   },
   {
    "Word": "kiss",
    "Rel": 0.011312212577886685
   },
   {
    "Word": "go",
    "Rel": 0.011311224905966059
   },
   {
    "Word": "lovers",
    "Rel": 0.011308568898674766
   },
   {
    "Word": "head",
    "Rel": 0.011306908286648579
   },
   {
    "Word": "time",
    "Rel": 0.011304372018039957
   }
  ]
 },
 {
  "Number": 30,
  "Words": [
   {
    "Word": "time",
    "Rel": 0.016803782221256985
   },
   {
    "Word": "love",
    "Rel": 0.016784761451301915
   },
   {
    "Word": "got",
    "Rel": 0.013454793170244318
   },
   {
    "Word": "say",
    "Rel": 0.013443185418643727
   },
   {
    "Word": "heart",
    "Rel": 0.013438311830197768
   },
   {
    "Word": "know",
    "Rel": 0.013377493376405251
   },
   {
    "Word": "baby",
    "Rel": 0.010129576667536094
   },
   {
    "Word": "hair",
    "Rel": 0.01012682280638779
   },
   {
    "Word": "waiting",
    "Rel": 0.01012180848090582
   },
   {
    "Word": "give",
    "Rel": 0.010121543470581838
   }
  ]
 },
 {
  "Number": 31,
  "Words": [
   {
    "Word": "heart",
    "Rel": 0.014731214823723022
   },
   {
    "Word": "girl",
    "Rel": 0.011086520625928067
   },
   {
    "Word": "baby",
    "Rel": 0.011071903557561134
   },
   {
    "Word": "love",
    "Rel": 0.011061935153051823
   },
   {
    "Word": "know",
    "Rel": 0.011039497095966943
   },
   {
    "Word": "boy",
    "Rel": 0.011017156904310878
   },
   {
    "Word": "got",
    "Rel": 0.010988680424231718
   },
   {
    "Word": "understand",
    "Rel": 0.010950015177833006
   },
   {
    "Word": "day",
    "Rel": 0.007428008537406347
   },
   {
    "Word": "diamonds",
    "Rel": 0.007427919520877399
   }
  ]
 },
 {
  "Number": 32,
  "Words": [
   {
    "Word": "love",
    "Rel": 0.013919551764648111
   },
   {
    "Word": "baby",
    "Rel": 0.013919055762046386
   },
   {
    "Word": "feel",
    "Rel": 0.01391762226473972
   },
   {
    "Word": "tell",
    "Rel": 0.013915671106824692
   },
   {
    "Word": "make",
    "Rel": 0.01390947555006784
   },
   {
    "Word": "want",
    "Rel": 0.009305858326836688
   },
   {
    "Word": "mind",
    "Rel": 0.009305004871400869
   },
   {
    "Word": "give",
    "Rel": 0.009302398843796857
   },
   {
    "Word": "think",
    "Rel": 0.009302025010231594
   },
   {
    "Word": "home",
    "Rel": 0.009301901390573845
   }
  ]
 },
 {
  "Number": 33,
  "Words": [
   {
    "Word": "got",
    "Rel": 0.021087672099815633
   },
   {
    "Word": "let",
    "Rel": 0.012678378483158967
   },
   {
    "Word": "find",
    "Rel": 0.012641201091317061
   },
   {
    "Word": "time",
    "Rel": 0.012613631412476027
   },
   {
    "Word": "strong",
    "Rel": 0.00846547769788133
   },
   {
    "Word": "times",
    "Rel": 0.008463791176880486
   },
   {
    "Word": "need",
    "Rel": 0.00846187475957781
   },
   {
    "Word": "put",
    "Rel": 0.008460527349474134
   },
   {
    "Word": "something",
    "Rel": 0.008459290059020779
   },
   {
    "Word": "shine",
    "Rel": 0.008441243828978777
   }
  ]
 },
 {
  "Number": 34,
  "Words": [
   {
    "Word": "know",
    "Rel": 0.026893100556834266
   },
   {
    "Word": "find",
    "Rel": 0.02022533664536312
   },
   {
    "Word": "feeling",
    "Rel": 0.020169271619967
   },
   {
    "Word": "love",
    "Rel": 0.020154675621647723
   },
   {
    "Word": "world",
    "Rel": 0.013501960180610563
   },
   {
    "Word": "feel",
    "Rel": 0.013501612042782567
   },
   {
    "Word": "let",
    "Rel": 0.013498195017447624
   },
   {
    "Word": "bring",
    "Rel": 0.013493384332589104
   },
   {
    "Word": "best",
    "Rel": 0.013482581800508455
   },
   {
    "Word": "lost",
    "Rel": 0.013475748433885592
   }
  ]
 },
 {
  "Number": 35,
  "Words": [
   {
    "Word": "know",
    "Rel": 0.015348932834773324
   },
   {
    "Word": "go",
    "Rel": 0.010241611597014576
   },
   {
    "Word": "side",
    "Rel": 0.010241312554644782
   },
   {
    "Word": "people",
    "Rel": 0.010237014285338443
   },
   {
    "Word": "need",
    "Rel": 0.010235857776060774
   },
   {
    "Word": "way",
    "Rel": 0.010214197313469052
   },
   {
    "Word": "going",
    "Rel": 0.010212874912168239
   },
   {
    "Word": "something",
    "Rel": 0.01021225576213056
   },
   {
    "Word": "everything",
    "Rel": 0.010210843455528106
   },
   {
    "Word": "makes",
    "Rel": 0.010208789525735989
   }
  ]
 },
 {
  "Number": 36,
  "Words": [
   {
    "Word": "know",
    "Rel": 0.019441962938648888
   },
   {
    "Word": "time",
    "Rel": 0.014605698485946934
   },
   {
    "Word": "love",
    "Rel": 0.014591923015667757
   },
   {
    "Word": "got",
    "Rel": 0.014583756949478176
   },
   {
    "Word": "say",
    "Rel": 0.014578991337516499
   },
   {
    "Word": "heart",
    "Rel": 0.009764358800528896
   },
   {
    "Word": "well",
    "Rel": 0.009762400994969054
   },
   {
    "Word": "hold",
    "Rel": 0.0097512973340656
   },
   {
    "Word": "touch",
    "Rel": 0.009746551794444941
   },
   {
    "Word": "need",
    "Rel": 0.009744822630225723
   }
  ]
 },
 {
  "Number": 37,
  "Words": [
   {
    "Word": "got",
    "Rel": 0.010050300948377382
   },
   {
    "Word": "feeling",
    "Rel": 0.010045285478046317
   },
   {
    "Word": "care",
    "Rel": 0.010031218423575728
   },
   {
    "Word": "want",
    "Rel": 0.010027585123059672
   },
   {
    "Word": "arms",
    "Rel": 0.010025878584344203
   },
   {
    "Word": "baby",
    "Rel": 0.0100255652582255
   },
   {
    "Word": "nothing",
    "Rel": 0.010021875476904772
   },
   {
    "Word": "heart",
    "Rel": 0.010010559633835877
   },
   {
    "Word": "new",
    "Rel": 0.0100079657078811
   },
   {
    "Word": "come",
    "Rel": 0.01000143491872123
   }
  ]
 },
 {
  "Number": 38,
  "Words": [
   {
    "Word": "go",
    "Rel": 0.014277394601737076
   },
   {
    "Word": "dream",
    "Rel": 0.014265658575414947
   },
   {
    "Word": "dreams",
    "Rel": 0.014221298699211002
   },
   {
    "Word": "time",
    "Rel": 0.014204016218744887
   },
   {
    "Word": "know",
    "Rel": 0.014184015694859617
   },
   {
    "Word": "love",
    "Rel": 0.01412410294080878
   },
   {
    "Word": "night",
    "Rel": 0.00955166694449294
   },
   {
    "Word": "stop",
    "Rel": 0.009550908258069509
   },
   {
    "Word": "man",
    "Rel": 0.009548374188657907
   },
   {
    "Word": "fool",
    "Rel": 0.009548282827025446
   }
  ]
 },
 {
  "Number": 39,
  "Words": [
   {
    "Word": "see",
    "Rel": 0.017828359114281562
   },
   {
    "Word": "got",
    "Rel": 0.017812336332974295
   },
   {
    "Word": "love",
    "Rel": 0.017790832339434272
   },
   {
    "Word": "know",
    "Rel": 0.017637601779684053
   },
   {
    "Word": "look",
    "Rel": 0.008967796490694069
   },
   {
    "Word": "cry",
    "Rel": 0.008964025132164934
   },
   {
    "Word": "mine",
    "Rel": 0.008962398012887075
   },
   {
    "Word": "long",
    "Rel": 0.008959629201235234
   },
   {
    "Word": "everything",
    "Rel": 0.008958627563589202
   },
   {
    "Word": "eyes",
    "Rel": 0.008955388431799756
   }
  ]
 },
 {
  "Number": 40,
  "Words": [
   {
    "Word": "right",
    "Rel": 0.013216003170532132
   },
   {
    "Word": "best",
    "Rel": 0.013211701888500566
   },
   {
    "Word": "come",
    "Rel": 0.013188907467292224
   },
   {
    "Word": "man",
    "Rel": 0.013188201162456534
   },
   {
    "Word": "make",
    "Rel": 0.01318052049130791
   },
   {
    "Word": "girl",
    "Rel": 0.00881855198141628
   },
   {
    "Word": "look",
    "Rel": 0.008816124816702764
   },
   {
    "Word": "trust",
    "Rel": 0.00881556058962089
   },
   {
    "Word": "need",
    "Rel": 0.00881295880547182
   },
   {
    "Word": "baby",
    "Rel": 0.008810765100141513
   }
  ]
 },
 {
  "Number": 41,
  "Words": [
   {
    "Word": "love",
    "Rel": 0.01508045385552319
   },
   {
    "Word": "go",
    "Rel": 0.015070730326094368
   },
   {
    "Word": "rain",
    "Rel": 0.011378711585571128
   },
   {
    "Word": "find",
    "Rel": 0.011358210839888718
   },
   {
    "Word": "let",
    "Rel": 0.011259085071968237
   },
   {
    "Word": "know",
    "Rel": 0.011202588588531279
   },
   {
    "Word": "wall",
    "Rel": 0.007622956861437933
   },
   {
    "Word": "close",
    "Rel": 0.007615098494880037
   },
   {
    "Word": "woman",
    "Rel": 0.0075889877523286796
   },
   {
    "Word": "sun",
    "Rel": 0.0075858808709340425
   }
  ]
 },
 {
  "Number": 42,
  "Words": [
   {
    "Word": "want",
    "Rel": 0.015083632840021063
   },
   {
    "Word": "need",
    "Rel": 0.015075523426533153
   },
   {
    "Word": "believe",
    "Rel": 0.015043250226567348
   },
   {
    "Word": "friend",
    "Rel": 0.014966083081648965
   },
   {
    "Word": "way",
    "Rel": 0.010060250387410886
   },
   {
    "Word": "feel",
    "Rel": 0.01005859201236802
   },
   {
    "Word": "run",
    "Rel": 0.010058285571424961
   },
   {
    "Word": "heart",
    "Rel": 0.01005707213086992
   },
   {
    "Word": "head",
    "Rel": 0.010056367890701686
   },
   {
    "Word": "going",
    "Rel": 0.010029157887185152
   }
  ]
 },
 {
  "Number": 43,
  "Words": [
   {
    "Word": "got",
    "Rel": 0.014330800194771696
   },
   {
    "Word": "turn",
    "Rel": 0.014300588333683575
   },
   {
    "Word": "lot",
    "Rel": 0.014285938917673765
   },
   {
    "Word": "bed",
    "Rel": 0.014280664584255379
   },
   {
    "Word": "streets",
    "Rel": 0.0142788242156181
   },
   {
    "Word": "want",
    "Rel": 0.007160758489614932
   },
   {
    "Word": "hold",
    "Rel": 0.007160206283778752
   },
   {
    "Word": "night",
    "Rel": 0.007158856014822466
   },
   {
    "Word": "see",
    "Rel": 0.007157208366512946
   },
   {
    "Word": "way",
    "Rel": 0.007156819153041311
   }
  ]
 },
 {
  "Number": 44,
  "Words": [
   {
    "Word": "know",
    "Rel": 0.01633617528955607
   },
   {
    "Word": "love",
    "Rel": 0.016328794435586675
   },
   {
    "Word": "take",
    "Rel": 0.016325538909871398
   },
   {
    "Word": "want",
    "Rel": 0.010901784013427313
   },
   {
    "Word": "go",
    "Rel": 0.010895156991915943
   },
   {
    "Word": "heart",
    "Rel": 0.010893764441763185
   },
   {
    "Word": "life",
    "Rel": 0.01088587820949343
   },
   {
    "Word": "night",
    "Rel": 0.010884244474611346
   },
   {
    "Word": "way",
    "Rel": 0.010884027505981329
   },
   {
    "Word": "real",
    "Rel": 0.010884012153495604
   }
  ]
 },
 {
  "Number": 45,
  "Words": [
   {
    "Word": "want",
    "Rel": 0.018348778098739478
   },
   {
    "Word": "love",
    "Rel": 0.018331711064421427
   },
   {
    "Word": "heart",
    "Rel": 0.01832972940807129
   },
   {
    "Word": "feeling",
    "Rel": 0.012233641891078919
   },
   {
    "Word": "right",
    "Rel": 0.012230026767096726
   },
   {
    "Word": "get",
    "Rel": 0.012229468628765897
   },
   {
    "Word": "eyes",
    "Rel": 0.01222595142196661
   },
   {
    "Word": "man",
    "Rel": 0.012224449335245543
   },
   {
    "Word": "door",
    "Rel": 0.012220162896198157
   },
   {
    "Word": "find",
    "Rel": 0.012214782802150178
   }
  ]
 },
 {
  "Number": 46,
  "Words": [
   {
    "Word": "heart",
    "Rel": 0.02086440296280145
   },
   {
    "Word": "time",
    "Rel": 0.015624721918594571
   },
   {
    "Word": "right",
    "Rel": 0.015622025168811669
   },
   {
    "Word": "know",
    "Rel": 0.015621520176264439
   },
   {
    "Word": "life",
    "Rel": 0.010464551028326066
   },
   {
    "Word": "look",
    "Rel": 0.010464325088610177
   },
   {
    "Word": "stop",
    "Rel": 0.010457417961609896
   },
   {
    "Word": "follow",
    "Rel": 0.01045409161350341
   },
   {
    "Word": "fall",
    "Rel": 0.010452480915504181
   },
   {
    "Word": "blind",
    "Rel": 0.010452313710290926
   }
  ]
 },
 {
  "Number": 47,
  "Words": [
   {
    "Word": "got",
    "Rel": 0.013018593098335486
   },
   {
    "Word": "say",
    "Rel": 0.013018411134184902
   },
   {
    "Word": "seen",
    "Rel": 0.008695313020753685
   },
   {
    "Word": "go",
    "Rel": 0.008693994888464505
   },
   {
    "Word": "get",
    "Rel": 0.008691733977682848
   },
   {
    "Word": "believe",
    "Rel": 0.00868984870166768
   },
   {
    "Word": "mind",
    "Rel": 0.008688257907515455
   },
   {
    "Word": "first",
    "Rel": 0.008686948506516797
   },
   {
    "Word": "god",
    "Rel": 0.008686477456842638
   },
   {
    "Word": "heard",
    "Rel": 0.00868587682034325
   }
  ]
 },
 {
  "Number": 48,
  "Words": [
   {
    "Word": "see",
    "Rel": 0.019438711756193546
   },
   {
    "Word": "face",
    "Rel": 0.01556390035353738
   },
   {
    "Word": "hurt",
    "Rel": 0.015549065506554634
   },
   {
    "Word": "way",
    "Rel": 0.015547768716034369
   },
   {
    "Word": "gone",
    "Rel": 0.01168528272362058
   },
   {
    "Word": "eyes",
    "Rel": 0.011672641512911275
   },
   {
    "Word": "come",
    "Rel": 0.0116539510242854
   },
   {
    "Word": "know",
    "Rel": 0.011641909857781435
   },
   {
    "Word": "love",
    "Rel": 0.011628549874560553
   },
   {
    "Word": "feel",
    "Rel": 0.011614279838341944
   }
  ]
 },
 {
  "Number": 49,
  "Words": [
   {
    "Word": "say",
    "Rel": 0.019142444372457674
   },
   {
    "Word": "time",
    "Rel": 0.01913233876844016
   },
   {
    "Word": "got",
    "Rel": 0.019125587142742678
   },
   {
    "Word": "change",
    "Rel": 0.019060749244814743
   },
   {
    "Word": "leaves",
    "Rel": 0.019022421194099554
   },
   {
    "Word": "brown",
    "Rel": 0.019022202730907063
   },
   {
    "Word": "seasons",
    "Rel": 0.019015556509888523
   },
   {
    "Word": "go",
    "Rel": 0.009580076274012056
   },
   {
    "Word": "know",
    "Rel": 0.0095780969500516
   },
   {
    "Word": "want",
    "Rel": 0.00956692315512821
   }
  ]
 },
 {
  "Number": 50,
  "Words": [
   {
    "Word": "honey",
    "Rel": 0.006163390609991749
   },
   {
    "Word": "believe",
    "Rel": 0.006163111313691643
   },
   {
    "Word": "hand",
    "Rel": 0.006162243173123608
   },
   {
    "Word": "run",
    "Rel": 0.006161897043560671
   },
   {
    "Word": "found",
    "Rel": 0.006161165192065035
   },
   {
    "Word": "know",
    "Rel": 0.0061407965796798965
   },
   {
    "Word": "carried",
    "Rel": 0.0031013354334859054
   },
   {
    "Word": "loosed",
    "Rel": 0.003101335429893897
   },
   {
    "Word": "scaled",
    "Rel": 0.003101335428836358
   },
   {
    "Word": "bonds",
    "Rel": 0.0031013354279492253
   }
  ]
 },
 {
  "Number": 51,
  "Words": [
   {
    "Word": "baby",
    "Rel": 0.01278601001517723
   },
   {
    "Word": "hold",
    "Rel": 0.012785947806166972
   },
   {
    "Word": "go",
    "Rel": 0.012783606918922706
   },
   {
    "Word": "take",
    "Rel": 0.012781515162363609
   },
   {
    "Word": "something",
    "Rel": 0.012769239018117587
   },
   {
    "Word": "cold",
    "Rel": 0.012763390198094006
   },
   {
    "Word": "leave",
    "Rel": 0.01275758423293705
   },
   {
    "Word": "close",
    "Rel": 0.012754188021890798
   },
   {
    "Word": "stand",
    "Rel": 0.012754154797242857
   },
   {
    "Word": "memory",
    "Rel": 0.012661984086733866
   }
  ]
 },
 {
  "Number": 52,
  "Words": [
   {
    "Word": "think",
    "Rel": 0.016422396103309624
   },
   {
    "Word": "say",
    "Rel": 0.016420775762980334
   },
   {
    "Word": "crowd",
    "Rel": 0.016413681014142034
   },
   {
    "Word": "night",
    "Rel": 0.01641364948948479
   },
   {
    "Word": "put",
    "Rel": 0.016412267926947388
   },
   {
    "Word": "hide",
    "Rel": 0.016374787863576244
   },
   {
    "Word": "ground",
    "Rel": 0.01636988378793004
   },
   {
    "Word": "sound",
    "Rel": 0.016362090036006638
   },
   {
    "Word": "feeling",
    "Rel": 0.008239907518902766
   },
   {
    "Word": "believe",
    "Rel": 0.00823959542333312
   }
  ]
 },
 {
  "Number": 53,
  "Words": [
   {
    "Word": "good",
    "Rel": 0.024543270615267704
   },
   {
    "Word": "get",
    "Rel": 0.01954956750378645
   },
   {
    "Word": "stay",
    "Rel": 0.01953894285469188
   },
   {
    "Word": "thing",
    "Rel": 0.019526264089937097
   },
   {
    "Word": "love",
    "Rel": 0.019467546591327267
   },
   {
    "Word": "day",
    "Rel": 0.01772742025276827
   },
   {
    "Word": "see",
    "Rel": 0.01662299710897687
   },
   {
    "Word": "hear",
    "Rel": 0.013091797052241443
   },
   {
    "Word": "baby",
    "Rel": 0.013028575382119134
   },
   {
    "Word": "leave",
    "Rel": 0.013026515568449014
   }
  ]
 },
 {
  "Number": 54,
  "Words": [
   {
    "Word": "love",
    "Rel": 0.024682981676829224
   },
   {
    "Word": "way",
    "Rel": 0.02468107537321721
   },
   {
    "Word": "found",
    "Rel": 0.024616857825508334
   },
   {
    "Word": "want",
    "Rel": 0.016540252404674046
   },
   {
    "Word": "tell",
    "Rel": 0.01652401818984774
   },
   {
    "Word": "baby",
    "Rel": 0.01651875760388599
   },
   {
    "Word": "time",
    "Rel": 0.016515521187683648
   },
   {
    "Word": "go",
    "Rel": 0.016514791385408772
   },
   {
    "Word": "open",
    "Rel": 0.016503467119262698
   },
   {
    "Word": "stay",
    "Rel": 0.016501709335123658
   }
  ]
 },
 {
  "Number": 55,
  "Words": [
   {
    "Word": "make",
    "Rel": 0.014527133886757271
   },
   {
    "Word": "baby",
    "Rel": 0.014498904100517964
   },
   {
    "Word": "life",
    "Rel": 0.01449669085580062
   },
   {
    "Word": "go",
    "Rel": 0.014491997106354125
   },
   {
    "Word": "time",
    "Rel": 0.014487845069478136
   },
   {
    "Word": "know",
    "Rel": 0.01448262036124392
   },
   {
    "Word": "got",
    "Rel": 0.009699225118886889
   },
   {
    "Word": "hand",
    "Rel": 0.00969807554489327
   },
   {
    "Word": "long",
    "Rel": 0.009696573310773619
   },
   {
    "Word": "run",
    "Rel": 0.009694840134826244
   }
  ]
 },
 {
  "Number": 56,
  "Words": [
   {
    "Word": "girl",
    "Rel": 0.019897487777656195
   },
   {
    "Word": "time",
    "Rel": 0.019886909604427353
   },
   {
    "Word": "true",
    "Rel": 0.01502369434827245
   },
   {
    "Word": "got",
    "Rel": 0.014924602105688023
   },
   {
    "Word": "say",
    "Rel": 0.01492285874349368
   },
   {
    "Word": "waiting",
    "Rel": 0.010063704873895164
   },
   {
    "Word": "lies",
    "Rel": 0.010063592953354268
   },
   {
    "Word": "make",
    "Rel": 0.010061236185926838
   },
   {
    "Word": "world",
    "Rel": 0.009988650713406853
   },
   {
    "Word": "look",
    "Rel": 0.009983760813228116
   }
  ]
 },
 {
  "Number": 57,
  "Words": [
   {
    "Word": "know",
    "Rel": 0.015062981159706763
   },
   {
    "Word": "night",
    "Rel": 0.015049422269865982
   },
   {
    "Word": "feel",
    "Rel": 0.015042613268711405
   },
   {
    "Word": "say",
    "Rel": 0.015040277308034223
   },
   {
    "Word": "come",
    "Rel": 0.015031120825467996
   },
   {
    "Word": "take",
    "Rel": 0.015027277178060443
   },
   {
    "Word": "let",
    "Rel": 0.015017648887501851
   },
   {
    "Word": "eyes",
    "Rel": 0.015001842758792936
   },
   {
    "Word": "gone",
    "Rel": 0.014989414556234664
   },
   {
    "Word": "believe",
    "Rel": 0.014988814046586588
   }
  ]
 },
 {
  "Number": 58,
  "Words": [
   {
    "Word": "see",
    "Rel": 0.013295632325276795
   },
   {
    "Word": "gone",
    "Rel": 0.013269291022739575
   },
   {
    "Word": "true",
    "Rel": 0.013255241249433943
   },
   {
    "Word": "start",
    "Rel": 0.008911094137385946
   },
   {
    "Word": "meant",
    "Rel": 0.008907137399432427
   },
   {
    "Word": "telling",
    "Rel": 0.008906052576267235
   },
   {
    "Word": "remember",
    "Rel": 0.0089026366509057
   },
   {
    "Word": "hold",
    "Rel": 0.008901773031583123
   },
   {
    "Word": "world",
    "Rel": 0.008900464437008827
   },
   {
    "Word": "road",
    "Rel": 0.00889810993563494
   }
  ]
 },
 {
  "Number": 59,
  "Words": [
   {
    "Word": "night",
    "Rel": 0.01462003193867127
   },
   {
    "Word": "sing",
    "Rel": 0.010942230918455637
   },
   {
    "Word": "think",
    "Rel": 0.010934097705911677
   },
   {
    "Word": "love",
    "Rel": 0.010929922366281526
   },
   {
    "Word": "feel",
    "Rel": 0.010881728544557347
   },
   {
    "Word": "fire",
    "Rel": 0.010879150709800037
   },
   {
    "Word": "time",
    "Rel": 0.010878912099658576
   },
   {
    "Word": "make",
    "Rel": 0.010878468934682915
   },
   {
    "Word": "see",
    "Rel": 0.010871803412755902
   },
   {
    "Word": "life",
    "Rel": 0.010871472103813944
   }
  ]
 },
 {
  "Number": 60,
  "Words": [
   {
    "Word": "tell",
    "Rel": 0.021050902520987232
   },
   {
    "Word": "want",
    "Rel": 0.014085103368845546
   },
   {
    "Word": "get",
    "Rel": 0.014068557330551214
   },
   {
    "Word": "look",
    "Rel": 0.014066931344852015
   },
   {
    "Word": "heart",
    "Rel": 0.014059650526763362
   },
   {
    "Word": "know",
    "Rel": 0.014055858149925823
   },
   {
    "Word": "little",
    "Rel": 0.014045162903172485
   },
   {
    "Word": "listen",
    "Rel": 0.014034935662070048
   },
   {
    "Word": "sometimes",
    "Rel": 0.01403391517117729
   },
   {
    "Word": "beauty",
    "Rel": 0.014025524759263861
   }
  ]
 },
 {
  "Number": 61,
  "Words": [
   {
    "Word": "got",
    "Rel": 0.028994525600304685
   },
   {
    "Word": "time",
    "Rel": 0.02187039124803092
   },
   {
    "Word": "know",
    "Rel": 0.021853244920688422
   },
   {
    "Word": "much",
    "Rel": 0.021844228170277008
   },
   {
    "Word": "go",
    "Rel": 0.021843642524804106
   },
   {
    "Word": "heart",
    "Rel": 0.02184326906412303
   },
   {
    "Word": "believe",
    "Rel": 0.01459369846076459
   },
   {
    "Word": "way",
    "Rel": 0.014592739369033042
   },
   {
    "Word": "end",
    "Rel": 0.014580634559543683
   },
   {
    "Word": "hear",
    "Rel": 0.014512019394306484
   }
  ]
 },
 {
  "Number": 62,
  "Words": [
   {
    "Word": "love",
    "Rel": 0.02175194478250225
   },
   {
    "Word": "time",
    "Rel": 0.02174421132243532
   },
   {
    "Word": "true",
    "Rel": 0.021740249960881957
   },
   {
    "Word": "know",
    "Rel": 0.02173955880694362
   },
   {
    "Word": "get",
    "Rel": 0.014585297338035437
   },
   {
    "Word": "make",
    "Rel": 0.014584062591339085
   },
   {
    "Word": "think",
    "Rel": 0.014583382545406623
   },
   {
    "Word": "hand",
    "Rel": 0.014571172121318993
   },
   {
    "Word": "tell",
    "Rel": 0.014436186897301957
   },
   {
    "Word": "baby",
    "Rel": 0.014433930910217524
   }
  ]
 },
 {
  "Number": 63,
  "Words": [
   {
    "Word": "time",
    "Rel": 0.021357992302406648
   },
   {
    "Word": "want",
    "Rel": 0.014270577914612597
   },
   {
    "Word": "make",
    "Rel": 0.014247930905613337
   },
   {
    "Word": "life",
    "Rel": 0.014225663759949827
   },
   {
    "Word": "little",
    "Rel": 0.014223550915618997
   },
   {
    "Word": "someone",
    "Rel": 0.01421922835162554
   },
   {
    "Word": "got",
    "Rel": 0.014215476197285876
   },
   {
    "Word": "dream",
    "Rel": 0.01420634193295077
   },
   {
    "Word": "find",
    "Rel": 0.014190468393810527
   },
   {
    "Word": "hand",
    "Rel": 0.01417648545785589
   }
  ]
 },
 {
  "Number": 64,
  "Words": [
   {
    "Word": "get",
    "Rel": 0.015933554465265974
   },
   {
    "Word": "face",
    "Rel": 0.01592239450195101
   },
   {
    "Word": "let",
    "Rel": 0.012044445875444863
   },
   {
    "Word": "make",
    "Rel": 0.011972050748775578
   },
   {
    "Word": "know",
    "Rel": 0.011913975546536244
   },
   {
    "Word": "see",
    "Rel": 0.011889265374522468
   },
   {
    "Word": "step",
    "Rel": 0.008062456554343006
   },
   {
    "Word": "hero",
    "Rel": 0.008060934556177556
   },
   {
    "Word": "want",
    "Rel": 0.008054958247904427
   },
   {
    "Word": "go",
    "Rel": 0.008050637037371544
   }
  ]
 },
 {
  "Number": 65,
  "Words": [
   {
    "Word": "go",
    "Rel": 0.009411324578814571
   },
   {
    "Word": "take",
    "Rel": 0.009410592163103368
   },
   {
    "Word": "got",
    "Rel": 0.009410385227742294
   },
   {
    "Word": "get",
    "Rel": 0.00940968831629046
   },
   {
    "Word": "right",
    "Rel": 0.009409146516047304
   },
   {
    "Word": "know",
    "Rel": 0.009409079017826795
   },
   {
    "Word": "make",
    "Rel": 0.009408473517648036
   },
   {
    "Word": "good",
    "Rel": 0.009408397351523098
   },
   {
    "Word": "real",
    "Rel": 0.009402035383959496
   },
   {
    "Word": "little",
    "Rel": 0.009401465074859597
   }
  ]
 },
 {
  "Number": 66,
  "Words": [
   {
    "Word": "let",
    "Rel": 0.017937061844179647
   },
   {
    "Word": "things",
    "Rel": 0.017934574277461025
   },
   {
    "Word": "baby",
    "Rel": 0.01198726955855251
   },
   {
    "Word": "call",
    "Rel": 0.011981534322782508
   },
   {
    "Word": "said",
    "Rel": 0.011981031998624814
   },
   {
    "Word": "know",
    "Rel": 0.011967203120038378
   },
   {
    "Word": "come",
    "Rel": 0.011894018196477495
   },
   {
    "Word": "day",
    "Rel": 0.011892107940994066
   },
   {
    "Word": "tell",
    "Rel": 0.011891586497054022
   },
   {
    "Word": "go",
    "Rel": 0.011891252026777916
   }
  ]
 },
 {
  "Number": 67,
  "Words": [
   {
    "Word": "give",
    "Rel": 0.01666150733292757
   },
   {
    "Word": "see",
    "Rel": 0.01666007733968504
   },
   {
    "Word": "know",
    "Rel": 0.016647709583125257
   },
   {
    "Word": "tell",
    "Rel": 0.012453343965533633
   },
   {
    "Word": "go",
    "Rel": 0.012452933703745143
   },
   {
    "Word": "time",
    "Rel": 0.01244828944228929
   },
   {
    "Word": "get",
    "Rel": 0.008392186821789974
   },
   {
    "Word": "thought",
    "Rel": 0.00838949934369487
   },
   {
    "Word": "die",
    "Rel": 0.008387326837438248
   },
   {
    "Word": "clear",
    "Rel": 0.008385139465224015
   }
  ]
 },
 {
  "Number": 68,
  "Words": [
   {
    "Word": "living",
    "Rel": 0.01600950418108319
   },
   {
    "Word": "love",
    "Rel": 0.015949087978777268
   },
   {
    "Word": "tonight",
    "Rel": 0.012018025615377492
   },
   {
    "Word": "look",
    "Rel": 0.012007800023104729
   },
   {
    "Word": "something",
    "Rel": 0.01200499396051719
   },
   {
    "Word": "take",
    "Rel": 0.01200364733658546
   },
   {
    "Word": "go",
    "Rel": 0.012001270037243586
   },
   {
    "Word": "know",
    "Rel": 0.01198502188703253
   },
   {
    "Word": "way",
    "Rel": 0.01198178773056962
   },
   {
    "Word": "nothing",
    "Rel": 0.0080115585142668
   }
  ]
 },
 {
  "Number": 69,
  "Words": [
   {
    "Word": "think",
    "Rel": 0.016000785244435375
   },
   {
    "Word": "love",
    "Rel": 0.01598567123297893
   },
   {
    "Word": "heart",
    "Rel": 0.01592179337464044
   },
   {
    "Word": "got",
    "Rel": 0.012003856700261106
   },
   {
    "Word": "way",
    "Rel": 0.011997729013325284
   },
   {
    "Word": "go",
    "Rel": 0.01199672642570911
   },
   {
    "Word": "life",
    "Rel": 0.011927254597952778
   },
   {
    "Word": "crazy",
    "Rel": 0.008028110925916342
   },
   {
    "Word": "lies",
    "Rel": 0.008024008463390337
   },
   {
    "Word": "say",
    "Rel": 0.00801798769757919
   }
  ]
 },
 {
  "Number": 70,
  "Words": [
   {
    "Word": "want",
    "Rel": 0.025700647663416218
   },
   {
    "Word": "take",
    "Rel": 0.025662382783907485
   },
   {
    "Word": "hand",
    "Rel": 0.025609457902310426
   },
   {
    "Word": "love",
    "Rel": 0.017149140882723794
   },
   {
    "Word": "baby",
    "Rel": 0.017147139270326302
   },
   {
    "Word": "way",
    "Rel": 0.017145783451932274
   },
   {
    "Word": "know",
    "Rel": 0.01714392089359373
   },
   {
    "Word": "got",
    "Rel": 0.017141182803649978
   },
   {
    "Word": "make",
    "Rel": 0.017125210701291724
   },
   {
    "Word": "right",
    "Rel": 0.01711800452672212
   }
  ]
 },
 {
  "Number": 71,
  "Words": [
   {
    "Word": "baby",
    "Rel": 0.02315309788572513
   },
   {
    "Word": "look",
    "Rel": 0.015477142087602671
   },
   {
    "Word": "make",
    "Rel": 0.015474161390234976
   },
   {
    "Word": "world",
    "Rel": 0.015470937867182042
   },
   {
    "Word": "face",
    "Rel": 0.015442367829012902
   },
   {
    "Word": "love",
    "Rel": 0.015407702855640476
   },
   {
    "Word": "got",
    "Rel": 0.015399428403283146
   },
   {
    "Word": "time",
    "Rel": 0.015398463893791884
   },
   {
    "Word": "tell",
    "Rel": 0.01539352911207955
   },
   {
    "Word": "knew",
    "Rel": 0.015341474609146602
   }
  ]
 },
 {
  "Number": 72,
  "Words": [
   {
    "Word": "got",
    "Rel": 0.02335096438322599
   },
   {
    "Word": "let",
    "Rel": 0.02333009863091129
   },
   {
    "Word": "turn",
    "Rel": 0.023287956444047728
   },
   {
    "Word": "time",
    "Rel": 0.015578404664668121
   },
   {
    "Word": "go",
    "Rel": 0.015574120417882906
   },
   {
    "Word": "life",
    "Rel": 0.015569732343316971
   },
   {
    "Word": "heart",
    "Rel": 0.015568864398017636
   },
   {
    "Word": "feeling",
    "Rel": 0.015556100345276163
   },
   {
    "Word": "good",
    "Rel": 0.015548430559007306
   },
   {
    "Word": "leave",
    "Rel": 0.015543680970784367
   }
  ]
 },
 {
  "Number": 73,
  "Words": [
   {
    "Word": "love",
    "Rel": 0.008891028507596134
   },
   {
    "Word": "way",
    "Rel": 0.008886161400780442
   },
   {
    "Word": "time",
    "Rel": 0.008885457305686052
   },
   {
    "Word": "say",
    "Rel": 0.00888433835370705
   },
   {
    "Word": "got",
    "Rel": 0.008882023152270475
   },
   {
    "Word": "life",
    "Rel": 0.008881915069544432
   },
   {
    "Word": "day",
    "Rel": 0.008878098056853896
   },
   {
    "Word": "let",
    "Rel": 0.008875543254551262
   },
   {
    "Word": "think",
    "Rel": 0.008875231113151517
   },
   {
    "Word": "look",
    "Rel": 0.008874495370928099
   }
  ]
 },
 {
  "Number": 74,
  "Words": [
   {
    "Word": "night",
    "Rel": 0.020196711363551743
   },
   {
    "Word": "baby",
    "Rel": 0.013453427065941043
   },
   {
    "Word": "take",
    "Rel": 0.013451055864308469
   },
   {
    "Word": "stay",
    "Rel": 0.013447051903760695
   },
   {
    "Word": "see",
    "Rel": 0.013445479746835957
   },
   {
    "Word": "make",
    "Rel": 0.013436146315557475
   },
   {
    "Word": "last",
    "Rel": 0.013436070151600586
   },
   {
    "Word": "love",
    "Rel": 0.01343536075469066
   },
   {
    "Word": "light",
    "Rel": 0.01343424023222286
   },
   {
    "Word": "turn",
    "Rel": 0.013432896288455735
   }
  ]
 },
 {
  "Number": 75,
  "Words": [
   {
    "Word": "get",
    "Rel": 0.012532006667465526
   },
   {
    "Word": "man",
    "Rel": 0.01252147108563023
   },
   {
    "Word": "run",
    "Rel": 0.012509160490527823
   },
   {
    "Word": "say",
    "Rel": 0.012498846891563177
   },
   {
    "Word": "playin",
    "Rel": 0.012495179413870787
   },
   {
    "Word": "funky",
    "Rel": 0.012494076602750063
   },
   {
    "Word": "love",
    "Rel": 0.01249081329380445
   },
   {
    "Word": "know",
    "Rel": 0.012484146447531931
   },
   {
    "Word": "leave",
    "Rel": 0.012482039541950901
   },
   {
    "Word": "come",
    "Rel": 0.012477983851156886
   }
  ]
 },
 {
  "Number": 76,
  "Words": [
   {
    "Word": "know",
    "Rel": 0.021242393334169482
   },
   {
    "Word": "right",
    "Rel": 0.021233903853121842
   },
   {
    "Word": "dreams",
    "Rel": 0.012780338839887571
   },
   {
    "Word": "let",
    "Rel": 0.012772652594337202
   },
   {
    "Word": "heart",
    "Rel": 0.01275594583257283
   },
   {
    "Word": "love",
    "Rel": 0.012740657333269944
   },
   {
    "Word": "keep",
    "Rel": 0.012692315557289913
   },
   {
    "Word": "night",
    "Rel": 0.012688907251923568
   },
   {
    "Word": "eyes",
    "Rel": 0.01268608402241891
   },
   {
    "Word": "got",
    "Rel": 0.012675030316640195
   }
  ]
 },
 {
  "Number": 77,
  "Words": [
   {
    "Word": "know",
    "Rel": 0.016911655736601316
   },
   {
    "Word": "get",
    "Rel": 0.01691047927902645
   },
   {
    "Word": "baby",
    "Rel": 0.011294850066525551
   },
   {
    "Word": "think",
    "Rel": 0.011289854225280591
   },
   {
    "Word": "good",
    "Rel": 0.011287561698640728
   },
   {
    "Word": "keep",
    "Rel": 0.011286788297370978
   },
   {
    "Word": "gotta",
    "Rel": 0.011279775491262167
   },
   {
    "Word": "talk",
    "Rel": 0.011274686480280826
   },
   {
    "Word": "like",
    "Rel": 0.011269530861126276
   },
   {
    "Word": "animal",
    "Rel": 0.011269008496723413
   }
  ]
 },
 {
  "Number": 78,
  "Words": [
   {
    "Word": "see",
    "Rel": 0.020107806682554897
   },
   {
    "Word": "time",
    "Rel": 0.02009956987157926
   },
   {
    "Word": "night",
    "Rel": 0.02009828304607867
   },
   {
    "Word": "go",
    "Rel": 0.020095575829177363
   },
   {
    "Word": "good",
    "Rel": 0.02006579973729618
   },
   {
    "Word": "stop",
    "Rel": 0.02002590042581729
   },
   {
    "Word": "new",
    "Rel": 0.02002279495994144
   },
   {
    "Word": "say",
    "Rel": 0.010033970519889546
   },
   {
    "Word": "get",
    "Rel": 0.010033404137251973
   },
   {
    "Word": "way",
    "Rel": 0.010027779714315522
   }
  ]
 },
 {
  "Number": 79,
  "Words": [
   {
    "Word": "want",
    "Rel": 0.011020906534252094
   },
   {
    "Word": "said",
    "Rel": 0.011015983756282531
   },
   {
    "Word": "put",
    "Rel": 0.011014265102744187
   },
   {
    "Word": "bring",
    "Rel": 0.0073672958844009555
   },
   {
    "Word": "place",
    "Rel": 0.00736641690092697
   },
   {
    "Word": "little",
    "Rel": 0.007366094849876166
   },
   {
    "Word": "worry",
    "Rel": 0.007365281056865325
   },
   {
    "Word": "head",
    "Rel": 0.007365275874176005
   },
   {
    "Word": "bed",
    "Rel": 0.007364917712390776
   },
   {
    "Word": "say",
    "Rel": 0.0073644603404212135
   }
  ]
 },
 {
  "Number": 80,
  "Words": [
   {
    "Word": "tonight",
    "Rel": 0.005381548672799359
   },
   {
    "Word": "look",
    "Rel": 0.005379875701523004
   },
   {
    "Word": "get",
    "Rel": 0.005373430335587287
   },
   {
    "Word": "make",
    "Rel": 0.00537330694540777
   },
   {
    "Word": "call",
    "Rel": 0.005368773732928994
   },
   {
    "Word": "dance",
    "Rel": 0.005367095233777694
   },
   {
    "Word": "got",
    "Rel": 0.005362398303738932
   },
   {
    "Word": "say",
    "Rel": 0.005362108073471911
   },
   {
    "Word": "find",
    "Rel": 0.005359260777680323
   },
   {
    "Word": "man",
    "Rel": 0.005357916390624471
   }
  ]
 },
 {
  "Number": 81,
  "Words": [
   {
    "Word": "time",
    "Rel": 0.018721157676756986
   },
   {
    "Word": "know",
    "Rel": 0.015595079577459368
   },
   {
    "Word": "love",
    "Rel": 0.015540224725776208
   },
   {
    "Word": "go",
    "Rel": 0.01252203491617669
   },
   {
    "Word": "way",
    "Rel": 0.012503238925313815
   },
   {
    "Word": "mind",
    "Rel": 0.012481982735338475
   },
   {
    "Word": "eyes",
    "Rel": 0.012470452742314281
   },
   {
    "Word": "let",
    "Rel": 0.012445501882926127
   },
   {
    "Word": "got",
    "Rel": 0.012402779184755531
   },
   {
    "Word": "find",
    "Rel": 0.009400493393319038
   }
  ]
 },
 {
  "Number": 82,
  "Words": [
   {
    "Word": "go",
    "Rel": 0.02248459472914554
   },
   {
    "Word": "take",
    "Rel": 0.022455349273677285
   },
   {
    "Word": "make",
    "Rel": 0.02245079998340248
   },
   {
    "Word": "keep",
    "Rel": 0.022438555058198084
   },
   {
    "Word": "well",
    "Rel": 0.02238833868115028
   },
   {
    "Word": "gotta",
    "Rel": 0.022367650471449944
   },
   {
    "Word": "want",
    "Rel": 0.011329618634659889
   },
   {
    "Word": "know",
    "Rel": 0.011324454004925136
   },
   {
    "Word": "see",
    "Rel": 0.011319741970458782
   },
   {
    "Word": "time",
    "Rel": 0.011315833149848053
   }
  ]
 },
 {
  "Number": 83,
  "Words": [
   {
    "Word": "love",
    "Rel": 0.01835629258916664
   },
   {
    "Word": "take",
    "Rel": 0.013793715076133146
   },
   {
    "Word": "day",
    "Rel": 0.013792873610462227
   },
   {
    "Word": "make",
    "Rel": 0.013791796771493657
   },
   {
    "Word": "home",
    "Rel": 0.013776660957371642
   },
   {
    "Word": "got",
    "Rel": 0.01377134902018575
   },
   {
    "Word": "see",
    "Rel": 0.013758259461725585
   },
   {
    "Word": "night",
    "Rel": 0.013758254346305244
   },
   {
    "Word": "poor",
    "Rel": 0.009194624429697564
   },
   {
    "Word": "come",
    "Rel": 0.009191873440277618
   }
  ]
 },
 {
  "Number": 84,
  "Words": [
   {
    "Word": "dreams",
    "Rel": 0.03172835781259088
   },
   {
    "Word": "way",
    "Rel": 0.029994058337683937
   },
   {
    "Word": "know",
    "Rel": 0.029122347793810018
   },
   {
    "Word": "live",
    "Rel": 0.021408298062257487
   },
   {
    "Word": "days",
    "Rel": 0.021375361935556607
   },
   {
    "Word": "sweet",
    "Rel": 0.02136000449332632
   },
   {
    "Word": "right",
    "Rel": 0.02011315229608057
   },
   {
    "Word": "say",
    "Rel": 0.020073294519439715
   },
   {
    "Word": "come",
    "Rel": 0.01966061615134745
   },
   {
    "Word": "tonight",
    "Rel": 0.018896609105695045
   }
  ]
 },
 {
  "Number": 85,
  "Words": [
   {
    "Word": "night",
    "Rel": 0.010435119922043068
   },
   {
    "Word": "take",
    "Rel": 0.010431691084197822
   },
   {
    "Word": "make",
    "Rel": 0.0104300653504278
   },
   {
    "Word": "got",
    "Rel": 0.010429481619569334
   },
   {
    "Word": "world",
    "Rel": 0.0069787575811905474
   },
   {
    "Word": "light",
    "Rel": 0.0069787240078115305
   },
   {
    "Word": "new",
    "Rel": 0.006977760207078446
   },
   {
    "Word": "play",
    "Rel": 0.006977443452215686
   },
   {
    "Word": "go",
    "Rel": 0.006976774426436957
   },
   {
    "Word": "white",
    "Rel": 0.006976212807475222
   }
  ]
 },
 {
  "Number": 86,
  "Words": [
   {
    "Word": "want",
    "Rel": 0.015741353053535342
   },
   {
    "Word": "feel",
    "Rel": 0.015724171624157124
   },
   {
    "Word": "time",
    "Rel": 0.01572309280456684
   },
   {
    "Word": "go",
    "Rel": 0.015722198462217514
   },
   {
    "Word": "say",
    "Rel": 0.015721203165359052
   },
   {
    "Word": "think",
    "Rel": 0.01571896826832396
   },
   {
    "Word": "find",
    "Rel": 0.01571667025578925
   },
   {
    "Word": "know",
    "Rel": 0.015715289311985937
   },
   {
    "Word": "things",
    "Rel": 0.015709638487418305
   },
   {
    "Word": "boy",
    "Rel": 0.015699360133665543
   }
  ]
 },
 {
  "Number": 87,
  "Words": [
   {
    "Word": "give",
    "Rel": 0.013962664658608044
   },
   {
    "Word": "say",
    "Rel": 0.013948845767515974
   },
   {
    "Word": "see",
    "Rel": 0.013931382754054172
   },
   {
    "Word": "time",
    "Rel": 0.013929355177608058
   },
   {
    "Word": "need",
    "Rel": 0.013880725167111526
   },
   {
    "Word": "heart",
    "Rel": 0.009319474679614024
   },
   {
    "Word": "doubt",
    "Rel": 0.009318043923178955
   },
   {
    "Word": "reasons",
    "Rel": 0.009315959361948995
   },
   {
    "Word": "move",
    "Rel": 0.009313829040316112
   },
   {
    "Word": "could",
    "Rel": 0.00931121081751154
   }
  ]
 },
 {
  "Number": 88,
  "Words": [
   {
    "Word": "give",
    "Rel": 0.011786681288969056
   },
   {
    "Word": "girl",
    "Rel": 0.011784995247979397
   },
   {
    "Word": "time",
    "Rel": 0.011784825653226094
   },
   {
    "Word": "get",
    "Rel": 0.01178468407995421
   },
   {
    "Word": "love",
    "Rel": 0.0117841006620507
   },
   {
    "Word": "home",
    "Rel": 0.011780768231163809
   },
   {
    "Word": "man",
    "Rel": 0.011775696057513739
   },
   {
    "Word": "put",
    "Rel": 0.011772606298136357
   },
   {
    "Word": "hanging",
    "Rel": 0.011769195886495276
   },
   {
    "Word": "way",
    "Rel": 0.005956066514922016
   }
  ]
 },
 {
  "Number": 89,
  "Words": [
   {
    "Word": "come",
    "Rel": 0.011900845958762611
   },
   {
    "Word": "make",
    "Rel": 0.01189847512871889
   },
   {
    "Word": "tonight",
    "Rel": 0.011873251629328114
   },
   {
    "Word": "say",
    "Rel": 0.01181420996796857
   },
   {
    "Word": "know",
    "Rel": 0.011798550991134268
   },
   {
    "Word": "bone",
    "Rel": 0.00796708692999725
   },
   {
    "Word": "heaven",
    "Rel": 0.007965867431176193
   },
   {
    "Word": "tears",
    "Rel": 0.007962933270312179
   },
   {
    "Word": "face",
    "Rel": 0.007956995455315903
   },
   {
    "Word": "give",
    "Rel": 0.007952193233441523
   }
  ]
 },
 {
  "Number": 90,
  "Words": [
   {
    "Word": "love",
    "Rel": 0.014819142508037187
   },
   {
    "Word": "come",
    "Rel": 0.014746465959733434
   },
   {
    "Word": "baby",
    "Rel": 0.009930642341315703
   },
   {
    "Word": "get",
    "Rel": 0.009926874801754791
   },
   {
    "Word": "sweet",
    "Rel": 0.00992355720503255
   },
   {
    "Word": "head",
    "Rel": 0.009917082252383988
   },
   {
    "Word": "sugar",
    "Rel": 0.009913097177357085
   },
   {
    "Word": "tears",
    "Rel": 0.009851871529001518
   },
   {
    "Word": "wishing",
    "Rel": 0.009850418635398626
   },
   {
    "Word": "night",
    "Rel": 0.009846371041244242
   }
  ]
 },
 {
  "Number": 91,
  "Words": [
   {
    "Word": "know",
    "Rel": 0.02307704664664496
   },
   {
    "Word": "eyes",
    "Rel": 0.02303629473493969
   },
   {
    "Word": "found",
    "Rel": 0.023019529333753078
   },
   {
    "Word": "sure",
    "Rel": 0.02295755668974767
   },
   {
    "Word": "share",
    "Rel": 0.022939066668453925
   },
   {
    "Word": "endless",
    "Rel": 0.02292768820303163
   },
   {
    "Word": "way",
    "Rel": 0.011621033320434345
   },
   {
    "Word": "time",
    "Rel": 0.011605897096611027
   },
   {
    "Word": "think",
    "Rel": 0.011592651723376495
   },
   {
    "Word": "waiting",
    "Rel": 0.011573775138235457
   }
  ]
 },
 {
  "Number": 92,
  "Words": [
   {
    "Word": "hard",
    "Rel": 0.011626029516953698
   },
   {
    "Word": "need",
    "Rel": 0.011613058809103946
   },
   {
    "Word": "many",
    "Rel": 0.010769497655354747
   },
   {
    "Word": "say",
    "Rel": 0.009800418847619542
   },
   {
    "Word": "know",
    "Rel": 0.009744306211070157
   },
   {
    "Word": "seem",
    "Rel": 0.007761316218325183
   },
   {
    "Word": "gone",
    "Rel": 0.007756585307988529
   },
   {
    "Word": "end",
    "Rel": 0.0077524124738718135
   },
   {
    "Word": "day",
    "Rel": 0.007750844008143265
   },
   {
    "Word": "care",
    "Rel": 0.007743820611158717
   }
  ]
 },
 {
  "Number": 93,
  "Words": [
   {
    "Word": "good",
    "Rel": 0.01757655380712927
   },
   {
    "Word": "love",
    "Rel": 0.017505869059700797
   },
   {
    "Word": "true",
    "Rel": 0.011776873634781174
   },
   {
    "Word": "air",
    "Rel": 0.011755975509953966
   },
   {
    "Word": "give",
    "Rel": 0.011738931107687253
   },
   {
    "Word": "live",
    "Rel": 0.011732340032728909
   },
   {
    "Word": "chance",
    "Rel": 0.011730209562015138
   },
   {
    "Word": "place",
    "Rel": 0.011725256290824835
   },
   {
    "Word": "get",
    "Rel": 0.01168774320102979
   },
   {
    "Word": "baby",
    "Rel": 0.01168750775530884
   }
  ]
 },
 {
  "Number": 94,
  "Words": [
   {
    "Word": "love",
    "Rel": 0.021597530702049613
   },
   {
    "Word": "say",
    "Rel": 0.01302068694218636
   },
   {
    "Word": "let",
    "Rel": 0.012965582607964469
   },
   {
    "Word": "make",
    "Rel": 0.01296263232805325
   },
   {
    "Word": "time",
    "Rel": 0.012962296221865363
   },
   {
    "Word": "know",
    "Rel": 0.012938421798456261
   },
   {
    "Word": "desert",
    "Rel": 0.01293826912360024
   },
   {
    "Word": "take",
    "Rel": 0.012895749693735751
   },
   {
    "Word": "ask",
    "Rel": 0.00868042755193203
   },
   {
    "Word": "understand",
    "Rel": 0.008679635445234953
   }
  ]
 },
 {
  "Number": 95,
  "Words": [
   {
    "Word": "searching",
    "Rel": 0.014695756657425191
   },
   {
    "Word": "let",
    "Rel": 0.014645426656526624
   },
   {
    "Word": "love",
    "Rel": 0.014626317988021775
   },
   {
    "Word": "world",
    "Rel": 0.014620633149933034
   },
   {
    "Word": "life",
    "Rel": 0.014619904360778764
   },
   {
    "Word": "know",
    "Rel": 0.014606638358084062
   },
   {
    "Word": "see",
    "Rel": 0.009839628908835517
   },
   {
    "Word": "way",
    "Rel": 0.009824798900853445
   },
   {
    "Word": "feel",
    "Rel": 0.00982267428690003
   },
   {
    "Word": "need",
    "Rel": 0.009818159645308354
   }
  ]
 },
 {
  "Number": 96,
  "Words": [
   {
    "Word": "love",
    "Rel": 0.022108454406750935
   },
   {
    "Word": "know",
    "Rel": 0.021381735147631066
   },
   {
    "Word": "take",
    "Rel": 0.019868204348861673
   },
   {
    "Word": "eyes",
    "Rel": 0.016829615988139833
   },
   {
    "Word": "way",
    "Rel": 0.016054214751084272
   },
   {
    "Word": "tell",
    "Rel": 0.014937672487469949
   },
   {
    "Word": "want",
    "Rel": 0.014932934308452373
   },
   {
    "Word": "someone",
    "Rel": 0.014931656861645328
   },
   {
    "Word": "see",
    "Rel": 0.01491035324360647
   },
   {
    "Word": "new",
    "Rel": 0.014910161037742656
   }
  ]
 },
 {
  "Number": 97,
  "Words": [
   {
    "Word": "love",
    "Rel": 0.03184112727271342
   },
   {
    "Word": "feel",
    "Rel": 0.021270628744300496
   },
   {
    "Word": "want",
    "Rel": 0.021268490229824563
   },
   {
    "Word": "see",
    "Rel": 0.02126104361492269
   },
   {
    "Word": "eyes",
    "Rel": 0.02116571052484581
   },
   {
    "Word": "know",
    "Rel": 0.021068013282281365
   },
   {
    "Word": "hungry",
    "Rel": 0.021055062369557523
   },
   {
    "Word": "get",
    "Rel": 0.02104763462273523
   },
   {
    "Word": "free",
    "Rel": 0.020981396655456733
   },
   {
    "Word": "hold",
    "Rel": 0.010697257266480426
   }
  ]
 },
 {
  "Number": 98,
  "Words": [
   {
    "Word": "let",
    "Rel": 0.014874781597603401
   },
   {
    "Word": "know",
    "Rel": 0.014852241318730022
   },
   {
    "Word": "babe",
    "Rel": 0.011180860436729003
   },
   {
    "Word": "girl",
    "Rel": 0.011177897358159465
   },
   {
    "Word": "come",
    "Rel": 0.011176749224348049
   },
   {
    "Word": "way",
    "Rel": 0.011174494709133733
   },
   {
    "Word": "make",
    "Rel": 0.011170148723484031
   },
   {
    "Word": "love",
    "Rel": 0.011151390412790133
   },
   {
    "Word": "got",
    "Rel": 0.011150797391308328
   },
   {
    "Word": "say",
    "Rel": 0.011148562858649111
   }
  ]
 },
 {
  "Number": 99,
  "Words": [
   {
    "Word": "say",
    "Rel": 0.018609449622329674
   },
   {
    "Word": "come",
    "Rel": 0.018601490686328537
   },
   {
    "Word": "take",
    "Rel": 0.009302536834374767
   },
   {
    "Word": "hear",
    "Rel": 0.009293239332021745
   },
   {
    "Word": "man",
    "Rel": 0.009290864663443841
   },
   {
    "Word": "said",
    "Rel": 0.009286520715052603
   },
   {
    "Word": "much",
    "Rel": 0.009283502972599661
   },
   {
    "Word": "made",
    "Rel": 0.009280744502028676
   },
   {
    "Word": "see",
    "Rel": 0.009280512846126462
   },
   {
    "Word": "hold",
    "Rel": 0.009279525073765258
   }
  ]
 }
]