[
 {
  "Chart": {
   "Year": 1990,
   "ChartPosition": 1,
   "Artist": "Wilson Phillips",
   "Title": "Hold On"
  },
  "Lyrics": "[Verse 1]\nI know this pain (I know this pain)\nWhy do you lock yourself up in these chains? (These chains)\nNo one can change your life except for you\nDon't ever let anyone step all over you\nJust open your heart and your mind\nIs it really fair to feel this way inside?\nOh\n\n[Chorus]\nSomeday, somebody's gonna make you wanna\nTurn around and say goodbye\nUntil then, baby, are you gonna let them\nHold you down and make you cry?\nDon't you know?\nDon't you know things can change?\nThings'll go your way\nIf you hold on for one more day\nCan you hold on for one more day?\nThings'll go your way\nHold on for one more day\n\n[Verse 2]\nYou could sustain (Sustain)\nOr are you comfortable with the pain?\nYou've got no one to blame for your unhappiness (No, baby)\nYou got yourself into your own mess (Oh)\nLettin' your worries pass you by (Lettin' your worries pass you by)\nDon't you think it's worth your time\nTo change your mind?\nOoh, no\n\n[Chorus]\nSomeday, somebody's gonna make you wanna\nTurn around and say goodbye\nUntil then, baby, are you gonna let them\nHold you down and make you cry?\nDon't you know?\nDon't you know things can change?\nThings'll go your way\nIf you hold on for one more day\nCan you hold on for one more day?\nThings'll go your way (Things'll go your way)\nHold on for one more day\n\n[Bridge]\nI know that there is pain\nBut you hold on for one more day and\nBreak free from the chains\nYeah, I know that there is pain\nBut you hold on for one more day and you\nBreak free, break from the chains\n\n[Chorus]\nSomeday, somebody's gonna make you wanna\nTurn around and say goodbye (Say goodbye)\nUntil then, baby, are you gonna let them\nHold you down and make you cry?\nDon't you know?\nDon't you know things can change?\nThings'll go your way\nIf you hold on for one more day, yeah\nIf you hold on\nDon't you know things can change?\nThings'll go your way\nIf you hold on for one more day\nIf you hold on\nCan you hold on?\nHold on, baby\nWon't you tell me now?\nHold on for one more day 'cause\nIt's gonna go your way\nDon't you know things can change?\nThings'll go your way\nIf you hold on for one more day, yeah\nCan't you change it this time?\n\n[Outro]\nMake up your mind\nHold on\nHold on\nBaby, hold on\nHold on, hold on, baby",
  "LyricURL": "https://genius.com/Wilson-phillips-hold-on-lyrics",
  "FullTitle": "Hold On"
 },
 {
  "Chart": {
   "Year": 1990,
   "ChartPosition": 2,
   "Artist": "Roxette",
   "Title": "It Must Have Been Love"
  },
  "Lyrics": "[Verse 1]\nLay a whisper on my pillow\nLeave the winter on the ground\nI wake up lonely\nThis air of silence\nIn the bedroom and all around\nTouch me now\nI close my eyes\nAnd dream away\n\n[Chorus]\nIt must have been love\nBut it's over now\nIt must have been good\nBut I lost it somehow\nIt must have been love\nBut it's over now\nFrom the moment we touched\nTill the time had run out\n\n[Verse 2]\nMake believing we're together\nThat I'm sheltered by your heart\nBut in and outside\nI turn to water\nLike a teardrop in your palm\nAnd it's a hard\nWinter's day\nI dream away\n\n[Chorus]\nIt must have been love\n(Must have been love)\nBut it's over now\n(It's over now)\nIt was all that I wanted\nNow I'm living without\nIt must have been love\n(Must have been love)\n\n[Bridge]\nBut it's over now\n(It's over now)\nIt's where the water flows\nIt's where the wind blows\n\n[Instrumental Break]\n\n[Chorus]\nIt must have been love\n(Must have been love)\nBut it's over now\n(It's over now)\nIt must have been good\nBut I lost it somehow\nIt must have been love\n(Must have been love)\nBut it's over now\n(It's over now)\nFrom the moment we touched\nTill the time had run out\nYeah, it must have been love\n(Must have been love)\nBut it's over now\n(It's over now)\nIt was all that I wanted\nNow I'm living without\nIt must have been love\nBut it's over now\nIt's where the water flows\nIt's where the wind blows\n\n[Outro]\n(Must have been love)\nIt must have been love\nBut it's over now\nNo, no, no",
  "LyricURL": "https://genius.com/Roxette-it-must-have-been-love-lyrics",
  "FullTitle": "It Must Have Been Love"
 },
 {
  "Chart": {
   "Year": 1990,
   "ChartPosition": 3,
   "Artist": "Sinead O'connor",
   "Title": "Nothing Compares 2 U"
  },
  "Lyrics": "[Verse 1]\nIt's been seven hours and fifteen days\nSince you took your love away\nI go out every night and sleep all day\nSince you took your love away\nSince you've been gone I can do whatever I want\nI can see whomever I choose\nI can eat my dinner in a fancy restaurant\nBut nothing... I said nothing can take away these blues\n\n[Chorus]\n'Cause nothing compares\nNothing compares to you\n\n[Verse 2]\nIt's been so lonely without you here\nLike a bird without a song\nNothing can stop these lonely tears from falling\nTell me, baby, where did I go wrong\nI could put my arms around every boy I see\nBut they'd only remind me of you\nI went to the doctor and guess what he told me, guess what he told me?\nHe said, \"Girl, you better try to have fun no matter what you do,\" but he's a fool\n\n[Chorus]\n'Cause nothing compares\nNothing compares to you\n\n[Interlude]\n\n[Bridge]\nAll the flowers that you planted, mama, in the back yard\nAll died when you went away\nI know that living with you, baby, was sometimes hard\nBut I'm willing to give it another try\n\n[Outro]\nNothing compares\nNothing compares to you\nNothing compares\nNothing compares to you\nNothing compares\nNothing compares to you",
  "LyricURL": "https://genius.com/Sinead-oconnor-nothing-compares-2-u-lyrics",
  "FullTitle": "Nothing Compares 2 U"
 },
 {
  "Chart": {
   "Year": 1990,
   "ChartPosition": 4,
   "Artist": "Bell Biv Devoe",
   "Title": "Poison"
  },
  "Lyrics": "[Intro]\n[Michael Bivins]\nYeah, Spyderman and Freeze in full effect\n[Ronnie DeVoe]\nUh-huh\n[Ricky Bell]\nYou ready, Ron?\n[DeVoe]\nI'm ready\n[Bell]\nYou ready, Biv?\n[Bivins]\nI'm ready, Slick, are you?\n[Bell]\nOh, yeah, break it down\n\n[Verse One]\n[Bivins]\nGirl, I, must (warn you)\nI sense something strange in my mind\n\n[Devoe]\nSituation is (serious)\nLet's cure it cause we're running out of time\n\n[Bell]\nIt's oh, so (beautiful)\nRelationships they seem from the start\nIt's all so (deadly)\nWhen love is not together from the heart\n\n[Hook - Ricky Bell]\nIt's drivin' me out of my mind!\nThat's why it's HARD for me to find\nCan't get it out of my head!\nMiss her, kiss her, love her\n(Wrong move you're dead!)\n\n[Hook]\nThat girl is (poison)...\nNever trust a big butt and smile\nThat girl is (poison)..\n(\"POISON!!\")\n\n[Verse Two]\n[Bivins]\n[If I were you I'd take pre-]\n(-caution)\nBefore I start to meet a fly girl, you know?\n\n[Devoe]\nCause in some (portions)\nYou'll think she's the best thing in the world\n\n[Bell]\nShe's so - (fly)\nShe'll drive you right out of your mind\nAnd steal your heart when you're blind\nBeware she's schemin', she'll make you think you're dreamin'\nYOU'LL fall in love and you'll be screamin', demon, HOO..\n\n[Ronnie Devoe - Rap Verse 1]\nPoison, deadly, movin' in slow\nLookin for a mellow fellow like DeVoe\nGettin paid, laid, so better lay low\nSchemin on house, money, and the whole show\nThe low pro ho she'll be cut like an aaa-FRO\nSee what you're sayin', huh, she's a winner to you\nBut I know she's a loser (How do you know?)\nMe and the crew used to do her!\n\n[Bridge: all]\n\n\"POISON!\"\n\"POISON!\"\n\"POISON!\"\n\"POISON!\"\n\"POISON!\"\n\"POISON!\"\n\"POISON!\"\n\"POISON!\n\"POISON!\"\n\"POISON!\"\n\"POISON!\"\n\"POISON!\n\"POISON!\"\n\"POISON!\"\n\"POISON!\"\n\"POISON!\n\n\n[Michael Bivins]\nI was at the park, shake, breakin and takin 'em all\nAnd that night, I played the wall\nCheckin' out the fellas, the highs and lows\nKeepin' one eye open, still clockin' the hoes\nThere was one particular girl that stood out from the rest\nPoison as can be, the high power chest\nMichael Biv here and I'm runnin' the show\nBell, Biv DeVoe [Ronnie laughs]\n..now you know!\nYo, Slick, blow..\n\n[Hook]\nIt's drivin' me out of my mind!\nThat's why it's HARD for me to find\nCan't get it out of my head!\nMiss her, kiss her, love her\n(Wrong move you're dead!)\n\n[Hook]\nThat girl is (poison)...\nNever trust a big butt and smile\nThat girl is (poison)..\n(\"POISON!!\")\n\n\n[B.B.D. adlibs]\nYo' fellas, that was my end of..\nYou know what I'm sayin', Mike?\nYeah, B.B.D. in full effect\nYo', wassup to Ralph T and Johnny G\nAnd I can't forget about my boy, B. Brown\nAnd the whole NE crew\n\nPoison..\n[Bell harmonies]",
  "LyricURL": "https://genius.com/Bell-biv-devoe-poison-lyrics",
  "FullTitle": "Poison"
 },
 {
  "Chart": {
   "Year": 1990,
   "ChartPosition": 5,
   "Artist": "Madonna",
   "Title": "Vogue"
  },
  "Lyrics": "Ayo, I got a slight problem I smoke weed too much\nKnees buckle the f*ck up when I'm splittin' my dutch\nBack up back up! Ain't nobody hittin' for free\nIt's just E Doubl-E, Keith Murray, and me\nIt cost twenty if you're down with it\nAyo son I ride around with my hooptie tinted\nTo ride around blitted\nCause I be feignin' for that pookie\nI smoke the good sh, save the backyard boogie for all groupies\nAnd I be, smokin' up the hotel lobby\nBetween mo' sheets than the Isleys, I'm high G\nI'm holdin' it down for the be-Rrrah-I-see\nK, blaze, tell you to get bluhh politely\n(Hit the funky if you're riding around gettin' blitz)\nAsk me if I love the rap game, I, I'm loving it\nCause I can do what the ow f*ck I feel is real\nBlaze the poot with D. Don and tell uh to get the dills\n\nI smoke on and on on, ya don't stop\nI'm gettin' mad f*cked up and ya don't stop\nTo all my real dogs, all my real pals\nWho ain't smokin', get the f*ck ow\nI smoke on and on on, ya don't stop\nI'm gettin' mad f*cked up and ya don't stop\nTo all my real dogs, all my real pals\nWho ain't smokin', get the f*ck ow\n\nI just love tokin', blackin' out like Tame in the open\nOf course I got the raw dog no need to stick your nose in\nGave you a straight up shotgun when we was smokin'\nFroze you so fast, you looked it like Madonna Vogue-in\nAw! I got the sh to get your whole click high\nWe can get high, but act funny and I'ma whip out\nAnd they gon' whip out, and blow notes like Michel'le\nCause you tried to jump the cipher and it goes this-a-way\n\nI smoke on and on on, ya don't stop\nI'm gettin' mad f*cked up and ya don't stop\nTo all my real dogs, all my real pals\nWho ain't smokin', get the f*ck ow\nI smoke on and on on, ya don't stop\nI'm gettin' mad f*cked up and ya don't stop\nTo all my real dogs, all my real pals\nWho ain't smokin', get the f*ck ow\nSmoke Buddah, smoke Buddah\n\nThe song you're about to hear, is sponsored by\nNas whip\nNiggas against smokin' weed in public places\nA subdivision of I-K-S-R-F-O\nI'm knockin' somebody right the f*ck out",
  "LyricURL": "https://www.lyrics.com/lyric/27272661/Redman/Smoke+Buddah",
  "FullTitle": "Vogue"
 },
 {
  "Chart": {
   "Year": 1990,
   "ChartPosition": 6,
   "Artist": "Mariah Carey",
   "Title": "Vision Of Love"
  },
  "Lyrics": "[Verse 1]\nTreated me kind\nSweet destiny\nCarried me through desperation\nTo the one that was waiting for me\nIt took so long\nStill I believed\nSomehow the one that I needed\nWould find me eventually\n\n[Chorus]\nI had a vision of love\nAnd it was all that you've given to me\n\n[Verse 2]\nPrayed through the nights\nFelt so alone\nSuffered from alienation\nCarried the weight on my own\nHad to be strong\nSo I believed\nAnd now I know I've succeeded\nIn finding the place I conceived\n\n[Chorus]\nI had a vision of love\nAnd it was all that you've given to me\nI had a vision of love\nAnd it was all that you've given me\n\n[Bridge]\nI've realized the dream\nAnd I visualized\nThe love that came to be\nFeel so alive\nI'm so thankful that I've received\nThe answer that heaven has sent down to me\n\n[Verse 3]\nYou treated me kind\nSweet destiny\nAnd I'll be eternally grateful\nHolding you so close to me\nPrayed through the nights\nSo faithfully\nKnowing the one that I needed\nWould find me eventually\n\n[Chorus]\nI had a vision of love\nAnd it was all that you've given to me\nI had a vision of love\nAnd it was all that you turned out to be",
  "LyricURL": "https://genius.com/Mariah-carey-vision-of-love-lyrics",
  "FullTitle": "Vision of Love"
 },
 {
  "Chart": {
   "Year": 1990,
   "ChartPosition": 7,
   "Artist": "Phil Collins",
   "Title": "Another Day In Paradise"
  },
  "Lyrics": "[Verse 1]\nShe calls out to the man on the street\n\"Sir, can you help me?\nIt's cold and I've nowhere to sleep\nIs there somewhere you can tell me?\"\n\nHe walks on, doesn't look back\nHe pretends he can't hear her\nStarts to whistle as he crosses the street\nSeems embarrassed to be there\n\n[Chorus]\nOh, think twice, it's another day for\nYou and me in paradise\nOh, think twice, it's just another day for you\nYou and me in paradise\n\n[Interlude]\nThink about it\n\n[Verse 2]\nShe calls out to the man on the street\nHe can see she's been crying\nShe's got blisters on the soles of her feet\nShe can't walk but she's trying\n\n[Chorus]\nOh, think twice, 'cause it's another day for\nYou and me in paradise\nOh, think twice, it's just another day for you\nYou and me in paradise\n\n[Interlude]\nJust think about it\n\n[Bridge]\nOh lord, is there nothing more anybody can do?\nOh lord, there must be something you can say\n\n[Verse 3]\nYou can tell from the lines on her face\nYou can see that she's been there\nProbably been moved on from every place\n'cos she didn't fit in there\n\n[Chorus]\nOh, think twice, 'cause it's another day for\nYou and me in paradise\nOh, think twice, it's just another day for you\nYou and me in paradise\n\n[Outro]\nJust think about it\nMhm\nThink about it\nIt's just another day\nFor you and me in paradise\nIt's just another day\nFor you and me in paradise\n(Para-, paradise)\nParadise\nUh, just think about it\nParadise\nJust think about it\n(Para-, paradise)\nUh, in Paradise\nMhm, paradise\nParadise",
  "LyricURL": "https://genius.com/Phil-collins-another-day-in-paradise-lyrics",
  "FullTitle": "Another Day In Paradise"
 },
 {
  "Chart": {
   "Year": 1990,
   "ChartPosition": 8,
   "Artist": "Envogue",
   "Title": "Hold On"
  },
  "Lyrics": "Hold on \n\r\nHold on to yourself \n\r\nfor this is gonna hurt like hell. \n\n\n\r\nHold on \n\r\nHold on to yourself. \n\r\nYou know that only time can tell \n\n\n\r\nwhat is it in me that refuses to believe \n\r\nthis isn't easier than the real thing. \n\n\n\r\nMy love \n\r\nyou know that you're my best friend. \n\r\nYou know that I'd do anything for you \n\r\nand my love \n\r\nlet nothing come between us \n\r\nmy love for you is strong and true. \n\n\n\r\nAm I in heaven here or \n\r\nam I... \n\r\nAt the crossroads I am standing. \n\n\n\r\nSo now you're sleeping peaceful \n\r\nI lie awake and pray \n\r\nthat you'll be strong tomorrow \n\r\nand will see another day \n\r\nand we will praise it \n\r\nand love the light that brings a smile \n\r\nacross your face. \n\n\n\r\nOh god \n\r\nif you're out there won't you hear me. \n\r\nI know we're never talked before \n\n\n\r\nand oh god \n\r\nthe man I love is leaving \n\r\nwon't you take him when he comes to your door. \n\n\n\r\nAm I in heaven here or \n\r\nam I in hell \n\r\nat the crossroads I am standing. \n\n\n\r\nSo now you're sleeping peaceful \n\r\nI lie awake and pray \n\r\nthat you'll be strong tomorrow \n\r\nand we will see another day \n\r\nand we will praise it \n\r\nand love the light that brings a smile \n\r\nacross your face \n\n\n\r\nHold on \n\r\nhold on to yourself \n\r\nfor this is gonna hurt like hell.",
  "LyricURL": "https://www.lyricsplanet.com/lyrics.php?id=3471",
  "FullTitle": "Hold On"
 },
 {
  "Chart": {
   "Year": 1990,
   "ChartPosition": 9,
   "Artist": "Billy Idol",
   "Title": "Cradle Of Love"
  },
  "Lyrics": "Well rock the cradle of love\nRock the cradle of love\nYes the cradle of love don't rock easily It's true\n\nWell rock the cradle of love\nI rocked the cradle of love\nYes the cradle of love don't rock easily It's true\nWell now\n\nIt burned like a ball of fire\nWhen the rebel took a little child bride\nTo tease yeah so go easy yeah\n\nCause love cuts a million ways\nShakes the devil when he misbehaves\nI ain't nobody's fool\nCome on shake it up\nWhatever I do\n\nRock the cradle of love\nRock the cradle of love\nYes the cradle of love don't rock easily It's true\nSent from heaven above that's right\nTo rob the cradle of love\nYes the pages of love don't talk decently It's true\n\nYeah flesh for your Romeo\nAh yeah baby\nI hear you moan\nIt's easy y'know how to please me yeah\n\nThis love starts my rollin' train\nYou can't stop it\nIt ain't in vain\nI ain't nobody's fool\nCome on shake it up\nWhatever you do\n\nThese are the wages of love\nRock the cradle of love\nThese are the wages of love\nOoh yeah\nRock the cradle\nYeah yeah yeah yeah yeah yeah\n\nWell it burned like a ball on fire\nWhen the rebel took a little child bride\nTo tease yeah I know how to please you yeah\n\nWell my love starts a rollin' train\nYou can't stop it\nIt ain't in vain\nI ain't nobody's fool\n\nCome on shake it up\nWhatever I do\n\nRock the cradle of love\nRock the cradle of love\nSent from heaven above\nThat's right\nTo rock the cradle of love\nRock the cradle of love\nYeah cradle of love\nThat's me mama\nI robbed the devil of love\nAll right\nCradle of love\nIf you tease me tonight\nIf you sleaze me all right\nIf you appease me tonight\nAnd let me ease you\nCradle of love",
  "LyricURL": "https://genius.com/Billy-idol-cradle-of-love-lyrics",
  "FullTitle": "Cradle of Love"
 },
 {
  "Chart": {
   "Year": 1990,
   "ChartPosition": 10,
   "Artist": "Bon Jovi",
   "Title": "Blaze Of Glory"
  },
  "Lyrics": "[Verse 1]\nI wake up in the morning and I raise my weary head\nI've got an old coat for a pillow, and the earth was last night's bed\nI don't know where I'm goin', only God knows where I've been\nI'm a devil on the run, a six gun lover, a candle in the wind\n\n[Verse 2]\nWhen you're brought into this world, they say you're born in sin\nWell, at least they gave me somethin', I didn't have to steal or have to win\nWell, they tell me that I'm wanted, yeah, I'm a wanted man\nI'm a colt in your stable, I'm what Cain was to Abel, Mr. Catch-Me-If-You-Can\n\n[Chorus 1]\nI'm goin' down in a blaze of glory\nTake me now but know the truth\nI'm goin' out in a blaze of glory\nAnd, Lord, I never drew first, but I drew first blood\nI'm no one's son, call me young gun\n\n[Verse 3]\nYou ask about my conscience and I offer you my soul\nYou ask If I'll grow to be a wise man, well I ask if I'll grow old\nYou ask me if I've known love and what it's like to sing songs in the rain\nWell, I've seen love come, I've seen it shot down, I've seen it die in vain\n\n[Chorus 2]\nShot down in a blaze of glory\nTake me now but know the truth\n'Cause I'm goin' out in a blaze of glory\nLord, I never drew first but I drew first blood\nI'm the devil's son, call me young gun\n\n[Guitar Solo]\n\n[Bridge]\nEach night I go to bed, I pray the Lord my soul to keep\nNo, I ain't lookin' for forgiveness, but before I'm six foot deep\nLord, I gotta ask a favor, and I'll hope you'll understand\n'Cause I've lived life to the fullest, let this boy die like a man\nStarin' down a bullet, let me make my final stand\n\n[Chorus 2]\nShot down in a blaze of glory\nTake me now but know the truth\nI'm goin' out in a blaze of glory\nLord, I never drew first but I drew first blood\nAnd I'm no one's son, call me young gun\nI'm a young gun\nYoung gun\nYoung gun",
  "LyricURL": "https://genius.com/Bon-jovi-blaze-of-glory-lyrics",
  "FullTitle": "Blaze of Glory"
 },
 {
  "Chart": {
   "Year": 1990,
   "ChartPosition": 11,
   "Artist": "Bell Biv Devoe",
   "Title": "Do Me"
  },
  "Lyrics": "[Verse 1]\nTake a good look at me\nTell me do you like what you see\nDo you think you can\nDo you think you can do me\nKiss me pretty baby\nAnd touch me all over\nGirl what makes you think you can do me\nDo you think you can do me girl?\n\n[Hook]\nDo me baby\n(oh)\nDo me baby\n(do you think you can)\nDo me baby\n(do me)\nDo me baby\n(oh yeah)\n\n[Verse 2]\nGirl let your hair down\nTake off your clothes and leave on your shoes\nWould you mind if I look at you for a moment\nBefore I make sweet love\nBackstage, under age, adolescent\n\"How ya doin'?\" \"Fine,\" she replied\nI siiighed, I like to do the wild thing\nAction took place\nKinda wet\nDon't forget\nThe J the I the M the M the Y y'all\nI need a body bag\n\n[Hook]\nDo me baby\n(oh)\nDo me baby\n(you can do me when you wanna do me)\nDo me baby\n(yeah yeah)\nDo me baby\n(oh yeah)\nDo me baby\n(I like it in the morning time)\nDo me baby\n(sometimes I love it in the evening baby)\nDo me baby\n(can you do me all over girl)\nDo me baby\n(oh yeah)\n\n[Verse 3]\nThe time was 6 o'clock on the Swatch watch\nNo time to chill, got a date\nCan't be late\nHey, the girl is gonna do me\nMove to the jacuzzi\nOoh that booty\nSmack it up, flip it, rub it down, oh no...\n\n[Hook]\nDo me baby\n(yeah)\nDo me baby\n(oh I like it just like that)\nDo me baby\n(oh yeah)\nDo me baby\n(oh move just a little bit closer)\n\n[Bridge]\nYou can do me in the morning\nYou can do me in the night\nYou can do me when you wanna do me\nYou can do me in the morning\nYou can do me in the night\nYou can do me when you wanna do me",
  "LyricURL": "https://genius.com/Bell-biv-devoe-do-me-lyrics",
  "FullTitle": "Do Me!"
 },
 {
  "Chart": {
   "Year": 1990,
   "ChartPosition": 12,
   "Artist": "Michael Bolton",
   "Title": "How Am I Supposed To Live Without You"
  },
  "Lyrics": "[Verse 1]\nI could hardly believe it, when I heard the news today\nI had to come and get it straight from you\nThey said you were leavin', someone's swept your heart away\nFrom the look upon your face I see it's true\n\n[Pre-Chorus 1]\nSo tell me all about it, tell me 'bout the plans you're makin'\nOh, then tell me one thing more before I go\n\n[Chorus]\nTell me how am I supposed to live without you\nNow that I've been loving you so long\nHow am I supposed to live without you\nAnd how am I supposed to carry on\nWhen all that I've been livin' for is gone\n\n[Verse 2]\nI'm too proud for cryin', didn't come here to break down\nIt's just a dream of mine is coming to an end\nAnd how can I blame you when I built my world around\nThe hope that one day we'd be so much more than friends?\n\n[Pre-Chorus 2]\nI don't wanna know the price I'm gonna pay for dreaming, oh\nEven now it's more than I can take\n\n[Chorus]\nTell me how am I supposed to live without you\nNow that I've been loving you so long\nHow am I supposed to live without you\nAnd how am I supposed to carry on\nWhen all that I've been livin' for is gone\n\n[Pre-Chorus 3]\nNow I don't wanna know the price I'm gonna pay for dreaming\nOh, now that your dream has come true\n\n[Chorus]\nTell me how am I supposed to live without you\nNow that I've been lovin' you so long\nHow am I supposed to live without you\nAnd how am I supposed to carry on\nWhen all that I've been livin' for is gone",
  "LyricURL": "https://genius.com/Michael-bolton-how-am-i-supposed-to-live-without-you-lyrics",
  "FullTitle": "How Am I Supposed to Live Without You"
 },
 {
  "Chart": {
   "Year": 1990,
   "ChartPosition": 13,
   "Artist": "Technotronic",
   "Title": "Pump Up The Jam"
  },
  "Lyrics": "[Chorus]\nPump up the jam\nPump it up\nWhile your feet are stomping\nAnd the jam is pumping\nLook ahead, the crowd is jumpin'\nPump it up a little more\nGet the party goin' on the dance floor\nSee, cause that's where the party's at\nAnd you'd find out if you do that\n\n[Hook]\nI don't want\nA place to stay\nGet your booty on the floor tonight\nMake my day\nI don't want\nA place to stay\nGet your booty on the floor tonight\nMake my day\n\n[Post-Hook]\nMake my day\nMake my day\nMake my day\nMake my day\n\n[Chorus]\nYo! Pump up the jam\nPump it up\nWhile your feet are stomping\nAnd the jam is pumping\nLook ahead, the crowd is jumpin'\nPump it up a little more\nGet the party goin' on the dance floor\nSee, cause that's where the party's at\nAnd you'd find out if you do that\n\n[Hook]\nI don't want\nA place to stay\nGet your booty on the floor tonight\nMake my day\nI don't want\nA place to stay\nGet your booty on the floor tonight\nMake my day\n\n[Post-Hook]\nMake my day\nMake my, make my day\nMake my day\nMake my day\nMake my, make my make my day\n\n[Refrain]\nYo! Pump up the jam\nPump it up\nPump it up\nYo! Pump it!\nPump up the jam\nPump it up\nPump it up\nYo! Pump it\nPump up the jam\nPump it up\nPump it up\nYo! Pump it\nPump up the jam\nPump it\n\nPump up the jam\nPump up the jam\nPump up the jam\nPump it up\nPump it\nPump it\nPump it\n\nPump up the jam\nPump up the jam\nPump up the jam\nPump it\n\n[Chorus]\nPump up the jam\nPump it up\nWhile your feet are stomping\nAnd the jam is pumping\nLook at here the crowd is jumpin'\nPump it up a little more\nGet the party goin' on the dance floor\nSee, cause that's where the party's at\nAnd you'll find out if you're too bad\n\n[Hook]\nI want\nA place to stay\nGet your booty on the floor tonight\nMake my day\nI want\nA place to stay\nGet your booty on the floor tonight\nMake my day\n\n[Refrain]\nPump up the jam\nPump it up\nPump it up Yo! Pump it!\nPump up the jam\nPump it up\nPump it up\nYo! Pump up the jam\nPump it up\nPump it up Yo! Pump it!\nPump up the jam Pump it\n\nPump up the jam\nPump it up\nPump it up Yo! Pump it!\nPump up the jam\nPump it up\nPump it up\nYo! Pump up the jam\nPump it up\nPump it up Yo! Pump it!\nPump up the jam Pump it\n\nPump it up\nPump it up\n\n[Pre-Hook]\nMake my day\nMake my day\nMake my, make my, make\nMake my day\nMake my day\nMake my day\nMake my, make my, make\nMake my day, yo\n\n[Hook]\nI don't want\nA place to stay\nGet your booty on the floor tonight\nMake my day\nI want\nA place to stay\nGet your booty on the floor tonight\nMake my day\nI don't want\nA place to stay\nGet your booty on the floor tonight\nMake my day\nI want\nA place to stay\nGet your booty on the floor tonight\nMake my day",
  "LyricURL": "https://genius.com/Technotronic-pump-up-the-jam-lyrics",
  "FullTitle": "Pump Up the Jam"
 },
 {
  "Chart": {
   "Year": 1990,
   "ChartPosition": 14,
   "Artist": "Paula Abdul",
   "Title": "Opposites Attract"
  },
  "Lyrics": "[Verse 1: Paula Abdul \u0026 The Wild Pair]\nBaby, it seems we never ever agree\nYou like the movies and I like TV\nI take things serious and you take 'em light\nI go to bed early and I party all night\n\n[Verse 2: Paula Abdul, The Wild Pair, Both]\nOur friends are sayin' we ain't gonna last\n'Cause I move slowly and baby, I'm fast\nI like it quiet and I love to shout\nBut when we get together, it just all works out\n\n[Chorus: Paula Abdul, The Wild Pair, Both]\nI take two steps forward, I take two steps back\nWe come together 'cause opposites attract\nAnd you know it ain't fiction, just a natural fact\nWe come together 'cause opposites attract\n\n[Verse 3: Paula Abdul \u0026 The Wild Pair]\nWho'd-a thought we could be lovers?\nShe makes the bed and he steals the covers\nShe likes it neat and he makes a mess\nI take it easy, baby, I get obsessed\n\n[Verse 4: Paula Abdul, The Wild Pair, Both]\nShe's got the money and he's always broke\nI don't like cigarettes and I like to smoke\nThings in common? There just ain't a one!\nBut when we get together, we have nothin' but fun\n\n[Chorus: Paula Abdul, The Wild Pair, Both]\nI take two steps forward, I take two steps back\nWe come together 'cause opposites attract\nAnd you know it ain't fiction, just a natural fact\nWe come together 'cause opposites attract\nA two steps forward, a two steps back\nWe come together 'cause opposites attract\nAnd you know it ain't fiction, just a natural fact\nWe come together 'cause opposites attract\n\n[Breakdown: Paul Abdul and The Wild Pair]\nYou know it, baby, baby\nWe come together\nWe come together\n\n[Verse 5: Paula Abdul \u0026 The Wild Pair]\nBaby, ain't it somethin' how we lasted this long?\nYou and me provin' everyone wrong\nDon't think we'll ever get our differences patched\nDon't really matter 'cause we're perfectly matched\n\n[Chorus: Paula Abdul, The Wild Pair, Both]\nI take two steps forward, I take two steps back\nWe come together 'cause opposites attract\nAnd you know it ain't fiction, just a natural fact\nWe come together 'cause opposites attract\nA two steps forward, a two steps back\nWe come together 'cause opposites attract\nAnd you know it ain't fiction, just a natural fact\nWe come together 'cause opposites attract\n\n[Outro: Paula Abdul, The Wild Pair, Both]\nTwo steps forward, two steps back\nTwo steps back\nWe come together 'cause opposites, opposites attract\nIt ain't fiction, you know it's a fact\nIt's a fact\nWe come together 'cause opposites, opposites\nTwo steps forward, two steps back\nA two steps back\nOpposites attract\nWe go together\nWe go together\nTwo steps forward, two steps back\nA two steps back",
  "LyricURL": "https://genius.com/Paula-abdul-opposites-attract-lyrics",
  "FullTitle": "Opposites Attract"
 },
 {
  "Chart": {
   "Year": 1990,
   "ChartPosition": 15,
   "Artist": "Janet Jackson",
   "Title": "Escapade"
  },
  "Lyrics": "[Verse 1]\nAs I was walkin' by\nSaw you standin' there with a smile\nLookin' shy you caught my eye\nThought you'd want to hang for a while\nWell I'd like to be with you\nAnd you know it's Friday too\nI hope you can find the time\nThis weekend to relax and unwind\nMy mind's tired\nI've worked so hard all week\nOoh all week\nI cashed my check I'm ready to go\nI promise you I'll show you such a good time\n\n[Chorus]\nCome on baby let's get away\nLet's save our troubles for another day\nCome go with me we've got it made\nLet me take you on an escapade\nLet's go\n\n[Hook]\nEs-ca-pade\nWe'll have a good time\nEs-ca-pade\nLeave your worries behind\nEs-ca-pade\nWell you can be mine\nEs-ca-pade\nAn escapade\n\n[Verse 2]\nSo don't hold back\nJust have a good time\nWe'll make the rules up\nAs we go along\nAnd break them all\nIf we're not havin' fun\n\n[Chorus]\nCome on baby let's get away\nLet's save our troubles for another day\nCome go with me we've got it made\nLet me take you on an escapade\nOn an escapade, baby\nCome on baby let's get away\nLet's save our troubles for another day\nCome go with me we've got it made\nLet me take you on an escapade\nLet's go\nCome on baby let's get away\nLet's save our troubles for another day\nCome go with me we've got it made\nLet me take you on an escapade\nOn an escapade, baby\nCome on baby let's get away\nLet's save our troubles for another day\nCome go with me we've got it made\nLet me take you on an escapade\nLet's go\n\n[Ad lib]\nMinneapolis!\nCome on\n\n[Hook]\nEs-ca-pade\nWe'll have a good time\nEs-ca-pade\nLeave your worries behind\nEs-ca-pade\nWell you can be mine\nEs-ca-pade\nAn escapade\n\n[Bridge]\nOoh\nMy mind's tired, I've--\nOoh\nWorked so hard all\nOoh\nWorked so hard all week\nAll week\nI just got paid, we've got it made, ready to go\nI promise you, I'll show you such a good time\n\n[Outro]\nCome on baby let's get away\nBaby come on now\nLet's save our troubles for another day\nSave it for another day\nCome go with me we've got it made\nBaby come on yeah\nLet me take you on an escapade\nOn an escapade, baby\nTake the escapade\nCome on baby let's get away\n(Baby come on now)\nLet's save our troubles for another day\n(Save it for another day)\nCome go with me we've got it made\nGo escapade\nLet me take you on an escapade\nLet's go\nCome on baby let's get away\nLet's save our troubles for another day\nCome go with me we've got it made\nLet me take you on an escapade\nOn an escapade, baby!",
  "LyricURL": "https://genius.com/Janet-jackson-escapade-lyrics",
  "FullTitle": "Escapade"
 },
 {
  "Chart": {
   "Year": 1990,
   "ChartPosition": 16,
   "Artist": "Heart",
   "Title": "All I Wanna Do Is Make Love To You"
  },
  "Lyrics": "It was a rainy night\nWhen he came into sight\nStanding by the road\nWith no umbrella, no coat\n\nSo I pulled up along side\nAnd I offered him a ride\nHe accepted with a smile\nSo we drove for a while\n\nI didn't ask him his name\nThis lonely boy in the rain\nFate, tell me it's right\nIs this love at first sight?\nPlease don't make it wrong\nJust stay for a night\n\nAll I wanna do is make love to you\nSay you will, you want me too\nAll I wanna do is make love to you\nI got loving arms to hold onto\n\nSo we found this hotel\nIt was a place I knew well\nWe made magic that night\nOh, he did everything right\n\nHe brought the woman out of me\nSo many times, easily\nAnd in the morning, when he woke\nAll I left him was a note\n\nI told him I am the flower\nYou are the seed\nWe walked in the garden\nWe planted a tree\n\nDon't try to find me\nPlease don't you dare\nJust live in my memory\nYou'll always be there\n\nAll I wanna do is make love to you\nOne night of love was all we knew\nAll I wanna do is make love to you\nI got loving arms to hold onto\n\nWhoa, oh, we made love\nLove like strangers\nAll night long\nWe made love\n\nThen it happened one day\nWe came 'round the same way\nYou can imagine his surprise\nWhen he saw his own eyes\n\nI said, \"Please, please understand\nI'm in love with another man\nAnd what he couldn't give me, oh, whoa\nWas the one little thing that you can\"\n\nAll I wanna do is make love to you\nOne night of love was all we knew\nAll I wanna do is make love to you\nCome on, say you will, you want me too\n\nAll I wanna do is make love to you\nOne night of love was all we knew\nAll I wanna do is make love to you\nSay you will, baby, want me too\n\nAll night long, all night long\nAll night long, all night long\n\nAll I wanna do, all I wanna do\nAll I wanna do, all I wanna do\n\nAll I wanna do is make love to you\nOne night of love was all we knew",
  "LyricURL": "https://genius.com/Heart-all-i-wanna-do-is-make-love-to-you-lyrics",
  "FullTitle": "All I Wanna Do Is Make Love To You"
 },
 {
  "Chart": {
   "Year": 1990,
   "ChartPosition": 17,
   "Artist": "Maxi Priest",
   "Title": "Close To You"
  },
  "Lyrics": "[Verse 1:]\nShe was a Jezebel\nMiss Brixton queen\nLiving her life like a bad sweet dream\nTelling me lies when the truth was clear\nI think she knew what I wanted to hear\n\nSpinning around\nLike a wheel on fire\nWalking the tightrope on love's highwire\nA fatal attraction is where I'm at\nThere's no escaping me\n\n[Chorus:]\nI just wanna be close to you\nAnd do all the things you want me to\nI just wanna be close to you\nAnd show you the way I feel\n\n[Verse 2:]\nI feel love\nWhen I'm lying in the midnight hour\nHolding you's just like a dream\nLove is never what it seems\n\nWhen we touch\nAnd you're holding me the way you feel\nGirl, you make my dreams come true\nYou make my dreams come true\n\n[Chorus:]\nI just wanna be close to you\nAnd do all the things you want me to\nI just wanna be close to you\nAnd show you the way I feel\n\n[Verse 3:]\nShe was a Gemini on the cusp of Mars\nShe holds me back\nBut she goes too far\nWinding me up just to let me down\n\nSo emotional\nGagged and bound\nThere's more to this than meets the eye\n\nA devil woman locked inside\nWith the formal rising\nI was scared\nI think I was possesed\n\n[Chorus:]\nI just wanna be close to you\nAnd do all the things you want me to\nI just wanna be close to you\nAnd show you the way I feel\n\nI feel love\nEverytime your body's next to mine\nSomethin' deep inside of me\nWants to love you endlessly\n\nWhen we touch\nGirl, you don't know\nHow it makes me feel\nI just can't believe it's real\nI can't believe it's real!\n\nI just wanna be close to you\nAnd do all the things you want me to\nI just wanna be close to you\nAnd show you the way I feel\n\n[Verse 4:]\nShe had an attitude\nI can't explain\nYou never know if your in flame\nTying me up with elastic words\nI'm on a countdown till I get hurt\n\nHer blood was hot\nShe burned so bright\nA neon sign there in the night\nIt's hard to say if I went too far\nMy heart still bears a scar\n\n[Chorus:]\nI just wanna be close to you\nI just wanna be close to you\nI just wanna be close to you\n(She was a Jezebel\nThis bursting queen\nLiving her life like a bad sweet dream)\n\nTelling me lies\nWhen the truth was clear\nI think she knew what I wanted to hear\n\nI just wanna be close to you\n(Spinning around like a wheel on fire)\nWalkin' the tightrope on love's highwire\nA fatal attraction is where I'm at\nThere's no escaping me\n\nI wanna be close to you\nAnd do all the things you want me to\nI just wanna be close to you\n(I just wanna be close to you, baby)\nAnd show you the way I feel\n\nI just wanna be close to you\nAnd do all the things you want me to\nI just wanna be close to you\nAnd show you the way I feel",
  "LyricURL": "https://genius.com/Maxi-priest-close-to-you-lyrics",
  "FullTitle": "Close To You"
 },
 {
  "Chart": {
   "Year": 1990,
   "ChartPosition": 18,
   "Artist": "Alannah Myles",
   "Title": "Black Velvet"
  },
  "Lyrics": "[Verse 1]\nMississippi in the middle of a dry spell\nJimmy Rogers on the Victrola up high\nMama's dancin' with baby on her shoulder\nThe sun is settin' like molasses in the sky\n\n[Hook]\nThe boy could sing\nKnew how to move, everything\nAlways wanting more\nHe'd leave you longing for\n\n[Chorus]\nBlack velvet\nAnd that little boy's smile\nBlack velvet\nWith that slow southern style\nA new religion that'll bring ya to your knees\nBlack velvet if you please\n\n[Verse 2]\nUp in Memphis\nThe music's like a heatwave\nWhite lightning\nBound to drive you wild\nMama's baby's in the heart of every schoolgirl\n\"Love Me Tender\" leaves 'em cryin' in the aisle\n\n[Hook]\nThe way he moved\nIt was a sin\nSo sweet and true\nAlways wanting more\nHe'd leave you longing for\n\n[Chorus]\nBlack velvet\nAnd that little boy's smile\nBlack velvet\nWith that slow southern style\nA new religion that'll bring ya to your knees\nBlack velvet if you please\n\n[Bridge]\nEvery word of every song\nThat he sang was for you\nIn a flash, he was gone\nIt happened so soon\nWhat could you do?\n\n[Chorus]\nBlack velvet\nAnd that little boy's smile\nBlack velvet\nWith that slow southern style\nA new religion that'll bring ya to your knees\nBlack velvet if you please\n\nBlack velvet\nAnd that little boy's smile\nBlack velvet\nWith that slow southern style\nA new religion that'll bring ya to your knees\n\n[Outro]\nBlack velvet if you please\nIf you please\nIf you please\nIf you please",
  "LyricURL": "https://genius.com/Alannah-myles-black-velvet-lyrics",
  "FullTitle": "Black Velvet"
 },
 {
  "Chart": {
   "Year": 1990,
   "ChartPosition": 19,
   "Artist": "Wilson Phillips",
   "Title": "Release Me"
  },
  "Lyrics": "[Intro]\nI know that it's time for a change\nMmm but when that change comes\nWill it still feel the same?\n\n[Verse 1]\nHow many times have I tried\nTo turn this love around?\nI don't wanna give up but, baby\nIt's time I had two feet on the ground\n\n[Pre-Chorus]\nCan you release me?\nCan you release me?\n\n[Verse 2]\nNow that you're gone\nI can't help myself from wondering\nOhh, if you'd have come down from your high\nWould we've been all right?\n\n[Pre-Chorus]\nRelease me\nCan you release me?\n\n[Chorus]\nCome on, baby, come on, baby\nYou knew it was time to just let go\n'Cause we wanna be free\nBut somehow it's just not that easy\nCome on, darlin', hear me, darlin'\n'Cause you're a waste of time for me\nI'm trying to make you see\nThat baby, you've just got to release me\nRelease me, release me\n\n[Verse 3]\nI'm not going back to you anymore\nFinally my weakened heart is healing\nThough very slow\nSo stop coming around my door\n'Cause you're not gonna find what you're looking for\n\n[Chorus]\nOhh, come on, baby, come on, baby\nYou knew it was time to just let go\n'Cause we wanna be free\nSomehow it's just not that easy\nOh, oh, oh, baby\nCome on darlin', now, hear me darlin'\n'Cause you're a waste of time for me\nI'm trying to make you see\nThat baby, you've just got to release me\n\n[Bridge]\nNow tell me\nWhat is this power you've got on me?\nWhat is this power? Ohh\n\n[Chorus]\nCome on, baby, come on, baby\nYou knew it was time to just let go\n'Cause we wanna be free\nBut somehow it's just not that easy\nOh, oh, oh, oh, baby\nCome on darlin', now, hear me darlin'\n'Cause you're a waste of time for me\nI'm trying to make you see\nThat baby, you've just got to release me\n\n[Outro]\nRelease me, release me\nRelease me, will you release me?\nAhh, release me\nRelease me, will you release me?",
  "LyricURL": "https://genius.com/Wilson-phillips-release-me-lyrics",
  "FullTitle": "Release Me"
 },
 {
  "Chart": {
   "Year": 1990,
   "ChartPosition": 20,
   "Artist": "Linda Ronstadt \u0026 Aaron Neville",
   "Title": "Don't Know Much"
  },
  "Lyrics": "Look at this face I know the years are showing\n\r\nLook at this life I still don't know where it's going\n\r\nI don't much but I know I love you\n\r\nThat may be all I need to know\n\n\n\r\nLook at these eyes they never seen what matters\n\r\nLook at these dreams so beaten and so battered\n\r\nI don't much but I know I love you\n\r\nThat may be all I need to know\n\n\n\r\nSo many questions still left unanswered\n\r\nSo much I've never broken through\n\r\nAnd when I feel you near me sometimes I see so clearly\n\r\nThat only truth I'll never know is me and you\n\n\n\r\nLook at this man so blessed with inspiration\n\r\nLook at this soul still searching for salvation\n\r\nI don't much but I know I love you\n\r\nThat may be all I need to know\n\n\n\r\nI don't much but I know I love you\n\r\nThat may be all I need to know\n\r\nI don't much but I know I love you\n\r\nThat may be all there is to know",
  "LyricURL": "https://www.lyricsplanet.com/lyrics.php?id=52755",
  "FullTitle": "Don't Know Much"
 },
 {
  "Chart": {
   "Year": 1990,
   "ChartPosition": 21,
   "Artist": "Lisa Stansfield",
   "Title": "All Around The World"
  },
  "Lyrics": "[Intro]\nI don't know where my baby is\nBut I'll find him, somewhere, somehow\nI've got to let him know how much I care\nI'll never give up looking for my baby\n\n[Chorus]\nBeen around the world and I, I, I\nI can't find my baby\nI don't know when, I don't know why\nWhy he's gone away\nAnd I don't know where he can be, my baby\nBut I'm gonna find him\n\n[Verse 1]\nWe had a quarrel and I let myself go\nI said so many things, things he didn't know\nAnd I was oh oh so bad\nAnd I don't think he's comin' back, mm mm\nHe gave the reason, the reasons he should go\nAnd he said things he hadn't said before\nAnd he was oh oh so mad\nAnd I don't think he's comin', comin' back\n\n[Pre-Chorus]\nI did too much lyin', wasted too much time\nNow I'm here and cryin', I, I, I\n\n[Chorus]\n\n[Verse 2]\nSo open hearted\nHe never did me wrong\nI was the one, the weakest one of all\nAnd now I'm oh oh so sad\nAnd I don't think he's comin' back, comin' back\n\n[Pre-Chorus]\n[Chorus 2X]\n\nI'm going to find him, my baby\n\n[Pre-Chorus + Chorus]\n\n[Bridge]\nI've been around the world, lookin' for my baby\nBeen around the world\nAnd I'm gonna, I'm gonna find him\n\n[Chorus]",
  "LyricURL": "https://genius.com/Lisa-stansfield-all-around-the-world-lyrics",
  "FullTitle": "All Around the World"
 },
 {
  "Chart": {
   "Year": 1990,
   "ChartPosition": 22,
   "Artist": "Calloway",
   "Title": "I Wanna Be Rich"
  },
  "Lyrics": "Imagine\nCash cold, that's what I need\n\nThese bill collectors, they ring my phone\nThey bother me when I'm not at home\nAin't go no time to be fooling round\nFeet will touch the floors and I get on down, you see\n\nI want money, lots and lots of money\nI want the pie in the sky\nI want money, lots and lots of money\nSo don't be asking me why\n\nI wanna be rich, ohh\nI wanna be rich, ohh\nI wanna be rich, ohh\nI wanna be rich for a little love, peace and happiness\n\nI want my cake, wanna eat it too\nI want the stars and the silver moon\nI spend my money on lottery\nMy favorite number is 1 2 3, you see\n\nI want money, lots and lots of money\nI want the pie in the sky\nI want money, lots and lots of money\nSo don't be asking me why\n\nI wanna be rich, ohh\nI wanna be rich, ohh\nI wanna be rich, ohh\nI wanna be rich for a little love, peace and happiness\nEvery way rich\nLove peace and happiness\n\nI want all the things that lovers do\nA pocketful of dreams come true\nThese are things you can not find\nThat'll keep you satisfied and rich\n\nHere is what your gonna do\nSay oh I say uh uh\nGot to be baby\nI just wanna be rich, I just wanna be\n\nCause baby I want money, lots and lots of money\nI want the pie in the sky\nI want money, lots and lots of money\nSo don't be asking me why\n\nI wanna be rich\nI wanna be rich\nI wanna be rich\nI wanna be rich for a little love, peace and happiness\n\nPlay baby there is lots and lots for everyone\nI wanna be rich",
  "LyricURL": "https://genius.com/Calloway-i-wanna-be-rich-lyrics",
  "FullTitle": "I Wanna Be Rich"
 },
 {
  "Chart": {
   "Year": 1990,
   "ChartPosition": 23,
   "Artist": "Johnny Gill",
   "Title": "Rub You The Right Way"
  },
  "Lyrics": "Pump up the bass\nHey\nPump up the bass\nPump\nPump up the bass\nPump up the bass\nPump-pump-pump\nPump-pump-pump-pump\n\nWhat you’ve been missin’ in a man\nI can supply it, your wish is my command\nI’ll work hard to fill your needs\nGive you lesson on what it is to\n\nFeel Feel Good good, baby\nGet undressed and slip on this robe\nRe- Re- lax lax, darlin’\nJust sit back would rather be stroked\n\nCan you feel the magic in my hands\nWhen I touch and rub you the right way\nStroke applied with tenderness\nWhen I hold and rub you the right way\n\nA light massage, a soft caress\nWhenever I need to rub, I run her happiness\nCustomer satisfaction is a guarantee\nSo for your pleasure, come on over here, please\n\nYou hey\nSo hold on and throw off that coat\nShow Show You\nI’ll show you pleasure like you’ve never known\n\nCan you feel the magic in my hands\nWhen I touch and rub you the right way\nStroke applied with tenderness\nWhen I hold and rub you the right way\n\nFeel the magic in my hands\nWhen I touch and rub you the right way\nStroke applied with tenderness\nWhen I hold and rub you the right way\n\nPump up the bass\nHey\nPump up the bass\nWhat-what-what\nWhat-what\nHey\nGet ready\n\nFeel good\nRe- Re-, girl lax lax, yeah\nOh...oh...oh...\n\nCan you feel the magic in my hands\nWhen I touch and rub you the right way\nStroke applied with tenderness\nWhen I hold and rub you the right way\n\nFeel the magic in my hands\nWhen I touch and rub you the right way\nStroke applied with tenderness\nWhen I hold and rub you the right way\n\nYour every wish is my command\nSo get undressed and\nGonna rub with my magic hands\nGive you what you’re missin’ in a man\nStroke you with a soft caress\nApplied with so much tenderness\nHold on tight and don’t let go\nGive you pleasure like you’ve never known before\n\nFeel the magic in my hands\nWhen I touch and rub you the right way\nStroke applied with tenderness\nWhen I hold and rub you the right way\n\nFeel the magic in my, in my\nCustomer satisfaction, baby\nStroke, hey, hey\nHold and rub you the right way\n\nDo you feel it, do you feel it\nOh...oh...oh...oh...oh...\n\nPump it\nParty\nCome on, darlin’\nCome on, do you\nDo you feel it, baby, feel it, baby, feel it, feel it, feel it, feel it, feel it\nOh, baby\nStroke, baby, oh...\n\nFeel it, baby, feel it all over\nFeel it, honey, see what\n\nWhatever you want, I got it\nWhatever you need, I got it, baby, got it, baby\nWhatever you want, I’ve got it in my hands\nWhatever you need, I’ll fulfill your needs, baby",
  "LyricURL": "https://genius.com/Johnny-gill-rub-you-the-right-way-lyrics",
  "FullTitle": "Rub You The Right Way"
 },
 {
  "Chart": {
   "Year": 1990,
   "ChartPosition": 24,
   "Artist": "Glenn Medeiros And Bobby Brown",
   "Title": "She Ain't Worth It"
  },
  "Lyrics": "[Intro: Bobby Brown]\nBetter make tracks\nFast on the double\nThe girl's jazzy\nBut she's nothing but trouble\n\n[Verse 1: Glenn Medeiros]\nYou take her where she wants to go\nAnd every day you let her know\nShe's the one who's always on your mind\n\nBut she just got an attitude\nLeads you on\nThen leaves you blue\nCan't you see\nShe's really just a waste of time\n\nOne day\nShe'll treat you nice\nThen she turn as cold as ice\nBut you think\nYour love will win her in the end\nThink again\n\n[Chorus:]\nShe ain't worth it\nThe girl ain't worth it\nAll this grief\nThat she's been putting you through\nOoh\n\nShe ain't worth it\nThe girl ain't worth it\nBelieve me\nI know\nI know better than\nBetter than, better than\nBet, bet better than you\n\n[Verse 2: Glenn Medeiros]\nShe gets you hot\nThen leaves you cold\nKeeps you waiting on the phone\nCause she knows\nYou'll always give her one more try\n\nYou're not the only boy in town\nAnd she loves playing to the crowd\nBut tell me\nDo you really like standing in line?\n\nYou give her everything you have\nAnd all she does is make you sad\nWhat she really wants to do\nIs tell her friends\nShe did it again\n\n[Repeat Chorus:]\n\n[Glenn Medeiros:]\nI'd like to say she used to be my girl\nBut that would be a lie\n(That would be a lie)\n\nCause there's no one\nIn this whole wide world\nThat could keep her satisfied I know\nCause I tried\n\n[Rap: Bobby Brown]\nJump in\nOne thing I hate\nIs when a girl plays fake\nAnd tries to make me late for another date\nCause I've tried to make you mine\n\nFor the last time\nSo take this here as a dis\nAnd a goodbye\n\nShe ain't worth it\nEven though she's on the high tip\nShe better get a grip\nAnd get a grip quick\n\nFast in a hurry\nCause I won't buckle\nThe girl's jazzy\nBut she's nothing but trouble\n\n[Bridge: Glenn Medeiros]\nGive her everything you have\nAnd all she does is make you sad\nWhat she really wants to do\nIs tell her friends\nShe did it again\n\n[Repeat Chorus 3x:]",
  "LyricURL": "https://genius.com/Glenn-medeiros-she-aint-worth-it-lyrics",
  "FullTitle": "She Ain’t Worth It"
 },
 {
  "Chart": {
   "Year": 1990,
   "ChartPosition": 25,
   "Artist": "Sweet Sensation",
   "Title": "If Wishes Came True"
  },
  "Lyrics": "All alone\nSilence fills my room\nBut in a memory\nI hear you calling me\nClose my eyes\nAnd I'm there with you\nLike it was yesterday\nBut then it fades away\n\nTake me back\nTurn back the hands of time\nWhen you kissed me in the warm September rain\n(Warm September rain)\nBack before my heart was filled with pain\nIf only we could be in love that way again\n\nIf wishes came true\nThen all the dreams at night of love were real\nI'd be holding you\nIf wishes came true\nThen I would be that someone\nAlways special in your heart\nAnd we would still be lovers\nNot apart\nIf wishes came true\n\nNow you're gone\nAnd I'm on my own\nFeeling lost inside since you said goodbye\nIn my dreams\nI still feel your touch\nLying next to me\nFeeling ecstasy\n\nTake me back\nTurn back the hands of time\nWhen you kissed me in the warm September rain\n(Warm September rain)\nBack before my heart was filled with pain\nIf only we could be in love that way again\n\nIf wishes came true\nThen all the dreams at night of love were real\nI'd be holding you\nIf wishes came true\nThen I would be that someone\nAlways special in your heart\nAnd we would still be lovers\nNot apart\nIf wishes came true\n\nI love you madly\nI need you badly\nGive our love one more chance\n\nIf wishes came true\nThen all the dreams at night of love were real\nI'd be holding you\nIf wishes came true\nThen I would be that someone\nAlways special in your heart\nAnd we would still be lovers\nNot apart\nIf wishes came truem",
  "LyricURL": "https://genius.com/Sweet-sensation-if-wishes-came-true-lyrics",
  "FullTitle": "If Wishes Came True"
 },
 {
  "Chart": {
   "Year": 1990,
   "ChartPosition": 26,
   "Artist": "Snap",
   "Title": "The Power"
  },
  "Lyrics": "Like the crack of the whip, I Snap attack\nFront to back, in this thing called rap\nDig it like a shovel, rhyme devil on a heavenly level\nBang the bass, turn up the treble\nRadical mind, day and night all the time\n7:14, wise, divine\nManiac brainiac, winnin' the game\nI'm the lyrical Jesse James\n\n[Verse 2 - Turbo B]\nQuality I possess and say I'm fresh\nWhen my voice goes through the mesh\nOf the microphone that I am holding\nCopy written lyrics so they can't be stolen\nIf they all Snap, don't need the police\nTo try to save them, your voice will cease\nSo peace, stay off my back\nOr I will attack, and you don't want that\n\n[Jackie Harris]\nI've got the power\nI've got the power\nI've got the power\nI've got the power\n\n[Turbo B x8]\nIt's gettin', it's gettin', it's gettin' kinda hectic\n\n[Jackie Harris]\nI've got the power\nI've got the power\nI've got the power\nI've got the power\n\n[Turbo B x4]\nIt's gettin', it's gettin', it's gettin' kinda hectic\n\n[Verse 2 - Turbo B]\nQuality I possess and say I'm fresh\nWhen my voice goes through the mesh\nOf the microphone that I am holding\nCopy written lyrics so they can't be stolen\nIf they all Snap, don't need the police\nTo try to save them, your voice will cease\nSo peace, stay off my back\nOr I will attack, and you don't want that\n\n[Jackie Harris]\nI've got the power\nI've got the power\nI've got the power\nI've got the power",
  "LyricURL": "https://genius.com/Snap-the-power-lyrics",
  "FullTitle": "The Power"
 },
 {
  "Chart": {
   "Year": 1990,
   "ChartPosition": 27,
   "Artist": "Nelson",
   "Title": "(Can't Live Without Your) Love And Affection"
  },
  "Lyrics": "(Here she comes) Mmm, just like an angel\nSeems like forever that she's been on my mind\nBut nothing has changed\nShe thinks I'm a waste of her time\n\n(There she goes) she don't know what she's missing\nCan't she see I'll never give up the fight\nI'll do all I can\nTill she understands my desire\n\nI've been on the outside looking in\nLet me into your heart, oh\nThere's nothing on earth that should keep us apart\nBaby\n\nI can't live without your love and affection\nI can't face another night on my own\nI'd give up my pride to save me from being alone\n'Cause I can't live without your love\nMmm, your love\n\n(So I wait) Here for an answer\nAnd wonder if tomorrow will be like yesterday\nI'll keep holding on\nCan't go on living this way, baby\n\nI've been on the outside looking in\nBring my tears to an end, oh\nI realize there's no use for me to pretend\nOh yeah\n\nI can't live without your love and affection\nI can't face another night on my own\nI'd give up my pride to save me from being alone\n'Cause I can't live without your love\n\n(For your love) I'd put my arms around you\n(For your love) I'd find the strength to tell you\n(For your love) That I can't live without your\n\nI can't live without your love and affection\nI can't face another night on my own\nI'd give up my pride to save me from being alone\nBaby\n\nI can't live without your love and affection\nI just can't go on this way anymore\nAs hard as I try there's one thing that I know for sure\nI can't live without your love\n\n(There she goes)\nI can't live without your love, baby\n(There she goes)\nOh, I can't live without your love\n\n(There she goes)\nOh, I can't live without your love",
  "LyricURL": "https://genius.com/Nelson-cant-live-without-your-love-and-affection-lyrics",
  "FullTitle": "(Can’t Live Without Your) Love And Affection"
 },
 {
  "Chart": {
   "Year": 1990,
   "ChartPosition": 28,
   "Artist": "Taylor Dayne",
   "Title": "Love Will Lead You Back"
  },
  "Lyrics": "[Verse 1]\nSaying goodbye is never an easy thing\nBut you never said, that you'd stay forever\nSo if you must go, well, darling, I'll set you free\nBut I know in time that we'll be together\n\n[Pre-Chorus 1]\nI won't try to stop you now from leaving\nCause in my heart I know\n\n[Chorus]\nLove will lead you back\nSomeday I just know that\nLove will lead you back to my arms\nWhere you belong\n\nI'm sure\nSure as stars are shining\nOne day you will find me again\nIt won't be long\n\nOne of these days\nOur love will lead you back\n\n[Verse 2]\nOne of these nights, well, I'll hear your voice again\nYou're gonna say how much you miss me\nYou walked out this door, but someday you'll walk back in\nDarling I know, I know this will be\n\n[Pre-Chorus]\nSometimes it takes, some time out on your own now\nTo find your way back home\n\n[Chorus]\n\n[Bridge]\nBut I won't try to stop you now from leaving\nCause in my heart I know, oh yeah\n\n[Chorus]\n\nLove will lead you back\nSomeday I just know that\nLove will lead you back to my arms\nIt won't be long\nOne of these days\nOur love will lead you back",
  "LyricURL": "https://genius.com/Taylor-dayne-love-will-lead-you-back-lyrics",
  "FullTitle": "Love Will Lead You Back"
 },
 {
  "Chart": {
   "Year": 1990,
   "ChartPosition": 29,
   "Artist": "Jane Child",
   "Title": "Don't Wanna Fall In Love"
  },
  "Lyrics": "Ain't no personal thing, boy\nBut you've got to stay away\nFar, far away from my heart, my heart\nDon't you know what your kiss is doing\nLet me tell it to you from the start, boy\n\nI don't wanna fall in love\nLove cuts just like a knife\nYou make the knife feel good\nI'll fight you to the end, baby\n\nYou've been hanging around, boy\nAnd you have started sinking in\nWhoa baby, you're way out of line now\nUnaware how this all got started\nLet me tell it you one more time, boy\n\nI don't wanna fall in love\nLove cuts just like a knife\nYou make the knife feel good\nI'll fight you to the end, baby\n\nI don’t wanna fall in love\nLove cuts just like a knife\nYou make the knife feel good\nI’ll fight you to the end, baby\n\nI learned something about myself\nLast night with you I knew\nI didn't want nobody else\nAnd you're scaring me to death now, baby\n\nI don’t wanna fall in love\nLove cuts just like a knife\nYou make the knife feel good\nI’ll fight you to the end, baby\n\nI don’t wanna fall in love\nLove cuts just like a knife\nYou make the knife feel good\nI’ll fight you to the end, baby\n\nI don’t wanna fall in love\nLove cuts just like a knife\nYou make the knife feel good\nI’ll fight you to the end, baby\n\nI don’t wanna fall in love\nLove cuts just like a knife\nYou make the knife feel good\nI’ll fight you to the end, baby",
  "LyricURL": "https://genius.com/Jane-child-dont-wanna-fall-in-love-lyrics",
  "FullTitle": "Don’t Wanna Fall In Love"
 },
 {
  "Chart": {
   "Year": 1990,
   "ChartPosition": 30,
   "Artist": "Seduction",
   "Title": "Two To Make It Right"
  },
  "Lyrics": "[Intro]\nIt takes two, it takes two, me and you\nIt takes two, it takes two, me and you\n\n[Chorus]\nIt takes two to make a thing go right\nIt takes two to make it out of sight\nIt takes two to make a thing go right\nIt takes two to make it out of sight\n\n[Verse 1]\nFrom the start it's plain to see\nYou're suffering from a serious broken heart\nYou know that it's a shame\nBut I'm here to ease your pain\nThere's no need for you to feel so all alone\nAnd you and I could seriously be\nA sure enough happening thing\nDon't you know that---\n\n[Chorus]\nIt takes two to make a thing go right\nIt takes two to make it out of sight\nIt takes two to make a thing go right\nIt takes two to make it out of sight\n\n[Verse 2]\nI can see it in your eyes\nYou feel the same way, I feel about you\nSome call it chemistry\nI call it, you should be with me\n'Cause I know together we can really turn this mother out\nIn my mind there is no doubt\nThat one and one equals me and you\nDon't you know that---\n\n[Chorus]\nIt takes two to make a thing go right\nIt takes two to make it out of sight\nIt takes two to make a thing go right\nIt takes two to make it out of sight\n\n[Verse 3]\nI don't believe in fairy tales\nBut I believe some things were meant to be\nWhy should we be alone?\nWhen we could have each others arms to hold\n'Cause I know together we could really turn this mother out\nIn my mind there is no doubt\nThat one and one equals me and you\nAnd don't you know that---\n\n[Chorus]\nIt takes two to make a thing go right\nIt takes two to make it out of sight\nIt takes two to make a thing go right\nIt takes two to make it out of sight\n\n[Outro]\nIt takes two, it takes two, me and you\nIt takes two, it takes two, me and you\nIt takes two, it takes two, me and you\nIt takes two, it takes two, me and you\nIt takes two, it takes two, me and you\nIt takes two, it takes two, me and you\nIt takes two, it takes two, me and you\nIt takes two, it takes two, me and you",
  "LyricURL": "https://genius.com/Seduction-two-to-make-it-right-lyrics",
  "FullTitle": "Two To Make It Right"
 },
 {
  "Chart": {
   "Year": 1990,
   "ChartPosition": 31,
   "Artist": "Linear",
   "Title": "Sending All My Love"
  },
  "Lyrics": "[Verse 1]\nGirl, I close my eyes\nAnd then I start to cry for you\nYou're the reason why\nI have to say goodbye to you\n\nThis pain I have inside\nJust makes me want to die for you\nAll these lonely nights\nThey just don't seem so right for you\n\nI'm sending you all my...\n\n[Chorus]\nSending all my love\nI'm sending all my love to you\nI'm sending all my love\nI'm sending all my love to you\n\n[Verse 2]\nEvery move you make\nDay by day I pray for you\nWhen I close my eyes\nTeardrops start to fall for you\n\nI'm sending all my love\nSending all my love to you\nThis pain I have inside\nJust makes me want to die for you\n\n[Chorus]\nI'm sending all my love\nSending all my love to you\nI'm sending all my love\nSending all my love to you\n\n[Bridge]\nI'm sending all my love\nSending all my love to you\n(Sending you all my)\n\nSending all my love\nSending all my love to you\n\n[Verse 3]\nGirl, I close my eyes\nAnd then I start to cry for you\nYou're the reason why\nI have to say goodbye to you\n\nThis pain I have inside\nJust makes me want to cry for you\nAll these lonely nights\nThey just don't seem so right for you\n\n[Chorus]\nI'm sending all my love\nSending all my love to you\nI'm sending all my love\nSending all my love to you\n\nI'm sending all my love\nSending all my love to you\nI'm sending all my love\nSending all my love to you",
  "LyricURL": "https://genius.com/Linear-sending-all-my-love-lyrics",
  "FullTitle": "Sending All My Love"
 },
 {
  "Chart": {
   "Year": 1990,
   "ChartPosition": 32,
   "Artist": "Poison",
   "Title": "Unskinny Bop"
  },
  "Lyrics": "A-what's got you so jumpy?\nWhy can't you sit still, yeah?\nLike gasoline, you wanna pump me\nAnd leave me when you get your fill, yeah\n\nEvery time I touch you, honey, you get hot\nI wanna make love, you never stop\nCome up for air, you pull me to the floor\nWhat's been going on in that head of yours?\n\nUnskinny bop\nJust blows me away, yeah\nUnskinny bop, bop\nAll night and day, yeah\nUnskinny bop, bop, bop, bop\nShe just loves to play, yeah\nUnskinny bop, nothin' more to say\n\nYou look at me so funny\nLove bite got you acting oh so strange\nYou got too many bees in your honey\nAm I just another word in your page, yeah, yeah?\n\nEvery time I touch you, honey, you get hot\nI wanna make love, you never stop\nCome up for air, you pull me to the floor\nWhat's been going on in that head of yours?\n\nUnskinny bop\nJust blows me away, yeah\nUnskinny bop, bop\nAll night and day, yeah\nUnskinny bop, bop, bop, bop\nShe just loves to play, yeah\nUnskinny bop, nothin' more to say\n\nYou're saying my love won't do ya\nThat ain't love written on your face\nWell, honey I can see right through ya\nWell, who's ridin' who at the end of the race?\n\nWhat's right?\nWhat's wrong?\nWhat's left?\nWhat the hell is going on?\n\nUnskinny bop\nJust blows me away, yeah\nUnskinny bop, bop\nAll night and day, yeah\nUnskinny bop, bop, bop, bop\nShe just loves to play, yeah\n(Up for air, pulled to the floor)\nUnskinny bop\nNo good, no good, no good, no good\nUnskinny bop, bop\nAll night and day, yeah\nUnskinny bop, bop, bop, bop\nNo good, no good, no good, no good",
  "LyricURL": "https://genius.com/Poison-unskinny-bop-lyrics",
  "FullTitle": "Unskinny Bop"
 },
 {
  "Chart": {
   "Year": 1990,
   "ChartPosition": 33,
   "Artist": "Nkotb",
   "Title": "Step By Step"
  },
  "Lyrics": "Well there's a bridge and there's a river that I still must cross \n\r\nAs I'm going on my journey \n\r\nOh, I might be lost \n\n\n\r\nAnd there's a road I have to follow, a place I have to go \n\r\nWell no-one told me just how to get there \n\r\nBut when I get there I'll know \n\r\nCuz I'm taking it \n\n\n\r\nChorus: \n\r\nStep By Step, Bit by Bit, \n\r\nStone By Stone (Yeah), Brick by Brick (Oh, yeah) \n\r\nStep By Step, Day By Day, Mile by mile (ooh, ooh, ooh) \n\n\n\r\nAnd this old road is rough and ruined \n\r\nSo many dangers along the way \n\r\nSo many burdens might fall upon me \n\r\nSo many troubles that I have to face \n\n\n\r\nOh, but I won't let my spirit fail me \n\r\nOh, I won't let my spirit go \n\r\nUntil I get to my destination \n\r\nI'm gonna take it slowly cuz I'm making it mine \n\n\n\r\nChorus: \n\r\nStep By Step (you know I'm taking it), bit by bit (bit by bit, come move), \n\r\nstone by stone (yeah), brick by brick (brick by brick by brick by brick mmm...) \n\r\nStep by step (step by step uh-huh), day by day (day by day-ee), \n\r\nmile by mile (ooh), go your own way. \n\n\n\r\nSay it, baby, don't give up \n\r\nYou got to hold on to what you got, \n\r\nOh, baby, don't give up, \n\r\nYou got to keep on moving on don't stop (yeah yeah). \n\r\nI know you're hurting, and i know you're blue, \n\r\ni know you're hurting but don't let the bad things get to you. \n\n\n\r\nChorus: \n\r\nI'm taking it step by step (ohohoh), bit by bit (bit by bit come move), \n\r\nstone by stone (stone by stone yeah), brick by brick (brick by brick by brick by brick), \n\r\nStep by step (i'm gonna take it now),day by day (day by day-ee), \n\r\nmile by mile (ooh), go your own way! \n\n\n\r\n(c'mon baby got to keep moving), \n\r\ni'm taking it step by step), bit by bit, \n\r\nstone by stone (yeah, stone by stone), brick by brick \n\r\nc'mon baby, \n\r\nstep by step keep on moving, day by day (day by day-ee), \n\r\nmile by mile by mile by mile,go your own way, \n\r\nc'mon baby got to keep moving, bit by bit (bit by bit, bit by bit)....",
  "LyricURL": "https://www.lyricsplanet.com/lyrics.php?id=2649",
  "FullTitle": "Step By Step"
 },
 {
  "Chart": {
   "Year": 1990,
   "ChartPosition": 34,
   "Artist": "Roxette",
   "Title": "Dangerous"
  },
  "Lyrics": "Hold on tight\nYou know she's a little bit dangerous\nOoh, just a little bit dangerous\n\nYou pack your bag\nYou take control\nYou're movin' into my heart\nAnd into my soul\nGet out of my way!\nGet out of my sight!\nI won't be walking on thin ice\nTo get through the night\n\nHey, where's your work?\nWhat's your game?\nI know your business\nDon't know your name\n\nHold on tight\nYou know she's a little bit dangerous\nShe's got what it takes to make ends meet\nThe eyes of a lover that hit like heat\nYou know she's a little bit dangerous\n\nYou turn around\nSo hot and dry\nYou're hidin' under a halo\nYour mouth is alive\nGet out of my way!\nGet out of my sight!\nI'm not attracted to gogo\nDeeper tonight\n\nHey, what's your word?\nWhat's your game?\nI know your business\nBut I don't know your name\n\nHold on tight\nYou know she's a little bit dangerous\nShe's got what it takes to make ends meet\nThe eyes of a lover that hit like heat\nYou know she's a little bit dangerous\nOoh, just a little bit dangerous\n\nHey, hey, hey, what's your word?\nWhat's your game?\nI know your business\nBut I don't know your name\n\nHold on tight\nYou know she's a little bit dangerous\nShe's got what it takes to make ends meet\nThe eyes of a lover that hit like heat\nYou know she's a little bit dangerous\n\nShe's armed and she's extremely dangerous\nShe's got what it takes to make ends meet\nThe eyes of a lover that hit like heat\nYou know she's a little bit dangerous\nOoh, just a little bit dangerous\n\nOh, oh oh, hey, where's your work?\nMmm, what's your game?\nI don't know your name\nHey, you!\nOoh, just a little bit dangerous\nI don't know your name",
  "LyricURL": "https://genius.com/Roxette-dangerous-lyrics",
  "FullTitle": "Dangerous"
 },
 {
  "Chart": {
   "Year": 1990,
   "ChartPosition": 35,
   "Artist": "Billy Joel",
   "Title": "We Didn't Start The Fire"
  },
  "Lyrics": "Harry Truman, Doris Day, Red China, Johnnie Ray\nSouth Pacific, Walter Winchell, Joe DiMaggio\nJoe McCarthy, Richard Nixon, Studebaker, Television\nNorth Korea, South Korea, Marilyn Monroe\n\nRosenbergs, H-Bomb, Sugar Ray, Panmunjom\nBrando, The King And I, and The Catcher In The Rye\nEisenhower, Vaccine, England's got a new queen\nMarciano, Liberace, Santayana goodbye\n\nWe didn't start the fire\nIt was always burning\nSince the world's been turning\nWe didn't start the fire\nNo, we didn't light it\nBut we tried to fight it\n\nJoseph Stalin, Malenkov, Nasser and Prokofiev\nRockefeller, Campanella, Communist Bloc\nRoy Cohn, Juan Peron, Toscanini, Dacron\nDien Bien Phu Falls, Rock Around the Clock\nEinstein, James Dean, Brooklyn's got a winning team\nDavy Crockett, Peter Pan, Elvis Presley, Disneyland\nBardot, Budapest, Alabama, Khrushchev\nPrincess Grace, Peyton Place, Trouble in the Suez\n\nWe didn't start the fire\nIt was always burning\nSince the world's been turning\nWe didn't start the fire\nNo, we didn't light it\nBut we tried to fight it\n\nLittle Rock, Pasternak, Mickey Mantle, Kerouac\nSputnik, Chou En-Lai, Bridge On The River Kwai\nLebanon, Charles de Gaulle, California baseball\nStarkweather Homicide, Children of Thalidomide...\n\nBuddy Holly, Ben-Hur, Space Monkey, Mafia\nHula Hoops, Castro, Edsel is a no-go\nU-2, Syngman Rhee, payola and Kennedy\nChubby Checker, Psycho, Belgians in the Congo\n\nWe didn't start the fire\nIt was always burning\nSince the world's been turning\nWe didn't start the fire\nNo, we didn't light it\nBut we tried to fight it\n\nHemingway, Eichmann, Stranger in a Strange Land\nDylan, Berlin, Bay of Pigs invasion\nLawrence of Arabia, British Beatlemania\nOle Miss, John Glenn, Liston beats Patterson\n\nPope Paul, Malcolm X, British Politician Sex\nJ.F.K. blown away, what else do I have to say?\n\nWe didn't start the fire\nIt was always burning\nSince the world's been turning\nWe didn't start the fire\nNo, we didn't light it\nBut we tried to fight it\n\nBirth control, Ho Chi Minh, Richard Nixon back again\nMoonshot, Woodstock, Watergate, punk rock\nBegin, Reagan, Palestine, Terror on the airline\nAyatollah's in Iran, Russians in Afghanistan\nWheel of Fortune, Sally Ride, heavy metal, suicide\nForeign debts, homeless Vets, AIDS, Crack, Bernie Goetz\nHypodermics on the shores, China's under martial law\nRock and Roller Cola wars, I can't take it anymore\n\nWe didn't start the fire\nIt was always burning\nSince the world's been turning\nWe didn't start the fire\nBut when we are gone\nIt will still burn on and on and on and on\nAnd on and on and on and on...\n\nWe didn't start the fire\nIt was always burning\nSince the world's been turning\nWe didn't start the fire\nNo, we didn't light it\nBut we tried to fight it\n\nWe didn't start the fire\nIt was always burning\nSince the world's been turning\nWe didn't start the fire\nNo, we didn't light it\nBut we tried to fight it\n\nWe didn't start the fire\nIt was always burning\nSince the world's been turning\nWe didn't start the fire\nNo, we didn't light it\nBut we tried to fight it",
  "LyricURL": "http://azlyrics.com/lyrics/billyjoel/wedidntstartthefire.html",
  "FullTitle": "We didn't start the fire"
 },
 {
  "Chart": {
   "Year": 1990,
   "ChartPosition": 36,
   "Artist": "James Ingram",
   "Title": "I Don't Have The Heart"
  },
  "Lyrics": "[Verse 1]\nYour face is beaming\nYou say it's 'cause you're dreaming\nOf how good it's going to be\nYou say you've been around\nAnd now you've finally found\nEverything you wanted and needed in me\n\n[Chorus]\nI don't have the heart to hurt you\nIt's the last thing I wanna do\nBut I don't have the heart to love you\nNot the way you want me to\n\n[Verse 2]\nInside I'm dying\nTo see you crying\nHow can I make you understand\nI care about you\nSo much about you, baby\nI'm trying to say this as gently as I can\n\n[Chorus]\n'Cause I don't have the heart to hurt you\nIt's the last thing I wanna do\nBut I don't have the heart to love you\nNot the way you want me to\n\n[Bridge]\nYou're so trusting and open\nHoping that love will start\nBut I don't have the heart, oh no\nI don't have the heart\n\n[Chorus]\nI don't have the heart to hurt you\nIt's the last thing I wanna do\nBut I don't have the heart to love you\nNot the way that you want me to\n\n[Outro]\n(I don't have the heart) Ooh\nBaby, I don't have the heart, I don't have the heart\n(I don't have the heart) Ooh, ooh\nBaby, I don't have\n(I don't have the heart)\n(I don't have the heart)\n(I don't have the heart)\n(I don't have the heart)",
  "LyricURL": "https://genius.com/James-ingram-i-dont-have-the-heart-lyrics",
  "FullTitle": "I Don’t Have The Heart"
 },
 {
  "Chart": {
   "Year": 1990,
   "ChartPosition": 37,
   "Artist": "Rod Stewart",
   "Title": "Downtown Train"
  },
  "Lyrics": "[Verse 1]\nOutside another yellow moon\nHas punched a hole in the night time mist\nI climb through the window and down to the street\nI'm shining like a new dime\nThe downtown trains are full\nFull of all them Brooklyn girls\nThey try so hard to break out of their little worlds\n\n[Verse 2]\nYou wave your hand and they scatter like crows\nThey have nothing that'll ever capture your heart\nThey're just thorns without the rose\nBe careful of them in the dark\nOh if I was the one you chose to be your only one\nOh baby can't you hear me now, can't you hear me now\n\n[Chorus]\nWill I see you tonight on a downtown train\nEvery night, every night its just the same\nOn a downtown train\n\n[Verse 3]\nI know your window and I know its late\nI know your stairs and your doorway\nI walk down your street and past your gate\nI stand by the light of the four way\nAnd watch them as they fall, oh baby\nThey all having their heart attacks\nThey stay at the carnival\nBut they'll never win you back\n\n[Chorus]\nWill I see you tonight on a downtown train\nEvery night, every night its just the same\nYou leave me lonely\nWill I see you tonight on a downtown train\nAll my dreams, all my dreams fall like rain\nOn a downtown train\nWill I see you tonight on a downtown train\nEvery night, every night its just the same\nWill I see you tonight on a downtown train\nAll my dreams, all my dreams fall like rain\nOn a downtown train\nOn a downtown train\nAll my dreams fall like rain\nOn a downtown train",
  "LyricURL": "https://genius.com/Rod-stewart-downtown-train-lyrics",
  "FullTitle": "Downtown Train"
 },
 {
  "Chart": {
   "Year": 1990,
   "ChartPosition": 38,
   "Artist": "Janet Jackson",
   "Title": "Rhythm Nation"
  },
  "Lyrics": "[Intro]\nYeah yeah yeah yeah, yeah yeah yeah\nBass bass, bass, bass\nNasty\nThree\n\n[Verse 1]\nWith music by our side to break the color lines\nLet's work together to improve our way of life\nJoin voices in protest to social injustice\nA generation full of courage, come forth with me\n\n[Chorus]\nPeople of the world today\nAre we looking for a better way of life?\nSing!\nWe are a part of the rhythm nation\nPeople of the world unite\nStrength in numbers, we can get it right, one time\nWe are a part of the rhythm nation\n\n[Verse 2]\nThis is the test, no struggle, no progress (Lend)\nLend a hand to help your brother do his best\nThings are getting worse, we have to make them better\nIt's time to give a damn, let's work together\nCome on now\n\n[Chorus]\nPeople of the world today\nAre we looking for a better way of life?\nWe are a part of the rhythm nation\nPeople of the world unite\nStrength in numbers, we can get it right, one time\nWe are a part of the rhythm nation\nEverybody\nPeople of the world today\nAre we looking for a better way of life?\nWe are a part of the rhythm nation\nPeople of the world unite\nStrength in numbers, we can get it right, one time\nWe are a part of the rhythm nation\n\n[Interlude]\nBass, bass, bass...\n\n[Bridge]\nWe\nSing it people\nAre\nSay it children\nSing it if you want a better way of life\nWe\nSing it people\nAre\nSing it children\nSing it if you want a better way of life\n\n[Interlude]\nBass, bass, bass...\n\n[Chorus]\nEverybody sing\nPeople of the world today\nAre we looking for a better way of life?\nSing!\nWe are a part of the rhythm nation\nPeople of the world unite\nStrength in numbers, we can get it right, one time\nWe are a part of the rhythm nation\nPeople of the world today\nAre we looking for a better way of life?\nSing!\nWe are a part of the rhythm nation\nPeople of the world unite\nStrength in numbers, we can get it right, one time\nWe are a part of the rhythm nation",
  "LyricURL": "https://genius.com/Janet-jackson-rhythm-nation-lyrics",
  "FullTitle": "Rhythm Nation"
 },
 {
  "Chart": {
   "Year": 1990,
   "ChartPosition": 39,
   "Artist": "Tommy Page",
   "Title": "I'll Be Your Everything"
  },
  "Lyrics": "So long that I've waited for a girl\nTo come into my life and in my world\nI can't explain my feelings for you\nI guess you're just all my dreams come true\n\nAnd I'll be your lover (your lover)\nAnd I'll be your best friend (oh, I'll be your friend)\nI'll be there when you're needing me (when you need me)\nI'll be your everything, your everything\n\nI'll be your everything (ooh)\nI'll be all that you want and all that you need\nI'll be your everything (ooh)\nI'll give you all that I have, my love, my life and me\nI'll be your everything\n\nNow that we're together at last\nWe shouldn't think about our problems in the past\n'Cause true love takes a miracle to find\nI guess that I've been blessed 'cause I've got you by my side\n\nAnd I'll be your lover (your lover)\nAnd I'll be your best friend (oh, I'll be your friend)\nI'll be there when you're needing me (when you need me)\nI'll be your everything, your everything\n\nI'll be your everything (ooh)\nI'll give you all that I have, my love, my life and me\nI'll be your everything\n\nWhen you're lost and you're down and you're seeing darkness\nAnd there's no one there that can be found\nJust turn around, I'll be there holding out my arms for you\nJust reach for me, I'll be the one to set you free\n\nI'll be your everything\nI'll be all that you want and all that you need\nI'll lift you up when you're feeling down\nI'll make your whole world turn around\nI'll give my heart and soul to you\nTo let you know this love is true\n\nI'll be your everything\nI'll give you all that I have, my love, my life and me\nI'll be your everything\n\nI'll lift you up when you're feeling down\nI'll make your whole world turn around\nI'll give my heart and soul to you\nTo let you know this love is true\n\nOoh, I'll be your everything",
  "LyricURL": "https://genius.com/Tommy-page-ill-be-your-everything-lyrics",
  "FullTitle": "I’ll Be Your Everything"
 },
 {
  "Chart": {
   "Year": 1990,
   "ChartPosition": 40,
   "Artist": "B52's",
   "Title": "Roam"
  },
  "Lyrics": "Well you broke my heart\n\r\nThen you said goodbye\n\r\nYou didn't stick around long\n\r\nEnough to see me cry\n\r\nI tried to get you on the phone\n\r\nBut you were long gone\n\r\nGuess I'll just spend a whole bunch\n\r\nOf nights sittin' all alone\n\n\n\r\nTime and time again\n\r\nI would let you back in\n\r\nAfter foolin' around with\n\r\nSome of my old friends\n\r\nYou thought it didn't show\n\r\nAnd I would never know\n\r\nThat you were up to no good\n\r\nEvery time you walked out the door\n\n\n\r\nYou've been playin' with my heart\n\r\nFrom the very start\n\r\nWell we should've had a thing\n\r\nThey couldn't pull apart\n\r\nYou kept me standing in line\n\r\nFor a long long time\n\r\nJust waitin' for you roamin' love\n\r\nThat should have been all mine\n\n\n\r\nYou've been playin' with my heart\n\r\nFrom the very start\n\r\nWell we should've had a thing\n\r\nThey couldn't pull apart\n\r\nYou kept me standing in line\n\r\nFor a long long time\n\r\nJust waitin' for you roamin' love\n\r\nThat should have been all mine\n\n\n\r\nYou kept me standing in line\n\r\nFor a long long time\n\r\nJust waitin' for you roamin' love\n\r\nThat should have been all mine\n\r\nJust waitin' for you roamin' love\n\r\nThat should have been all mine",
  "LyricURL": "https://www.lyricsplanet.com/lyrics.php?id=5500",
  "FullTitle": "Roamin' Love"
 }
]