[
 {
  "Chart": {
   "Year": 1950,
   "ChartPosition": 1,
   "Artist": "Patti Page",
   "Title": "The Tennessee Waltz"
  },
  "Lyrics": "I was dancing with my darling to the Tennessee Waltz\nWhen an old friend I happened to see\nIntroduced her to my loved one and while they were dancing\nMy friend stole my sweetheart from me\n\nI remember the night and the Tennessee Waltz\nNow I know just how much I have lost\nYes, I lost my little darling on the night they were playing\nThe beautiful Tennessee Waltz\n\nI was dancing with my darling to the Tennessee Waltz\nWhen an old friend I happened to see\nIntroduced her to my loved one and while they were dancing\nMy friend stole my sweetheart from me\n\nI remember the night and the Tennessee Waltz\nNow I know just how much I have lost\nYes, I lost my little darling on the night they were playing\nThe beautiful Tennessee Waltz",
  "LyricURL": "https://genius.com/Patti-page-the-tennessee-waltz-lyrics",
  "FullTitle": "The Tennessee Waltz"
 },
 {
  "Chart": {
   "Year": 1950,
   "ChartPosition": 2,
   "Artist": "Weavers (Gordon Jenkins And His Orchestra)",
   "Title": "Goodnight Irene"
  },
  "Lyrics": "Irene, goodnight Irene, goodnight Goodnight, Irene Goodnight, Irene I'll see you in my dreams Last Saturday night I got married Me and my wife settle down Now me and my wife are parted I'm gonna take another stroll in town Irene, goodnight Irene, goodnight Goodnight, Irene Goodnight, Irene I'll see you in my dreams Sometimes I live in the country Sometimes I live in town Sometimes I have a great notion To jump in the river and drown Irene, goodnight Irene, goodnight Goodnight, Irene Goodnight, Irene I'll see you in my dreams",
  "LyricURL": "None",
  "FullTitle": "Goodnight Irene"
 },
 {
  "Chart": {
   "Year": 1950,
   "ChartPosition": 3,
   "Artist": "Anton Karas",
   "Title": "The Third Man Theme"
  },
  "Lyrics": "None",
  "LyricURL": "None",
  "FullTitle": "None"
 },
 {
  "Chart": {
   "Year": 1950,
   "ChartPosition": 4,
   "Artist": "Guy Lombardo And His Royal Canadians",
   "Title": "The Third Man Theme"
  },
  "Lyrics": "None",
  "LyricURL": "None",
  "FullTitle": "None"
 },
 {
  "Chart": {
   "Year": 1950,
   "ChartPosition": 5,
   "Artist": "Eileen Barton",
   "Title": "If I Knew You Were Comin'"
  },
  "Lyrics": "Well, well, well, look who's here.\nI haven't seen you in many a year.\nIf I knew you were comin' I'd 've baked a cake,\nbaked a cake, baked a cake.\nIf I knew you were comin' I'd 've baked a cake.\nHow-ja do. How-ja do, How-ja do.\n\nHad you dropped me a letter I'd 've hired a band,\ngrandest band in the land.\nHad you dropped me a letter I'd 've hired a band\nand spread the welcome mat for you.\n\nNow I don't know where you came from \n'cause I don't know where you've been.\nBut it really doesn't matter \ngrab a chair and fill your platter \nand dig dig dig right in.\n\nIf I knew you were comin' I'd 've baked a cake,\nhired a band, goodness sake.\nIf I knew you were comin' I'd 've baked a cake.\nHow-ja do. How-ja do. How-ja do.\n\nIf I knew you were comin' I'd 've baked a cake,\nbaked a cake, baked a cake.\nIf I knew you were comin' I'd 've baked a cake.\nHow-ja do. How-ja do, How-ja do.\n\nHad you dropped me a letter I'd 've hired a hall,\ngreat big hall, band and all.\nHad you dropped me a letter I'd 've hired a hall\nand spread the welcome mat for you.\n\nNow I don't know where you came from \n'cause I don't know where you've been.\nBut it really doesn't matter \ngrab a chair and fill your platter \nand dig dig dig right in.\n\nIf I knew you were comin' I'd 've kept the pot,\ncoffee pot nice and hot.\nIf I knew you were comin' I'd 've baked a cake.\nHow-ja do. How-ja do. How-ja do.",
  "LyricURL": "https://songmeanings.com/songs/view/3530822107859237457/",
  "FullTitle": "If I Knew You Were Comin' I'd Have Baked a Cake"
 },
 {
  "Chart": {
   "Year": 1950,
   "ChartPosition": 6,
   "Artist": "Nat \"king\" Cole",
   "Title": "Les Baxter And His Orchestra"
  },
  "Lyrics": "None",
  "LyricURL": "None",
  "FullTitle": "None"
 },
 {
  "Chart": {
   "Year": 1950,
   "ChartPosition": 7,
   "Artist": "Red Foley",
   "Title": "Chattanoogie Shoe Shine Boy"
  },
  "Lyrics": "Have you ever passed the corner of Forth and Grand?\nWhere a little ball o' rhythm has a shoe-shine stand\nPeople gather 'round and they clap their hands\nHe's a great big bundle o' joy\nHe pops the boogie woogie rag\nThe Chattanoogie shoe-shine boy\n\nHe charges you a nickel just to shine one shoe\nHe makes the oldest kind o' leather look like new\nYou feel as though you wanna dance when he gets through\nHe's a great big bundle o' joy\nHe pops the boogie woogie rag\nThe Chattanoogie shoe-shine boy\n\nIt's a wonder that the rag don't tear\nThe way he makes it pop\nYou ought to see him fan the air\nWith his hoppity-hippity-hippity-hoppity-hoppity-hippity-hop\n\nHe opens up for business when the clock strikes nine\nHe likes to get up early when they're feelin' fine\nEverybody gets a little rise 'n shine\nWith the great big bundle o' joy\nHe pops the boogie woogie rag\nThe Chattanoogie shoe-shine boy\n\n[Instrumental Break]\n\nIt's a wonder that the rag don't tear\nThe way he makes it pop\nJust listen to him fan the air\nHere he goes!\n\nHe opens up for business when the clock strikes nine\nHe likes to get up early when they're feelin' fine\nEverybody gets a little rise 'n shine\nWith the great big bundle o' joy\nHe pops the boogie woogie rag\nThe Chattanoogie shoe-shine boy\nThe Chattanoogie shoe-shine boy",
  "LyricURL": "https://genius.com/Red-foley-chattanoogie-shoe-shine-boy-lyrics",
  "FullTitle": "Chattanoogie Shoe Shine Boy"
 },
 {
  "Chart": {
   "Year": 1950,
   "ChartPosition": 8,
   "Artist": "Andrews Sisters",
   "Title": "I Can Dream, Can't I"
  },
  "Lyrics": "(Dream on, dream on)\n\nI can see\nNo matter how near you'll be\nYou'll never belong to me\nBut I can dream, can't I?\nCan't I pretend that I'm locked\nIn the bend of your embrace?\nFor dreams are just like wine\nAnd I am drunk with mine\n\nI'm aware\nMy heart is a sad affair\nThere's much disillusion there\nBut I can dream, can't I?\nCan't I adore you\nAlthough we are oceans apart?\nI can't make you open your heart\nBut I can dream, can't I?\n\nI'm aware\nMy heart is a sad affair\nThere's much disillusion there\nBut I can dream, can't I?\nCan't I adore you\nAlthough we are oceans apart?\nI can't make you open your heart\nBut I can dream, can't I?\n\n(Dream on, dream on, dream on)\n I can dream, can't I?",
  "LyricURL": "https://songmeanings.com/songs/view/3530822107858909394/",
  "FullTitle": "I Can Dream, Can't I?"
 },
 {
  "Chart": {
   "Year": 1950,
   "ChartPosition": 9,
   "Artist": "Patti Page",
   "Title": "All My Love"
  },
  "Lyrics": "All my love, I give you all my love\nThe skies may fall, my love\nBut I will still be true\nAll my sighs, will disappear at last\nNow that you're here at last\nMy heart belongs to you\n\nOh ooh, never let me go\nYou thrill me so\nI can see as I recall my life\nI've waited all my life\nTo give you all my love\n\nAy, ay, ay\nAy, ay, ay\nAy, ay, ay\nAy, ay, ay\n\nBow, caballero, and tip your sombrero\nTo your señorita, the lovely Chiquita\nWaiting so long for you and your song\nWhile you are playing her heart will be swaying\n\nShe will surrender her kisses so tender\nTo you she will cling the moment that you sing\n\nAll my love, I give you all my love\nThe skies may fall, my love\nBut I will still be true\nAll my sighs will disappear at last\nNow that you're here at last my heart belongs to you\n\nOh ooh, never let me go\nYou thrill me so\nI can see as I recall my life\nI've waited all my life\nTo give you all my love\n\nAy, ay, ay\nAy, ay, ay\nAy, ay, ay\nAy, ay, ay",
  "LyricURL": "https://genius.com/Patti-page-all-my-love-lyrics",
  "FullTitle": "All My Love"
 },
 {
  "Chart": {
   "Year": 1950,
   "ChartPosition": 10,
   "Artist": "Phil Harris",
   "Title": "The Thing"
  },
  "Lyrics": "While I was walking down the beach one bright and sunny day\nI saw a great big wooden box a-floatin' in the bay\nI pulled it in and opened it up and much to my surprise\nOoh, I discovered a (*boom-boom-boom*) right before my eyes\nOoh, I discovered a (*boom-boom-boom*) right before my eyes\n\nI picked it up and ran to town as happy as a king\nI took it to a guy I knew who'd buy most any thing\nBut this is what he hollered at me as I walked in his shop\nOoh, get outta here with that (*boom-boom-boom*) before I call a cop\nOoh, get outta here with that (*boom-boom-boom*) before I call a cop\n\nI turned around and got right out, a-runnin' for my life\nAnd than I took it home with me to give it to my wife\nBut this is what she hollered at me as I walked in the door\nOh, get outta here with that (*boom-boom-boom*) and don't come back no more\nOh, get outta here with that (*boom-boom-boom*) and don't come back no more\n\nI wandered all around the town until I chanced to meet\nA hobo who was looking for a handout on the street\nHe said he'd take most any old thing, he was a desperate man\nBut when I showed him the (*boom-boom-boom*), he turned around and ran\nOh, when I showed him the (*boom-boom-boom*), he turned around and ran\n\nI wandered on for many years, a victim of my fate\nUntil one day I came upon St. Peter at the gate\nAnd when I tried to take it inside, he told me where to go\nGet outta here with that (*boom-boom-boom*) and take it down below\nOh, get outta here with that (*boom-boom-boom*) and take it down below\n\nThe moral of this story is if you're out on the beach\nAnd you should see a great big box and it's within your reach\nDon't ever stop and open it up, that's my advice to you\n'Cause you'll never get rid of the (*boom-boom-boom*), no matter what you do\nOh, you'll never get rid of the (*boom-boom-boom*), no matter what you do\n\n(*boom-boom-boom* = 3 strikes on the drum)",
  "LyricURL": "https://genius.com/Phil-harris-the-thing-lyrics",
  "FullTitle": "The Thing"
 },
 {
  "Chart": {
   "Year": 1950,
   "ChartPosition": 11,
   "Artist": "Sammy Kaye And His Orchestra",
   "Title": "Harbor Lights"
  },
  "Lyrics": "I saw the harbor lights\nThey only told me we were parting\nThe same old harbor lights that once brought you to me\nI watched the harbor lights\nHow could I help if tears were starting\nGoodbye to tender nights beside the silvery sea\nI long to hold you near and kiss you just once more\nBut you were on the ship and I was on the shore\nNow I know lonely nights\nFor all the while my heart is whisp'ring\nSome other harbor lights will steal your love from me\nI long to hold you near and kiss you just once more\nBut you were on the ship and I was on the shore\nNow I know lonely nights\nFor all the while my heart is whisp'ring\nSome other harbor lights will steal your love from me",
  "LyricURL": "https://genius.com/Sammy-kaye-and-his-orchestra-harbor-lights-lyrics",
  "FullTitle": "Harbor Lights"
 },
 {
  "Chart": {
   "Year": 1950,
   "ChartPosition": 12,
   "Artist": "Teresa Brewer",
   "Title": "Music! Music! Music!"
  },
  "Lyrics": "Put another nickel in\nIn the nickelodeon\nAll I want is having you\nAnd music, music, music\n\nI'd do anything for you\nAnything you'd want me to\nAll I want is kissing you\nAnd music, music, music\n\nCloser\nMy dear, come closer\nThe nicest part of any melody\nIs when you're danciong close to me\n\nSo, put another nickel in\nIn the nickelodeon\nAll I want is loving you\nAnd music, music, music\n\nPut another nickel in\nIn the nickelodeon\nAll I want is having you\nAnd music, music, music\n\nI'd do anything for you\nAnything you'd want me to\nAll I want is kissing you\nAnd music, music, music\n\nCloser\nMy dear, come closer\nThe nicest part of any melody\nIs when you're danciong close to me\n\nSo, put another nickel in\nIn the nickelodeon\nAll I want is loving you\nAnd music, music, music\n\nC'mon everybody\nPut some nickels in\nAnd keep that old nickelodeon playing\nMusic, music, music\n\nLum, dee, dum, dee, da dee dum\nDum, dee, dum, dee, da dee dum\nDum, dee, dum, dee, da dee dum\nAnd music, music, music\n\nLum, dee, dum, dee, da dee dum\nDum, dee, dum, dee, da dee dum\nDum, dee, dum, dee, da dee dum\nAnd music, music, music",
  "LyricURL": "https://genius.com/Teresa-brewer-music-music-music-lyrics",
  "FullTitle": "Music! Music! Music!"
 },
 {
  "Chart": {
   "Year": 1950,
   "ChartPosition": 13,
   "Artist": "Andrews Sisters",
   "Title": "I Wanna Be Loved"
  },
  "Lyrics": "I wanna be Loved By Andrews Sisters Oooo-ooooh Oooo-ooooh I wanna be loved (oooh) With inspiration! (oooh) I wanna be loved Starting tonight! (oooh) Instead of merely (oooh) Holding conversation (oooh) Hold me tight! I wanna be kissed (aaaah) Until I tingle! (aaaah) I wanna be kissed (aaaah) Starting tonight! (aaaah) Embrace until Our heartbeats intermingle Wrong or right! I feel like acting my age! I'm passed the stage of merely turtle-doving! (Be careful! Be careful what you do!) I'm in no mood to resist And I insist the world owes me a loving! (oooh) I wanna be thrilled (oooh) To desperation! (oooh) I wanna be thrilled (oooh) Starting tonight! (Love me! Love me! Love me!) With every kind of wonderful sensation! I wanna be loved! (aaaah) I feel like acting my age! I'm passed the stage of merely turtle-doving! I'm in no mood to resist And I insist the world owes me a loving! I wanna be thrilled to desperation! (I wanna be thrilled!I wanna be thrilled!) I wanna be thrilled, starting tonight! (I wanna be thrilled tonight!) With every kind of wonderful sensation I wanna be loved!",
  "LyricURL": "None",
  "FullTitle": "I Wanna Be Loved"
 },
 {
  "Chart": {
   "Year": 1950,
   "ChartPosition": 14,
   "Artist": "Ames Brothers",
   "Title": "Rag Mop"
  },
  "Lyrics": "None",
  "LyricURL": "https://songmeanings.com/songs/view/3530822107858949189/",
  "FullTitle": "Rag Mop"
 },
 {
  "Chart": {
   "Year": 1950,
   "ChartPosition": 15,
   "Artist": "Frankie Laine",
   "Title": "The Cry Of The Wild Goose"
  },
  "Lyrics": "My heart knows what the wild goose knows\nAnd I must go where the wild goose goes\nWild goose, brother goose, which is best?\nA wandering fool or a heart at rest?\n\nTonight I heard the wild goose cry\nHanging north in the lonely sky\nTried to sleep, it wasn't no use\nCause I am a brother to the old wild goose\n\n(Oh, my heart knows what the wild goose knows)\n(And I must go where the wild goose goes)\nWild goose, brother goose, which is best?\nA wandering fool or a heart at rest?\n\nWoman was kind and true to me\nShe thinks she loves me, more fool she!\nShe's got a love that ain't no use\nTo love a brother of the old wild goose\n\nThe cabin is warm and the snow is deep\nAnd I got a woman who lies asleep\nShe'll wake up tomorrow's dawn\nAnd find, poor critter, that her man is gone\n\n(Oh, my heart knows what the wild goose knows)\n(And I must go where the wild goose goes)\n(Wild goose, brother goose, which is best?)\n(A wandering fool or a heart at rest?)\n\nLet me fly, let me fly, let me fly away\n\nSpring is coming and the ice will break\nAnd I can't linger for a woman's sake\nShe'll see a shadow pass overhead\nAnd she'll find a feather 'side her bed",
  "LyricURL": "https://genius.com/Frankie-laine-the-cry-of-the-wild-goose-lyrics",
  "FullTitle": "The Cry Of The Wild Goose"
 },
 {
  "Chart": {
   "Year": 1950,
   "ChartPosition": 16,
   "Artist": "Perry Como And Fontane Sisters",
   "Title": "Hoop Dee Doo"
  },
  "Lyrics": "Hoop dee doo, hoop dee doo\nI hear a polka an' my troubles are through!\nHoop dee doo, hoop dee dee\nThis kind of music is like heaven to me!\n\nHoop dee doo, hoop dee doo\nIt's got me higher than a kite\nHand me down my soup an' fish\nI am gonna get my wish, hoop dee doin' it tonight!\n\nWhen there's a trombone playin'\nI get a thrill, I always will!\nWhen there's a concertina, stretched about a mile\nI always smile, 'cause that's my style!\n\nWhen there's a fiddle in the middle\nOh! it really is a riddle, how he plays a tune so sweet!\nPlays a tune so sweet that I could die\nLead me to the floor an' hear me yell for more\n'cause I'm a hoop dee doin' kind of guy!\n\nHoop dee doo ( Hoop dee doo! ) hoop dee doo ( Hoop dee doo! )\nI hear a polka an' my troubles are through! ( Ha, ha, ha ha! )\nHoop dee doo ( Hoop dee doo! ) hoop dee dee ( Hoop dee dee! )\nThis kind of music is like heaven to me!\n\nHoop dee doo ( Hoop dee doo! ) hoop dee doo ( Hoop dee doo! )\nIt's got me higher than a kite\n\nHand me down my soup an' fish\nI am gonna get my wish, hoop dee doin' it tonight!\n\nWhen there's a trombone playin'\nHe gets a thrill! I get a thrill, I always will! He always will!\nWhen there's a concertina . . . stretched about a mile\nI always smile ( You'll see him smile! ) 'cause that's my style! ( 'Cause that's his style! )\n\nWhen there's a fiddle in the middle\nOh! it really is a riddle, how he plays a tune so sweet!\nPlays a tune so sweet that we could die!\nOh yes! . . . lead me to the floor an' hear me yell for more\n'cause I'm a hoop dee doin' kind of guy!\n\nInstrumental break\n\nHoop dee doo, hoop dee doo\nIt's got us higher than a kite\nWe're in clover, we're in bloom\nWhen we're dancin' give us room\nHoop dee doin' it with all of our might\nRain may fall an' snow may come\nNothin's gonna stop us from\nHoop dee doin' it, hoop dee doin' it\nHoop dee doin' it . . . tonight!\n\nMusic by Milton de Lugg",
  "LyricURL": "https://genius.com/Perry-como-hoop-dee-doo-lyrics",
  "FullTitle": "Hoop-Dee-Doo"
 },
 {
  "Chart": {
   "Year": 1950,
   "ChartPosition": 17,
   "Artist": "Ames Brothers",
   "Title": "Sentimental Me"
  },
  "Lyrics": "Sentimental me Guess I'll always be So in love with you Don't know what to do Sentimental me Dreaming while I live Living just to give All my love to you No one else will do Sentimental me Reaching for the moon And wishing on a star On my honeymoon I want to be where you are Darling, can't you see It as meant to be? I'm in love with you Say you love me, too Sentimental me Reaching for the moon (reaching for the moon) And wishing on a star (wishing on a star) On my honeymoon (on my honeymoon) I want to be where you are Darling, can't you see It was meant to be? I'm in love with you Say you love me, too Sentimental me",
  "LyricURL": "https://genius.com/The-ames-brothers-sentimental-me-lyrics",
  "FullTitle": "Sentimental Me"
 },
 {
  "Chart": {
   "Year": 1950,
   "ChartPosition": 18,
   "Artist": "Sammy Kaye And His Orchestra",
   "Title": "(Vocal Don Cornell)"
  },
  "Lyrics": "None",
  "LyricURL": "None",
  "FullTitle": "None"
 },
 {
  "Chart": {
   "Year": 1950,
   "ChartPosition": 19,
   "Artist": "Bing Crosby",
   "Title": "Dear Hearts And Gentle People"
  },
  "Lyrics": "I love those dear hearts and gentle people\nWho live in my home town\nBecause those dear hearts and gentle people\nWill never ever let you down\n\nThey read the good book\nFrom fri till monday\nThat's how the weekend goes\nI've got a dream house\nI'll build there one day\nWith picket fence and ramblin rows\n\nI feel so welcome each time i return\nThat my happy heart keeps laughing like a clown\nI love the dear hearts and gentle people\nWho live and love in my home town\n\nThere's a place i'd like to go\nAnd it's back in idaho\nWhere you're friendly neighbors smile and say hello\nIt's a pleasure and a treat\nTo meandor down the street\nThat's why i want the whole wide world to know\nI love those dear hearts\nI love the gentle people\n(who live in my home town)\nBecause those dear hearts and gentle people\nWill never ever let you down\n\nThey read the good book\nFrom fri till monday\nThat's how the weekend goes\nI've got a dream house\nI'll build there one day\nWith picket fence and ramblin rows\n\nI feel so welcome each time i return\nThat my happy heart keeps laughing like a clown\nI love the dear hearts and gentle people\nWho live and love in my home town\n\n(home home sweet home\nHome home sweet home)\nHome home sweet home\nHome home sweet home",
  "LyricURL": "https://genius.com/Bing-crosby-dear-hearts-and-gentle-people-lyrics",
  "FullTitle": "Dear Hearts And Gentle People"
 },
 {
  "Chart": {
   "Year": 1950,
   "ChartPosition": 20,
   "Artist": "Gary Crosby And Friend (Bing Crosby)",
   "Title": "Play A Simple"
  },
  "Lyrics": "{Verse 1}\n\r\nWon't you play some simple melody\n\r\nLike my mother sang to me\n\r\nOne with a good old-fashioned harmony\n\r\nPlay some simple melody\n\n\n\r\n{Verse 2}\n\r\nMusical demon, set your honey a-dreamin', won't you play me some rag\n\r\nJust change that classical nag to some sweet beautiful drag\n\r\nIf you will play from a copy of a tune that is choppy you'll get all my applause\n\r\nAnd that is simply because I wanna listen to rag\n\n\n\r\n{Verse 3A}\n\r\nPlay for me\n\r\nThat good old-fashioned harmony\n\r\nOh, won't you play for me\n\r\nA simple melody\n\n\n\r\n{Verse 3B}\n\r\nPlay from a copy of a tune that is choppy\n\r\nYou'll get all of my applause because\n\r\nI wanna rag it\n\r\nRagtime melody\n\n\n\n\n\r\nArrangement:\n\n\n\r\nVerse 1\n\r\nVerse 2\n\r\nVerses 1 and 2 together\n\r\n--- instrumental break ---\n\r\nVerses 1 and 2 together\n\r\nVerses 3A and 3B together",
  "LyricURL": "https://www.lyricsplanet.com/lyrics.php?id=28293",
  "FullTitle": "Play A Simple Melody"
 },
 {
  "Chart": {
   "Year": 1950,
   "ChartPosition": 21,
   "Artist": "Tony Martin",
   "Title": "There's No Tomorrow"
  },
  "Lyrics": "There's no tomorrow when love is new\nNow is forever when love is true\nSo kiss me and hold me tight\nThere's no tomorrow, there's just tonight\n\nLove is a flower that blooms so tender\nEach kiss a dew drop of sweet surrender\nLove is a moment of life enchanting\nLet's take that moment, that tonight is granting\n\nThere's no tomorrow when love is new\nNow is forever when love is true\nSo kiss me and hold me tight\nThere's no tomorrow, there's just tonight",
  "LyricURL": "https://genius.com/Tony-martin-theres-no-tomorrow-lyrics",
  "FullTitle": "There’s No Tomorrow"
 },
 {
  "Chart": {
   "Year": 1950,
   "ChartPosition": 22,
   "Artist": "Weavers (Gordon Jenkins And His Orchestra)",
   "Title": "Tzena"
  },
  "Lyrics": "None",
  "LyricURL": "None",
  "FullTitle": "None"
 },
 {
  "Chart": {
   "Year": 1950,
   "ChartPosition": 23,
   "Artist": "Paul Weston And His Orchestra",
   "Title": "Nevertheless"
  },
  "Lyrics": "I knew the time had to come\nWhen I'd be held under your thumb\nI'm like a pawn in your hand\nMoved and compelled, at your command\nWhether it's for bad or for good\nI would never change it if I could\n\nMaybe I'm right, maybe I'm wrong\nMaybe I'm weak, maybe I'm strong\nBut nevertheless I'm in love with you\nMaybe I'll win, maybe I'll lose\nAnd maybe I'm in for crying the blues\nBut nevertheless I'm in love with you\n\nSomehow, I know at a glance, the terrible chances I'm taking\nFine at the start, then left with a heart that is breaking\n\nMaybe I'll live a life of regret, \nAnd maybe I'll give much more than I get\nBut nevertheless, I'm in love with you\n\nIn spite of all I could do\nI went ahead falling for you\nSo if I laugh or I cry\nI made my bed, that's where I'll lie\nFor what happens there's no excuse\nI put my own head in the noose",
  "LyricURL": "https://songmeanings.com/songs/view/3530822107859020640/",
  "FullTitle": "Nevertheless (I'm in Love with You)"
 },
 {
  "Chart": {
   "Year": 1950,
   "ChartPosition": 24,
   "Artist": "Kay Starr",
   "Title": "Hoop Dee Doo"
  },
  "Lyrics": "Hoop-De-Do, Hoop-De-Do\nI hear a polka and my troubles are through\nHoop-De-Do, Hoop-De-De\nThis kind of music is like heaven to me\nHoop-De-Do, Hoop-De-Do\nIt's got me higher than a kite\nHand me down my soup and fish, I am gonna get my wish\nHoop-De-Doin' it tonight\n\n(When there's a trombone playin', ra-ta-da-da-da)\nI get a thrill, I always will\n(When there's a concertina stretchin' out a mile)\nI always smile 'cause that's my style\nWhen there's a fiddle in the middle oh it really is a riddle how he\nPlays a tune so sweet\nPlays a tune so sweet that I could die\nLead me to the floor and hear me yell for more\n'Cause I'm a Hoop-Dee-Doin' kind of guy\n\nWhen there's a fiddle in the middle oh it really is a riddle how he\nPlays a tune so sweet\nPlays a tune so sweet that I could die\n(Orchestral Break)\n\nHoop-De-Do, (Hoop-De-Do)\nHoop-De-Doo, (Hoop-De-Do)\nI hear a polka\n\nAnd my troubles are through)\nHoop-De-De, (Hoop-Dee-Do)\nHoop-De-De, (Hoop-De-De)\nThis kind of music\n\nIs like heaven to me\nHoop-De-Do (Hoop-De-Do)\nHoop-De-Do (Hoop-De-Do)\nIt's got me higher than a kite\nI'm in clover, I'm in bloom\nWhen I'm dancin' give me room\nHoop-de-doin' it with all of my might\n\nRain may fall and snow may come\nNothin's gonna stop me from\nHoop-De-Doin' it tonight",
  "LyricURL": "https://www.musixmatch.com/lyrics/Kay-Starr/Hoop-Dee-Doo",
  "FullTitle": "Hoop Dee Doo"
 },
 {
  "Chart": {
   "Year": 1950,
   "ChartPosition": 25,
   "Artist": "Guy Lombardo And His Royal Canadians",
   "Title": "Harbor Lights"
  },
  "Lyrics": "I saw the harbor lights They only told me we were parting The same old harbor lights that once brought you to me I watch'd the harbor lights How could I help if tears were starting? Goodbye to tender nights beside the silvery sea I longed to hold you near and kiss you just once more But you were on the ship and I was on the shore Now I know lonely nights For all the while my heart is whispering Some other harbor lights Will steal your love from me",
  "LyricURL": "None",
  "FullTitle": "Harbor Lights"
 },
 {
  "Chart": {
   "Year": 1950,
   "ChartPosition": 26,
   "Artist": "Richard Hayes",
   "Title": "The Old Master Painter"
  },
  "Lyrics": "The old master painter from the faraway hills Painted the violets and the daffodils He put the purple in the twilight haze Then did a rainbow for the rainy days Dreamed up the murals on the blue summer skies Painted the devil in my darling's eyes Captured the dreamer with a thousand thrills The old master painter from the faraway hills Then came his masterpiece and when he was through He smiled down from heaven and he gave me you What a beautiful job on that wonderful day The old master painter from the hills faraway The old master painter from the faraway hills Painted the violets and the daffodils He put the purple in the twilight haze Then did a rainbow for the rainy days Dreamed up the murals on the blue summer skies Painted the devil in my darling's eyes Captured the dreamer with a thousand thrills The old master painter from the faraway hills Then came his masterpiece and when he was through He smiled down from heaven and he gave me you What a beautiful job on that wonderful day The old master painter from the hills faraway Faraway, faraway",
  "LyricURL": "None",
  "FullTitle": "None"
 },
 {
  "Chart": {
   "Year": 1950,
   "ChartPosition": 27,
   "Artist": "Dinah Shore",
   "Title": "Dear Hearts And Gentle People"
  },
  "Lyrics": "I love those dear hearts and gentle people\nWho live in my home town\nBecause those dear hearts and gentle people\nWill never ever let you down\n\nThey read the good Book from Fri' till Monday\nThat's how the weekend goes\nI've got a dream house I'll build there one day\nWith picket fence and ramblin' rose\n\nI feel so welcome each time that I return\nThat my happy heart keeps laughin' like a clown\nI love the dear hearts and gentle people\nWho live and love in my home town\n\nThere's a place I'd like to go and it's Batten, Idaho\nWhere your friendly neighbors smile and say \"Hello.\"\nIt's a pleasure and a treat to meander down the street\nThat's why I want the whole wide world to know\n\nI love those dear hearts and gentle people\nWho live in my home town\nBecause those dear hearts and gentle people\nWill never ever let you down",
  "LyricURL": "https://genius.com/Dinah-shore-dear-hearts-and-gentle-people-lyrics",
  "FullTitle": "Dear Hearts And Gentle People"
 },
 {
  "Chart": {
   "Year": 1950,
   "ChartPosition": 28,
   "Artist": "Gary Crosby And Friend (Bing Crosby)",
   "Title": "Sam's Song"
  },
  "Lyrics": "Ah, here's a happy tune, you'll love to croon They call it Sam's Song. It's catchy as can be The melody They call it Sam's Song Nothing on your mind, then you find, you're humming Sam's Song. Why, it makes you grim, gets under your skin, As only a song can do. The people that you meet Out on the street, all whistling Sam's Song. Everyone you see, will soon agree, that it's a Grand Song. So forget your troubles and wear a smile You'll find you'll never go wrong If you learn to croon, this happy tune They call it Sam's Song. Ah, here's a happy tune That'll bring you a smile all the while, while you croon that you're really in style And the title is Sam's Song. It's catch as can be With a sly little beat and the mealody sweet keeps you tapping your feet And the title is Sam's Song Ah, Nothing on your mind But the news of the day and the bills you must pay, keep your hair turning gray But you're still humming Sam's Song. Why it makes you grin, gets under your skin, as only a song can do Who! The people that you meet Hello Joe, whatcha know and remind me to mow tell'im business is slow But I'm whistlin' Sam's Song Everyone you see Has a story to tell or a gimic to sell, but agrees that it's swell and it's really a grand Song. So forget your troubles and wear a smile, you'll find you'll never go wrong If you learn to croon Like a lark in the part who is making his mark saranating the dark To the Choris of Sam's Song.",
  "LyricURL": "None",
  "FullTitle": "None"
 },
 {
  "Chart": {
   "Year": 1950,
   "ChartPosition": 29,
   "Artist": "Perry Como And Betty Hutton",
   "Title": "A Bushel And A Peck"
  },
  "Lyrics": "( Doodle oodle ooh doo, doodle oodle ooh doo,  \n\r\ndoodle oodle ooh doo, doo ! ) \n\n\n\r\nWhat'cha doin' Hutton? \n\r\nDoodlin' . . . can you doodle? \n\r\nCan I doodle? ~ I can't get it outta my noodle! \n\n\n\r\nHow come? \n\n\n\r\n'Cause I love you a bushel an' a peck,  \n\r\na bushel an' a peck and a hug around the neck ( Ouch! ) \n\r\nHug around the neck and a barrel an' a heap,  \n\r\nbarrel an' a heap an' I'm talkin' in my sleep!  \n\r\nAbout you! ( About me? ) Yes, about you! \n\r\nMy heart is leapin', havin' trouble sleepin' !  \n\r\n'Cause I love you a bushel an' a peck,  \n\r\nyou bet your purdy neck I do! \n\n\n\r\n( Doodle oodle ooh doo, doodle oodle ooh doo,  \n\r\ndoodle oodle ooh doo, doo ! ) \n\n\n\r\nDo you like me Perry?  Oh very, do you like me Hutton?  \n\r\nLike a glutton!  So, where's your \"Como\" button?  \n\r\nOh! I love you a bushel an' a peck  ( How much? ) \n\r\na bushel an' a peck though you make my heart a wreck! \n\r\nMake my heart a wreck and you make my life a mess, \n\r\nmake my life a mess, yes a mess of happiness! \n\r\nAbout you! ( About me? ) Yes, about you! \n\r\nYou're gonna grieve me, if an' you ever leave me! \n\r\n'Cause I love you a bushel an' a peck,  \n\r\nyou bet your purdy neck I do! \n\n\n\r\n( Doodle oodle ooh doo, doodle oodle ooh doo,  \n\r\ndoodle oodle ooh doo, doo ! ) \n\n\n\r\nHeh heh, it's gettin' kinda quiet around here!  \n\r\nOh! we can fix that Perry boy! Let's go! \n\r\nI love you a bushel an' a peck,  \n\r\na bushel an' a peck and it beats be all to heck,  \n\r\nbeats me all to heck how I'll ever tend the farm \n\r\never tend the farm when I wanna keep my arms about you!  \n\r\nAbout you, the cows an' chickens, let em go to the dickens  \n\r\n'Cause I love you a bushel an' a peck,  \n\r\nyou bet your purdy neck I do! \n\n\n\r\n( Doodle oodle ooh doo, doodle oodle ooh doo,  \n\r\ndoodle oodle ooh doo, doo ! ) \n\n\n\r\n. . . it's gettin' kinda quiet again!  \n\n\n\r\n( Doodle oodle ooh doo, doodle oodle ooh doo,  \n\r\ndoodle oodle ooh doo, doo ! ) \n\n\n\r\n. . . an octave lower please!  \n\n\n\r\n( Doodle oodle ooh doo, doodle oodle ooh doo,  \n\r\ndoodle oodle ooh doo, doo ! ) \n\n\n\r\nWords and Music by Frank Loesser, 1950",
  "LyricURL": "https://www.lyricsplanet.com/lyrics.php?id=54379",
  "FullTitle": "A Bushel And A Peck"
 },
 {
  "Chart": {
   "Year": 1950,
   "ChartPosition": 30,
   "Artist": "Bill Snyder Orchestra",
   "Title": "Bewitched"
  },
  "Lyrics": "She's a fool and don't I know it But a fool can have her charms I'm in love and don't I show it Like a babe in arms Love's the same old situation Lately I've not slept a wink Since this crazy situation Has me on the blink I'm wild again, beguiled again A whimpering, simpering child again Bewitched, bothered and bewildered, am I Couldn't sleep, wouldn't sleep Love came and told me, shouldn't sleep Bewitched, bothered and bewildered, am I I lost my heart, but what of it She is cold I agree She might laugh, but I love it Although the laugh's on me I'll sing to her, bring spring to her And long, for the day when I'll cling to her Bewitched, bothered and bewildered, am I",
  "LyricURL": "https://songmeanings.com/songs/view/3530822107859239502/",
  "FullTitle": "Bewitched"
 },
 {
  "Chart": {
   "Year": 1950,
   "ChartPosition": 31,
   "Artist": "Kay Starr And Tennessee Ernie Ford",
   "Title": "I'll Never Be Free"
  },
  "Lyrics": "Each time I hold someone new My arms grow cold aching for you No one can take your place Darling in my embrace I'll never be free And when my lips burn with desire No other kiss puts out the fire Though I may try and try No one can satisfy this longing in me I'll never be free from your smile so tender The sweet surrender in your eyes How can I be free when I still remember How you could thrill me with a sigh Just like a chain bound to my heart Your love remains when we're apart Each kiss I gave to you Made me a slave to you I'll never be free",
  "LyricURL": "None",
  "FullTitle": "I'll Never Be Free"
 },
 {
  "Chart": {
   "Year": 1950,
   "ChartPosition": 32,
   "Artist": "Perry Como And Fontane Sisters",
   "Title": "A Dreamer's Holiday"
  },
  "Lyrics": "Climb aboard a butterfly, \n\r\nAn' take off on the breeze, \n\r\nLet your worries flutter by, \n\r\nAn' do the things you please, \n\r\nIn a land where dollar bills, \n\r\nAre fallin' off the trees, \n\r\nOn a dreamer's holiday! \n\n\n\r\nEvery day for breakfast, \n\r\nThere's a dish of scrambled stars, \n\r\nAn' for lunchin' you'll be munchin' \n\r\nRainbow candy bars, \n\r\nYou'll be livin' a la mode, \n\r\nOn Jupiter and Mars, \n\r\nOn a dreamer's holiday! \n\n\n\r\nMake it a long vacation, \n\r\nTime, there is plenty of, \n\r\nYou need no reservation, \n\r\nJust bring along the one you love! \n\n\n\r\nHelp yourself to happiness, \n\r\nAn' sprinkle it with mirth, \n\r\nClose your eyes an' concentrate, \n\r\nAn' dream for all you're worth, \n\r\nYou will feel terrific, \n\r\nWhen you get back down to earth, \n\r\nFrom a dreamer's holiday! \n\n\n\r\nYou, climb aboard a butterfly, \n\r\nAn' take off on the breeze, \n\r\nLet your worries flutter by, \n\r\nAn' do the things you please, \n\r\nIn a land where dollar bills, \n\r\nAre fallin' off the trees, \n\r\nOn a dreamer's holiday! \n\n\n\r\nEvery day for breakfast, \n\r\nThere's a dish of scrambled stars, \n\r\nAnd for lunchin' you'll be munchin' \n\r\nRainbow candy bars, \n\r\nYou'll be livin' a la mode, \n\r\nOn Jupiter and Mars, \n\r\nOn a dreamer's holiday! \n\n\n\r\nCome on, we're gonna make it a long vacation, \n\r\nTime, there is plenty of, \n\r\nYou need no reservation, \n\r\nJust bring along the one you love! \n\n\n\r\nHelp yourself to happiness, \n\r\nAn' sprinkle it with mirth, \n\r\nClose your eyes an' concentrate, \n\r\nAn' dream for all you're worth, \n\r\nYou will feel terrific, \n\r\nWhen you get back down to earth, \n\r\nFrom a dreamer's holiday! \n\n\n\r\nMusic by Mabel Wayne  \n\r\nwith lyrics by Kim Gannon , 1949",
  "LyricURL": "https://www.lyricsplanet.com/lyrics.php?id=54381",
  "FullTitle": "A Dreamer's Holiday"
 },
 {
  "Chart": {
   "Year": 1950,
   "ChartPosition": 33,
   "Artist": "Mitch Miller And His Orchestra",
   "Title": "Tzena , Tzena , Tzen"
  },
  "Lyrics": "Tzena, Tzena, Tzena, Tzena\nCan't you hear the music playing\nIn the city square\nTzena, Tzena, Tzena, Tzena\nCome where all our friends will find us\nWith the dancers there\n\nTzena, Tzena join the celebration\nThere'll be people there from every nation\nDawn will find us laughing in the sunlight\nDancing in the city square\n\nTzena, Tzena, come and dance the Hora\nOne, two, three, four\nAll the boys will envy me for\nTzena, Tzena, when the band is playing\nMy heart's saying\nTzena, Tzena, Tzena\n\nTzena, Tzena, Tzena, Tzena\nCan't you hear the music playing\nIn the city square\nTzena, Tzena, Tzena, Tzena\nCome where all our friends will find us\nWith the dancers there\n\nTzena, Tzena, Tzena, Tzena\nCan't you hear the music playing\nIn the city square\nTzena, Tzena, Tzena, Tzena\nCome where all our friends will find us\nWith the dancers there\n\nTzena, Tzena \nCan't you hear the music playing\nIn the city square\nTzena, Tzena\nCome where all our friends will find us\nWith the dancers there\n\nCan't you hear the music playing\nIn the city square\nTzena, Tzena, Tzena, Tzena\nCome where all our friends will find us\nWith the dancers there\n\nTzena, Tzena join the celebration\nThere'll be people there from every nation\nDawn will find us laughing in the sunlight\nDancing in the city square\n\nTzena, Tzena, come and dance the Hora\nOne, two, three, four\nAll the boys will envy me for\nTzena, Tzena, when the band is playing\nMy heart's saying\nTzena, Tzena, Tzena",
  "LyricURL": "https://songmeanings.com/songs/view/3530822107859018418/",
  "FullTitle": "Tzena, Tzena, Tzena"
 },
 {
  "Chart": {
   "Year": 1950,
   "ChartPosition": 34,
   "Artist": "Gene Autry",
   "Title": "Rudolph, The RedNosed Reindeer"
  },
  "Lyrics": "You know Dasher and Dancer and Prancer and Vixen Comet and Cupid and Donner and Blitzen But do you recall The most famous reindeer of all? Rudolph the Red-Nosed Reindeer Had a very shiny nose And if you ever saw it You would even say it glows All of the other reindeer Used to laugh and call him names They never let poor Rudolph Join in any reindeer games Then one foggy Christmas Eve Santa came to say Rudolph, with your nose so bright Won't you guide my sleigh tonight Then how the reindeer loved him As they shouted out with glee Rudolph the Red-Nosed Reindeer You'll go down in history Rudolph the Red-Nosed Reindeer Had a very shiny nose And if you ever saw it You would even say it glows All of the other reindeer Used to laugh and call him names They never let poor Rudolph Join in any reindeer games Then one foggy Christmas Eve Santa came to say Rudolph, with your nose so bright Won't you guide my sleigh tonight? Then how the reindeer loved him As they shouted out with glee Rudolph the Red-Nosed Reindeer You'll go down in history",
  "LyricURL": "None",
  "FullTitle": "Rudolph, The RedNosed Reindeer"
 },
 {
  "Chart": {
   "Year": 1950,
   "ChartPosition": 35,
   "Artist": "Gordon Jenkins And His Orchestra",
   "Title": "My Foolish Heart"
  },
  "Lyrics": "The night is like a lovely tune\nBeware my foolish heart\nHow white the ever constant moon\nTake care my foolish heart\n\nThere's a line between love and fascination\nThat's hard to see, how many names such as this\nFor they both have the very same sensation\nWhen you're locked in the magic of a kiss\n\nHer lips are much too close to mine\nBeware my foolish heart\nBut should our eager lips combine\nThen let the fire start\n\nFor this time it isn't fascination\nOr a dream that will fade and fall apart\nIt's love, this time it's love\nMy foolish heart",
  "LyricURL": "https://songmeanings.com/songs/view/3530822107859005765/",
  "FullTitle": "My Foolish Heart"
 },
 {
  "Chart": {
   "Year": 1950,
   "ChartPosition": 36,
   "Artist": "Tony Martin And Fran Warren",
   "Title": "I Said My Pajamas"
  },
  "Lyrics": "My ba-by kissed me good-night, and I am glad to relate that by the time I got home, I was feeling great I climbed up the door and o-pened the stairs. I said my pajamas and put on my pray'rs. I turned off the bed and crawled into the light. and all because you kissed me (Kiss) goodnight. I ran up the shade and pulled down the stair. I curled up the rug and I vacuumed my hair. I just couldn't tell my left foot from my right, and all because you kissed me (Kiss) goodnight. By evening I felt normal, so we went out again. You said, Goodnight, and kissed me. I hurried home and then, I lifted the preach'r and called up the phone. I spoke to the dog and I threw your Ma a bone. 'Twas mid-night and yet, the sun was shining bright. and all because you kissed me (Kiss) goodnight I powdered my hair and pinned up my nose. I hung up the bath and I turned on my clothes. I put out the clock and wound the cat up tight, and all because you kissed me (Kiss) goodnight. Next morning, I woke and scrambled my shoes. I shined up an egg, then I toasted the news, I buttered my tie and took another bite. and all because you kissed me (Kiss) goodnight. I climbed up the door and opened the stairs. I said my pajamas and put on my prayr's. I turned off the bed and crawled into the light, and all because you kissed me (Kiss) goodnight. By evening I felt normal, so we went out again. You said, Goodnight, and kissed me. I hurried home and then",
  "LyricURL": "None",
  "FullTitle": "None"
 },
 {
  "Chart": {
   "Year": 1950,
   "ChartPosition": 37,
   "Artist": "Ralph Flanagan And His Orchestra",
   "Title": "Rag Mop"
  },
  "Lyrics": "None",
  "LyricURL": "None",
  "FullTitle": "None"
 },
 {
  "Chart": {
   "Year": 1950,
   "ChartPosition": 38,
   "Artist": "Mills Brothers",
   "Title": "Nevertheless (I'm In Love With You)"
  },
  "Lyrics": "I knew the time had to come\nWhen I'd be held under your thumb\nI'm like a pawn in your hand\nMoved and compelled, at your command\nWhether it's for bad or for good\nI would never change it if I could\n\nMaybe I'm right, maybe I'm wrong\nMaybe I'm weak, maybe I'm strong\nBut nevertheless I'm in love with you\nMaybe I'll win, maybe I'll lose\nAnd maybe I'm in for crying the blues\nBut nevertheless I'm in love with you\n\nSomehow, I know at a glance, the terrible chances I'm taking\nFine at the start, then left with a heart that is breaking\n\nMaybe I'll live a life of regret, and maybe I'll give much more than I get\nBut nevertheless, I'm in love with you\n\nIn spite of all I could do\nI went ahead falling for you\nSo if I laugh or I cry\nI made my bed, that's where I'll lie\nFor what happens there's no excuse\nI put my own head in the noose",
  "LyricURL": "https://songmeanings.com/songs/view/3530822107859111226/",
  "FullTitle": "Nevertheless I'm in Love With You"
 },
 {
  "Chart": {
   "Year": 1950,
   "ChartPosition": 39,
   "Artist": "Gordon Jenkins And His Orchestra",
   "Title": "Bewitched"
  },
  "Lyrics": "She's a fool and don't I know it But a fool can have her charms I'm in love and don't I show it Like a babe in arms Love's the same old situation Lately I've not slept a wink Since this crazy situation Has me on the blink I'm wild again, beguiled again A whimpering, simpering child again Bewitched, bothered and bewildered, am I Couldn't sleep, wouldn't sleep Love came and told me, shouldn't sleep Bewitched, bothered and bewildered, am I I lost my heart, but what of it She is cold I agree She might laugh, but I love it Although the laugh's on me I'll sing to her, bring spring to her And long, for the day when I'll cling to her Bewitched, bothered and bewildered, am I",
  "LyricURL": "None",
  "FullTitle": "Bewitched"
 },
 {
  "Chart": {
   "Year": 1950,
   "ChartPosition": 40,
   "Artist": "Kay Starr",
   "Title": "Bonaparte's Retreat"
  },
  "Lyrics": "Met the man I love\nIn a town way down in Dixie\n'Neath the stars above\nHe was the sweetest man you ever did see\n\nWhen he held me in his arms\nAnd told me of my many charms\nHe kissed me while the fiddles played\nThe Bonaparte's retreat\n\nAll the world was bright\nWhen he held me on that night\nAnd I heard him say\n\"Please don't ever go away\"\n\nWhen he held me in his arms\nAnd told me of my many charms\nHe kissed me while the fiddles played\nThe Bonaparte's retreat\n\nWhen he held me in his arms\nAnd told me of my many charms\nHe kissed me while the fiddles played\nThe Bonaparte's retreat\n\nAll the world was bright\nWhen he held me on that night\nAnd I heard him say\n\"Please don't you go away\"\n\nHe's gone and I'll admit I knew\nThat I had met my waterloo\nI knew that he would say a do\nWith Bonaparte's retreat\n\nGoodbye little boy\nGoodbye little Joy\nGoodbye little boy\nSo long little Joy\nGoodbye little boy",
  "LyricURL": "https://genius.com/Kay-starr-bonapartes-retreat-lyrics",
  "FullTitle": "Bonaparte’s Retreat"
 }
]