[
 {
  "Chart": {
   "Year": 1956,
   "ChartPosition": 1,
   "Artist": "Johnnie Ray",
   "Title": "Just Walkin' In The Rain"
  },
  "Lyrics": "Just walking in the rain Getting soaking wet Torturing my heart by trying to forget Just walking in the rain So alone and blue All because my heart still remembers you People come to their windows, They always stare at me Shaking their heads in sorrow Saying, Who can that fool be Just walking in the rain Thinking how we met Knowing things have changed Somehow I can't forget.",
  "LyricURL": "None",
  "FullTitle": "Just Walkin' In The Rain"
 },
 {
  "Chart": {
   "Year": 1956,
   "ChartPosition": 2,
   "Artist": "Doris Day",
   "Title": "Whatever Will Be Will Be"
  },
  "Lyrics": "When I was just a little girl\nI asked my mother, what will I be\nWill I be pretty\nWill I be rich\nHere's what she said to me\nQue será, será\nWhatever will be, will be\nThe future's not ours to see\nQue será, será\nWhat will be, will be\nWhen I grew up and fell in love\nI asked my sweetheart, what lies ahead\nWill we have rainbows\nDay after day\nHere's what my sweetheart said\nQue será, será\nWhatever will be, will be\nThe future's not ours to see\nQue será, será\nWhat will be, will be\nNow I have children of my own\nThey ask their mother, what will I be\nWill I be handsome\nWill I be rich\nI tell them tenderly\nQue será, será\nWhatever will be, will be\nThe future's not ours to see\nQue será, será\nWhat will be, will be\nQue será, será",
  "LyricURL": "https://genius.com/Doris-day-whatever-will-be-will-be-lyrics",
  "FullTitle": "Whatever Will Be, Will Be"
 },
 {
  "Chart": {
   "Year": 1956,
   "ChartPosition": 3,
   "Artist": "Ronnie Hilton",
   "Title": "No Other Love"
  },
  "Lyrics": "No other love have I\nOnly my love for you\nOnly the dream we knew\nNo other love\n\nWatching the night go by\nWishing that you could be\nWatching the night with me\nInto the night I cry\nHurry home, come home to me\nSet me free\nFree from doubt and free from longing\n\nInto your arms I'll fly\nLocked in your arms I'll stay\nWaiting to hear you say\nNo other love have I\nNo other love\n\n(Into the night I cry)\nHurry home, come home to me\nSet me free\nFree from doubt and free from longing\n\nInto your arms I'll fly\nLocked in your arms I'll stay\nWaiting to hear you say\nNo other love have I\n\nNo other love\n(No other love)\nNo other love",
  "LyricURL": "https://genius.com/Ronnie-hilton-no-other-love-lyrics",
  "FullTitle": "No Other Love"
 },
 {
  "Chart": {
   "Year": 1956,
   "ChartPosition": 4,
   "Artist": "Pat Boone",
   "Title": "I'll Be Home"
  },
  "Lyrics": "I'll be home, my darling\nPlease wait for me (wait for me)\nWe'll stroll along together\nOnce more our love will be free\n\nAt the corner drugstore\nEach Saturday we would meet (we would meet)\nI'd walk you home in the moonlight\nAll of these things we'll repeat\n\nSo darling, as I write this letter\nHere's hoping you're thinking of me\nMy mind's made up'\nSo long until I'll be home to start serving you\n\nI'll be home, my darling\nPlease wait for me (wait for me)\nI'd walk you home in the moonlight\nOnce more our love will be free\n\nSPOKEN: Darling, as I write this letter, here's hoping you're\nThinking of me. My mind's made up'\nSo long until I'll be home to start serving you\n\nI'll be home, my darling\nPlease wait for me (wait for me)\nI'll walk you home in the moonlight\nOnce more our love will be free",
  "LyricURL": "https://genius.com/Pat-boone-ill-be-home-lyrics",
  "FullTitle": "I’ll Be Home"
 },
 {
  "Chart": {
   "Year": 1956,
   "ChartPosition": 5,
   "Artist": "Frankie Laine",
   "Title": "A Woman In Love"
  },
  "Lyrics": "WOMAN IN LOVE\n\nYOUR EYES ARE THE EYES OF A WOMAN IN LOVE\nAND OH HOW THEY GIVE YOU AWAY\nWHY TRY TO DENY YOU'RE A WOMAN IN LOVE\nWHEN YOU KNOW VERY WELL WHAT I SAY\nI SAY NO MOON IN THE SKY EVER LENT SUCH A GLOW\nSOME FLAME DEEP WITHIN MAKE THEM SHINE\nTHOSE EYES ARE THE EYES OF A WOMAN IN LOVE\nAND MAY THEY GAZE EVER MORE INTO MINE\nCRAZILY GAZE EVER MORE INTO MINE",
  "LyricURL": "https://genius.com/Frankie-laine-a-woman-in-love-lyrics",
  "FullTitle": "A Woman In Love"
 },
 {
  "Chart": {
   "Year": 1956,
   "ChartPosition": 6,
   "Artist": "Dean Martin",
   "Title": "Memories Are Made Of This"
  },
  "Lyrics": "(The sweet, sweet memories you've given me\nYou can't beat the memories you've given me)\n\nTake one fresh and tender kiss\nAdd one stolen night of bliss\nOne girl, one boy, some grief, some joy\nMemories are made of this\n\nDon't forget a small moonbeam\nFold it lightly with a dream\nYour lips and mine, two sips of wine\nMemories are made of this\n\nThen add the wedding bells\nOne house where lovers dwell\nThree little kids for the flavor\n\nStir carefully through the days\nSee how the flavor stays\nThese are the dreams you will savor\n\nWith His blessings from above\nServe it generously with love\nOne man, one wife, one love through life\nMemories are made of this\nMemories are made of this",
  "LyricURL": "https://genius.com/Dean-martin-memories-are-made-of-this-lyrics",
  "FullTitle": "Memories Are Made of This"
 },
 {
  "Chart": {
   "Year": 1956,
   "ChartPosition": 7,
   "Artist": "Anne Shelton",
   "Title": "Lay Down Your Arms"
  },
  "Lyrics": "[Chorus:]\nCome to the station\nJump from the train\nMarch at the double\nDown lover's lane\nThen in the glen\nWhere the roses entwine\nLay down your arms\n(Lay down your arms)\nLay down your arms\nAnd surrender to mine\n\nMy sweetheart is a soldier\nAs handsome as can be\nBut suddenly they sent him\nAway across the sea\n\nSo patiently I waited\nUntil his leave was due\nThen wrote and said, my darling\nI'll tell you what to do\n\n[Repeat Chorus]\nA soldier is a soldier\nAnd when he's on parade\nAn order is an order\nAnd has to be obeyed\n\nYou've got to do your duty\nWherever you may be\nAnd now you're under orders\nTo hurry home to me\n\n[Repeat Chorus]\nThe girl who loves a soldier\nIs either sad or gay\n'Cause first of all he's with her\nAnd then he's far away\n\nBut soldiers have their duty\nTo answer to the call\nAnd that is why I'm calling\nThe loudest of them all\n\n[Repeat Chorus]\nLay down your arms\nAnd surrender to mine\nLay down your arms\nAnd surrender to mine\n\nLay down your arms\nAnd surrender to mine\nLay down your arms\nAnd surrender to mine",
  "LyricURL": "https://genius.com/Anne-shelton-lay-down-your-arms-lyrics",
  "FullTitle": "Lay Down Your Arms"
 },
 {
  "Chart": {
   "Year": 1956,
   "ChartPosition": 8,
   "Artist": "Tennessee Ernie Ford",
   "Title": "Sixteen Tons"
  },
  "Lyrics": "[Verse 1]\nSome people say a man is made out of mud\nA poor man's made out of muscle and blood\nMuscle and blood and skin and bones\nA mind that's weak and a back that's strong\n\n[Chorus]\nYou load sixteen tons, what do you get?\nAnother day older and deeper in debt\nSaint Peter don't you call me, 'cause I can't go\nI owe my soul to the company store\n\n[Verse 2]\nI was born one morning when the sun didn't shine\nI picked up my shovel and I walked to the mine\nI loaded sixteen tons of number 9 coal\nAnd the straw boss said, \"Well-a bless my soul!\"\n\n[Chorus]\nYou load sixteen tons, what do you get?\nAnother day older and deeper in debt\nSaint Peter don't you call me, 'cause I can't go\nI owe my soul to the company store\n\n[Verse 3]\nI was born one morning, it was drizzlin' rain\nFightin' and trouble are my middle name\nI was raised in the cane break by an old mama lion\nCan't no high-toned woman make me walk the line\n\n[Chorus]\nYou load sixteen tons, what do you get?\nAnother day older and deeper in debt\nSaint Peter don't you call me, 'cause I can't go\nI owe my soul to the company store\n\n[Verse 4]\nIf you see me comin' better step aside\nA lot of men didn't, a lot of men died\nOne fist of iron, the other of steel\nIf the right one don't getcha then the left one will\n\n[Chorus]\nYou load sixteen tons, what do you get?\nAnother day older and deeper in debt\nSaint Peter don't you call me, 'cause I can't go\nI owe my soul to the company store",
  "LyricURL": "https://genius.com/Tennessee-ernie-ford-sixteen-tons-lyrics",
  "FullTitle": "Sixteen Tons"
 },
 {
  "Chart": {
   "Year": 1956,
   "ChartPosition": 9,
   "Artist": "Dream Weavers",
   "Title": "It's Almost Tomorrow"
  },
  "Lyrics": "My dearest my darling tomorrow is near\nThe sun will bring showers of sadness I fear\nYou lips won't be smiling your eyes will not shine\nFor I know tomorrow that your love won't be mine\n\nIt's almost tomorrow, but what can I do\nYour kisses all tell me that your love is untrue\nI'll love you forever till stars cease to shine\nAnd hope someday darling you'll always be mine\n\nYou heart was so warm dear, It now has turned cold\nYou no longer love me For your memories grow old\nIt's almost tomorrow, for here comes the sun\n\nBut still I am hoping that tomorrow won't come...",
  "LyricURL": "https://songmeanings.com/songs/view/3530822107858604505/",
  "FullTitle": "It's Almost Tomorrow"
 },
 {
  "Chart": {
   "Year": 1956,
   "ChartPosition": 10,
   "Artist": "Winifred Atwell",
   "Title": "Poor People Of Paris"
  },
  "Lyrics": "None",
  "LyricURL": "None",
  "FullTitle": "None"
 },
 {
  "Chart": {
   "Year": 1956,
   "ChartPosition": 11,
   "Artist": "Kay Starr",
   "Title": "Rock And Roll Waltz"
  },
  "Lyrics": "One night I was late, came home from a date\nSlipped out of my shoes at the door\nThen from the front room, I heard a jump tune\nI looked in and here's what I saw\n\nThere in the night what a wonderful scene\nMom was dancing with Dad to my record machine\nAnd while they danced, only one thing was wrong\nThey were trying to waltz to a rock and roll song\n\nOne, two and then rock\nOne, two and then roll\nThey did the rock and roll waltz\nRock, two, three, roll, two, three\nIt looked so cute to me\nI love the rock and roll waltz\n\nOne, two and then rock\nOne, two and then roll\nOne, two and then jump\nIt's good for your soul\nIt's old but it's new\nLet's do the rock and roll waltz\n\nThere in the night what a wonderful scene\nMom was dancing with Dad to my record machine\nAnd while they danced, only one thing was wrong\nThey were trying to waltz to a rock and roll song\n\nOne, two and then rock\nOne, two and then roll\nOne, two and then jump\nIt's good for your soul\nIt's old but it's new\nLet's do the rock and roll waltz\nLet's do the rock and roll waltz",
  "LyricURL": "https://genius.com/Kay-starr-rock-and-roll-waltz-lyrics",
  "FullTitle": "Rock and Roll Waltz"
 },
 {
  "Chart": {
   "Year": 1956,
   "ChartPosition": 12,
   "Artist": "Lou Busch",
   "Title": "Zambesi"
  },
  "Lyrics": "None",
  "LyricURL": "None",
  "FullTitle": "None"
 },
 {
  "Chart": {
   "Year": 1956,
   "ChartPosition": 13,
   "Artist": "Elvis Presley",
   "Title": "Hound Dog"
  },
  "Lyrics": "[Chorus]\nYou ain't nothing but a hound dog\nCrying all the time\nYou ain't nothing but a hound dog\nCrying all the time\nWell, you ain't never caught a rabbit\nAnd you ain't no friend of mine\n\n[Verse]\nWhen they said you was high classed\nWell, that was just a lie\nWhen they said you was high classed\nWell, that was just a lie\nYou ain't never caught a rabbit\nAnd you ain't no friend of mine\n\n[Chorus]\nYou ain't nothing but a hound dog\nCrying all the time\nYou ain't nothing but a hound dog\nCrying all the time\nWell, you ain't never caught a rabbit\nAnd you ain't no friend of mine\n\n[Bridge]\nAhhhhhhhhhh (ahhhh)\nAhhhhhhhhhh (ahhhh)\n\n[Verse]\nWhen they said you was high classed\nWell, that was just a lie\nWhen they said you was high classed\nWell, that was just a lie\nWell, you ain't never caught a rabbit\nAnd you ain't no friend of mine\n\n[Chorus]\nYou ain't nothing but a hound dog\nCrying all the time\nYou ain't nothing but a hound dog\nCrying all the time\nWell, you ain't never caught a rabbit\nAnd you ain't no friend of mine",
  "LyricURL": "https://genius.com/Elvis-presley-hound-dog-lyrics",
  "FullTitle": "Hound Dog"
 },
 {
  "Chart": {
   "Year": 1956,
   "ChartPosition": 14,
   "Artist": "Frankie Vaughan",
   "Title": "The Green Door"
  },
  "Lyrics": "Midnight One more night without sleepin' Uuh, Watchin' Till that mornin' comes creepin' Green door What's that secret you're keepin'? There's an old piano and they play it hot Behind the Green Door. (Green Door) Don't know what they're doin' but they laugh a lot Behind the gren door! (Green Door) Wish they'd let me in so I could find out What's behind the Green Door! (Green Door) Knocked once Tried to tell them I'd been there Door slammed! Hospitality's thin there Wonder Just what's going on in there Saw an eyeball peepin' through a smoky cloud Behind the green door. (Green Door) When I said 'Joe sent me' someone laughed out loud Behind the green door. (Uuh Green Door) All I want to do is join the happy crowd Behind the green door! (Green Door) (Orchestral Break) Midnight One more night without sleepin' Watchin' Till that mornin' comes creepin' Green door What's that secret you're keepin'? There's an old piano and they play it hot Behind the Green Door. (Green Door) Don't know what they're doin' but they laugh a lot Behind the gren door! (Green Door) Wish they'd let me in so I could find out What's behind the Green Door! (Green Door) Saw an eyeball peepin' through a smoky cloud Behind the green door. (Green Door) When I said 'Joe sent me' someone laughed out loud Behind the green door. (ha, ha ha, oh) All I want to do is join the happy crowd Behind the green door! (Green Door) Wish they'd let me in so I could find out What's behind the Green Door! (Green Door)",
  "LyricURL": "https://genius.com/Frankie-vaughan-green-door-lyrics",
  "FullTitle": "The Green Door"
 },
 {
  "Chart": {
   "Year": 1956,
   "ChartPosition": 15,
   "Artist": "Lonnie Donegan",
   "Title": "Lost John"
  },
  "Lyrics": "Ha!\n\nThis here's a story about, Lost John\nLost John done flew the coop!\n\nHee!\n\nHow many long gone?\n\nLost John standin' by the railroad track\nWaitin' for the freight train to come back\nFreight train came back and never made no stop\nLost John thought he'd have to ride on top\n\nWell, he's long, long, long gone (woo-yeah)\nAnd he's long, long, long gone\n\nYeah, lost John came into the country woman's house\nSat down there as quiet, just as quiet as a mouse\nShe said, 'Now Mister Lost John, be my friend\nBe my friend up until the end.'\n\nWell ('cause) he's long, long, long gone\n(Well, l'm talkin' 'bout it)\nNow he's long, long, long gone\n(Yeah, came into the country woman's house)\n\nLost John came into a country woman's house\nSat there as quiet, quiet as a mouse\nSaid, 'Mister Lost John be my friend\nBe my friend until the end.'\n\nWell, I'm long, long, long gone\nWell, I'm (he's) long, long, long gone\n\nYeah, she said\n'Lost John a-don't you have no fear\nI'm sending for the porter, gonna buy some beer'\nHe said, 'Now woman don't you buy no beer\nThe cop's is on my trail and-a soon be here'\n\nWell, I'm long, long, long gone\n(Yeah, yeah, yeah, yeah, yeah)\nWell, he's long, long, long gone\n\n(Makin' a pair of shoes of his own)\n\nWell, they caught Lost John\nPut 'em in the pen\nSummer break and gone\nAnd now he's out again\n\nIf anybody asks you\nWho sung this song\nTell 'em Lonnie Donegan\nBeen 'ere and gone\n\nWell, he's long, long, long gone (ooone)\nWell, he's long, long, long gone (one more time, ah)\n\nWell, he's long, long, long gone\n(He's goin', he's goin')\nWell he's long, long, (long) gone\n\n(Bib-idy-ba-ba-ba-ba-baah)\n\nHey, baby!\n(Thank you)\nThank you!\n\nOh yeah, Mike (yeah)\n\nVM: Thankyou very much\nNow we would like to have a surprise for you tonight\nI'd like to bring on a friend of mine from way back, Dr John\n\nYeah\n\nWe're gonna do this-a, we're gonna do this song\nThat was written by a, while back by this-a British-a trumpet player/guitarist\nKen Colyer\n\n(Yeah, that's the man)\n\nGoes like this\n\nOne, okay\nOne",
  "LyricURL": "https://genius.com/Lonnie-donegan-lost-john-lyrics",
  "FullTitle": "Lost John"
 },
 {
  "Chart": {
   "Year": 1956,
   "ChartPosition": 16,
   "Artist": "Bill Hayes",
   "Title": "Ballad Of Davy Crockett"
  },
  "Lyrics": "Davy Davy Crockett king of the wild frontier Born on a mountain top in Tennessee\nGreenest state in the land of the free\nRaised in the woods so's he knew every tree\nKilt him a bar when he was only three\nDavy Davy Crockett king of the wild frontier Fought single-handed through the Injun War\nTill the Creeks was whipped an' peace was in store\nAn' while he was handlin' this risky chore\nMade hisself a legend for evermore\nDavy Davy Crockett king of the wild frontier He went off to Congress and served a spell\nFixing up the Government and laws as well\nHe took over Washington so I hear tell\nAnd patched up the crack in the Liberty Bell\nDavy, Davy Crockett, serving his country well When he come home his politickin' done\nThe western march had just begun\nSo he packed his gear and his trusty gun\nAnd lit out grinnin' to follow the sun\nDavy Davy Crockett leading the pioneer His land is the biggest and his land is best\nFrom grassy plains to the mountain crest\nHe's ahead of us all meetin' the test\nFollowing his legend in to the West\nDavy Davy Crockett king of the wild frontier\nKing of the wild frontier",
  "LyricURL": "https://www.musixmatch.com/lyrics/Bill-Hayes/Ballad-Of-Davy-Crockett",
  "FullTitle": "Ballad of Davy Crockett"
 },
 {
  "Chart": {
   "Year": 1956,
   "ChartPosition": 17,
   "Artist": "Elvis Presley",
   "Title": "Heartbreak Hotel"
  },
  "Lyrics": "[Verse 1]\nWell, since my baby left me\nWell, I found a new place to dwell\nWell, it's down at the end of lonely street\nAt Heartbreak Hotel\n\n[Chorus]\nYou make me so lonely baby\nWell, I'm so lonely\nI get so lonely I could die\n\n[Verse 2]\nAlthough it's always crowded\nYou still can find some room\nFor broken hearted lovers\nTo cry away their gloom\nAnd be so\n\n[Chorus]\nYou make me so lonely baby\nWell, I'm so lonely\nI get so lonely I could die\n\n[Verse 3]\nNow the bellhop's tears keep flowing\nThe desk clerk's dressed in black\nWell they've been so long on lonely street\nThey'll never look back\n\n[Chorus]\nYou make me so lonely baby\nWell, I'm so lonely\nI get so lonely I could die\n\n[Verse 4]\nWell now, if your baby leaves you\nAnd you got a tale to tell\nJust take a walk down lonely street\nTo Heartbreak Hotel",
  "LyricURL": "https://genius.com/Elvis-presley-heartbreak-hotel-lyrics",
  "FullTitle": "Heartbreak Hotel"
 },
 {
  "Chart": {
   "Year": 1956,
   "ChartPosition": 18,
   "Artist": "Tony Martin",
   "Title": "Walk Hand In Hand"
  },
  "Lyrics": "Walk hand in hand with me through all eternity\nHave faith, believe in me, give me your hand\nLove is a symphony of perfect harmony\nWhen lovers such as we walk hand in hand\n\nBe not afraid, for I am with you all the while\nSo lift your head up high and look toward the sky\n\nWalk hand in hand with me, this is our destiny\nNo greater love could be, walk hand in hand\nWalk with me\n\nBe not afraid, for I am with you all the while\nSo lift your head up high and look up to the sky\n\nWalk hand in hand with me, this is our destiny\nNo greater love could be, walk hand in hand\nWalk with me",
  "LyricURL": "https://www.musixmatch.com/lyrics/Tony-Martin/Walk-Hand-In-Hand",
  "FullTitle": "Walk Hand in Hand"
 },
 {
  "Chart": {
   "Year": 1956,
   "ChartPosition": 19,
   "Artist": "Teresa Brewer",
   "Title": "A Tear Fell"
  },
  "Lyrics": "[Hook]\nA fool am I, a fool am I, in love\n\n[Verse 1]\nA tear fell when I saw you in the arms of someone new\nA tear fell when you left me all alone and feeling blue\nA tear fell when you told me that your love was not for me\nI didn't miss the teardrops but I miss you constantly\n\n[Hook]\nA fool am I, a fool am I, in love\n\n[Verse 2]\nThe teardrop that you stepped on as you danced across the floor\nWere crushed like my poor heart was when you walked out of my door\nA tear fell when you told me that the flame in your heart died\nDarling have I lost you like these tear drops from my eyes\n\n[Hook]\nA fool am I, a fool am I, in love\n\n[Verse 3]\nA tear fell when you told me that your love was not for me\nI didn't miss the teardrops but I miss you constantly\n\n[Hook]\nA fool am I, a fool am I, in love",
  "LyricURL": "https://genius.com/Teresa-brewer-a-tear-fell-lyrics",
  "FullTitle": "A Tear Fell"
 },
 {
  "Chart": {
   "Year": 1956,
   "ChartPosition": 20,
   "Artist": "Max Bygraves",
   "Title": "Meet Me On The Corner"
  },
  "Lyrics": "Oh, meet me on the corner when the day is through\nThere is such a lot I've got to say to you\nI want to tell you all the little things I've planned\nAnd I, I, I, can do it better when you hold my hand\n\nSo, meet me on the corner when the lights are low\nThen we can talk with no one else in sight\nThough it's just an ordinary street\nWe'll be in heaven, if you meet me on the corner tonight\n\nOh, what a wonderful night it's going to be\nOh, what a wonderful time for you and me\nCuddle me, honey\n\nWon't you come along and,\nMeet me on the corner when the lights are low\nWe can talk with no one else in sight\nThough it's just an ordinary street\nWe'll be in heaven, if you meet me on the corner tonight\nUnder the lamp post\nMeet me on the corner tonight",
  "LyricURL": "https://www.musixmatch.com/lyrics/Max-Bygraves/Meet-Me-On-The-Corner",
  "FullTitle": "Meet Me on the Corner"
 },
 {
  "Chart": {
   "Year": 1956,
   "ChartPosition": 21,
   "Artist": "Frank Sinatra",
   "Title": "(Love Is) The Tender Trap"
  },
  "Lyrics": "You see a pair of laughing eyes\nAnd suddenly your sighing sighs\nYou're thinking nothing's wrong\nYou string along, boy, then snap!\n\nThose eyes, those sighs, they're part of the tender trap\n\nYou're hand in hand beneath the trees\nAnd soon there's music in the breeze\nYou're acting kind of smart, until your heart just goes wap!\n\nThose trees, that breeze, they're part of the tender trap\n\nSome starry night, when her kisses make you tingle\nShe'll hold you tight, and you'll hate yourself for being single\n\nAnd all at once it seems so nice\nThe folks are throwing shoes and rice\nYou hurry to a spot, that's just a dot on the map\n\nYou're hooked, you're cooked, you're caught in the tender trap\n\nSome starry night, when her kisses make you tingle\nShell hold you tight, and you'll hate yourself for being single\n\nAnd all at once it seems so nice\nThe folks are throwing shoes and rice\nYou hurry to a spot that's just a dot on the map\n\nAnd then you wonder how it all came about\nIt's too late now there's no getting out\nYou fell in love, and love is the tender trap",
  "LyricURL": "https://genius.com/Frank-sinatra-love-is-the-tender-trap-lyrics",
  "FullTitle": "(Love Is) The Tender Trap"
 },
 {
  "Chart": {
   "Year": 1956,
   "ChartPosition": 22,
   "Artist": "Various Artists",
   "Title": "All Star Hit Parade"
  },
  "Lyrics": "None",
  "LyricURL": "None",
  "FullTitle": "None"
 },
 {
  "Chart": {
   "Year": 1956,
   "ChartPosition": 23,
   "Artist": "Malcolm Vaughan",
   "Title": "St Theresa Of The Roses"
  },
  "Lyrics": "St. Therese of the Roses, I will come to you each night, Near the altar in the chapel, I will pray by candlelight. St. Therese of the Roses, Won't you kindly hear my prayer, Give your blessings to my sweetheart, And the love that we both share. Won't you guide us? (Guide us) And protect us? (Protect us) Through the years that lie ahead, Won't you fill our hearts with sunshine, On the day that we are wed. You're the little flower of heaven, Guiding all who come to you, St. Therese of the Roses, I know you make my prayer come true. Won't you guide us and protect us? Through the years that lie ahead. Won't you fill our hearts with sunshine On the day that we are wed, You're the little flower of heaven Guiding all who come to you St.Therese of the Roses I know you make my prayer come true.",
  "LyricURL": "None",
  "FullTitle": "St Theresa Of The Roses"
 },
 {
  "Chart": {
   "Year": 1956,
   "ChartPosition": 24,
   "Artist": "Teresa Brewer",
   "Title": "A Sweet Old Fashioned Girl"
  },
  "Lyrics": "Scoobely dooby doo, bedoo, bedoo, bedooby dooby doo\nWouldn't any body care to meet a sweet old fashioned girl\nScoobely dooby dum\nDoesn't anybody care about a sweet old fashioned pearl\nScoobely dooby dum\n\nWho's a frantic little bopper in some sloppy socks\nJust a crazy rock and rolling little goldilocks\nWouldn't any body care to meet a sweet old fashioned girl\n\nDoesn't anybody care to hear some sweet old fashioned talk\nScoobely dooby dum\nWouldn't anybody like to take a nice old fashioned walk\nScoobely dooby dum\n\nTake a walk around the corner where the cats all stop\nWhere you take the juicy  ??? and you'll dance that bop\nWouldn't anybody like to take a nice old fashioned walk\n\nScooby doo, scooby doo, we can bop on a bicycle built for two\nScooby di, scooby di, you'll get your kicks if you give up the try\n\nWouldn't any body care to meet a sweet old fashioned miss\nScoobly dooby dum\nWouldn't anybody like to kiss a sweet old fashioned kiss\nScoobly dooby dum\nYou'll just flip your little wig because we'll bet you some\nThat you'll really dig the flavour of our bubble gum\nWouldn't any body care to meet a sweet old fashioned girl\n\nScooby doo, scooby doo\nWe went out to that hops where the lights are blue\nScooby di, scooby di\nThough we weren't welcomed in we went'n bop 'em goodbye\nWouldn't any body care to meet a sweet old fashioned girl\nScoobly dooby dum\nDoesn't anybody care about a sweet old fashioned pearl\nScoobly dooby dum\nWho's a frantic little bopper in some sloppy socks\nJust a crazy rock and rolling little goldilocks\nWouldn't any body care to meet a sweet old fashioned\nScoobly dooby dooby dooby doo, bop",
  "LyricURL": "https://genius.com/Teresa-brewer-a-sweet-old-fashioned-girl-lyrics",
  "FullTitle": "A Sweet Old Fashioned Girl"
 },
 {
  "Chart": {
   "Year": 1956,
   "ChartPosition": 25,
   "Artist": "Hilltoppers",
   "Title": "Only You"
  },
  "Lyrics": "Only you can make this world seem right Only you can make the darkness bright Only you and you alone can thrill me like you do And fill my heart with love for only you Only you can make this change in me For it's true, you are my destiny When you hold my hand I understand the magic that you do You're my dream come true, my one and only you Only you can make this change in me For it's true, you are my destiny When you hold my hand I understand the magic that you do You're my dream come true, my one and only you",
  "LyricURL": "None",
  "FullTitle": "Only You"
 },
 {
  "Chart": {
   "Year": 1956,
   "ChartPosition": 26,
   "Artist": "Bill Haley",
   "Title": "Rockin' Through The Rye"
  },
  "Lyrics": "If a body digs a body\nRockin' through the rye\nIf a body digs a body\nNeed a body cry\n\nEvery lassie digs a laddie\nNane, they say, hey I\nYet all the lassies rock with me\nWhen rockin' through the rye\n\nThe Campbells are rocking\nThe blues away\nThe Campbells are rocking\nThe blues away\n\nThere ain't no stopping it\nMan, they're bopping it\nGang a wild, gang a wild\nGo, man, go\n\nBonnie me lassie is on the beat\nBonnie me lassie is rocking reet\nI'd be laddie it's a fitting\nThat I had it\n\nGang a wild\nLet's go rockin' in the rye\n\nLet's rock this way, says Bonnie\nAnd the bluebells lost the blues\nThey were jumping in the heather\nLike a knocked out feather\nHey, dig that crazy news\n\nThe Campbells are\nRocking the blues away\nThe Campbells are\nRocking the blues away\n\nMan, let's give it up\nGive it up, give it up\nGang a wild\nLet's go rockin' in the rye\n\nLet's rock this way, says Bonnie\nAnd the bluebells lost the blues\nThey were jumping in the heather\nLike a knocked out feather\nHey, dig that crazy news\n\nThe Campbells are\nRocking the blues away\nThe Campbells are\nRocking the blues away\n\nMan, let's live it up\nLive it up, live it up\nGang a wild\nLet's go rockin' in the rye\n\nGang a wild\nLet's go rockin' in the rye\nGang a wild\nLet's go rockin' in the rye",
  "LyricURL": "https://www.musixmatch.com/lyrics/Bill-Haley/Rockin-Through-The-Rye",
  "FullTitle": "Rockin Through the Rye"
 },
 {
  "Chart": {
   "Year": 1956,
   "ChartPosition": 27,
   "Artist": "David Whitfield",
   "Title": "My September Love"
  },
  "Lyrics": "I remember my September love In my heart I keep the memory of Lazy autumn days in all their glory Nights that saw the start of our love story I see once more the leaves that match her golden hair In my dreams I find her standing there And in December, still glows the embers Of my September love I see once more the leaves that match her golden hair In my dreams I find her standing there And in December, still glows the embers Of my September love",
  "LyricURL": "https://lyricsplayground.com/alpha/songs/m/myseptemberlove.html",
  "FullTitle": "My September Love"
 },
 {
  "Chart": {
   "Year": 1956,
   "ChartPosition": 28,
   "Artist": "The Goons",
   "Title": "Bloodnok's Rock'n' Roll Call"
  },
  "Lyrics": "Company shun! Shoulder High!! By the right, number! One, two, three, four, five, six, seven, eight Nine, ten, eleven, tweleve, thirteen, fourteen, fifteen, sixteen Sixteen, fifteen, fourteen, thirteen, twelve, eleven, ten, nine Eight, seven, six, five, four, three, two, one One, two, three, four, five, six, seven, eight Nine, ten, eleven, tweleve, thirteen, fourteen, <bang> You've got to rock and roll in a roll call way You've got to march with a Marilyn Monroe sway You've got to rock and roll with your old kit bag But you musn't ever mention her name in the mess And if you want to know the title of this number It is a Major Dennis Bloodnok Rock'n'Roll Call rhumba Left, left, left, right left Quick, slow, quick, quick, slow In, out, in, in, out Pick up your gun, shove a bullet up the spout It's the dance they do from Madras to Pango-Pango It is a Major Dennis Bloodnok Rock'n'Roll Call Tango Coy, dum diddle, blow de how Bombay didde bowl of char Um diddle Minnie: Stop! Stop! Stop that sinful naughty record-type music Stop it I say! Oh! Stop it you fool. Stop it! Bloodnok: Oh! Foddle me puckies and cril me topie Why do my beady old eyes deceive me, or is it? No, no -- it can't be. But yes! It is! It's me old child hood sweetheart Spotty Minnie Bannister-- the darling of Roper's Light Horse Bless my soul, what are you doing here? Nothing catching I hope Minnie: I just came to put my bag full of money in the bank Bloodnok: Money! Money! Oh!!! Neddie, take Miss Bannister in a steaming love dance while I check her properties One, two, three, four Secombe: Gents to the left, ladies to the right. All join hands -- panic <some nonsense> Bloodnok: Bravado, bravado. What a voice! (What a bank balance!) I beg you, you gorgeous wanton. Give me some small token of your love and I will sing you a known miltary melody. Music, maestro Plonk (Right mate) You've got to rock'n'roll in a monetary manner If you want to earn a necessary tanner Take your pick while the picking's good If you don't pick right, things will never get better When I hear the chink of money that is good news It drives away the Bloodnok Rock'n'Roll call blues So let there be, always some cash for me That will be mine, all mine!",
  "LyricURL": "http://www.thegoonshow.net/songs/bloodnok_rocknroll_call.asp",
  "FullTitle": "Bloodnok's Rock'n' Roll Call"
 },
 {
  "Chart": {
   "Year": 1956,
   "ChartPosition": 29,
   "Artist": "The Goons",
   "Title": "The Ying Tong Song"
  },
  "Lyrics": "Tenor: There's a song that I recall My mother sang to me. Spriggs (off): Oh! (a sigh) Tenor: She sang it as she tucked me in When I was ninety-three. Spriggs: I diddle, I. Who was that bum? Bluebottle + Spriggs: Ying tong ying tong Ying tong ying tong Ying tong iddle I po, Ying tong ying tong Ying tong ying tong (bluebottle drops behind) Ying tong iddle I po Spriggs: Keep lad up. Keep. Bluebottle: Keep up lad up. Both: Ying tong ying tong Ying tong ying tong Ying tong iddle I po Spriggs: lad Both: Ying tong ying tong Ying tong iddle I po (lad) Iddle I po (lad) Ying tong ying tong Ying tong (Spriggs: iddle) (Bluebottle: ying tong) Ying tong iddle I po Ying tong ying tong iddle Bluebottle (spoken): Ying tong iddle I po! (Short raspberry, Secombe) Both: Oh! Ying tong ying tong Ying tong ying tong Ying tong iddle I po Ying tong ying tong Ying tong iddle I po Iddle I po! Ying. Ying tongy tongy. Ying tong iddle I po. Ying tong iddle I po. (Secombe under this: What a lovely lovely boy!) (Or Secombe under this: What a lovely melody devine!) Ying ying ying tongy tongy. (Milligan: Get out the rifle, sir.) (Or Milligan: Get off the record.) Yeeeng. Ying tong ying tong d'gy-n'o. Ying tong d'ga. (Secombe: Get away.) D'g d'g d'ga. Ying tong iddle I po. Seagoon: Hear that crazy rhythm Driving me insane. Strike your partner on the bonce (bonk?). (Thump) Eccles: Ooh. I felt no pain. (Seagoon screeches) Seagoon, Bluebottle and Eccles: Ying tong ying tong Ying tong ying tong Ying... Soprano: Take me back to Vienna... Bloodnok: Ohhhhh! Eccles: Oh! Soprano: Take me back to Vienna, where the... Seagoon, Spriggs and Bluebottle (far off): Ying tong ying tong Ying tong ying tong Ying tong iddle I po Ying tong ying tong Ying tong iddle I po Ying tong ying tong Ying tong ying tong Ying tong iddle I po (Spriggs: where's he going lad?) (BB: I don't know) Ying tong ying tong Ying tong iddle I po Seagoon: LOOK OUT! (Cry from Bluebottle) Ying tong ying tong Ying tong ying tong Ying tong iddle I po Ying tong ying tong Ying tong iddle I po Ying tong... Double speed, but same tempo, Goons: Ying tong ying tong Ying tong ying tong Ying tong iddle I po Ying tong ying tong Ying tong iddle I po Iddle I po. Ying tong ying tong Ying tong ying tong Ying tong iddle I po Ying tong ying tong Ying tong iddle I po Iddle I po. One: Ying! Tongy tongy tongy. Yiddy diddy diddy da daaa. Ying diddy. Ying tong diddle. Yiddada boo. (Rhythmic thigh slapping, raspberry) All Ying tong ying tong Ying tong iddle Ying tong iddle I po Ying tong ying tong Ying tong iddle I po Iddle I po. Eccles: Whoooooh!",
  "LyricURL": "None",
  "FullTitle": "Ying Tong Song"
 },
 {
  "Chart": {
   "Year": 1956,
   "ChartPosition": 30,
   "Artist": "Frank Sinatra",
   "Title": "Love And Marriage"
  },
  "Lyrics": "Love and marriage, love and marriage\nGo together like a horse and carriage\nThis I tell ya, brother, you can't have one without the other\n\nLove and marriage, love and marriage\nIt's an institute you can't disparage\nAsk the local gentry and they will say it's elementary\n\nTry, try, try to separate them, it's an illusion\nTry, try, try and you will only come to this conclusion:\n\nLove and marriage, love and marriage\nGo together like a horse and carriage\nDad was told by mother you can't have one\nYou can't have none\nYou can't have one without the other\n\nTry, try, try to separate them, it's an illusion\nTry, try, try and you only come to this conclusion:\n\nLove and marriage, love and marriage\nGo together like a horse and carriage\nDad was told by mother you can't have one\n(You can't have none)\nYou can't have one without the other",
  "LyricURL": "https://genius.com/Frank-sinatra-love-and-marriage-lyrics",
  "FullTitle": "Love and Marriage"
 },
 {
  "Chart": {
   "Year": 1956,
   "ChartPosition": 31,
   "Artist": "Tennessee Ernie Ford",
   "Title": "The Ballad Of Davy Crockett"
  },
  "Lyrics": "Born on a mountain in Tennessee\nGreenest state in the land of the free\nRaised in the woods so's he knew every tree\nHe killed him a b'ar when he was only three\n\nDavy, Davy Crockett, king of the wild frontier\n\nFought single-handed thru the Injun war\n'Till the Creeks was whipped and the peace was in store\nAnd while he was a'handlin' this risky chore\nMade hisself a legend forever more\n\nDavy, Davy Crockett, the man who don't know fear\n\nWhen he lost his love, his grief was gall\nIn his heart, he wanted to leave it all\nAnd lose hisself in the forest tall\nBut he answered, instead, his country's call\n\nDavy, Davy Crockett, the choice of the whole frontier\n\nHe went off to Congress and served a spell\nFixin' up the government and laws as well\nTook over Washington, so I hear tell\nAnd patched up a crack in the Liberty Bell\n\nDavy, Davy Crockett, seein' his duty clear\n\nWhen he came home, his politickin' done\nWhy, the big western march had just begun\nSo he packed his gear and his trusty gun\nAnd lit out a'grinnin' to follow the sun\n\nDavy, Davy Crockett, leadin' the pioneer\n\nHis land is the biggest, his land is the best\nFrom grassy plaines to the mountain crest\nHe's ahead of us all and meetin' the test\nAnd a'follern' his legend right into the west\n\nDavy, Davy Crockett, king of the wild frontier\nDavy, Davy Crockett, king of the wild frontier",
  "LyricURL": "https://www.musixmatch.com/lyrics/Tennessee-Ernie-Ford/The-Ballad-Of-Davy-Crockett",
  "FullTitle": "The Ballad of Davy Crockett"
 },
 {
  "Chart": {
   "Year": 1956,
   "ChartPosition": 32,
   "Artist": "Platters",
   "Title": "My Prayer"
  },
  "Lyrics": "When the twilight is gone and no songbirds are singing When the twilight is gone you come into my heart And here in my heart you will stay while I pray My prayer is to linger with you At the end of the day in a dream that's divine My prayer is a rapture in blue With the world far away and your lips close to mine Tonight while our hearts are aglow Oh tell me the words that I'm longing to know My prayer and the answer you give May they still be the same for as long as we live That you'll always be there at the end of my prayer",
  "LyricURL": "None",
  "FullTitle": "My Prayer"
 },
 {
  "Chart": {
   "Year": 1956,
   "ChartPosition": 33,
   "Artist": "Bill Haley \u0026 His Comets",
   "Title": "Rip It Up"
  },
  "Lyrics": "Well it's Saturday night and I just got paid fool about my money don't try to save My heart says go go have a time cause it's Saturday night baby I'm feelin' fine I'm gonna rock it up ooh gonna rip it up Gonna shake it up gonna ball it up we're gonna rock it up and ball tonight Got me a date and I won't be late pick me up in the tonight Shag on down to the union hall when the gang starts jumpin' I'll have a ball I'm gonna rock it up gonna rip it up... Along about ten I'll be flyin' high walk on out into the sky I don't care if I spend my gold cause tonight I'm gonna be one happy soul I'm gonna rock it up gonna rip it up... Well it's Saturday night and I just got paid... I'm gonna rock it up gonna rip it up...",
  "LyricURL": "None",
  "FullTitle": "Rip It Up"
 },
 {
  "Chart": {
   "Year": 1956,
   "ChartPosition": 34,
   "Artist": "Jimmy Young",
   "Title": "More"
  },
  "Lyrics": "None",
  "LyricURL": "None",
  "FullTitle": "More"
 },
 {
  "Chart": {
   "Year": 1956,
   "ChartPosition": 35,
   "Artist": "Freddie Bell \u0026 The Bellboys",
   "Title": "Giddy Up A Ding"
  },
  "Lyrics": "I said, giddy up, giddy up a Ding Dong Giddy up, giddy up a Ding Dong Giddy up, giddy up a Ding Dong Giddy up, giddy up a Ding Dong Giddy up, giddy up a Ding Dong Giddy up, giddy up, giddy up Well now, I went ridin' the other night I picked out a horse, oh, my what a sight The name of my horse was a Ding Dong While I was ridin' I was singin' a song I said, giddy up, giddy up a Ding Dong Giddy up, giddy up a Ding Dong Giddy up, giddy up a Ding Dong Giddy up, giddy up, giddy up We rode and we rode the whole night through The horse was tired and I was too I had a date with my girl at eight Come on Ding Dong, we can't be late I said, giddy up, giddy up a Ding Dong Giddy up, giddy up a Ding Dong Giddy up, giddy up a Ding Dong Giddy up, giddy up, giddy up Giddy up, giddy up a Ding Dong Giddy up, giddy up a Ding Dong Giddy up, giddy up a Ding Dong Giddy up, giddy up a Ding Dong Giddy up, giddy up a Ding Dong Giddy up, a Ding Dong Come on horse, let's roll along Giddy up, giddy up a Ding Dong Giddy up, giddy up a Ding Dong Giddy up, giddy up a Ding Dong Giddy up, giddy up a Ding Dong Giddy up, giddy up, giddy up Ding Dong I went ridin' the other night Picked out a horse and, oh, my what a sight The name of my horse was Ding Dong While I was aboard I kept singin' this song Giddy up, giddy up a Ding Dong Giddy up, giddy up a Ding Dong Giddy up, giddy up a Ding Dong Giddy up, giddy up a Ding Dong Giddy up, giddy up, giddy up Ding Dong We went ridin' the whole night through The horse was tired and I was too Come on Ding Dong, well you can't be late ............... Have a date Giddy up, giddy up a Ding Dong Giddy up, giddy up a Ding Dong Giddy up, giddy up a Ding Dong Giddy up, giddy up a Ding Dong Giddy up, giddy up, giddy up Ding Dong One two! I said giddy up, giddy up a Ding Dong Giddy up, giddy up a Ding Dong Giddy up, giddy up a Ding Dong Giddy up, giddy up a Ding Dong Giddy up, giddy up, giddy up Ding Dong",
  "LyricURL": "https://genius.com/Freddie-bell-giddy-up-a-ding-dong-lyrics",
  "FullTitle": "Giddy Up A Ding Dong"
 },
 {
  "Chart": {
   "Year": 1956,
   "ChartPosition": 36,
   "Artist": "Bill Haley \u0026 His Comets",
   "Title": "Rock A Beatin' Boogie"
  },
  "Lyrics": "Rock-a-beatin' boogie\nBill haley and his comets\nRock, rock,  rock, everybody\nRoll, roll, roll, everybody\nRock, rock, rock, everybody\nRoll, roll, roll, everybody\nRock, rock, rock, everybody\nRock-a-beatin' boogie beat\n\nYou take a rock, you take a beat\nYou take a boogie, you make it sweet\nYou take a rock-a-beatin' boogie,\nRock-a-beatin' boogie beat\nWell, the rock-a-beatin' boogie, b-o-o-g-i-e\n\nWell, rockin' to the rhythm of the rock-a-beatin' boogie\nDancin' to the rhythm of the rock-a-beatin' boogie\nShakin' to the rhythm of the rock-a-beatin' boogie\nJumpin' to the rhythm ofRompin' to the ryhtm of the rock-a-beatin' boogie\nB-o-o-g-i-e\nThe rock-a-beatin' boogie\n\nYou gotta jump, you gotta jiveYou gotta dance, to be alive,\nYou do the rock-a-beatin' boogie,\nRock-a-beatin' boogie beat\nRock-a-beatin' boogie, b-o-o-g-i-e",
  "LyricURL": "https://songmeanings.com/songs/view/3530822107858729325/",
  "FullTitle": "Rock-A-Beatin' Boogie"
 },
 {
  "Chart": {
   "Year": 1956,
   "ChartPosition": 37,
   "Artist": "Perry Como",
   "Title": "Hot Diggity (Dog Ziggity Boom)"
  },
  "Lyrics": "Oh, hot diggity, dog ziggity, boom what you do to me\nIt's so new to me, what you do to me\nHot diggity, dog ziggity, boom what you do to me\nWhen you're holding me tight\n\nNever dreamed anybody could kiss that-a-way\nBring me bliss that-a-way, what a kiss that-a-way\nWhat a wonderful feelin' to feel that-a-way\nTell me where have you been all my life\n\nOh, hot diggity, dog ziggity, boom what you do to me\nIt's so new to me, what you do to me\nHot diggity, dog ziggity, boom what you do to me\nWhen you're holding me tight\n\nNever knew that my heart could go \"zing\" that-a-way\nTing-a-ling that-a-way, make me sing that-a-way\nSaid \"goodbye\" to my troubles, they went that-a-way\nEver since you came into my life\n\nOh, hot diggity, dog ziggity, boom what you do to me\nIt's so new to me, what you do to me\nHot diggity, dog ziggity, boom what you do to me\nWhen you're holding me tight\n\nThere's a cute little cottage for two that-a-way\nSkies are blue that-a-way, dreams come true that-a-way\nIf you say I can share it with you that-a-way\nI'll be happy the rest of my life\n\nOh, hot diggity, dog ziggity, boom what you do to me\nIt's so new to me, what you do to me\nHot diggity, dog ziggity, boom what you do to me\nWhen you're holding me tight\n\nOh, hot diggity, dog ziggity, boom what you do to me\nHow my future will shine\nHot diggity, dog ziggity, boom what you do to me\nFrom the moment you're mine\n\nHOT DOG!!",
  "LyricURL": "https://genius.com/Perry-como-hot-diggity-dog-ziggity-boom-lyrics",
  "FullTitle": "Hot Diggity (Dog Ziggity Boom)"
 },
 {
  "Chart": {
   "Year": 1956,
   "ChartPosition": 38,
   "Artist": "Mel Torme",
   "Title": "Mountain Greenery"
  },
  "Lyrics": "On the first of May, it is moving day\nSpring is here, so blow your job\nThrow your job away\n\nNow's the time to trust to your wanderlust\nIn the city's dust you wait, must you wait\nJust you wait\n\nIn our mountain greenery\nWhere God paints the scenery\nJust two crazy people together\n\nWhile you love your lover\nLet blue skies be your coverlet\nWhen it rains, we'll laugh at the weather\n\nAnd if you're good\nI'll search for wood\nSo you can cook while I stand looking\n\nBeans could get no keener\nReception in a beanery\nBless our mountain greenery home\n\nMosquitoes here\nWon't bite you dear\nWell, I'll let them sting me on the finger\n\nWe could find no cleaner retreat\nFrom life's machinery\nBless our mountain greenery home\nOur mountain greenery home",
  "LyricURL": "https://genius.com/Mel-torme-mountain-greenery-lyrics",
  "FullTitle": "Mountain greenery"
 },
 {
  "Chart": {
   "Year": 1956,
   "ChartPosition": 39,
   "Artist": "Stargazers",
   "Title": "Twenty Tiny Fingers"
  },
  "Lyrics": "Twenty tiny fingers, Twenty tiny toes Two angel faces, Each with a turned up nose One looks like Mommy, With a cute little curl on top And the other ones got, A big bald spot Exactly like his Pop Pop Pop, Pop a da Pop Pop, Pop Pop I put on the light in the middle of the night and whispered Dear lets go! He grabbed his sock and called the Doc, He told me Dont be slow! He got me there with time to spare and then he sat on pins Until the doctor shis hand and told him You've got twins! Twenty tiny fingers, Twenty tiny toes Two angel faces, Each with a turned up nose One looks like Mommy, With a cute little curl on top And the other ones got, A big bald spot Exactly like his Pop Pop Pop, Pop a da Pop Pop, Pop Pop We've got cribs and bottles and bibs, all round our three room flat No time to see what's on TV, no room to swing a cat We're on the run, we're never done, it's like a steeplechase Oh they came in and they took over like they owned the place Twenty tiny fingers, Twenty tiny toes Two angel faces, Each with a turned up nose One looks like Mommy, With a cute little curl on top And the other ones got, A big bald spot Exactly like his Pop Pop Pop, Pop a da Pop Pop, Pop Pop Twice the laundry, twice the milk, it's twice the baby clothes Its double this and double that, oh how the money goes But Pa and me, we both agree, when all is said and done We've got twice the blessings and we've got twice the fun. Twenty tiny fingers, Twenty tiny toes Two angel faces, Each with a turned up nose One looks like Mommy, With a cute little curl on top And the other ones got, A big bald spot Exactly like his Pop Pop Pop, Pop a da Pop Pop, Pop Pop",
  "LyricURL": "None",
  "FullTitle": "None"
 }
]