[
 {
  "Chart": {
   "Year": 2016,
   "ChartPosition": 1,
   "Artist": "The Chainsmokers",
   "Title": "Closer feat. Halsey"
  },
  "Lyrics": "Hey, I was doing just fine before I met you\nI drink too much and that's an issue\nBut I'm okay\nHey, tell your friends it was nice to meet them\nBut I hope I never see them again\n\nI know it breaks your heart\nMoved to the city in a broke down car\nAnd four years, no calls\nNow you're looking pretty in a hotel bar\nAnd I, I, I, I, I can't stop\nNo, I, I, I, I, I can't stop\n\nSo, baby, pull me closer in the back seat of your Rover\nThat I know you can't afford\nBite that tattoo on your shoulder\nPull the sheets right off the corner\nOf the mattress that you stole\nFrom your roommate back in Boulder\nWe ain't ever getting older\n\nWe ain't ever getting older\nWe ain't ever getting older\n\nYou look as good as the day I met you\nI forget just why I left you, I was insane\nStay, and play that Blink-182 song\nThat we beat to death in Tucson, okay\n\nI know it breaks your heart\nMoved to the city in a broke down car\nAnd four years, no calls\nNow I'm looking pretty in a hotel bar\nAnd I, I, I, I, I can't stop\nNo, I, I, I, I, I can't stop\n\nSo, baby, pull me closer in the back seat of your Rover\nThat I know you can't afford\nBite that tattoo on your shoulder\nPull the sheets right off the corner\nOf the mattress that you stole\nFrom your roommate back in Boulder\nWe ain't ever getting older\n\nWe ain't ever getting older\nWe ain't ever getting older\n\nSo, baby, pull me closer in the back seat of your Rover\nThat I know you can't afford\nBite that tattoo on your shoulder\nPull the sheets right off the corner\nOf the mattress that you stole\nFrom your roommate back in Boulder\nWe ain't ever getting older\n\nWe ain't ever getting older\nNo, we ain't ever getting older\nWe ain't ever getting older\nNo, we ain't ever getting older\nWe ain't ever getting older\nWe ain't ever getting older\nWe ain't ever getting older\nNo, we ain't ever getting older\n\nWe ain't ever getting older\nNo, we ain't ever getting older",
  "LyricURL": "https://songmeanings.com/songs/view/3530822107859530665/",
  "FullTitle": "Closer (feat. Halsey)"
 },
 {
  "Chart": {
   "Year": 2016,
   "ChartPosition": 2,
   "Artist": "Twenty One Pilots",
   "Title": "Heathens"
  },
  "Lyrics": "[Chorus]\nAll my friends are heathens, take it slow (In the city, boy, in the city)\nWait for them to ask you who you know\nPlease don't make any sudden moves\nYou don't know the half of the abuse\nAll my friends are heathens, take it slow\nWait for them to ask you who you know\nPlease don't make any sudden moves\nYou don't know the half of the abuse\n\n[Verse 1]\nWelcome to the room of people\nWho have rooms of people that they loved one day\nStocked away\nJust because we check the guns at the door\nDoesn't mean our brains will change from hand grenades\nYou're lovin' on the psychopath sitting next to you\nYou're lovin' on the murderer sitting next to you\nYou'll think, \"How'd I get here, sitting next to you?\"\nBut after all I've said, please don't forget\n\n[Chorus]\nAll my friends are heathens, take it slow\nWait for them to ask you who you know\nPlease don't make any sudden moves\nYou don't know the half of the abuse\n\n[Verse 2]\nWe don't deal with outsiders very well\nThey say newcomers have a certain smell\nYou have trust issues, not to mention\nThey say they can smell your intentions\nYou're lovin' on the freakshow sitting next to you\nYou'll have some weird people sitting next to you\nYou'll think \"How did I get here, sitting next to you?\"\nBut after all I've said, please don't forget\n(Watch it, watch it)\n\n[Chorus]\nAll my friends are heathens, take it slow (In the city, boy, in the city)\nWait for them to ask you who you know\nPlease don't make any sudden moves\nYou don't know the half of the abuse\n\n[Bridge]\nAll my friends are heathens, take it slow (Watch it)\nWait for them to ask you who you know (Watch it)\nPlease all my friends are heathens, take it slow (Watch it)\nWait for them to ask you who you know\n\n[Outro]\nWhy'd you come? You knew you should have stayed (It's blasphemy)\nI tried to warn you just to stay away (Wouldn't listen to me)\nAnd now they're outside ready to bust (To bust) (And guess what?)\nIt looks like you might be one of us",
  "LyricURL": "https://genius.com/Twenty-one-pilots-heathens-lyrics",
  "FullTitle": "Heathens"
 },
 {
  "Chart": {
   "Year": 2016,
   "ChartPosition": 3,
   "Artist": "Dj Snake",
   "Title": "Let Me Love You feat. Justin Bieber"
  },
  "Lyrics": "I used to believe\nWe were burnin' on the edge of somethin' beautiful\nSomethin' beautiful\nSellin' a dream\nSmoke and mirrors keep us waiting on a miracle\nOn a miracle\n\nSay, go through the darkest of days\nHeaven's a heartbreak away\nNever let you go, never let me down\nOh, it's been a hell of a ride\nDriving the edge of a knife\nNever let you go, never let me down\n\nDon't you give up, nah-nah-nah\nI won't give up, nah-nah-nah\nLet me love you\nLet me love you\nDon't you give up, nah-nah-nah\nI won't give up, nah-nah-nah\nLet me love you\nLet me love you\nOh, baby, baby\n\nDon't fall asleep\nAt the wheel, we've got a million miles ahead of us\nMiles ahead of us\nAll that we need\nIs a rude awakening to know we're good enough\nKnow we're good enough\n\nSay go through the darkest of days\nHeaven's a heartbreak away\nNever let you go, never let me down\nOh, it's been a hell of a ride\nDriving the edge of a knife\nNever let you go, never let me down\n\nDon't you give up, nah-nah-nah\nI won't give up, nah-nah-nah\nLet me love you\nLet me love you\nDon't you give up, nah-nah-nah\nI won't give up, nah-nah-nah\nLet me love you\nLet me love you\nOh, baby, baby\n\nDon't you give up, nah-nah-nah\nI won't give up, nah-nah-nah\nLet me love you\nLet me love you\nDon't you give up, nah-nah-nah\nI won't give up, nah-nah-nah\nLet me love you\nLet me love you\nOh, baby, baby",
  "LyricURL": "https://songmeanings.com/songs/view/3530822107859531271/",
  "FullTitle": "Let Me Love You (feat. Justin Bieber)"
 },
 {
  "Chart": {
   "Year": 2016,
   "ChartPosition": 4,
   "Artist": "The Weeknd",
   "Title": "Starboy"
  },
  "Lyrics": "[Verse 1]\nI'm tryna put you in the worst mood, ah\nP1 cleaner than your church shoes, ah\nMilli point two just to hurt you, ah\nAll red Lamb’ just to tease you, ah\nNone of these toys on lease too, ah\nMade your whole year in a week too, yah\nMain bitch out your league too, ah\nSide bitch out of your league too, ah\n\n[Pre-Chorus]\nHouse so empty, need a centerpiece\n20 racks a table cut from ebony\nCut that ivory into skinny pieces\nThen she clean it with her face man I love my baby\nYou talking money, need a hearing aid\nYou talking bout me, I don't see the shade\nSwitch up my style, I take any lane\nI switch up my cup, I kill any pain\n\n[Chorus]\nLook what you've done\nI’m a motherfuckin' starboy\nLook what you've done\nI'm a motherfuckin' starboy\n\n[Verse 2]\nEvery day a nigga try to test me, ah\nEvery day a nigga try to end me, ah\nPull off in that Roadster SV, ah\nPockets overweight, gettin' hefty, ah\nComing for the king, that's a far cry, ah\nI come alive in the fall time, I\nNo competition, I don't really listen\nI’m in the blue Mulsanne bumping New Edition\n\n[Pre-Chorus]\nHouse so empty, need a centerpiece\n20 racks a table cut from ebony\nCut that ivory into skinny pieces\nThen she clean it with her face man I love my baby\nYou talking money, need a hearing aid\nYou talking bout me, I don’t see the shade\nSwitch up my style, I take any lane\nI switch up my cup, I kill any pain\n\n[Chorus]\nLook what you've done\nI’m a motherfuckin' starboy\nLook what you've done\nI'm a motherfuckin’ starboy\n\n[Verse 3]\nLet a nigga brag Pitt\nLegend of the fall took the year like a bandit\nBought mama a crib and a brand new wagon\nNow she hit the grocery shop looking lavish\nStar Trek roof in that Wraith of Khan\nGirls get loose when they hear this song\n100 on the dash get me close to God\nWe don't pray for love, we just pray for cars\n\n[Pre-Chorus]\nHouse so empty, need a centerpiece\n20 racks a table cut from ebony\nCut that ivory into skinny pieces\nThen she clean it with her face man I love my baby\nYou talking money, need a hearing aid\nYou talking 'bout me, I don't see the shade\nSwitch up my style, I take any lane\nI switch up my cup, I kill any pain\n\n[Chorus]\nLook what you've done\nI'm a motherfuckin' starboy\nLook what you've done\nI'm a motherfuckin' starboy\nLook what you've done\nI'm a motherfuckin' starboy\nLook what you've done\nI'm a motherfuckin' starboy",
  "LyricURL": "https://genius.com/The-weeknd-starboy-lyrics",
  "FullTitle": "Starboy"
 },
 {
  "Chart": {
   "Year": 2016,
   "ChartPosition": 5,
   "Artist": "Kiiara",
   "Title": "Gold"
  },
  "Lyrics": "[Produced by Felix Snow]\n\n[Intro]\nRoof was on, let me, love me-on-ly s-you know\nRoof was on, let me, love me-on-ly s-you know\nRoof was on, let me, love me-on-ly s-you know\nRoof was on, let me, love me\n\n[Verse 1]\nGold up in my, gold up in my teeth\n(Gold up, gold up in my teeth)\nDon’t care what you say to me\nI'ma bite your feelings out (Gold up in my teeth)\nI missed you in the basement\n(Gold up in my teeth)\nBut your brother was a good substitute for you\n\n[Pre-Chorus]\nAnd if you love me, love me, but you never let me go\nWhen the roof was on fire, you never let me know\nSay you’re sorry honey, but you never really show\nAnd I could leave the party without ever letting you know\nWithout ever letting you know\n\n[Chorus]\nRoof was on, let me, love me-on-ly s-you know\nRoof was on, let me, love me\nWithout ever letting you know\nRoof was on, let me, love me-on-ly s-you know\nRoof was on, let me, love me\nWithout ever letting you know\nRoof was on, let me, love me-on-ly s-you know\nRoof was on, let me, love me\nWithout ever letting you know\nRoof was on, let me, love me-on-ly s-you know\nWithout ever letting you know\n\n[Verse 2]\nGold up in my, gold up in my teeth\n(Gold up, gold up in my teeth)\nTastes like money when I speak\n(Gold up, gold up in my teeth)\nAnd I missed you in the basement\n(Yeah, gold up in my teeth)\nBodies on the pavement\n(Oh, gold up in my teeth)\n\n[Pre-Chorus]\nAnd if you love me, love me, but you never let me go\nWhen the roof was on fire, you never let me know\nSay you’re sorry honey, but you never really show\nAnd I could leave the party without ever letting you know\nWithout ever letting you know\n\n[Chorus]\nRoof was on, let me, love me-on-ly s-you know\nRoof was on, let me, love me\nWithout ever letting you know\nRoof was on, let me, love me-on-ly s-you know\nRoof was on, let me, love me\nWithout ever letting you know\nRoof was on, let me, love me-on-ly s-you know\nRoof was on, let me, love me\nWithout ever letting you know\nRoof was on, let me, love me-on-ly s-you know\nWithout ever letting you know\n\n[Verse 2; Reprise]\nGold up in my, gold up in my teeth\n(Gold up, gold up in my teeth)\nTaste like money when I speak\n(Gold up, gold up in my teeth)\nAnd I missed you in the basement\n(Yeah, gold up in my teeth)\nBodies on the pavement (Oh)\n\n[Pre-Chorus]\nAnd if you love me, love me, but you never let me go\nWhen the roof was on fire, you never let me know\nSay you’re sorry honey, but you never really show (Gold up in my teeth)\nAnd I could leave the party without ever letting you know\nWithout ever letting you know\n\n[Chorus]\nRoof was on, let me, love me-on-ly s-you know\nRoof was on, let me, love me\nWithout ever letting you know\nRoof was on, let me, love me-on-ly s-you know\nRoof was on, let me, love me\nWithout ever letting you know\nRoof was on, let me, love me-on-ly s-you know\nRoof was on, let me, love me\nWithout ever letting you know\nRoof was on, let me, love me-on-ly s-you know\nWithout ever letting you know",
  "LyricURL": "https://genius.com/Kiiara-gold-lyrics",
  "FullTitle": "Gold"
 },
 {
  "Chart": {
   "Year": 2016,
   "ChartPosition": 6,
   "Artist": "Shawn Mendes",
   "Title": "Treat You Better"
  },
  "Lyrics": "[Verse 1]\nI won't lie to you\nI know he's just not right for you\nAnd you can tell me if I'm off\nBut I see it on your face\nWhen you say that he's the one that you want\nAnd you're spending all your time\nIn this wrong situation\nAnd anytime you want it to stop\n\n[Chorus]\nI know I can treat you better than he can\nAnd any girl like you deserves a gentleman\nTell me why are we wasting time\nOn all your wasted crying\nWhen you should be with me instead\nI know I can treat you better\nBetter than he can\n\n[Verse 2]\nI'll stop time for you\nThe second you say you'd like me too\nI just wanna give you the loving that you're missing\nBaby, just to wake up with you\nWould be everything I need and this could be so different\nTell me what you want to do\n\n[Chorus]\n'Cause I know I can treat you better than he can\nAnd any girl like you deserves a gentleman\nTell me why are we wasting time\nOn all your wasted crying\nWhen you should be with me instead\nI know I can treat you better\nBetter than he can\nBetter than he can\n\n[Bridge]\nGive me a sign\nTake my hand, we'll be fine\nPromise I won't let you down\nJust know that you don't\nHave to do this alone\nPromise I'll never let you down\n\n[Chorus]\n'Cause I know I can treat you better than he can\nAnd any girl like you deserves a gentleman\nTell me why are we wasting time\nOn all your wasted crying\nWhen you should be with me instead\nI know I can treat you better\nBetter than he can\nBetter than he can\nBetter than he can",
  "LyricURL": "https://genius.com/Shawn-mendes-treat-you-better-lyrics",
  "FullTitle": "Treat You Better"
 },
 {
  "Chart": {
   "Year": 2016,
   "ChartPosition": 7,
   "Artist": "Gnash",
   "Title": "I Hate U, I Love U"
  },
  "Lyrics": "[Verse 1: Olivia O'Brien]\nFeeling used, but I'm\nStill missing you and I can't\nSee the end of this\nJust wanna feel your kiss against my lips\nAnd now all this time is passing by\nBut I still can't seem to tell you why\nIt hurts me every time I see you\nRealize how much I need you\n\n[Chorus: Olivia O'Brien]\nI hate you, I love you\nI hate that I love you\nDon't want to, but I can't put\nNobody else above you\nI hate you, I love you\nI hate that I want you\nYou want her, you need her\nAnd I'll never be her\n\n[Verse 2: gnash]\nI miss you when I can't sleep\nOr right after coffee or right when I can't eat\nI miss you in my front seat\nStill got sand in my sweaters\nFrom nights we don't remember\nDo you miss me like I miss you?\nFucked around and got attached to you\nFriends can break your heart, too\nAnd I'm always tired, but never of you\nIf I pulled a you on you, you wouldn't like that shit\nI put this reel out, but you wouldn't bite that shit\nI type a text, but then I never mind that shit\nI got these feelings, but you never mind that shit\nOh oh, keep it on the low\nYou're still in love with me, but your friends don't know\nIf you wanted me, you would just say so\nAnd if I were you, I would never let me go\n\n[Chorus: Olivia O'Brien]\nI hate you, I love you\nI hate that I love you\nDon't want to, but I can't put\nNobody else above you\nI hate you, I love you\nI hate that I want you\nYou want her, you need her\nAnd I'll never be her\n\n[Verse 3: gnash]\nI don't mean no harm, I just miss you on my arm\nWedding bells were just alarms\nCaution tape around my heart\nYou ever wonder what we could have been?\nYou said you wouldn't and you fucking did\nLie to me, lie with me, get your fucking fix\nNow all my drinks and all my feelings are all fucking mixed\nAlways missing people that I shouldn't be missing\nSometimes you gotta burn some bridges just to create some distance\nI know that I control my thoughts and I should stop reminiscing\nBut I learned from my dad that it's good to have feelings\nWhen love and trust are gone\nI guess this is moving on\nEveryone I do right does me wrong\nSo every lonely night, I sing this song\n\n[Chorus: Olivia O'Brien  with gnash]\nI hate you, I love you\nI hate that I love you\nDon't want to, but I can't put\nNobody else above you\nI hate you, I love you\nI hate that I want you\nYou want her, you need her\nAnd I'll never be her\n\n[Bridge: Olivia O'Brien with gnash]\nAll alone, I watch you watch her\nLike she's the only girl you've ever seen\nYou don't care, you never did\nYou don't give a damn about me\nYeah, all alone, I watch you watch her\nShe is the only thing you've ever seen\nHow is it you never notice\nThat you are slowly killing me?\n\n[Chorus: Olivia O'Brien]\nI hate you, I love you\nI hate that I love you\nDon't want to, but I can't put\nNobody else above you\nI hate you, I love you\nI hate that I want you\nYou want her, you need her\nAnd I'll never be her",
  "LyricURL": "https://genius.com/Gnash-i-hate-u-i-love-u-lyrics",
  "FullTitle": "​i​ hate u, i love u"
 },
 {
  "Chart": {
   "Year": 2016,
   "ChartPosition": 8,
   "Artist": "Bruno Mars",
   "Title": "24K Magic"
  },
  "Lyrics": "[Intro]\nTonight\nI just want to take you higher\nThrow your hands up in the sky\nLet's set this party off right\n\n[Chorus]\nPlayers, put yo' pinky rings up to the moon\nGirls, what y'all trying to do?\n24 karat magic in the air\nHead to toe so player\nUh, look out!\n\n[Verse 1]\nPop pop, it's show time (Show time)\nShow time (Show time)\nGuess who's back again?\nOh they don't know? (Go on tell 'em)\nOh they don't know? (Go on tell 'em)\nI bet they know soon as we walk in (Showin' up)\nWearing Cuban links (ya)\nDesigner minks (ya)\nInglewood's finest shoes (Whoop, whoop)\nDon't look too hard\nMight hurt ya'self\nKnown to give the color red the blues\n\n[Pre-Chorus]\nOoh shit, I'm a dangerous man with some money in my pocket\n(Keep up)\nSo many pretty girls around me and they waking up the rocket\n(Keep up)\nWhy you mad? Fix ya face\nAin't my fault y'all be jocking\n(Keep up)\n\n[Chorus]\nPlayers only, come on\nPut your pinky rings up to the moon\nGirls, what y'all trying to do?\n24 karat magic in the air\nHead to toe so player\nUh, look out!\n\n[Verse 2]\nSecond verse for the hustlas (hustlas)\nGangstas (gangstas)\nBad bitches and ya ugly ass friends (Haha)\nCan I preach? (Uh oh) Can I preach? (Uh oh)\nI gotta show 'em how a pimp get it in\nFirst, take your sip (sip), do your dip (dip)\nSpend your money like money ain't shit (Whoop, whoop)\nWe too fresh\nGot to blame it on Jesus\nHashtag blessed\nThey ain't ready for me\n\n[Pre-Chorus]\nI'm a dangerous man with some money in my pocket\n(Keep up)\nSo many pretty girls around me and they waking up the rocket\n(Keep up)\nWhy you mad? Fix ya face\nAin't my fault y'all be jocking\n(Keep up)\n\n[Chorus]\nPlayers only, come on\nPut your pinky rings up to the moon\nHey girls\nWhat y'all trying to do?\n24 karat magic in the air\nHead to toe so player\nUh, look out!\n\n[Bridge]\n(Wooh)\nEverywhere I go they be like\nOoh, so player ooh\nEverywhere I go they be like\nOoh, so player ooh\nEverywhere I go they be like\nOoh, so player ooh\nNow, now, now\nWatch me break it down like (Uh)\n24 karat, 24 karat magic\nWhat's that sound?\n24 karat, 24 karat magic\nCome on now\n24 karat, 24 karat magic\nDon't fight the feeling\nInvite the feeling\n\n[Chorus]\nJust put your pinky rings up to the moon\nGirls, what y'all trying to do?\n24 karat magic in the air\nHead to toe so player\nPut your pinky rings up to the moon\nGirls, what y'all trying to do? (Do)\n24 karat magic in the air\nHead to toe so player\n(24 karat)\nUh, look out\n\n[Outro]\n(24 karat magic, magic, magic)",
  "LyricURL": "https://genius.com/Bruno-mars-24k-magic-lyrics",
  "FullTitle": "24K Magic"
 },
 {
  "Chart": {
   "Year": 2016,
   "ChartPosition": 9,
   "Artist": "Major Lazer",
   "Title": "Cold Water"
  },
  "Lyrics": "[Verse 1: Justin Bieber]\nEverybody gets high sometimes, you know\nWhat else can we do when we're feelin' low?\nSo take a deep breath and let it go\nYou shouldn't be drowning on your own\n\n[Pre-Chorus: Justin Bieber]\nAnd if you feel you're sinking, I will jump right over\nInto cold, cold water for you\nAnd although time may take us into different places\nI will still be patient with you\nAnd I hope you know...\n\n[Chorus: Justin Bieber]\nI won't let go\nI'll be your lifeline tonight\nI won't let go\nI'll be your lifeline tonight\n\n[Verse 2: Justin Bieber]\n'Cause we all get lost sometimes, you know?\nIt's how we learn and how we grow\nAnd I wanna lay with you 'til I'm old, o-old\nYou shouldn't be fighting on your own\n\n[Pre-Chorus: Justin Bieber]\nAnd if you feel you're sinking, I will jump right over\nInto cold, cold water for you\nAnd although time may take us into different places\nI will still be patient with you\nAnd I hope you know...\n\n[Chorus: Justin Bieber]\nI won't let go\nAnd I won't let go, no-no, no-no, no I won't\nI'll be your lifeline tonight\nI won't let go\nI'll be your lifeline tonight\n\n[Bridge: MØ]\nCome on, come on\nSave me from my rocking boat\nI just wanna stay afloat\nI'm all alone\nAnd I hope, I hope someone's gonna take me home\nSomewhere I can rest my soul (rest my soul)\nI need to know you won't let go\n\n[Chorus: Justin Bieber \u0026 MØ]\nAnd I won't let go, no-no, no-no, no, I won't\nI'll be your lifeline tonight\nYou won't let go\nI'll be your lifeline tonight\n\n[Outro: Justin Bieber]\nI won't let go, no no, no no, no, I won't\nI'll be your lifeline tonight\nYou won't let go\nI'll be your lifeline tonight",
  "LyricURL": "https://genius.com/Major-lazer-cold-water-lyrics",
  "FullTitle": "Cold Water"
 },
 {
  "Chart": {
   "Year": 2016,
   "ChartPosition": 10,
   "Artist": "Daya",
   "Title": "Sit Still, Look Pretty"
  },
  "Lyrics": "[Verse 1]\nCould dress up, to get love\nBut guess what?\nI'm never gonna be that girl\nWho's living in a Barbie world\nCould wake up in make up and play dumb\nPretending that I need a boy\nWho's gonna treat me like a toy\n\n[Pre-Chorus 1]\nI know the other girlies wanna wear expensive things like diamond rings\nBut I don't wanna be the puppet that you're playing on a string\nThis queen don't need a king\n\n[Chorus]\nOh I don't know what you've been told\nBut this gal right here's gonna rule the world\nYeah, that is where I'm gonna be because I wanna be\nNo, I don't wanna sit still, look pretty\nYou get off on your 9 to 5\nDream of picket fences and trophy wives\nBut no, I'm never gonna be 'cause I don't wanna be\nNo, I don't wanna sit still, look pretty\n\n[Verse 2]\nMr. Right could be nice, for one night\nBut then he wanna take control\nAnd I would rather fly solo\nThat Snow White, she did right in her life\nHad 7 men to do the chores\n'Cause that's not what a lady's for\n\n[Pre-Chorus 2]\nThe only thing a boy's gonna give a girl for free's captivity\nAnd I might love me some vanilla, but I'm not that sugar sweet\nCall me HBIC\n\n[Chorus]\nOh I don't know what you've been told\nBut this gal right here's gonna rule the world\nYeah, that is where I'm gonna be because I wanna be\nNo, I don't wanna sit still, look pretty\nYou get off on your 9 to 5\nDream of picket fences and trophy wives\nBut no, I'm never gonna be 'cause I don't wanna be\nNo, I don't wanna sit still, look pretty\n\n[Bridge]\nSure, I'm a pretty girl up in a pretty world\nBut they say pretty hurts\nAnd I don't wanna sit still\nI'm a pretty girl up in a pretty world\nBut no, I won't sit still, look pretty\nSure, I'm a pretty girl up in a pretty world\nBut they say pretty hurts\nAnd I don't wanna sit still\nI'm-I'm a pretty girl up in a pretty world\nBut no, I won't sit still, look pretty\n\n[Chorus]\nOh I don't know what you've been told\nBut this gal right here's gonna rule the world\nYeah, that is where I'm gonna be because I wanna be\nNo, I don't wanna sit still, look pretty\nYou get off on your 9 to 5\nDream of picket fences and trophy wives\nBut no, I'm never gonna be 'cause I don't wanna be\n'Cause I don't wanna sit still, look pretty\nOh I don't know what you've been told\nBut this gal right here's gonna rule the world\nYeah, that is where I'm gonna be because I wanna be\nNo, I don't wanna sit still, look pretty\nYou get off on your 9 to 5\nDream of picket fences and trophy wives\nBut no, I'm never gonna be 'cause I don't wanna be\nNo, I don't wanna sit still, look pretty\n\n[Outro]\nSit still, look pretty\nSit still, look pretty\nSit still, look pretty\nSit still, look pretty\n\n[Mike Campbell's inspiration]",
  "LyricURL": "https://genius.com/Daya-sit-still-look-pretty-lyrics",
  "FullTitle": "Sit Still, Look Pretty"
 },
 {
  "Chart": {
   "Year": 2016,
   "ChartPosition": 11,
   "Artist": "Sia",
   "Title": "Cheap Thrills"
  },
  "Lyrics": "[Verse 1]\nCome on, come on, turn the radio on\nIt's Friday night and I won't be long\nGotta do my hair, put my make up on\nIt's Friday night and I won't be long\n\n[Pre-Chorus]\n'Til I hit the dance floor\nHit the dance floor\nI got all I need\nNo, I ain't got cash\nI ain't got cash\nBut I got you baby\n\n[Chorus]\nBaby, I don't need dollar bills to have fun tonight\n(I love cheap thrills)\nBaby, I don't need dollar bills to have fun tonight\n(I love cheap thrills)\nBut I don't need no money\nAs long as I can feel the beat\nI don't need no money\nAs long as I keep dancing\n\n[Verse 2]\nCome on, come on, turn the radio on\nIt's Saturday and I won't be long\nGotta paint my nails, put my high heels on\nIt's Saturday and I won't be long\n\n[Pre-Chorus]\n'Til I hit the dance floor\nHit the dance floor\nI got all I need\nNo, I ain't got cash\nI ain't got cash\nBut I got you baby\n\n[Chorus]\nBaby, I don't need dollar bills to have fun tonight\n(I love cheap thrills)\nBaby, I don't need dollar bills to have fun tonight\n(I love cheap thrills)\nI don't need no money\nAs long as I can feel the beat\nI don't need no money\nAs long as I keep dancing\n\n[Bridge]\n(I love cheap thrills)\n(I love cheap thrills)\nI don't need no money\nAs long as I can feel the beat\nI don't need no money\nAs long as I keep dancing\nOh, oh\n\n[Chorus]\nBaby, I don't need dollar bills to have fun tonight\n(I love cheap thrills)\nBaby, I don't need dollar bills to have fun tonight\n(I love cheap thrills)\nI don't need no money\nAs long as I can feel the beat\nI don't need no money\nAs long as I keep dancing\n\n[Outro]\nLa, la, la, la, la, la, la\n(I love cheap thrills)\nLa, la, la, la, la, la, la\n(I love cheap thrills)\nLa, la, la, la, la, la, la\n(I love cheap thrills)\nLa, la, la, la, la, la\n(I love cheap thrills)",
  "LyricURL": "https://genius.com/Sia-cheap-thrills-lyrics",
  "FullTitle": "Cheap Thrills"
 },
 {
  "Chart": {
   "Year": 2016,
   "ChartPosition": 12,
   "Artist": "Calvin Harris",
   "Title": "My Way"
  },
  "Lyrics": "[Verse]\nWhy wait to say, at least I did it my way\nLie awake, two faced\nBut in my heart I understand\nI made my move and it was all about you\nNow I feel so far removed\n\n[Chorus]\nYou were the one thing in my way\nYou were the one thing in my way\nYou were the one thing in my way\nYou were the one thing in my way\nYou were the one thing in my way\nYou were the one thing in my way\n\n[Post-Chorus]\nMy way, oh way, oh way, oh way\nMy way, oh way, oh way, oh way\nMy way, oh way, oh way, oh way\nMy way, my way, my way\n\n[Verse]\nWhy wait to say, at least I did it my way\nLie awake, two faced\nBut in my heart I understand\nI made my move and it was all about you\nNow I feel so far removed\n\n[Chorus]\nYou were the one thing in my way\nYou were the one thing in my way\nYou were the one thing in my way\nYou were the one thing in my way\nYou were the one thing in my way\nYou were the one thing in my way\n\n[Post-Chorus]\nMy way, oh way, oh way, oh way\nMy way, oh way, oh way, oh way\nMy way, oh way, oh way, oh way\nMy way, my way, my way\n\n[Chorus]\nYou were the one thing in my way\nYou were the one thing in my way\nYou were the one thing in my way\nYou were the one thing in my way\nYou were the one thing in my way\nYou were the one thing in my way\n\n[Post-Chorus]\nMy way, oh way, oh way, oh way\nMy way, oh way, oh way, oh way\nMy way, oh way, oh way, oh way\nMy way, oh way, oh way, oh way\nMy way, oh way, oh way, oh way\nMy way, oh way, oh way, oh way",
  "LyricURL": "https://genius.com/Calvin-harris-my-way-lyrics",
  "FullTitle": "My Way"
 },
 {
  "Chart": {
   "Year": 2016,
   "ChartPosition": 13,
   "Artist": "Hailee Steinfeld And",
   "Title": "Starving"
  },
  "Lyrics": "[Verse 1]\nYou know just what to say, things that scare me\nI should just walk away, but I can't move my feet\nThe more that I know you, the more that I want to\n\n[Pre-Chorus]\nSomething inside me's changed\nI was so much younger yesterday\n\n[Chorus]\nI didn't know that I was starving 'til I tasted you\nDon't need no butterflies when you give me the whole damn zoo\nBy the way, right away, you do things to my body\nI didn't know that I was starving 'til I tasted you\nBy the way, right away, you do things to my body\nI didn't know that I was starving 'til I tasted you\n\n[Verse 2]\nYou know just how to make my heart beat faster\nEmotional earthquake, bring on disaster\nYou hit me head on, got me weak in my knees\n\n[Pre-Chorus]\nYeah, something inside me's changed\nI was so much younger yesterday, so much younger yesterday\n\n[Chorus]\nI didn't know that I was starving 'til I tasted you\nDon't need no butterflies when you give me the whole damn zoo\nBy the way, right away, you do things to my body\nI didn't know that I was starving 'til I tasted you\n\n[Bridge]\nBy the way, right away, you do things to my body\nI didn't know that I was starving 'til I tasted you\nYou you, yeah 'til I tasted you\nBy the way, right away, you do things to my body\nI didn't know that I was starving 'til I tasted you\nI didn't know 'til I tasted you\n\n[Pre-Chorus]\nThe more that I know you, the more that I want to\nSomething inside me's changed\nI was so much younger yesterday",
  "LyricURL": "https://genius.com/Hailee-steinfeld-starving-lyrics",
  "FullTitle": "Starving"
 },
 {
  "Chart": {
   "Year": 2016,
   "ChartPosition": 14,
   "Artist": "Ariana Grande",
   "Title": "Side To Side"
  },
  "Lyrics": "[Intro: Ariana Grande \u0026 Nicki Minaj]\nI've been here all night (Ariana)\nI've been here all day (Nicki Minaj)\nAnd boy, got me walkin' side to side (Let them hoes know)\n\n[Verse 1: Ariana Grande]\nI'm talkin' to ya\nSee you standing over there with your body\nFeeling like I wanna rock with your body\nAnd we don't gotta think 'bout nothin' ('Bout nothin')\nI'm comin' at ya\n'Cause I know you got a bad reputation\nDoesn't matter, 'cause you give me temptation\nAnd we don't gotta think 'bout nothin' ('Bout nothin')\n\n[Pre-Chorus: Ariana Grande]\nThese friends keep talkin' way too much\nSay I should give you up\nCan't hear them, no, 'cause I…\n\n[Chorus: Ariana Grande]\nI've been here all night\nI've been here all day\nAnd boy, got me walkin' side to side\nI've been here all night\nI've been here all day\nAnd boy, got me walkin' side to side (Side to side)\n\n[Verse 2: Ariana Grande]\nBeen tryna hide it\nBaby, what's it gonna hurt if they don't know?\nMakin' everybody think that we solo\nJust as long as you know you got me (You got me)\nAnd boy, I got ya\n'Cause tonight I'm making deals with the devil\nAnd I know it's gonna get me in trouble\nJust as long as you know you got me\n\n[Pre-Chorus: Ariana Grande]\nThese friends keep talkin' way too much\nSay I should give you up\nCan't hear them, no, 'cause I…\n\n[Chorus: Ariana Grande]\nI've been here all night\nI've been here all day\nAnd boy, got me walkin' side to side (Side to side)\nI've been here all night (Been here all night, baby)\nI've been here all day (Been here all day, baby)\nAnd boy, got me walkin' side to side (Side to side)\n\n[Refrain: Nicki Minaj]\nUh, yeah\nThis the new style with the fresh type of flow\nWrist icicle, ride dick bicycle\nCome through yo, get you this type of blow\nIf you wanna Minaj, I got a tricycle\n\n[Verse 3: Nicki Minaj]\nAll these bitches' flows is my mini-me\nBody smoking, so they call me Young Nicki Chimney\nRappers in they feelings 'cause they feelin' me\nUh, I-I give zero fucks and I got zero chill in me\nKissing me, copped the blue box that say Tiffany\nCurry with the shot, just tell 'em to call me Stephanie\nGun pop, then I make my gum pop\nI'm the queen of rap, young Ariana run pop, uh\n\n[Pre-Chorus: Ariana Grande]\nThese friends keep talkin' way too much (Way too much)\nSay I should give him up (Give him up)\nCan't hear them, no, 'cause I…\n\n[Chorus: Ariana Grande]\nI've been here all night (Been here all night, baby)\nI've been here all day (Been here all night, baby)\nAnd boy (Boy), got me walkin' side to side (Side to side)\nI've been here all night (Been here all night, baby)\nI've been here all day (Been here all day, baby) (Ooh, baby)\nAnd boy (No), got me walkin' side to side (Side to side) (Yeah-eh, yeah, yeah, yeah)\n\n[Refrain: Nicki Minaj and Ariana Grande]\nThis the new style with the fresh type of flow (Nah, nah, baby)\nWrist icicle, ride dick bicycle\nCome through yo, get you this type of blow\nIf you wanna Minaj, I got a tricycle (No, eh, hey, eh, eh)",
  "LyricURL": "https://genius.com/Ariana-grande-side-to-side-lyrics",
  "FullTitle": "Side To Side"
 },
 {
  "Chart": {
   "Year": 2016,
   "ChartPosition": 15,
   "Artist": "Alessia Cara",
   "Title": "Scars To Your Beautiful"
  },
  "Lyrics": "[Verse 1]\nShe just wants to be beautiful\nShe goes unnoticed, she knows no limits\nShe craves attention, she praises an image\nShe prays to be sculpted by the sculptor\nOh, she don't see the light that's shining\nDeeper than the eyes can find it\nMaybe we have made her blind\nSo she tries to cover up her pain and cut her woes away\nCause covergirls don't cry after their face is made\n\n[Chorus]\nBut there's a hope that's waiting for you in the dark\nYou should know you're beautiful just the way you are\nAnd you don't have to change a thing\nThe world could change its heart\nNo scars to your beautiful, we're stars and we're beautiful\nOh, oh, oh\nOh-oh, oh, oh\nAnd you don't have to change a thing\nThe world could change its heart\nNo scars to your beautiful, we're stars and we're beautiful\n\n[Verse 2]\nShe has dreams to be an envy, so she's starving\nYou know, covergirls eat nothing\nShe says \"beauty is pain and there's beauty in everything\"\n\"What's a little bit of hunger?\"\n\"I can go a little while longer,\" she fades away\nShe don't see her perfect, she don't understand she's worth it\nOr that beauty goes deeper than the surface, oh, oh\nSo to all the girls that's hurting, let me be your mirror\nHelp you see a little bit clearer the light that shines within\n\n[Chorus]\nThere's a hope that's waiting for you in the dark\nYou should know you're beautiful just the way you are\nAnd you don't have to change a thing\nThe world could change its heart\nNo scars to your beautiful, we're stars and we're beautiful\n\n[Bridge]\nNo better you than the you that you are\nNo better you than the you that you are\nNo better life than the life we're living\nNo better life than the life we're living\nNo better time for your shine, you're a star\nNo better time for your shine, you're a star\nOh, you're beautiful, oh, you're beautiful\n\n[Chorus]\nAnd there's a hope that's waiting for you in the dark\nYou should know you're beautiful just the way you are\nAnd you don't have to change a thing\nThe world could change its heart\nNo scars to your beautiful, we're stars and we're beautiful\nAnd you don't have to change a thing\nThe world could change its heart\nNo scars to your beautiful, we're stars and we're beautiful",
  "LyricURL": "https://genius.com/Alessia-cara-scars-to-your-beautiful-lyrics",
  "FullTitle": "Scars to Your Beautiful"
 },
 {
  "Chart": {
   "Year": 2016,
   "ChartPosition": 16,
   "Artist": "Twenty One Pilots",
   "Title": "Ride"
  },
  "Lyrics": "[Verse 1]\nI just wanna stay in the sun where I find\nI know it's hard sometimes\nPieces of peace in the sun's peace of mind\nI know it's hard sometimes\nYeah, I think about the end just way too much\nBut it's fun to fantasize\nOn my enemies I wouldn't wish who I was\nBut it's fun to fantasize (Size, size)\n\n[Chorus]\nOh-woah-woah, oh-woah-woah, I'm fallin'\nSo I'm takin' my time on my ride, oh-woah-woah, I'm fallin'\nSo I'm takin' my time on my ride\nTakin' my time on my ride\n\n[Verse 2]\n\"I'd die for you,\" that's easy to say\nWe have a list of people that we would take\nA bullet for them, a bullet for you\nA bullet for everybody in this room\nBut I don't seem to see many bullets comin' through\nSee many bullets comin' through\nMetaphorically, I'm the man\nBut literally, I don't know what I'd do\n\"I'd live for you,\" an' that's hard to do\nEven harder to say when you know it's not true\nEven harder to write when you know that tonight\nThere were people back home who tried talkin' to you\nBut then you ignore them still\nAll these questions they're for real\nLike who would you live for? Who would you die for?\nAnd would you ever kill?\n\n[Chorus]\nOh-woah-woah, oh-woah-woah, I'm fallin'\nSo I'm takin' my time on my ride, oh-woah-woah, I'm fallin'\nSo I'm takin' my time on my ride\nTakin' my time on my ride\n\n[Bridge]\nI've been thinkin' too much\nI've been thinkin' too much\nI've been thinkin' too much\nI've been thinkin' too much\nHelp me\nI've been thinkin' too much\nI've been thinkin' too much\nI've been thinkin' too much\nHelp me\nI've been thinkin' too much\nI've been thinkin' too much\nI've been thinkin' too much\n\n[Chorus]\nOh-woah-woah, oh-woah-woah, I'm fallin'\nSo I'm takin' my time on my ride, oh-woah-woah, I'm fallin'\nSo I'm takin' my time\nTakin' my time on my ride, woah-oh-oh (Wuh, yeah)\nOh-woah-woah, oh-woah-woah, I'm fallin'\nSo I'm takin' my time on my ride, oh-woah-woah, I'm fallin'\nSo I'm takin' my time on my\n\n[Outro]\nI've been thinkin' too much\nHelp me\nI've been thinkin' too much\nHelp me\nI've been thinkin' too much\nI've been thinkin' too much\nI've been thinkin' too much\nHelp me\nI've been thinkin' too much\nI've been thinkin' too much\nI've been thinkin' too much\nHelp me",
  "LyricURL": "https://genius.com/Twenty-one-pilots-ride-lyrics",
  "FullTitle": "Ride"
 },
 {
  "Chart": {
   "Year": 2016,
   "ChartPosition": 17,
   "Artist": "Sia",
   "Title": "The Greatest"
  },
  "Lyrics": "[Verse 1: Sia]\nUh-oh, runnin' out of breath, but I\nOh, I, I got stamina\nUh-oh, running now, I close my eyes\nWell, oh, I got stamina\nAnd uh-oh, I see another mountain to climb\nBut I, I, I got stamina\nUh-oh, I need another lover, be mine\nCause I, I, I got stamina\n\n[Pre-Chorus: Sia]\nDon't give up, I won't give up\nDon't give up, no no no\nDon't give up, I won't give up\nDon't give up, no no no\n\n[Chorus: Sia]\nI'm free to be the greatest, I'm alive\nI'm free to be the greatest here tonight, the greatest\nThe greatest, the greatest alive\nThe greatest, the greatest alive\n\n[Verse 2: Sia]\nWell, uh-oh, runnin' out of breath, but I\nOh, I, I got stamina\nUh-oh, runnin' now, I close my eyes\nBut, oh, I got stamina\nAnd oh yeah, runnin' through the waves of love\nBut I, I got stamina\nAnd oh yeah, I'm runnin' and I've just enough\nAnd uh-oh, I got stamina\n\n[Pre-Chorus: Sia]\nDon't give up, I won't give up\nDon't give up, no no no\nDon't give up, I won't give up\nDon't give up, no no no\n\n[Chorus: Sia]\nI'm free to be the greatest, I'm alive\nI'm free to be the greatest here tonight, the greatest\nThe greatest, the greatest alive\nThe greatest, the greatest alive\n\n[Post-Chorus: Sia]\nOh-oh, I got stamina\nOh-oh, I got stamina\nOh-oh, I got stamina\nOh-oh, I got stamina\n\n[Verse 3: Kendrick Lamar]\nAyy, I am the truth\nAyy, I am the wisdom of the fallen; I'm the youth\nAyy, I am the greatest\nAyy, this is the proof\nAyy, I work hard, pray hard, pay dues, ayy\nI transform with pressure, I'm hands-on with effort\nI fell twice before, my bounce back was special\nLetdowns'll get you, and the critics'll test you\nBut the strong'll survive, another scar may bless you, ah\n\n[Pre-Chorus: Sia (Kendrick Lamar)]\nDon't give up (no no), I won't give up (no no)\nDon't give up, no no no (nah)\nDon't give up, I won't give up\nDon't give up, no no no\n\n[Chorus: Sia]\nI'm free to be the greatest, I'm alive\nI'm free to be the greatest here tonight, the greatest\nThe greatest, the greatest alive\n(Don't give up, don't give up, don't give up, no no no)\nThe greatest, the greatest alive\n(Don't give up, don't give up, don't give up, no no no)\n\n[Outro: Sia]\nThe greatest, the greatest alive\n(Don't give up, don't give up, don't give up; I got stamina)\nThe greatest, the greatest alive\n(Don't give up, don't give up, don't give up; I got stamina)\nThe greatest, the greatest alive\n(Don't give up, don't give up, don't give up; I got stamina)\nThe greatest, the greatest alive\n(Don't give up, don't give up, don't give up; I got stamina)\nThe greatest, the greatest alive\n(Don't give up, don't give up, don't give up; I got stamina)\nThe greatest, the greatest alive\n(Don't give up, don't give up, don't give up; I got stamina)\nThe greatest, the greatest alive\n(Don't give up, don't give up, don't give up; I got stamina)\nThe greatest, the greatest alive\n(Don't give up, don't give up, don't give up; I got stamina)",
  "LyricURL": "https://genius.com/Sia-the-greatest-lyrics",
  "FullTitle": "The Greatest"
 },
 {
  "Chart": {
   "Year": 2016,
   "ChartPosition": 18,
   "Artist": "Calvin Harris",
   "Title": "This Is What You Came For feat. Rihanna"
  },
  "Lyrics": "Baby, this is what you came for\nLightning strikes every time she moves\nAnd everybody's watching her\nBut she's looking at you, oh, oh\nYou, oh, oh, you, oh, oh\nYou, oh, oh, you, oh, oh\nYou, oh, oh\nOh, oh\n\nBaby, this is what you came for\nLightning strikes every time she moves\nAnd everybody's watching her\nBut she's looking at you, oh, oh\nYou, oh, oh, you, oh, oh\nYou, oh, oh, you, oh, oh\nYou, oh, oh\nOh, oh\n\nYou, oh, oh, you, oh, oh\nYou, oh, oh, you, oh, oh\nYou, oh, oh, you, oh, oh\nOh, oh\n\nWe go fast till they can't replay\nWho knows why it's gotta be this way\nWe say nothing more than we need\nI say \"your place\" when we leave\n\nBaby, this is what you came for\nLightning strikes every time she moves\nAnd everybody's watching her\nBut she's looking at you, oh, oh\nYou, oh, oh, you, oh, oh\nYou, oh, oh, you, oh, oh\nYou, oh, oh\nOh, oh\n\nYou, oh, oh, you, oh, oh\nYou, oh, oh, you, oh, oh\nYou, oh, oh, you, oh, oh\nOh, oh\n\nBaby, this is what you came for\nLightning strikes every time she moves\nYeah\n\nBaby, this is what you came for\nLightning strikes every time she moves\nAnd everybody's watching her\nBut she's looking at you, oh, oh\nYou, oh, oh, you, oh, oh\nYou, oh, oh, you, oh, oh\nYou, oh, oh\nOh, oh\n\nYou, oh, oh, you, oh, oh\nYou, oh, oh, you, oh, oh\nYou, oh, oh, you, oh, oh\nOh, oh",
  "LyricURL": "https://songmeanings.com/songs/view/3530822107859525653/",
  "FullTitle": "This Is What You Came For (feat. Rihanna)"
 },
 {
  "Chart": {
   "Year": 2016,
   "ChartPosition": 19,
   "Artist": "Maroon 5",
   "Title": "Don't Wanna Know"
  },
  "Lyrics": "[Intro]\nOh, hey\nOh, oh hey\nOh, oh, oh hey\nUh oh, uh oh\n\n[Chorus: Adam Levine]\nI don't wanna know, know, know, know\nWho's taking you home, home, home, home\nAnd loving you so, so, so, so\nThe way I used to love you, no\nI don't wanna know, know, know, know\nWho's taking you home, home, home, home\nAnd loving you so, so, so, so\nThe way I used to love you, oh\nI don't wanna know\n\n[Verse 1: Adam Levine]\nWasted (Wasted)\nAnd the more I drink, the more I think about you\nOh no, no, I can't take it\nBaby, every place I go reminds me of you\n\n[Pre-Chorus: Adam Levine]\nDo you think of me? Of what we used to be?\nIs it better now that I'm not around?\nMy friends are actin' strange, they don't bring up your name\nAre you happy now?\nAre you happy now?\n\n[Chorus: Adam Levine]\nI don't wanna know, know, know, know\nWho's taking you home, home, home, home\nAnd loving you so, so, so, so\nThe way I used to love you, no\nI don't wanna know, know, know, know\nWho's taking you home, home, home, home\nAnd loving you so, so, so, so\nThe way I used to love you, oh\nI don't wanna know\n\n[Verse 2: Adam Levine]\nAnd every time I go out, yeah\nI hear it from this one, I hear it from that one\nThat you got someone new\nYeah, I see but don't believe it\nEven in my head, you're still in my bed\nMaybe I'm just a fool\n\n[Pre-Chorus: Adam Levine]\nDo you think of me? Of what we used to be? (What we used to be)\nIs it better now that I'm not around? (That I'm not around)\nMy friends are actin' strange, they don't bring up your name\nAre you happy now?\nAre you happy now?\n\n[Chorus: Adam Levine]\nI don't wanna know, know, know, know\nWho's taking you home, home, home, home\nAnd loving you so, so, so, so\nThe way I used to love you, no\nI don't wanna know, know, know, know\nWho's taking you home, home, home, home\nAnd loving you so, so, so, so\nThe way I used to love you, oh\nI don't wanna know\n(Oh hey)\n\n[Verse 3: Kendrick Lamar]\nNo more “please stop”\nNo more hashtag boo'd up screenshots\nNo more tryin' make me jealous on your birthday\nYou know just how I made you better on your birthday, oh\nDo he do you like this, do he woo you like this?\nDo he lay it down for you, touch your poona like this?\nMatter fact, never mind, we'll let the past be\nMay be his right now, but your body's still me, whoa\n\n[Chorus: Adam Levine]\nI don't wanna know, know, know, know\nWho's taking you home, home, home, home\nAnd loving you so, so, so, so\nThe way I used to love you, no\nI don't wanna know, know, know, know\nWho's taking you home, home, home, home\nAnd loving you so, so, so, so\nThe way I used to love you, oh\nI don't wanna know, know, know, know\nWho's taking you home, home, home, home\nAnd loving you so, so, so, so\nThe way I used to love you, oh (The way I used to love you)\nI don't wanna know, know, know, know\nWho's taking you home, home, home, home\nAnd loving you so, so, so, so\nThe way I used to love you, oh\nI don't wanna know\n\n[Outro]\nOh hey\nOh, oh hey\nOh, oh, oh hey\nUh oh, uh oh",
  "LyricURL": "https://genius.com/Maroon-5-dont-wanna-know-lyrics",
  "FullTitle": "Don’t Wanna Know"
 },
 {
  "Chart": {
   "Year": 2016,
   "ChartPosition": 20,
   "Artist": "Adele",
   "Title": "Send My Love (To Your New Lover)"
  },
  "Lyrics": "[Intro]\nJust the guitar?\nOkay, cool\n\n[Verse 1]\nThis was all you, none of it me\nYou put your hands on, on my body and told me\nMmm, told me you were ready\nFor the big one, for the big jump\nI'd be your last love, everlasting, you and me\nMmm, that was what you told me\n\n[Pre-Chorus]\nI'm giving you up\nI've forgiven it all\nYou set me free\n\n[Chorus]\nSend my love to your new lover\nTreat her better\nWe've gotta let go of all of our ghosts\nWe both know we ain't kids no more\nSend my love to your new lover\nTreat her better\nWe've gotta let go of all of our ghosts\nWe both know we ain't kids no more\n\n[Verse 2]\nI was too strong, you were trembling\nYou couldn't handle the hot heat rising (rising)\nMmm, baby, I'm still rising\nI was running, you were walking\nYou couldn't keep up, you were falling down (down)\nMmm, there's only one way down\n\n[Pre-Chorus]\nI'm giving you up\nI've forgiven it all\nYou set me free, oh\n\n[Chorus]\nSend my love to your new lover\nTreat her better\nWe've gotta let go of all of our ghosts\nWe both know we ain't kids no more\nSend my love to your new lover\nTreat her better\nWe've gotta let go of all of our ghosts\nWe both know we ain't kids no more\n\n[Bridge]\nIf you're ready, if you're ready\nIf you're ready, I am ready\nIf you're ready, if you're ready\nWe both know we ain't kids no more\nNo, we ain't kids no more\n\n[Pre-Chorus]\nI'm giving you up\nI've forgiven it all\nYou set me free\n\n[Chorus]\nSend my love to your new lover\nTreat her better\nWe've gotta let go of all of our ghosts\nWe both know we ain't kids no more\nSend my love to your new lover\nTreat her better\nWe've gotta let go of all of our ghosts\nWe both know we ain't kids no more\n\n[Outro]\nIf you're ready, if you're ready\n(Send my love to your new lover)\nIf you're ready, are you ready?\n(Treat her better)\nWe've gotta let go of all of our ghosts\nWe both know we ain't kids no more\nIf you're ready, if you're ready\n(Send my love to your new lover)\nIf you're ready, are you ready?\n(Treat her better)\nWe've gotta let go of all of our ghosts\nWe both know we ain't kids no more",
  "LyricURL": "https://genius.com/Adele-send-my-love-to-your-new-lover-lyrics",
  "FullTitle": "Send My Love (To Your New Lover)"
 },
 {
  "Chart": {
   "Year": 2016,
   "ChartPosition": 21,
   "Artist": "X Ambassadors",
   "Title": "Unsteady"
  },
  "Lyrics": "[Intro]\nHold, hold on, hold on to me\n'Cause I'm a little unsteady, a little unsteady\nHold, hold on, hold on to me\n'Cause I'm a little unsteady, a little unsteady\n\n[Verse 1]\nMama, come here\nApproach, appear\nDaddy, I'm alone\n'Cause this house don't feel like home\n\n[Pre-Chorus]\nIf you love me, don't let go, woah\nIf you love me, don't let go\n\n[Chorus]\nHold, hold on, hold on to me\n'Cause I'm a little unsteady, a little unsteady\nHold, hold on, hold on to me\n'Cause I'm a little unsteady, a little unsteady\n\n[Verse 2]\nMother, I know\nThat you're tired of being alone\nDaddy, I know you're trying\nTo fight when you feel like flying\n\n[Pre-Chorus]\nBut if you love me, don't let go, woah\nIf you love me, don't let go\n\n[Chorus]\nHold, hold on, hold on to me\n'Cause I'm a little unsteady, a little unsteady\nHold, hold on, hold on to me\n'Cause I'm a little unsteady, a little unsteady\n\n[Outro]\nHold, hold on, hold on to me\n'Cause I'm a little unsteady, a little unsteady",
  "LyricURL": "https://genius.com/X-ambassadors-unsteady-lyrics",
  "FullTitle": "Unsteady"
 },
 {
  "Chart": {
   "Year": 2016,
   "ChartPosition": 22,
   "Artist": "Drake",
   "Title": "One Dance"
  },
  "Lyrics": "[Intro: Kyla]\nBaby, I like your style\n\n[Verse 1: Drake]\nGrips on your waist, front way, back way\nYou know that I don't play\nStreets not safe but I never run away\nEven when I'm away\nOti, oti\nThere's never much love when we go OT\nI pray to make it back in one piece\nI pray, I pray\n\n[Chorus: Drake]\nThat's why I need a one dance\nGot a Hennessy in my hand\nOne more time 'fore I go\nHigher powers taking a hold on me\nI need a one dance\nGot a Hennessy in my hand\nOne more time 'fore I go\nHigher powers taking a hold on me\n\n[Refrain: Kyla]\nBaby, I like your style\n\n[Verse 2: Drake]\nStrength and guidance\nAll that I'm wishing for my friends\nNobody makes it from my ends\nI had to bust up the silence\nYou know you gotta stick by me\nSoon as you see the text, reply me\nI don't wanna spend time fighting\nWe've got no time\n\n[Chorus: Drake]\nAnd that's why I need a one dance\nGot a Hennessy in my hand\nOne more time 'fore I go\nHigher powers taking a hold on me\nI need a one dance\nGot a Hennessy in my hand\nOne more time 'fore I go\nHigher powers taking a hold on me\n\n[Bridge: Wizkid]\nGot a pretty girl and she love me long time\nWine it, wine it, very long time\nOh yeah, very long time\nBack up, back up, back up and wine it\nBack up, back up and wine it, girl\nBack up, back up, back up and wine it\nOh yeah, very long time\nBack, up, back up and wine it, girl\n\n[Refrain: Kyla \u0026 Wizkid]\nTell me\nI need to know, where do you wanna go?\nCause if you're down, I'll take it slow\nMake you lose control\nWhere, where, where\nWhere, where, where, where\nOh yeah, very long time\nWhere, where, where\nBack, up, back up and wine it, girl\nWhere, where, where, where\nCause if you're down\nBack up, back up and\nCause if you're down\nBack up, back up and\nCause if you're down\nBack up, back up and\n\n[Chorus: Drake]\nI need a one dance\nGot a Hennessy in my hand\nOne more time 'fore I go\nHigher powers taking a hold on me\nI need a one dance\nGot a Hennessy in my hand\nOne more time 'fore I go\nHigher powers taking a hold on me",
  "LyricURL": "https://genius.com/Drake-one-dance-lyrics",
  "FullTitle": "One Dance"
 },
 {
  "Chart": {
   "Year": 2016,
   "ChartPosition": 23,
   "Artist": "Tory Lanez",
   "Title": "Luv"
  },
  "Lyrics": "[Verse 1]\nWe ah sip the Henny for the day baby\nBad man, we no stray baby\nOops I done fell for your way baby\nI know girl but, everyone falls...\n\n[Pre-Chorus]\nAnd I know from the first time, the first time\nI seen your love, you got me baby\nEven though girl I know that I will fall for you\nYou got to know that everyone falls\nOops I done fell so deep baby\nOops I want you for me baby\nOops I want you for me baby\nOops I done fell so deep cause...\n\n[Chorus]\nEveryone falls in love sometimes\nI don't know 'bout you but it ain't a crime\nNeefi let me love you, love you, love you for long time baby\nNeefi let me touch you, neefi let me love you 'til the morning, oh\n\n[Post-Chorus]\nMmm, ah, mmm, ah, mmm, if you let me love you\nMmm, ah, mmm, ah, mmm, if you let me touch you\nMmm, ah, mmm, ah, mmm, if you let me love you\nMmm, ah, mmm, ah, mmm, if you let me love you\n\n[Verse 2]\nWe ah sip that Henny for the day baby\nCome my, my way baby\nTop down on the highway baby\nAnd if you let me love you, wait\nShawty she ain't even got a visa\nOut of town, one night teaser\nNeed to tell them other niggas ease up\nI'm falling but everyone falls\n\n[Pre-Chorus]\nAnd I know from the first time, the first time\nI seen your love, you got me baby\nEven though girl I know that I will fall for you\nYou got to know that everyone falls\nOops I done fell too deep baby\nOops I think you got me baby\nOops I want you for me baby\nI'm fallin' but\n(But everyone falls...)\n\n[Chorus]\nEveryone falls in love sometimes\nI don't know 'bout you but it ain't a crime\nNeefi let me love you, love you, love you for long time baby\nNeefi let me touch you, neefi let me love you 'til the morning, oh\n\n[Post-Chorus]\nMmm, ah, mmm, ah, mmm, if you let me love you\nMmm, ah, mmm, ah, mmm, if you let me touch you\nMmm, ah, mmm, ah, mmm, if you let me love you\nMmm, ah, mmm, ah, mmm\n\n[Bridge]\nAnd if you want me\nAnd if you let me love you now\nIt's true what I need\nIs someone for love me right now\nIt's true I'm a freak\nIt's time to love you now\nAnd if you want me\nI'm falling\n\n[Chorus]\nEveryone falls in love sometimes\nI don't know 'bout you but it ain't a crime\nNeefi let me love you, love you, love you for long time baby\nNeefi let me touch you, neefi let me love you 'til the morning, oh\n\n[Post-Chorus]\nMmm, ah, mmm, ah, mmm, if you let me love you\nMmm, ah, mmm, ah, mmm, if you let me touch you\nMmm, ah, mmm, ah, mmm, if you let me love you\nMmm, ah, mmm, ah, mmm, if you let me love you, yeah",
  "LyricURL": "https://genius.com/Tory-lanez-luv-lyrics",
  "FullTitle": "LUV"
 },
 {
  "Chart": {
   "Year": 2016,
   "ChartPosition": 24,
   "Artist": "Jon Bellion",
   "Title": "All Time Low"
  },
  "Lyrics": "[Verse 1]\nI was the knight in shining armor in your movie\nWould put your lips on mine and love the aftertaste\nNow I'm a ghost, I call your name, you look right through me\nYou're the reason I'm alone and masturbate\n\n[Pre-Chorus]\nI, I've been trying to fix my pride\nBut that shit's broken, that shit's broken\nLie, lie, l-lie I tried to hide\nBut now you know it\n\n[Chorus]\nThat I'm at an all time\nLow, low, low, low, low, low, low, low, low\nLow, low, low, low, low, low, low, low, low\nLow, low, low, low, low, low, low, low, low\nLow, low, low, low, low, low, low, low, low\n\n[Verse 2]\nI was the prototype like 3 Stacks on that CD\nAn example of the perfect candidate\nNow all your girlfriends say that you don't want to see me\nYou're the reason that I just can't concentrate\n\n[Pre-Chorus]\nI, (I, I) I've been trying to fix my pride\nBut that shit's broken, that shit's broken\nLie (lie, lie), lie, l-lie I tried to hide\nBut now you know it\n\n[Chorus]\nThat I'm at an all time\nLow, low, low, low, low, low, low, low, low\nLow, low, low, low, low, low, low, low, low\nLow, low, low, low, low, low, low, low, low\nLow, low, low, low, low, low, low, low, low\n\n[Bridge]\nI, I, I, I've been trying to fix my pride\nBut that shit's broken, that shit's broken\nLie (lie, lie), lie, l-lie and try to hide\nBut now you know it\nThat I'm at an all time\nLow, low, low, low, low, low\nLow, low, low, low, low, low, low, low, low, low, low\nLow, low\nLow, low, low, low, low, low, low, low, low, low, low, low\nLie, l-lie, I try to hide, but now you know it\nThat I'm at an all time...\nHey!\n\n[Outro]\nLow, low, low, low, low, low, low, low, low\nLow, low, low, low, low, low, low, low, low\nLow, low, low, low, low, low, low, low, low\nLow, low, low, low, low, low, low, low, low\nLow, low, low, low, low, low, low, low, low\nLow, low, low, low, low, low, low, low, low\nLow, low, low, low, low, low, low, low, low\nLow, low, low, low, low, low, low, low, low",
  "LyricURL": "https://genius.com/Jon-bellion-all-time-low-lyrics",
  "FullTitle": "All Time Low"
 },
 {
  "Chart": {
   "Year": 2016,
   "ChartPosition": 25,
   "Artist": "Drake",
   "Title": "Too Good"
  },
  "Lyrics": "[Intro: Drake]\nOh yeah, yeah, yeah\nOh yeah, yeah, yeah\nYeah\n\n[Verse 1: Drake]\nLook...I don't know how to talk to you\nI don't know how to ask you if you're okay\nMy friends always feel the need to tell me things\nSeems like they're just happier than us these days\nYeah, these days I don't know how to talk to you\nI don't know how to be there when you need me\nIt feels like the only time you see me\nIs when you turn your head to the side and look at me differently\n\n[Pre-Chorus: Drake]\nYeah, and last night I think I lost my patience\nLast night, I got high as your expectations\nLast night, I came to a realization\nAnd I hope you can take it\nI hope you can take it\n\n[Chorus: Drake]\nI'm too good to you\nI'm way too good to you\nYou take my love for granted\nI just don't understand it\nNo, I'm too good to you\nI'm way too good to you\nYou take my love for granted\nI just don't understand it\n\n[Verse 2: Rihanna]\nI don't know how to talk to you\nI just know I found myself getting lost with you\nLately you just make me work too hard for you\nGot me on flights overseas, and I still can't get across to you\n\n[Pre-Chorus: Rihanna]\nAnd last night I think I lost my patience\nLast night, I got high as your expectations\nLast night, I came to a realization\nAnd I hope you can take it\nI hope you can take it\n\n[Chorus: Drake \u0026 Rihanna]\nI'm too good to you\nI'm way too good to you\nYou take my love for granted\nI just don't understand it\nNo, I'm too good to you\nI'm way too good to you\nYou take my love for granted\nI just don't understand it\n\n[Verse 3: Drake]\nYears go by too fast\nI can't keep track\nHow long did we last?\nI feel bad for asking\nIt can't end like this\nWe gotta take time with this\nCock up yuh bumper, sit down pon it\nLet me see if this is something I can fix\nYou got somebody other than me\nDon't play the victim when you're with me\nFree time is costing me more than it seems\nSacrificing things\nAnd I wanna tell you my intentions\nI wanna do the things that I mention\nI wanna benefit from the friendship\nI wanna get the late night message from you, from you\nI put my hands around you\nGotta get a handle on you\nGotta get a handle on the fact that...\n\n[Chorus: Drake \u0026 Rihanna]\nI'm too good to you\nI'm way too good to you\nYou take my love for granted\nI just don't understand it\nNo, I'm too good to you\nI'm way too good to you\nYou take my love for granted\nI just don't understand it\n\n[Outro: Popcaan]\nGyal a you mi waan\nPay fi yuh visa meck yo fly out regular\nBaby, cock up yuh bumper, sit down pon it\nGyal yo pum pum good and yuh fit\nMi wi give you everything weh deh in my wallet\nAnd in my pocket\nCock up yuh bumper, sit down pon it\nGyal yo pum pum good and yuh fit\nMi wi give you everything weh deh in my wallet\nAnd in my pocket",
  "LyricURL": "https://genius.com/Drake-too-good-lyrics",
  "FullTitle": "Too Good"
 },
 {
  "Chart": {
   "Year": 2016,
   "ChartPosition": 26,
   "Artist": "Niall Horan",
   "Title": "This Town"
  },
  "Lyrics": "[Verse 1]\nWaking up to kiss you and nobody’s there\nThe smell of your perfume still stuck in the air\nIt’s hard\nYesterday I thought I saw your shadow running round\nIt’s funny how things never change in this old town\nSo far from the stars\n\n[Pre-Chorus]\nAnd I want to tell you everything\nThe words I never got to say the first time around\nAnd I remember everything\nFrom when we were the children playing in this fairground\nWish I was there with you now\n\n[Chorus]\nIf the whole world was watching I’d still dance with you\nDrive highways and byways to be there with you\nOver and over the only truth\nEverything comes back to you\n\n[Verse 2]\nI saw that you moved on with someone new\nIn the pub that we met he’s got his arms around you\nIt’s so hard\nSo hard\n\n[Pre-Chorus]\nAnd I want to tell you everything\nThe words I never got to say the first time around\nAnd I remember everything\nFrom when we were the children playing in this fairground\nWish I was there with you now\n\n[Chorus]\nBecause if the whole world was watching I’d still dance with you\nDrive highways and byways to be there with you\nOver and over the only truth\nEverything comes back to you\n\nYou still make me nervous when you walk in the room\nThem butterflies they come alive when I’m next to you\nOver and over the only truth\nEverything comes back to you\n\n[Bridge]\nAnd I know that it’s wrong\nThat I can’t move on\nBut there’s something about you\n\n[Chorus]\nIf the whole world was watching I’d still dance with you\nDrive highways and byways to be there with you\nOver and over the only truth\nEverything comes back to you\nYou still make me nervous when you walk in the room\nThem butterflies they come alive when I’m next to you\nOver and over the only truth\nEverything comes back to you\nEverything comes back to you",
  "LyricURL": "https://genius.com/Niall-horan-this-town-lyrics",
  "FullTitle": "This Town"
 },
 {
  "Chart": {
   "Year": 2016,
   "ChartPosition": 27,
   "Artist": "Lil Wayne, Wiz Khali",
   "Title": "Sucker For Pain"
  },
  "Lyrics": "[Chorus: Dan Reynolds \u0026 Sam Harris]\nI torture you\nTake my hand through the flames\nI torture you\nI'm a slave to your games (I'm just a sucker for pain)\nI wanna chain you up, I wanna tie you down\nOooohh, I'm just a sucker for pain\n\n[Verse 1: Ty Dolla $ign]\nDolla $ign! I'm a sucker for pain\nI got the squad tatted on me from my neck to my ankles\nPressure from the man got us all in rebellion\nWe gon' go to war, yeah, without failure\nDo it for the fam dog, ten toes down dog\nLove and the loyalty that's what we stand for\nAlienated by society\nAll this pressure give me anxiety\nWalk slow through the fire\nLike, who gon' try us?\nFeeling the world go against us\nSo we put the world on our shoulders\n\n[Chorus: Dan Reynolds \u0026 Sam Harris]\nI torture you\nTake my hand through the flames\nI torture you\nI'm a slave to your games (I'm just a sucker for pain)\nI wanna chain you up, I wanna tie you down\nOooohh, I'm just a sucker for pain\n\n[Verse 2: Logic]\nI been at it with my homies, it don't matter, you don't know me\nI been rollin' with my team, we the illest on the scene\nI been riding 'round the city with my squad\nI been riding 'round the city with my, squad\nWe just posted, getting crazy, living like this is so amazing\nHold up, take a step back when we roll up cause I know what\nWe been loyal, we been fam, we the ones you trust in\nWon't hesitate to go straight to your head like a concussion\nI know I been bussin', no discussion for my family\nNo hesitation, through my scope I see my enemy\nLike what's up? Hold up, we finna re-load up\nYes I re-load up, I know what up, I know what up\n\n[Chorus: Dan Reynolds \u0026 Sam Harris]\nI torture you\nTake my hand through the flames\nI torture you\nI'm a slave to your games (I'm just a sucker for pain)\nI wanna chain you up, I wanna tie you down\nOooohh, I'm just a sucker for pain\n\n[Verse 3: Lil Wayne]\nUhh, devoted to destruction\nA full dosage of detrimental dysfunction\nI'm dying slow but the devil tryna rush me\nSee, I'm a fool for pain, I'm a dummy\nMight cut my head off right after I slit my throat\nTongue kiss a shark, got jealous bitches up in the boat\nEating peanut butter and jelly fishes on toast\nAnd if I get stung, I get stoked, might choke\nLike I chewed a chunk of charcoal, naked in the North Pole\nThat's why my heart cold, full of sorrow, the lost soul\nAnd only Lord knows when I'm coming to the crossroads\nSo I don't fear shit but tomorrow\nAnd I'm a sucker for pain, it ain't nuttin' but pain\nYou just fuckin' complain, you ain't tough as you claim\nJust stay up in your lane, just don't fuck with Lil Wayne\nI'ma jump from my plane or stand in front of a train\n'Cause I'm a sucker for pain\n\n[Bridge: Wiz Khalifa]\nUsed to doing bad now we feel like we just now getting it\nAin't got no other way so we start it and finish it\nNo pain, no gain\nNever stand down, made our own way\nNever going slow, we pick up the pace\nThis is what we wanted from a young age\nNo emotion, that's what business is\nLord have mercy on the witnesses\n\n[Chorus: Dan Reynolds \u0026 Sam Harris]\nI torture you\nTake my hand through the flames\nI torture you\nI'm just a sucker for pain\n\n[Outro: Sam Harris]\nMore pain\nGot me beggin', beggin', beggin', beggin', beggin', beggin'\nFor more pain\nGot me beggin', beggin', beggin', beggin', beggin', beggin'\nFor more pain\nGot me beggin', beggin', beggin', beggin', beggin', beggin'\nFor more pain\nGot me beggin'...",
  "LyricURL": "https://genius.com/Lil-wayne-sucker-for-pain-lyrics",
  "FullTitle": "Sucker for Pain"
 },
 {
  "Chart": {
   "Year": 2016,
   "ChartPosition": 28,
   "Artist": "The Chainsmokers",
   "Title": "Don't Let Me Down"
  },
  "Lyrics": "[Verse 1]\nCrashing, hit a wall\nRight now I need a miracle\nHurry up now, I need a miracle\nStranded, reaching out\nI call your name, but you're not around\nI say your name, but you're not around\n\n[Chorus]\nI need you, I need you, I need you right now\nYeah, I need you right now\nSo don't let me, don't let me, don't let me down\nI think I'm losing my mind now\nIt's in my head, darling, I hope\nThat you'll be here when I need you the most\nSo don't let me, don't let me, don't let me down\nD-don't let me down\nDon't let me down\n\n[Post-Chorus]\nDon't let me down, down, down\nDon't let me down\nDon't let me down, down, down\n\n[Verse 2]\nR-r-running out of time\nI really thought you were on my side\nBut now there's nobody by my side\n\n[Chorus]\nI need you, I need you, I need you right now\nYeah, I need you right now\nSo don't let me, don't let me, don't let me down\nI think I'm losing my mind now\nIt's in my head, darling, I hope\nThat you'll be here when I need you the most\nSo don't let me, don't let me, don't let me down\nD-don't let me down\nDon't let me down\n\n[Post-Chorus]\nDon't let me down, down, down\nDon't let me down, down, down\nDon't let me down, down, down\nDon't let me down\nDon't let me down, down, down\n\n[Bridge]\nOoh, I think I'm losing my mind now, yeah\nOoh, I think I'm losing my mind now, yeah\n\n[Chorus]\nI need you, I need you, I need you right now\nYeah, I need you right now\nSo don't let me, don't let me, don't let me down\nI think I'm losing my mind now\nIt's in my head, darling, I hope\nThat you'll be here when I need you the most\nSo don't let me, don't let me, don't let me down\nDon't let me down\n\n[Outro]\nYeah, don't let me down\nYeah, don't let me down\nDon't let me down, oh, no\nSay don't let me down\nDon't let me down, no-o\nDon't let me down\nDon't let me down, down, down",
  "LyricURL": "https://genius.com/The-chainsmokers-dont-let-me-down-lyrics",
  "FullTitle": "Don’t Let Me Down"
 },
 {
  "Chart": {
   "Year": 2016,
   "ChartPosition": 29,
   "Artist": "Martin Garrix",
   "Title": "In The Name Of Love"
  },
  "Lyrics": "[Verse 1: Bebe Rexha]\nIf I told you this was only gonna hurt\nIf I warned you that the fire's gonna burn\nWould you walk in? Would you let me do it first?\nDo it all in the name of love\nWould you let me lead you even when you're blind?\nIn the darkness, in the middle of the night\nIn the silence, when there's no one by your side\nWould you call in the name of love?\n\n[Chorus: Bebe Rexha]\nIn the name of love, name of love\nIn the name of love, name of love\n\n[Breakdown: Bebe Rexha]\nIn the name of\nLove\nIn the name, name\nLove\nIn the name, name\nLove\n\n[Verse 2: Bebe Rexha]\nIf I told you we could bathe in all the lights\nWould you rise up, come and meet me in the sky?\nWould you trust me when you're jumping from the heights?\nWould you fall in the name of love?\nWhen there's madness, when there's poison in your head\nWhen the sadness leaves you broken in your bed\nI will hold you in the depths of your despair\nAnd it's all in the name of love\n\n[Chorus: Bebe Rexha]\nIn the name of love, name of love\nIn the name of love, name of love\n\n[Breakdown: Bebe Rexha]\nIn the name of\nLove\nIn the name, name\nLove\nIn the name, name\nLove\n\n[Bridge: Bebe Rexha]\nI wanna testify\nScream in the holy light\nYou bring me back to life\nAnd it's all in the name of love\nI wanna testify\nScream in the holy light\nYou bring me back to life\nAnd it's all in the name of love\n\n[Chorus: Bebe Rexha]\nIn the name of love, name of love\nIn the name of love, name of love\n\n[Breakdown: Bebe Rexha]\nIn the name of\nLove\nIn the name, name\nLove\nIn the name, name\nLove\nIn the name of\nLove\nIn the name, name\nLove\nIn the name of\nLove\nIn the name of\nLove\nIn the name of\nLove",
  "LyricURL": "https://genius.com/Martin-garrix-in-the-name-of-love-lyrics",
  "FullTitle": "In the Name of Love"
 },
 {
  "Chart": {
   "Year": 2016,
   "ChartPosition": 30,
   "Artist": "Frenship",
   "Title": "Capsize"
  },
  "Lyrics": "[Intro: Emily Warren]\nHey-ey-ey-ey-yeah\nHey-ya, hey-ya, hey\nHey-ey-ey-ey-yeah\nHey-ya, hey-ya, hey\n\n[Verse 1: James Sunderland with Emily Warren]\nUp at night I'm awake cause it haunts me\nThat I never got to say what I wanted\nOh my God, oh my God\nI’m not the same as I was with you\nI would jump out my skin just to get you\nOh my God, oh my God\n\n[Pre-Chorus: James Sunderland]\nHow could you have ever known if I never let it show\nNow I just wanna know, are you...\n\n[Chorus: Emily Warren]\nYeah, I'm fine\nDrop tears in the morning\nGive in to the lonely\nHere it comes with no warning\nCapsize, I'm first in the water\nToo close to the bottom\nI'm right back where I started\nSaid I'm fine\n\n[Post-Chorus: Emily Warren]\nHey-ey-ey-ey-yeah\nHey-ya, hey-ya, hey\nHey-ey-ey-ey-yeah\nHey-ya, hey-ya, hey\n\n[Verse 2: James Sunderland with Emily Warren]\nYour silhouette is burned in my memory\nRubble left from the moment that you left me\nOh my God, oh my God\nAnd three words have never come easy\nCause you're more than they ever could be\nOh my God, oh my God\n\n[Pre-Chorus: James Sunderland]\nHow could you have ever known if I never let it show\nNow I just wanna know, are you...\n\n[Chorus: Emily Warren]\nYeah, I'm fine\nDrop tears in the morning\nGive in to the lonely\nHere it comes with no warning\nCapsize, I'm first in the water\nToo close to the bottom\nI'm right back where I started\nSaid I'm fine\n\n[Post Chorus: Emily Warren]\nHey-ey-ey-ey-yeah\nHey-ya, hey-ya, hey\nHey-ey-ey-ey-yeah\nHey-ya, hey-ya, hey\n\n[Bridge: Emily Warren]\nI'm swimming up against the tide\nOh my god\nI'm swimming but I'm getting tired\nOh my god\nI'm swimming up against the tide\nOh my god\nI'm swimming but I'm getting tired\nOh my god\n\n[Chorus: Emily Warren]\nYeah, I'm fine\nDrop tears in the morning\nGive in to the lonely\nHere it comes with no warning (no warning)\nCapsize, I'm first in the water\nToo close to the bottom\nI'm right back where I started\nSaid I'm fine (fine)\n\n[Post-Chorus: Emily Warren]\nHey-ey-ey-ey-yeah\nHey-ya, hey-ya, hey (Said I'm fine)\nHey-ey-ey-ey-yeah\nHey-ya, hey-ya, hey\n\n[Outro]\nI think about you, love you, and am filled with pride",
  "LyricURL": "https://genius.com/Frenship-capsize-lyrics",
  "FullTitle": "Capsize"
 },
 {
  "Chart": {
   "Year": 2016,
   "ChartPosition": 31,
   "Artist": "Coldplay",
   "Title": "Hymn For The Weekend"
  },
  "Lyrics": "It was the 14th of October\nAnd that t-shirt off your shoulder\nI was drunk, said I was sober\nAnd you said \"yeah, right\"\nWe were talkin' for a minute\nThen some guy tried to cut in\nYou took my hand and we pretended\nLike I was your guy\n\nOh, and I tried to guess your middle name\nFor thirty minutes bet we played that game\n\nThat mango-rita you were drinkin'\nAnd that Coldplay song that you were singin'\nAnd I bet right now you're probably thinkin'\nThat it's crazy I remember every detail, but I do\nFrom your blue jeans to your shoes\nGirl, that night was just like you\nUnforgettable\n\nWe were dancin', we were buzzin'\nTakin' shots like it was nothin'\nDid the runnin' man, you loved it\nYeah, you laughed out loud\nYou brushed away your blonde hair\nAnd you kissed me out of nowhere\nI can still show you the spot\nWhere everything went down\n\nOh, I told you I was gonna marry you\nYou probably didn't think that it was true\n\nThat mango-rita you were drinkin'\nAnd that Coldplay song that you were singin'\nAnd I bet right now you're probably thinkin'\nThat it's crazy I remember every detail, but I do\nI can still smell your perfume\nGirl, that night was just like you\nUnforgettable\n\nOh, that night was just like you, baby\n\nI can taste the mango-rita you were drinkin'\nAnd it feels just like it was last weekend\nThat we jumped in\nRight off the deep end\n\nThat mango-rita you were drinkin'\nAnd that Coldplay song that you were singin'\nAnd I bet right now you're probably thinkin'\nThat it's crazy I remember every detail, but I do\nI can still smell your perfume\nGirl, that night was just like you\nUnforgettable\n\nFrom your blue jeans to your shoes\nGirl, that night was just like you\nUnforgettable",
  "LyricURL": "https://www.lyrics.com/lyric/34215828/Thomas+Rhett/Unforgettable",
  "FullTitle": "Hymn for the Weekend"
 },
 {
  "Chart": {
   "Year": 2016,
   "ChartPosition": 32,
   "Artist": "Charlie Puth",
   "Title": "We Don't Talk Anymore"
  },
  "Lyrics": "[Chorus: Charlie Puth]\nWe don't talk anymore, we don't talk anymore\nWe don't talk anymore, like we used to do\nWe don't love anymore\nWhat was all of it for?\nOh, we don't talk anymore, like we used to do\n\n[Verse 1: Charlie Puth]\nI just heard you found the one you've been looking\nYou've been looking for\nI wish I would have known that wasn't me\n'Cause even after all this time I still wonder\nWhy I can't move on\nJust the way you did so easily\n\n[Pre-Chorus 1: Charlie Puth]\nDon't wanna know\nWhat kind of dress you're wearing tonight\nIf he's holdin' onto you so tight\nThe way I did before\nI overdosed\nShould've known your love was a game\nNow I can't get you out of my brain\nOh, it's such a shame\n\n[Chorus: Charlie Puth]\nThat we don't talk anymore, we don't talk anymore\nWe don't talk anymore, like we used to do\nWe don't love anymore\nWhat was all of it for?\nOh, we don't talk anymore, like we used to do\n\n[Verse 2: Selena Gomez]\nI just hope you're lying next to somebody\nWho knows how to love you like me\nThere must be a good reason that you're gone\nEvery now and then I think you\nMight want me to come show up at your door\nBut I'm just too afraid that I'll be wrong\n\n[Pre-Chorus 2: Selena Gomez]\nDon't wanna know\nIf you're lookin' into her eyes\nIf she's holdin' onto you so tight\nThe way I did before\nI overdosed\nShould've known your love was a game\nNow I can't get you out of my brain\nOh, it's such a shame\n\n[Chorus: Charlie Puth \u0026 Selena Gomez]\nThat we don't talk anymore, we don't talk anymore\nWe don't talk anymore, like we used to do\nWe don't love anymore\nWhat was all of it for?\nOh, we don't talk anymore, like we used to do\nLike we used to do\n\n[Pre-Chorus 2: Charlie Puth \u0026 Selena Gomez]\nDon't wanna know\nWhat kind of dress you're wearing tonight\nIf he's giving it to you just right\nThe way I did before\nI overdosed\nShould've known your love was a game\nNow I can't get you out of my brain\nOh, it's such a shame\n\n[Chorus: Charlie Puth \u0026 Selena Gomez]\nThat we don't talk anymore, we don't talk anymore\nWe don't talk anymore, like we used to do\nWe don't love anymore\nWhat was all of it for?\nOh, we don't talk anymore, like we used to do\n\n[Outro: Charlie Puth \u0026 Selena Gomez, Both]\nWe don't talk anymore, oh, oh\n(What kind of dress you're wearing tonight)\n(If he's holding onto you so tight)\nThe way I did before\nWe don't talk anymore, oh, whoa\n(Should've known your love was a game)\n(Now I can't get you out of my brain)\nOh, it's such a shame\nThat we don't talk anymore",
  "LyricURL": "https://genius.com/Charlie-puth-we-dont-talk-anymore-lyrics",
  "FullTitle": "We Don’t Talk Anymore"
 },
 {
  "Chart": {
   "Year": 2016,
   "ChartPosition": 33,
   "Artist": "Ariana Grande",
   "Title": "Into You"
  },
  "Lyrics": "[Verse 1]\nI'm so into you, I can barely breathe\nAnd all I wanna do is to fall in deep\nBut close ain't close enough, 'til we cross the line, hey yeah\nSo name a game to play, and I'll roll the dice, hey\n\n[Pre-Chorus]\nOh baby, look what you started\nThe temperature's rising in here\nIs this gonna happen?\nBeen waiting and waiting for you to make a move\nBefore I make a move\n\n[Chorus]\nSo, baby, come light me up, and, baby, I'll let you on it\nA little bit dangerous, but, baby, that's how I want it\nA little less conversation and a little more touch my body\n'Cause I'm so into you, into you, into you\nGot everyone watchin' us, so, baby, let's keep this secret\nA little bit scandalous, but, baby, don't let them see it\nA little less conversation and a little more touch my body\n'Cause I'm so into you, into you, into you, oh, yeah\n\n[Verse 2]\nThis could take some time, hey\nMade too many mistakes\nBetter get this right, right, baby\n\n[Pre-Chorus]\nOh, baby, look what you started\nThe temperature's rising in here\nIs this gonna happen?\nBeen waiting and waiting for you to make a move\nBefore I make a move\n\n[Chorus]\nSo, baby, come light me up, and, baby, I'll let you on it\nA little bit dangerous, but, baby, that's how I want it\nA little less conversation and a little more touch my body\n'Cause I'm so into you, into you, into you\nGot everyone watchin' us, so, baby, let's keep this secret\nA little bit scandalous, but, baby, don't let them see it\nA little less conversation and a, little more touch my body\n'Cause I'm so into you, into you, into you, oh yeah\n('Cause I'm so into you)\n\n[Bridge]\nTell me what you came here for\n'Cause I can't, I can't wait no more\nI'm on the edge with no control\nAnd I need, I need you to know\nYou to know, oh\n\n[Chorus]\nSo, baby, come light me up, and, baby, I'll let you on it\nA little bit dangerous, but, baby, that's how I want it\nA little less conversation and a little more touch my body\n'Cause I'm so into you, into you, into you\nGot everyone watchin' us, so, baby, let's keep this secret\nA little bit scandalous, but, baby, don't let them see it\nA little less conversation and a little more touch my body\n'Cause I'm so into you, into you, into you\n\n[Outro]\nSo come light me up\nSo come light me up, my baby\nLittle dangerous\nA little dangerous, my boy\nA little less conversation and a little more touch my body\n'Cause I'm so into you, into you, into you",
  "LyricURL": "https://genius.com/Ariana-grande-into-you-lyrics",
  "FullTitle": "Into You"
 },
 {
  "Chart": {
   "Year": 2016,
   "ChartPosition": 34,
   "Artist": "Justin Timberlake",
   "Title": "Can't Stop The Feeling"
  },
  "Lyrics": "[Verse 1]\nI got this feeling inside my bones\nIt goes electric, wavey when I turn it on\nAll through my city, all through my home\nWe're flying up, no ceiling, when we in our zone\n\n[Refrain]\nI got that sunshine in my pocket\nGot that good soul in my feet\nI feel that hot blood in my body when it drops (ooh)\nI can't take my eyes up off it, moving so phenomenally\nRoom on lock, the way we rock it, so don't stop\n\n[Pre-Chorus]\nAnd under the lights when everything goes\nNowhere to hide when I'm getting you close\nWhen we move, well, you already know\nSo just imagine, just imagine, just imagine\n\n[Chorus]\nNothing I can see but you when you dance, dance, dance\nA feeling good, good, creeping up on you\nSo just dance, dance, dance, come on\nAll those things I shouldn't do\nBut you dance, dance, dance\nAnd ain't nobody leaving soon, so keep dancing\nI can't stop the feeling\nSo just dance, dance, dance\nI can't stop the feeling\nSo just dance, dance, dance (Come on)\n\n[Verse 2]\nOoh, it's something magical\nIt's in the air, it's in my blood, it's rushing on\nI don't need no reason, don't need control\nI fly so high, no ceiling, when I'm in my zone\n\n[Refrain]\n'Cause I got that sunshine in my pocket\nGot that good soul in my feet\nI feel that hot blood in my body when it drops\nI can't take my eyes up off it, moving so phenomenally\nRoom on lock, the way we rock it, so don't stop\n\n[Pre-Chorus]\nAnd under the lights when everything goes\nNowhere to hide when I'm getting you close\nWhen we move, well, you already know\nSo just imagine, just imagine, just imagine\n\n[Chorus]\nNothing I can see but you when you dance, dance, dance\nA feeling good, good, creeping up on you\nSo just dance, dance, dance, come on\nAll those things I shouldn't do\nBut you dance, dance, dance\nAnd ain't nobody leaving soon, so keep dancing\nI can't stop the feeling\nSo just dance, dance, dance\nI can't stop the feeling\nSo just dance, dance, dance (Come on)\nI can't stop the feeling\nSo just dance, dance, dance\nI can't stop the feeling\nSo keep dancing (Come on)\n\n[Bridge]\nI can't stop the, I can't stop the\nI can't stop the, I can't stop the\nI can't stop the feeling\n\n[Chorus]\nNothing I can see but you when you dance, dance, dance\n(I can't stop the feeling)\nFeeling good, good, creeping up on you\nSo just dance, dance, dance, come on\n(I can't stop the feeling)\nAll those things I shouldn't do\nBut you dance, dance, dance\n(I can't stop the feeling)\nAnd ain't nobody leaving soon, so keep dancing\n\n[Outro]\nEverybody sing\n(I can't stop the feeling)\nGot this feeling in my body\n(I can't stop the feeling)\nGot this feeling in my body\n(I can't stop the feeling)\nWanna see you move your body\n(I can't stop the feeling)\nGot this feeling in my body, come on\nBreak it down\nGot this feeling in my body\nCan't stop the feeling\nGot this feeling in my body, come on",
  "LyricURL": "https://genius.com/Justin-timberlake-cant-stop-the-feeling-lyrics",
  "FullTitle": "CAN’T STOP THE FEELING!"
 },
 {
  "Chart": {
   "Year": 2016,
   "ChartPosition": 35,
   "Artist": "Pitbull",
   "Title": "Greenlight feat. Flo Rida \u0026 LunchMoney Lewis"
  },
  "Lyrics": "Como?! Yeah! Yeah!\n\r\nLil Jon! Eastside Boyz! (Que Vuelta!)\n\r\nThat little cuban from Miami, Pitbull!\n\r\nI appreciate y'all giving me the oppurtunity to spit on this shit\n\r\nGO HEADDDDDDDDD!\n\n\n\r\nWhen it comes to these hoes\n\r\ny'all know we on some halloween shit\n\r\nstart trickin' n treatin'\n\r\nBut I'm on some halloween shit too\n\r\ngettin' messed up for the radication BOOM!\n\r\nFrom the palm trees to the red clay\n\r\nwe get down the same way\n\r\nLil Jon's from Scott but this little cuban's\n\r\nfrom the county of Dade\n\r\nPitbull is here to voice his opinion\n\r\nand y'all gone hear it\n\r\nAll up and down the eastside\n\r\nIm'a show y'all how dirty we ride\n\r\nFrom Dade to Decatur\n\r\nonly difference is y'all blow dro\n\r\nand we blow crip\n\r\nbut reall there's is no differecne\n\r\ncause they're both green and sticky\n\r\nI don't mean to be picky\n\r\nbut Jon, tell your boys from the Eastside\n\r\nto put me down with one of those\n\r\nredbone who has a pretty face, n waist\n\r\nand thick thighs\n\r\nFrom the M-I-A to the A-T-L\n\r\nwe been connecting on work\n\r\nbut keep that on the DL\n\n\n\r\nHAA!\n\r\nYeah, Lil Jon, Eastside Boyz\n\r\nP-I-T slash Q-B-O-N. Get it right baby\n\r\nFrom the bottom, to the ATL\n\r\nHaa! Decatur, Swat, College Park\n\r\nHaa! Wynwood, Hialeah, Saweseraaa!\n\r\nLiberty City, Carol City, Opa-Locka, this for y'all\n\r\nLil Haiti, Sao Pa Sai!\n\r\nAll my cubans\n\r\nHaa! Yeah!",
  "LyricURL": "https://www.lyricsplanet.com/lyrics.php?id=57804",
  "FullTitle": "Pitbulls Cuban Rideout"
 },
 {
  "Chart": {
   "Year": 2016,
   "ChartPosition": 36,
   "Artist": "Kanye West",
   "Title": "Fade"
  },
  "Lyrics": "[Intro: Rare Earth]\nYour love is fadin'\nYour love is fadin'\nYour love is fadin'\nI feel it's fadin'\n\n[Chorus: Ty Dolla $ign \u0026 Rare Earth]\nWhen no one ain't around (I feel it's fadin')\nI think I think too much (I feel it's fadin')\nAin't nobody watchin' (I feel it's fadin')\nI just fade away\n\n[Bridge: Ty Dolla $ign \u0026 Rare Earth]\nI feel it\nFade away\nI feel it\nI feel it\nFade away-ay-ay-ay\nI think I think too much\nI feel it\nYour love is fadin'\nI feel it\n\n[Verse 1: Kanye West + Rare Earth  \u0026 Ty Dolla $ign]\nRoll up, roll up; hold up, hold up; po' up, po' up\nI feel it\nI love to... I wanna... I'm tryna...\nI feel it\nI'ma rock the boat, work the middle 'til it hurt a little\nI feel it\nYour love is fadin'\nI feel it\nFuckin' with a real ass nigga\nI feel it\nFuck how you feel ass nigga\nI feel it\nBitch better act like you know better\nI feel it\nWoah\n\n[Chorus: Ty Dolla $ign \u0026 Rare Earth]\nWhen no one ain't around (I feel it's fadin')\nI think I think too much (I feel it's fadin')\nAin't nobody watchin' (I feel it's fadin')\nI just fade away (I feel it's fadin')\n\n[Verse 2: Post Malone  \u0026 Rare Earth]\nYou don't even know, I've been so far gone (I feel it)\nI've been so led on, I've been runnin' 'round (I feel it)\nI've been on my shit, whole world on my dick (I feel it)\nI just need to know (I can feel it)\n\n[Bridge: Ms. Barbara Tucker \u0026 Rare Earth]\nOh, deep inside\nDeep, deep, down inside\nI feel it\nYes, deep inside\nDeep, deep, down inside\nI feel it\nOh, deep inside\nDeep, deep, down inside\nI feel it\nYes, deep inside\nI get lifted, yes\nDeep, deep, down inside\nI can feel it\nOh, deep inside\nOh, I get lifted, yes\nDeep, deep, down inside\nI feel it\nYes, deep inside\nOh, I get lifted, yes\nDeep, deep, down inside\nI feel it\nOh, deep inside\nOh, I get lifted, yes\nDeep, deep, down inside\nI feel it\nYes, deep inside\nOh, I get lifted, yes\nDeep, deep, down inside\nI get\nI feel it's fadin'\nOh, I get lifted, yes\n\n[Outro: Rare Earth]\nI feel it fadin'\nI feel it fadin'\nI feel it\nI feel it's fadin'",
  "LyricURL": "https://genius.com/Kanye-west-fade-lyrics",
  "FullTitle": "Fade"
 },
 {
  "Chart": {
   "Year": 2016,
   "ChartPosition": 37,
   "Artist": "Flume",
   "Title": "Never Be Like You"
  },
  "Lyrics": "[Verse 1: Kai]\nWhat I would do to take away this fear of being loved\nAllegiance to the pain\nNow I'm fucked up and I'm missing you\nHe'll never be like you\nI would give anything to change this fickle-minded heart\nThat loves fake shiny things\nNow I'm fucked up and I'm missing you\nHe'll never be like you\n\n[Chorus: Kai]\nI'm only human, can't you see? I made, I made a mistake\nPlease just look me in my face, tell me everything's okay\n'Cause I got it, ooh, he'll never be like you\nI'm only human, can't you see? I made, I made a mistake\nPlease just look me in my face, tell me everything's okay\n'Cause I got it, ooh, he'll never be like you\n\n[Verse 2: Kai]\nHow do I make you wanna stay?\nHate sleeping on my own, missing the way you taste\nNow I'm fucked up and I'm missing you\nHe'll never be like you\nStop looking at me with those eyes\nLike I could disappear and you wouldn't care why\nNow I'm fucked up and I'm missing you\nHe'll never be like you\n\n[Chorus: Kai]\nI'm only human, can't you see? I made, I made a mistake\nPlease just look me in my face, tell me everything's okay\n'Cause I got it, ooh, he'll never be like you\nI'm only human, can't you see? I made, I made a mistake\nPlease just look me in my face, tell me everything's okay\n'Cause I got it, ooh, he'll never be like you\n\n[Bridge: Kai]\nI'm falling on my knees, forgive me, I'm a fucking fool\nI'm begging, darling, please, absolve me of my sins, won't you?\nI'm falling on my knees, forgive me, I'm a fucking fool\nI'm begging, darling, please, absolve me of my sins, won't you?\n\n[Chorus: Kai]\nI'm only human, can't you see? I made, I made a mistake\nPlease just look me in my face, tell me everything's okay\n'Cause I got it, ooh, he'll never be like you\nI'm only human, can't you see? I made, I made a mistake\nPlease just look me in my face, tell me everything's okay\n'Cause I got it, ooh, he'll never be like you\n\n[Outro: Kai]\nBaby, baby, please believe me\nC'mon, take it easy\nPlease don't ever leave me, ooh\nHe'll never be like you",
  "LyricURL": "https://genius.com/Flume-never-be-like-you-lyrics",
  "FullTitle": "Never Be Like You"
 },
 {
  "Chart": {
   "Year": 2016,
   "ChartPosition": 38,
   "Artist": "Fifth Harmony",
   "Title": "That's My Girl"
  },
  "Lyrics": "[Intro: Camila]\nThat's my girl\n\n[Verse 1: Ally + Camila]\nYeah, who's been working so damn hard?\nYou got that head on overload?\nGot yourself this flawless body\nAching now from head to toe\n\n[Refrain: Normani \u0026 Ally \u0026 (Dinah)]\nAin't nothing, ain't nothing\nAll my ladies 'round the world\nAin't nothing, ain't nothing\n(Good girls better get bad)\n\n[Pre-Chorus: Lauren + Camila]\nYou've been down before\nYou've been hurt before\nYou got up before\nYou'll be good to go, good to go\n\n[Chorus: Normani \u0026 Lauren]\nDestiny said it, you got to get up and get it\nGet mad independent and don't you ever forget it\nGot some dirt on your shoulder, then let me brush it off for ya\nIf you're feeling me, put your five high\nThat's my girl\n\n[Post-Chorus: All \u0026 Camila \u0026 Lauren]\nThat's my girl\nThat's my girl\nThat's my girl\nGet up, what you waiting for?\nThat's my girl\nThat's my girl\nThat's my girl\nOh\n\n[Verse 2: Dinah + Camila]\nNod if you been played by every boo\nJust tryna show you off\nThought he was the best you ever had\nUntil he cut you off\n\n[Refrain: Normani \u0026 Ally \u0026 (Dinah)]\nAin't nothing, ain't nothing\nBet you bet you know your worth\nAin't nothing, ain't nothing\n(Good girls better get bad)\n\n[Pre-Chorus: Lauren \u0026 Camila]\nYou've been down before\nYou've been hurt before\nYou got up before\nYou'll be good to go, good to go\n\n[Chorus: Normani \u0026 Lauren \u0026 Camila, (Camila)]\nDestiny said it, you got to get up and get it (get up and get it)\nGet mad independent and don't you ever forget it (don't you ever forget it)\nGot some dirt on your shoulder, then let me brush it off for ya\nIf you're feeling me, put your five high\nThat's my girl\n\n[Post-Chorus: All \u0026 Camila \u0026 Lauren]\nThat's my girl\nThat's my girl\nThat's my girl\nWhat you wait, what you wait\nWhat you waiting for?\nThat's my girl (Oh) (Oh!)\nThat's my girl (Oh) (That's my girl)\nThat's my girl\n\n[Pre-Chorus: Lauren \u0026 (Camila)]\nYou've been down before\nYou've been hurt before\nYou got up before\nYou'll be good to go, good to go\n(Don't ever give up, no, no woah)\n\n[Chorus: Lauren + Dinah \u0026 Dinah + Ally]\nDestiny said it, you got to get up and get it\nGet mad independent and don't you ever forget it\nGot some dirt on your shoulder, then let me brush it off for ya\nIf you're feeling me, put your five high\n\n[Dinah]\nThat's my girl\n\n[Post-Chorus: All \u0026 Lauren \u0026 (Dinah)]\nThat's my girl\nThat's my girl\nThat's my girl\nWhat you wait, what you wait\nWhat you waiting for?\nThat's my girl (Oh)\nThat's my girl (Oh)\nThat's my girl (Oh)\n(That's my girl, that's my girl, that's my girl...)\n\n[Bridge: Normani \u0026 (Lauren)]\nAin't nothing, ain't nothing, ain't nothing\nPut your heart and your soul in it\nAin't nothing, ain't nothing, ain't nothing (Ain't nothing)\nNow put your heart and your soul in it\n\n[Post-Bridge: Lauren \u0026 (Camila)]\nThat's my girl\nThat's my girl\n(That's my girl)\n\n[Outro: Camila \u0026 Dinah \u0026 Normani]\nThat's my girl\nThat's my girl\nThat's my girl\nThat's my girl",
  "LyricURL": "https://genius.com/Fifth-harmony-thats-my-girl-lyrics",
  "FullTitle": "That’s My Girl"
 },
 {
  "Chart": {
   "Year": 2016,
   "ChartPosition": 39,
   "Artist": "D.R.A.M.",
   "Title": "Broccoli"
  },
  "Lyrics": "[Intro: D.R.A.M.]\nAin't no tellin' what I'm finna be on, ayy, ayy\nI'm beyond all that fuck shit, hey\n\n[Verse 1: Lil Yachty]\nHey, lil' mama, would you like to be my sunshine?\nNigga, touch my gang, we gon' turn this shit to Columbine\nIce on my neck, cost me ten times three\nThirty thousand dollars for a nigga to get flee\nI just hit Rodéo and I spent like ten Gs\nI just did a show and spent the check on my mama\nWhen I go on vacay I might rent out the Bahamas\nAnd I keep like ten phones, damn, I'm really never home\nAll these niggas clones, tryna copy what I'm on (what I'm on)\nNigga, get your own, tryna pick a nigga bone\nWord to brother, Skip, boy, I had a good day\nMetro PCS, trappin', boy, I'm makin' plays\nFifty Shades of Grey, beat that pussy like Hulk Hogan\nI know you know my slogan, if it ain't 'bout guap, I'm gone\nNiggas hatin' 'cause I'm chosen from the concrete, I had rose\nShawty starin' at my necklace 'cause my diamonds really froze\nPut that dick up in her pussy, bet she feel it in her toes\nI'm a real young nigga from the six throwin' 'bows\nI'm a real young nigga from the six throwin' 'bows\nReal young nigga from the six throwin' 'bows\n\n[Chorus: D.R.A.M.]\nIn the middle of the party, bitch, get off me (goddamn)\nIn the cut, I'm rollin' up my broccoli (goddamn)\nYeh, I know your baby mama fond of me (goddamn)\nAll she want to do is smoke that broccoli (goddamn)\nWhispered in my ear, she tryna leave with me (goddamn)\nTell her I can get that pussy easily (goddamn)\nTell her I can hit that shit so greasily (goddamn)\nI'm a dirty dog, I did it sleazily (damn)\n\n[Bridge: D.R.A.M.]\nAin't no tellin' what I'm finna be on, ayy, ayy\nI'm beyond all that fuck shit, ayy\nAin't no tellin' what I'm finna, hey I'm beyond, ayy, ayy\nSaid I'm beyond all that fuck shit, ayy\n\n[Verse 2: D.R.A.M.]\nI got companies and Pesos\nI got people on my payroll\nShe don't do it 'less I say so\nI don't smoke if it ain't fuego\nI should sauce 'em up like Prego\nFettucini with Alfredo\nAll I wanted was the fame and every game they made on Sega\nI was five or six years old when I had told myself, \"Okay you're special\"\nBut I treat you like my equal never lesser\nI was twenty-six years old when we had dropped this one amazing record\nHad the world steppin'\nThat's what I call epic\nCouple summers later I got paper\nI acquired taste for salmon on a bagel\nWith the capers on a square plate\nAt the restaurant with the \"why you got to stare\" face\nTo know I either ball or I record over the snare and bass\nRapper face, dread headed\nGolden diamond teeth wearin'\nThey just mad 'cause I got that cheese, bitch, I keep dairy\nTurnt up in the party, gettin' lit to Yachty\nWith a Spanish Barbie, word to my mami\n\n[Chorus: D.R.A.M.]\nIn the middle of the party, bitch, get off me (off me)\nIn the cut, I'm rollin' up my broccoli\n(my weed, my weed)\nYeah, I know your baby mama fond of me (she fond of me)\nAll she want to do is smoke that broccoli\n(the weed, the weed)\nWhispered in my ear she trying to leave with me\n(she runnin' for)\nSaid that I can get that pussy easily\n(she fallin' for)\nSaid I can hit that shit so greasily (oh yeah, oh yeah)\nI'm a dirty dog, I did it sleazily (yeah)",
  "LyricURL": "https://genius.com/Dram-broccoli-lyrics",
  "FullTitle": "Broccoli"
 },
 {
  "Chart": {
   "Year": 2016,
   "ChartPosition": 40,
   "Artist": "Mike Posner",
   "Title": "I Took A Pill In Ibiza"
  },
  "Lyrics": "[Verse 1]\nI took a pill in Ibiza\nTo show Avicii I was cool\nAnd when I finally got sober, felt 10 years older\nBut fuck it, it was something to do\nI'm living out in LA\nI drive a sports car just to prove\nI'm a real big baller cause I made a million dollars\nAnd I spend it on girls and shoes\n\n[Chorus]\nBut you don't wanna be high like me\nNever really knowing why like me\nYou don't ever wanna step off that roller coaster\nAnd be all alone\nYou don't wanna ride the bus like this\nNever knowing who to trust like this\nYou don't wanna be stuck up on that stage singing\nStuck up on that stage singing\nAll I know are sad songs, sad songs\nDarling, all I know are sad songs, sad songs\n\n[Verse 2]\nI'm just a singer who already blew his shot\nI get along with old timers\nCause my name's a reminder of a pop song people forgot\nAnd I can't keep a girl, no\n'Cause as soon as the sun comes up\nI cut 'em all loose and work's my excuse\nBut the truth is I can't open up\n\n[Chorus]\nNow you don't wanna be high like me\nNever really knowing why like me\nYou don't ever wanna step off that roller coaster\nAnd be all alone\nYou don't wanna ride the bus like this\nNever knowing who to trust like this\nYou don't wanna be stuck up on that stage singing\nStuck up on that stage singing\nAll I know are sad songs, sad songs\nDarling, all I know are sad songs, sad songs\n\n[Verse 3]\nI took a plane to my home town\nI brought my pride and my guitar\nAll my friends are all gone but there's manicured lawns\nAnd the people still think I'm a star\nI walked around downtown\nI met some fans on Lafayette\nThey said tell us how to make it cause we're getting real impatient\nSo I looked 'em in the eye and said\n\n[Chorus]\nYou don't wanna be high like me\nNever really knowing why like me\nYou don't ever wanna step off that roller coaster\nAnd be all alone\nYou don't wanna ride the bus like this\nNever knowing who to trust like this\nYou don't wanna be stuck up on that stage singing\nStuck up on that stage singing\nAll I know are sad songs, sad songs\nDarling, all I know are sad songs, sad songs",
  "LyricURL": "https://genius.com/Mike-posner-i-took-a-pill-in-ibiza-lyrics",
  "FullTitle": "I Took a Pill in Ibiza"
 }
]