[
 {
  "Chart": {
   "Year": 1981,
   "ChartPosition": 1,
   "Artist": "Kim Carnes",
   "Title": "Bette Davis Eyes"
  },
  "Lyrics": "[Verse 1]\nHer hair is Harlow gold\nHer lips sweet surprise\nHer hands are never cold\nShe's got Bette Davis eyes\n\nShe'll turn her music on you\nYou won't have to think twice\nShe's pure as New York snow\nShe got Bette Davis eyes\n\n[Chorus #1]\nAnd she'll tease you\nShe'll unease you\nAll the better just to please you\nShe's precocious and she knows just\nWhat it takes to make a pro blush\nShe got Greta Garbo stand off sighs\nShe's got Bette Davis eyes\n\n[Verse 2]\nShe'll let you take her home\nIt whets her appetite\nShe'll lay you on her throne\nShe got Bette Davis eyes\n\nShe'll take a tumble on you\nRoll you like you were dice\nUntil you come up blue\nShe's got Bette Davis eyes\n\n[Chorus #2]\nShe'll expose you\nWhen she snows you\nOff your feet with the crumbs she throws you\nShe's ferocious and she knows just\nWhat it takes to make a pro blush\nAll the boys think she's a spy\nShe's got Bette Davis eyes\n\nAnd she'll tease you\nShe'll unease you\nAll the better just to please you\nShe's precocious and she knows just\nWhat it takes to make a pro blush\nAll the boys think she's a spy\nShe's got Bette Davis eyes\n\nShe'll tease you\nShe'll unease you\nJust to please ya\nShe's got Bette Davis eyes\n\nShe'll expose you\nWhen she snows you\nShe knows ya\nShe's got Bette Davis eyes",
  "LyricURL": "https://genius.com/Kim-carnes-bette-davis-eyes-lyrics",
  "FullTitle": "Bette Davis Eyes"
 },
 {
  "Chart": {
   "Year": 1981,
   "ChartPosition": 2,
   "Artist": "Diana Ross \u0026 Lionel Richie",
   "Title": "Endless Love"
  },
  "Lyrics": "My love\n\r\nThere's only you in my life\n\r\nThe only thing that's right\n\r\nMy first love\n\r\nYou're every breath that I take\n\r\nYou're every step I make\n\n\n\r\nAnd I\n\r\nI want to share\n\r\nAll my love with you\n\r\nNo-one else will do\n\r\nAnd your eyes\n\r\nThey tell me how much you care\n\r\nOh, yes\n\r\nYou will always be\n\r\nMy endless love\n\n\n\r\nTwo hearts\n\r\nTwo hearts that beat as one\n\r\nOur lives have just begun\n\r\nAnd forever\n\r\nI'll hold you close in my arms\n\r\nI can't resist your charms\n\n\n\r\nAnd I\n\r\nI'd play the fool\n\r\nFor you, I'm sure\n\r\nYou know I don't mind\n\r\n(No you know I don't mind)\n\r\nAnd, yes\n\r\nYou mean the world to me\n\r\nI know I've found in you\n\r\nMy endless love\n\n\n\r\nBridge\n\n\n\r\nAnd love\n\r\nI'd play the fool\n\r\nFor you, I'm sure\n\r\nYou know I don't mind\n\r\n(you know I don't mind)\n\r\nOh, yes\n\r\nYou'd be the only one\n\r\n'Cause no, I can't deny\n\r\nThis love I have inside\n\r\nAnd I'll give it all to you\n\r\nMy love (my love, my love)\n\r\nMy endless love",
  "LyricURL": "https://www.lyricsplanet.com/lyrics.php?id=4340",
  "FullTitle": "Endless Love"
 },
 {
  "Chart": {
   "Year": 1981,
   "ChartPosition": 3,
   "Artist": "Kenny Rogers",
   "Title": "Lady"
  },
  "Lyrics": "Lady, I'm your knight in shining armor\nAnd I love you\nYou have made me what I am and I am yours\nMy love, there's so many ways\nI want to say I love you\nLet me hold you in my arms forever more\n\nYou have gone and made me such a fool\nI'm so lost in your love\nAnd oh, we belong together\nWon't you believe in my song\n\nLady, for so many years\nI thought I'd never find you\nYou have come into my life\nAnd made me whole\nForever let me wake to see you each and every morning\nLet me hear you whisper softly in my ear\n\nIn my eyes I see no one else but you\nThere's no other love like our love\nAnd yes, oh yes\nI'll always want you near me\nI've waited for you for so long\n\nLady, your love's the only love I need\nAnd beside me is where I want you to be\n'Cause my love\nThere's something I want you to know\nYou're the love of my life\nYou're my lady",
  "LyricURL": "https://genius.com/Kenny-rogers-lady-lyrics",
  "FullTitle": "Lady"
 },
 {
  "Chart": {
   "Year": 1981,
   "ChartPosition": 4,
   "Artist": "John Lennon",
   "Title": "(Just Like) Starting Over"
  },
  "Lyrics": "[Produced by John Lennon, Yoko Ono, and Jack Douglas; engineered by Lee DeCarlo and Jon Smith]\n\n[Verse 1]\nOur life together is so precious together\nWe have grown - we have grown\nAlthough our love is still special\nLet's take our chance and fly away somewhere alone\n\n[Pre-Chorus]\nIt's been so long since we took the time\nNo-one is to blame\nI know time flies so quickly\nBut when I see you darling\nIt's like we both are falling in love again\nIt'll be just like starting over - starting over\n\n[Chorus]\nEveryday we used to make it love\nWhy can't we be making love nice and easy\nIt's time to spread our wings and fly\nDon't let another day go by my love\nIt'll be just like starting over - starting over\n\n[Verse 2]\nWhy don't we take off alone\nTake a trip somewhere far, far away\nWe'll be together, all alone again\nLike we used to in the early days\nWell, well, well darling\n\n[Pre-Chorus]\nIt's been so long since we took the time\nNo-one is to blame\nI know time flies so quickly\nBut when I see you darling\nIt's like we both are falling in love again\nIt'll be just like starting over - starting over\n\n[Chorus]\nEveryday we used to make it love\nWhy can't we be making love nice and easy\nIt's time to spread our wings and fly\nDon't let another day go by my love\nIt'll be just like starting over - starting over\n\n[Verse 3]\nOur life together is so precious together\nWe have grown - we have grown\nAlthough our love is still special\nLet's take our chance and fly away somewhere...\nStarting over",
  "LyricURL": "https://genius.com/John-lennon-just-like-starting-over-lyrics",
  "FullTitle": "(Just Like) Starting Over"
 },
 {
  "Chart": {
   "Year": 1981,
   "ChartPosition": 5,
   "Artist": "Rick Springfield",
   "Title": "Jessie's Girl"
  },
  "Lyrics": "[Verse 1]\nJessie is a friend\nYeah, I know, he's been a good friend of mine\nBut lately something's changed that ain't hard to define\nJessie's got himself a girl, and I wanna make her mine\n\n[Pre-Chorus]\nAnd she's watching him with those eyes\nAnd she's lovin' him with that body\nI just know it\nAnd he's holding her in his arms late, late at night\n\n[Chorus]\nYou know I wish that I had Jessie's girl\nI wish that I had Jessie's girl\nWhere can I find a woman like that?\n\n[Verse 2]\nI'll play along with this charade\nThat doesn't seem to be a reason to change\nYou know I feel so dirty when they start talking cute\nI wanna tell her that I love her, but the point is probably moot\n\n[Pre-Chorus]\nCause she's watching him with those eyes\nAnd she's lovin' him with that body\nI just know it\nAnd he's holding her in his arms late, late at night\n\n[Chorus]\nYou know I wish that I had Jessie's girl\nI wish that I had Jessie's girl\nWhere can I find a woman like that?\nLike Jessie's girl\nI wish that I had Jessie's girl\nWhere can I find a woman...\nWhere can I find a woman like that?\n\n[Bridge]\nAnd I'm lookin' in the mirror all the time\nWonderin' what she don't see in me\nI've been funny; I've been cool with the lines\nAin't that the way love's supposed to be?\n\n[Chorus]\nTell me where can I find a woman like that?\nYou know I wish that I had Jessie's girl\nI wish that I had Jessie's girl\nI want Jessie's girl\nWhere can I find a woman like that?\nLike Jessie's girl\nI wish that I had Jessie's girl\nI want, I want Jessie's girl",
  "LyricURL": "https://genius.com/Rick-springfield-jessies-girl-lyrics",
  "FullTitle": "Jessie’s Girl"
 },
 {
  "Chart": {
   "Year": 1981,
   "ChartPosition": 6,
   "Artist": "Kool \u0026 The Gang",
   "Title": "Celebration"
  },
  "Lyrics": "What you think you like me? You ain't like me *motherfucker* \n\r\nYou a punk \n\r\nI been with MANY people.. CONNECTED people \n\r\nWho you been wit? Chain snatchin? mardi gol *motherfuckers* \n\r\nWhy don't you go get lost \n\r\nGet out of here go kick a freestyle or somethin \n\n\n\r\n[Jay Z] \n\r\nYou're now tuned into the greatest \n\r\n*Motherfuckers* can't beat us, join us, can't fade us, hate us \n\r\nCan't touch it, *fuck it*, can't see em, try to be em \n\r\nBoth shows sold out your coliseum, 8th Wonder \n\r\nLocked rap for trey summers, poker faces with the aces under \n\r\nFace one up, to take over, the break's over \n\r\n*Nigga* I'm the God MC, me, Jay-hovah \n\r\n*Shit* knockin, almost a crime, get Cochran \n\r\nBangin to the hearse where my doctors hand \n\r\nhot land, FBI, DEA, I did crime, got away \n\r\nThey wanna see me pay, *motherfuckers* better ride \n\r\nif they try to plant, under the seat of my car \n\r\neven a half a gram, better flame those, plainclothes \n\r\nSame goes for lame hoes, cocaine rapper \n\r\nRep ya game pros \n\n\n\r\n[Wais] \n\r\nWe celebrate this, while you sittin back screamin you hate this \n\r\nTry to rape this, get caught in my crime matrix \n\r\nSpittin sperm inside of latex \n\r\nYou get, no respect like a child rapist \n\r\nDelegate this, men just givin facelifts \n\r\nLeave your melon spacious, career felon, no hiatus \n\r\nnor Ceasar's, the CIA flooded my block with diseases \n\r\nInformants, heating the spot up like global warming \n\r\nWho start *shit*? My style is laced with arsenic \n\r\nOdorless tasteless, cause of death is traceless \n\r\nI know you wanna see me wasted \n\r\nYou call the order, I'll be in Hell \n\r\nTeam Roc sweater and ice water \n\r\nRighteous, dominate the global, my life's a novel \n\r\nblazin in Barnes and Noble, idolize the vocals \n\r\nY'all niggaz is local but that's evident \n\r\nI'm Resident Evil, movin like ? \n\n\n\r\n[Memphis Bleek] \n\r\nMillionaire that flow like water, rap *niggaz* runnin \n\r\nI, oughta applaud ya, clap at ya \n\r\nPoint the Mac at ya, *niggaz* caught up \n\r\nBrought up in the rapture, my flows torture \n\r\nlike a compound fracture, can't *fuck* widdit \n\r\nFor the love of sex money and drugs \n\r\nAffiliated with the sets Tecs honies and thugs \n\r\nLet the four power, rain on *niggaz* like a spring shower \n\r\nand bring flowers for the bodies that surround us \n\r\nIf you was lookin you found us \n\r\nMovin with speed, tried to play Superman \n\r\nended up like Chris Reeves \n\r\nParapalegic, precise minds like the Pharoah's of Egypt \n\r\nShot through a barrel *niggaz* narrowly reaped it \n\r\nKeepin my Team top seeded with the Sweet 16's \n\r\nbulgin out of my jeans, on the ten-speed weeded \n\r\nHoldin, ? shots with you like a secret \n\r\nIt's like a story never told, but believe it... \n\n\n\r\n[Sauce Money] \n\r\nStreet anthem anchor, quick to trade shots just like a banker \n\r\nLick a round, *niggaz* hit the ground like Sanka \n\r\nI got ya screwface in forty-two ways, Aim better \n\r\nthan toothpaste, Jerry Maguire \n\r\nShow Me The Money like Clue tapes \n\r\nRun up in your spot with a few eights, zonin \n\r\nKnown men, home in, all of my homies condone sin \n\r\nFour shots spin ya like chrome rims \n\r\nPut a part right through your dome like the Omen, foamin \n\r\nWhite sheets got ya wrapped like a Roman \n\r\nBack in New York, honey wants it, just spit blood and talk funny \n\r\n*Niggaz* is cartoons, picture styles that's fully developed \n\r\nlike dark rooms, hits fat, cub with a harpoon \n\r\nHeat-seekin, grill huntin, still frontin? \n\r\nKeep squeezin, *fuck it*, I leave the whole street wheezing \n\r\nNo *motherfuckers* hope I fail, and gotta provoke the frail \n\r\nGot em scared to drop like soap in jail \n\n\n\r\n[Jay-Z] \n\r\nGeyeah, there you have it \n\r\nJust think of ours as can't be touched, tested, whatever \n\r\nNever disrespect this thing of ours \n\r\nRoc-a-Fella family",
  "LyricURL": "https://www.lyricsplanet.com/lyrics.php?id=4713",
  "FullTitle": "Celebration"
 },
 {
  "Chart": {
   "Year": 1981,
   "ChartPosition": 7,
   "Artist": "Hall \u0026 Oates",
   "Title": "Kiss On My List"
  },
  "Lyrics": "My friends wonder why I call you all of the time\n\r\nWhat can I say\n\r\nI don't feel the need to give such secrets away\n\r\nYou think maybe I need help, no, I know that I'm right\n\r\nI'm just better off not listening to friends' advice\n\n\n\n\n\r\nWhen they insist on knowing my bliss\n\r\nI tell them this\n\r\nWhen they want to know what the reason is\n\r\nI only smile when I lie, then I tell them why\n\r\n(Because your kiss) your kiss is on my list\n\r\n(Because your kiss) your kiss is on my list\n\r\nBecause your kiss is on my list of the best things in life\n\r\n(Because your kiss) your kiss is on my list\n\r\n(Because your kiss) your kiss I can't resist\n\n\n\r\nI go crazy wondering what there is to really see\n\r\nDid the night just take up your time, 'cause it means more to me\n\r\nSometimes I forget what I'm doing, I don't forget what I want\n\r\nRegret what I've done, regret you?  I couldn't go on\n\r\nAnd if you insist on knowing my bliss\n\n\n\r\nI'll tell you this\n\r\nIf you want to know what the reason is\n\r\nI'll only smile when I lie, then I'll tell you this",
  "LyricURL": "https://www.lyricsplanet.com/lyrics.php?id=52636",
  "FullTitle": "Kiss On My List"
 },
 {
  "Chart": {
   "Year": 1981,
   "ChartPosition": 8,
   "Artist": "Eddie Rabbitt",
   "Title": "I Love A Rainy Night"
  },
  "Lyrics": "Well, I love a rainy night\nI love a rainy night\nI love to hear the thunder\nWatch the lightning\nWhen it lights up the sky\nYou know it makes me feel good\n\nWell, I love a rainy night\nIt's such a beautiful sight\nI love to feel the rain\nOn my face\nTaste the rain on my lips\nIn the moonlight shadow\n\nShowers washed\nAll my cares away\nI wake up to a sunny day\n'Cause I love a rainy night\nYeah, I love a rainy night\nWell, I love a rainy night\nWell, I love a rainy night\n\nOoh-ooh\n\nI love a rainy night\nI love a rainy night\nI love to hear the thunder\nWatch the lightning\nWhen it lights up the sky\nYou know it makes me feel good\n\nWell, I love a rainy night\nIt's such a beautiful sight\nI love to feel the rain\nOn my face\nTo taste the rain on my lips\nIn the moonlight shadows\n\nPuts a song\nIn this heart of mine\nPuts a smile on my face every time\n\n'Cause I love a rainy night\nYeah, I love a rainy night\nOoh, I love a rainy night\nYeah, I love a rainy night\n\nOoh-ooh\n\n[Instrumental Interlude]\n\nShowers washed\nAll my cares away\nI wake up to a sunny day\n'Cause I love a rainy night\nYeah, I love a rainy night\nWell, I love a rainy night\nI love a rainy night\nWell, I love a rainy night\nYou can see it in my eyes\nYeah, I love a rainy night\nWell, it makes me high\nOoh, I love a rainy night\nYou know I do, yeah, yeah\nI love a rainy night\n\nI love a rainy night\nYou can see it in my eyes..",
  "LyricURL": "https://genius.com/Eddie-rabbitt-i-love-a-rainy-night-lyrics",
  "FullTitle": "I Love a Rainy Night"
 },
 {
  "Chart": {
   "Year": 1981,
   "ChartPosition": 9,
   "Artist": "Dolly Parton",
   "Title": "9 To 5"
  },
  "Lyrics": "[Verse 1]\nTumble outta bed\nAnd stumble to the kitchen\nPour myself a cup of ambition\nYawnin' and stretchin' and try to come to life\nJump in the shower\nAnd the blood starts pumpin'\nOut on the streets\nThe traffic starts jumpin'\nWith folks like me on the job from 9 to 5\n\n[Chorus]\nWorking 9 to 5\nWhat a way to make a living\nBarely gettin' by\nIt's all taking\nAnd no giving\nThey just use your mind\nAnd they never give you credit\nIt's enough to drive you\nCrazy if you let it\n\n[Verse 2]\n9 to 5, for service and devotion\nYou would think that I\nWould deserve a fair promotion\nWant to move ahead\nBut the boss won't seem to let me\nI swear sometimes that man is out to get me\nMmmmm...\nThey let you dream\nJust to watch them shatter\nYou're just a step\nOn the boss man's ladder\nBut you got dreams he'll never take away\nIn the same boat\nWith a lot of your friends\nWaiting for the day\nYour ship will come in\nAnd the tide's gonna turn\nAn' it's all gonna roll you away\n\n[Chorus]\nWorking 9 to 5\nWhat a way to make a living\nBarely gettin' by\nIt's all taking\nAnd no giving\nThey just use your mind\nAnd you never get the credit\nIt's enough to drive you\nCrazy if you let it\n9 to 5, yeah, they got you where they want you\nThere's a better life\nAnd you think about it don't you\nIt's a rich man's game\nNo matter what they call it\nAnd you spend your life\nPutting money in his wallet\n\n[Chorus]\nWorking 9 to 5\nWhat a way to make a living\nBarely gettin' by\nIt's all taking\nAnd no giving\nThey just use your mind\nAnd they never give you credit\nIt's enough to drive you\nCrazy if you let it\n9 to 5, yeah, they got you where they want you\nThere's a better life\nAnd you think about it don't you\nIt's a rich man's game\nNo matter what they call it\nAnd you spend your life\nPutting money in his wallet",
  "LyricURL": "https://genius.com/Dolly-parton-9-to-5-lyrics",
  "FullTitle": "9 to 5"
 },
 {
  "Chart": {
   "Year": 1981,
   "ChartPosition": 10,
   "Artist": "Reo Speedwagon",
   "Title": "Keep On Loving You"
  },
  "Lyrics": "[Verse 1]\nYou should've seen by the look in my eyes, baby\nThere was something missing\nYou should've known by the tone of my voice, maybe\nBut you didn't listen\nYou played dead\nBut you never bled\nInstead you lay still in the grass\nAll coiled up and hissing\nAnd though I know all about those men\nStill I don't remember\nCause it was us baby, way before then\nAnd we're still together\nAnd I meant, every word I said\nWhen I said that I love you I meant\nThat I love you forever\n\n[Chorus]\nAnd I'm gonna keep on loving you\nCause it's the only thing I wanna do\nI don't wanna sleep\nI just wanna keep on loving you\n\n[Verse 2]\nAnd I meant every word I said\nWhen I said that I love you I meant\nThat I love you forever\n\n[Chorus]\nAnd I'm gonna keep on loving you\nCause it's the only thing I wanna do\nI don't wanna sleep\nI just wanna keep on loving you",
  "LyricURL": "https://genius.com/Reo-speedwagon-keep-on-loving-you-lyrics",
  "FullTitle": "Keep on Loving You"
 },
 {
  "Chart": {
   "Year": 1981,
   "ChartPosition": 11,
   "Artist": "Joey Scarbury",
   "Title": "Believe It Or Not"
  },
  "Lyrics": "Look at what's happened to me\nI can't believe it myself\nSuddenly I'm up on top of the world\nIt should have been somebody else\n\nBelieve it or not, I'm walkin' on air\nI never thought I could feel so free\nFlyin' away on a wing and a prayer\nWho could it be?\nBelieve it or not it's just me\n\nJust like the light of a new day\nIt hit me from out of the blue\nBreaking me out of the spell I was in\nMaking all of my wishes come true\n\nBelieve it or not, I'm walkin' on air\nI never thought I could feel so free\nFlyin' away on a wing and a prayer\nWho could it be?\nBelieve it or not it's just me\n\nThis is too good to be true\nLook at me falling for you\nBelieve it or not, I'm walkin' on air\nI never thought I could feel so free\nFlyin' away on a wing and a prayer\nWho could it be?\nBelieve it or not it's just me\n\nBelieve it or not, I'm walkin' on air\nI never thought I could feel so free\nFlyin' away on a wing and a prayer\nWho could it be?\nBelieve it or not it's just me\n\nBelieve it or not, I'm walkin' on air\nI never thought I could feel so free\nFlyin' away on a wing and a prayer\nWho could it be?\nBelieve it or not it's just me",
  "LyricURL": "https://www.musixmatch.com/lyrics/Joey-Scarbury/Greatest-American-Hero-Believe-It-Or-Not",
  "FullTitle": "Believe It Or Not"
 },
 {
  "Chart": {
   "Year": 1981,
   "ChartPosition": 12,
   "Artist": "Sheena Easton",
   "Title": "Morning Train (Nine To Five)"
  },
  "Lyrics": "I wake up every mornin', I stumble out of bed\nStretchin' and yawnin', another day ahead\nIt seems to last forever and time goes slowly by\nTill babe and me's together, then it starts to fly\n\n'Cause the moment that he's with me, time can take a flight\nThe moment that he's with me, everything's alright\nNight time is the right time, we make love\nThen it's his and my time, we take off\n\nMy baby takes the morning train\nHe works from nine to five and then\nHe takes another home again\nTo find me waitin' for him\n\nMy baby takes the morning train\nHe works from nine to five and then\nHe takes another home again\nTo find me waitin' for him\n\nHe takes me to a movie or to a restaurant\nTo go slow dancing, anything I want\nOnly when he's with me, I catch light\nOnly when he gives me, makes me feel alright\n\nMy baby takes the morning train\nHe works from nine to five and then\nHe takes another home again\nTo find me waitin' for him\n\nAll day I think of him, dreamin' of him constantly\nI'm crazy mad for him and he's crazy mad for me (crazy mad for me)\nWhen he steps off that train, amazingly full of fight\nWork all day to earn his pay, so we can play all night\n\nMy baby takes the morning train\nHe works from nine to five and then\nHe takes another home again\nTo find me waitin' for him\n\n(My baby takes the morning train)\nHe's always on that morning train\n(He works from nine to five and then)\nHe works so hard\n(He takes another home again)\nTo find me waiting for him\n\n(My baby takes the morning train)\n(He works from nine to five and then)\n(He takes another home again)\n(To find me waitin' for him)",
  "LyricURL": "https://genius.com/Sheena-easton-morning-train-nine-to-five-lyrics",
  "FullTitle": "Morning Train (Nine To Five)"
 },
 {
  "Chart": {
   "Year": 1981,
   "ChartPosition": 13,
   "Artist": "Smokey Robinson",
   "Title": "Being With You"
  },
  "Lyrics": "I don't care what they think about me and\nI don't care what they say\nI don't care what they think, if you're leaving\nI'm gonna beg you to stay\n\nI don't care if they start to avoid me\nI don't care what they do\nI don't care about anything else\nBut being with you, being with you\n\nHoney don't go, don't leave this scene\nBe out of the picture and off of the screen\nDon't let them say \"we told you so\"\nThey tell me you'll love me and then let me go\n\nI've heard the warning voice\nFrom friends and my relations\nThey tell me all about your heart-break reputation\n\nI don't care what they think about me and\nI don't care what they say.. no\nI don't care what they think, if you're leaving\nI'm gonna beg you to stay\n\nI don't care if they start to avoid me\nI don't care what they do\nI don't care about anything else\nBut being with you, being with you\n\nPeople can change, they always do\nHaven't they noticed the changes in you?\nOr can it be, that like love I am blind?\nDo I want it so much 'til it's all in my mind?\n\nOne thing I know for sure\nIs really really real\nI never felt before the way you make me feel\n\nI don't care what they think about me and\nI don't care what they say\nI don't care what they think, if you're leaving\nI'm gonna beg you to stay\n\nI don't care if they start to avoid me\nI don't care what they do\nI don't care about anything else\nBut being with you, being with you\nBeing with you\nBeing with you\n\nI don't care about anything else\nBut being with you, being with you\nI wanna Be with you\n\nI don't care if they start to avoid me",
  "LyricURL": "https://genius.com/Smokey-robinson-being-with-you-lyrics",
  "FullTitle": "Being with You"
 },
 {
  "Chart": {
   "Year": 1981,
   "ChartPosition": 14,
   "Artist": "Juice Newton",
   "Title": "Queen Of Hearts"
  },
  "Lyrics": "Midnight, and I'm a-waiting on the twelve-oh-five\nHoping it'll take me just a little farther down the line\n\nMoonlight, you're just a heartache in disguise\nSo won't you keep my heart from breaking\nIf it's only for a very short time\n\nPlaying with the queen of hearts\nKnowing it ain't really smart\nThe joker ain't the only fool\nWho'll do anything for you\n\nLaying out another lie\nThinking 'bout a life of crime\n'Cause that's what I'll have to do\nTo keep me away from you\n\nHoney, you know it makes you mad\nWhy is everybody telling everybody what you have done\nBaby, I know it makes you sad\nBut when they're handing out the heartaches\nYou know you got to have you some\n\nPlaying with the queen of hearts\nKnowing it ain't really smart\nThe joker ain't the only fool\nWho'll do anything for you\n\nLaying out another lie\nThinking 'bout a life of crime\n'Cause that's what I'll have to do\nTo keep me away from you\n\nLovers, I know you've had a few\nSo hide your heart beneath the covers\nAnd tell 'em they're the only one\nAnd others, they know just what I'm going through\nAnd it's a-hard to be a lover\nWhen you say you're only in it for fun\n\nPlaying with the queen of hearts\nKnowing it ain't really smart\nThe joker ain't the only fool\nWho'll do anything for you\n\nPlaying with the queen of hearts\nKnowing it ain't really smart\nThe joker ain't the only fool\nWho'll do anything for you\n\nLaying out another lie\nThinking 'bout a life of crime\n'Cause that's what I'll have to do\nTo keep me away from you\n\nPlaying with the queen of hearts\nPlaying with the queen of hearts\nPlaying with the queen of hearts\nPlaying with the queen of hearts\nPlaying with the queen of hearts",
  "LyricURL": "https://genius.com/Juice-newton-queen-of-hearts-lyrics",
  "FullTitle": "Queen Of Hearts"
 },
 {
  "Chart": {
   "Year": 1981,
   "ChartPosition": 15,
   "Artist": "Blondie",
   "Title": "Rapture"
  },
  "Lyrics": "[Verse 1]\nToe to toe dancing very close\nBody breathing almost comatose\nWall to wall people hypnotized\nAnd they're stepping lightly\nHang each night in rapture\n\nBack to back sacroiliac\nSpineless movement and a wild attack\nFace to face sightless solitude\nAnd it's finger popping\n24 hour shopping in rapture\n\n[Verse 2]\nFab Five Freddy told me everybody's fly\nDJ spinning I said \"My My\"\nFlash is fast, Flash is cool\nFlash ain't no dude\nAnd you don't stop, sure shot\nGo out to the parking lot\nAnd you get in your car and drive real far\nAnd you drive all night and then you see a light\nAnd it comes right down and it lands on the ground\nAnd out comes the man from Mars\nAnd you try to run but he's got a gun\nAnd he shoots you dead and he eats your head\nAnd then you're in the man from Mars\nYou go out at night eating cars\nYou eat Cadillacs, Lincolns too\nMercurys and Subaru\nAnd you don't stop, you keep on eating cars\nThen when there's no more cars you go out at night\nAnd eat up bars where the people meet\nFace to face, dance cheek to cheek\nOne to one, man to man\nAnd toe to toe, don't move too slow\nCause the man from Mars is through with cars\nHe's eating bars, yeah wall to wall\nDoor to door, hall to hall\nHe's gonna eat 'em all\nRapture, be pure, take a tour\nThrough the sewer, don't strain your brain\nPaint a train, you'll be singing in the rain\nSaid don't stop to the punk rock\n\n[Verse 3]\nWell now you see what you wanna be\nJust have your party on TV\nCause the man from Mars won't eat up bars\nWhere the TV's on and now he's gone\nBack up to space where he won't have a hassle\nWith the human race and you hip hop\nAnd you don't stop, just blast off\nSure shot cause the man from Mars stopped eating cars\nAnd eating bars and now he only eats guitars, get up",
  "LyricURL": "https://genius.com/Blondie-rapture-lyrics",
  "FullTitle": "Rapture"
 },
 {
  "Chart": {
   "Year": 1981,
   "ChartPosition": 16,
   "Artist": "Ray Parker Jr. \u0026 Raydio",
   "Title": "A Woman Needs Love (Just Like You Do)"
  },
  "Lyrics": "Doo-doo-doo-doo-doo Mmm-mmm-mmm A woman needs a love just like you do, hoo Don't kid yourself into thinkin' that she don't She can fool around just like you do, hoo Unless you give her all the lovin' she wants Don't the mistake of thinkin' old fashioned Times have changed from yesterday But no longer will those old double standards Be accepted by the women of today So when you think you're foolin' her She just might be foolin' you Remember if you can do it She can too Because a woman needs love just like you do, hoo Hey, don't kid yourself into thinking that she don't She can fool around just like you do, hoo Unless you give her all the lovin' she wants When her eyes are beggin' for affection Don't put her off, don't make her wait Don't try to give her that worn out excuse About being tired and workin' late I tell you one day you'll come home early from work Open up the door and get your feelings hurt Because she needs it, yeah A woman's got to have it, whoa, yeah, just like you And if you're smart, mmm, you better stop foolin' around, hey, hey Cause she will too, oh Just like you do, hoo Thinking that she don't, hoo, ooh Just like you, hoo Now an example to you Is by the time poor Jack Returned up the hill Somebody else Had been lovin' Jill A woman needs love just like you do, hoo Hey, don't kid yourself into thinkin' that she don't She can fool around , she will fool around so You better take out some insurance and be sure she won't Give her the love, mmm , yeah That sweet, sweet love, she wants it just like you Cause she can fool around just like she will fool around With you or without you, just like you do A woman needs love just like you do, hoo Hey, don't kid yourself into thinking that she don't, hoo, ooh She can fool around just like you, hoo A woman needs it just like you",
  "LyricURL": "https://genius.com/Ray-parker-jr-a-woman-needs-love-just-like-you-do-lyrics",
  "FullTitle": "A Woman Needs Love (Just Like You Do)"
 },
 {
  "Chart": {
   "Year": 1981,
   "ChartPosition": 17,
   "Artist": "Blondie",
   "Title": "The Tide Is High"
  },
  "Lyrics": "[Intro]\n\nThe tide is high but I'm holdin' on\nI'm gonna be your number one\nI'm not the kind-a girl who gives up just like that, oh no\n\nIt's not the things you do that tease and hurt me bad\nBut it's the way you do the things you do to me\nI'm not the kind-a girl who gives up just like that, oh no\n\nThe tide is high but I'm holdin' on\nI'm gonna be your number one, number one\n\nEvery girl wants you to be her man\nBut I'll wait my dear till it's my turn\nI'm not the kind-a girl who gives up just like that, oh no\n\nThe tide is high but I'm holdin' on\nI'm gonna be your number one, number one, number one\n\n[Bridge]\n\nEvery girl wants you to be her man\nBut I'll wait my dear till it's my turn\nI'm not the kind-a girl who gives up just like that, oh no\n\nThe tide is high but I'm holding on\nI'm gonna be your number one, number one, number one\n\nThe tide is high but I'm holding on\nI'm gonna be your number one\n\nThe tide is high but I'm holding on\nI'm gonna be your number one\n\nThe tide is high but I'm holding on\nI'm gonna be your number one",
  "LyricURL": "https://genius.com/Blondie-the-tide-is-high-lyrics",
  "FullTitle": "The Tide is High"
 },
 {
  "Chart": {
   "Year": 1981,
   "ChartPosition": 18,
   "Artist": "Grover Washington Jr. \u0026 Bill Withers",
   "Title": "Just The Two Of Us"
  },
  "Lyrics": "Come on hey hey we goin' to the beach \n\r\ngrab a couple of toys and let dada strap you in the car seat. \n\r\nWhere's Mama? \n\r\nShe's takin' a little nap in the trunk \n\r\nOh that smell dada must have run over a skunk. \n\r\nnow I know what you're thinkin': \n\r\nit's kind of late to go swimmin' \n\r\nbut you know your mama she's one of those types of women \n\r\nwho does crazy things and if she don't get her way she'll throw a \n\r\nfit \n\r\ndon't play with daddy's toy knife, honey, let go of it \n\r\nand don't be so upset, why you actin' bashful? \n\r\ndon't you wanna help dadda build a sand castle? \n\r\nand mama said she wants to show how far she can float, \n\r\nand don't worry about that little boo-boo on her throat \n\r\nit's just a little scratch it don't hurt, \n\r\nher was eatin' dinner while you was sleepin' and spilled ketchup on \n\r\nher shirt \n\r\nmama's messy, isn't she, we'll let her wash off in the water \n\r\nand me and you can play by ourselves, can't we? \n\r\njust the two of us (sung) repeat 8-9 times \n\r\nthere's a place called heaven and a place called hell, \n\r\na place called prison and a place called jail, \n\r\nand dada's probably on his way to all of 'em except one, \n\r\n'cause mama's got a new husband and a stepson \n\r\nand you don't want a brother do ya? (Na) \n\r\nmaybe when you're old enough to understand a little better, I'll \n\r\nexplain it to ya. \n\r\nbut for now we'll just say that mama was real, real bad \n\r\nshe was bein' mean to dad and made him real, real mad \n\r\nbut I still feel sad that I put her in time out, \n\r\nsit back in your chair honey, quit tryin' to climb out \n\r\nI told you it's okay, hey hey, wanna baba? \n\r\ntake a night-night, nana-boo, goo-goo ga-ga \n\r\nhumma goo-goo caca, dad'll change your dighty, \n\r\nclean the baby up so her can take a nighty-nighty. \n\r\nyou're dad'll wake her up as soon as we get to the water, \n\r\n'97 Bonnie and Clyde, me and my daughter. \n\r\njust the two of us (sung) \n\r\nwake up sleepy head we're here, \n\r\nbefore we play, we're gonna take mama for a little walk along the \n\r\npier. \n\r\nbaby, don't cry honey, don't get the wrong idea, \n\r\nmama's too sleepy to hear you screamin' in her ear, \n\r\nthat's why you can't get her to wake, \n\r\nbut don't worry, dada made a nice bed for mama at the bottom of the \n\r\nlake, \n\r\nhere, you wanna help dada tie a rope around this rock? \n\r\nwe'll tie it to her footsies then will roll her off the dock. \n\r\nready now, here we go, on the count of three, \n\r\none, two, three...weeeeeeeeee \n\r\nthere goes mama splashin' in the water, \n\r\nno more fightin' your dad, no more restrainin' order, \n\r\nno more step dada, no more new brother, \n\r\nblow her kisses bye-bye, tell mama you love her, \n\r\nwe'll go play in the sand, build a castle and junk, \n\r\nbut first, just help dad with two more things out the trunk, \n\r\njust the two of us (sung)",
  "LyricURL": "https://www.lyricsplanet.com/lyrics.php?id=11822",
  "FullTitle": "Just The Two Of Us"
 },
 {
  "Chart": {
   "Year": 1981,
   "ChartPosition": 19,
   "Artist": "Pointer Sisters",
   "Title": "Slow Hand"
  },
  "Lyrics": "As the midnight moon, was driftin' through\nThe lazy sway of the trees\nI saw the look in your eyes, lookin' into mine\nSeein' what you wanted to see\n\nDarlin', don't say a word, cause I already heard\nWhat your body's sayin' to mine\nI'm tired of fast moves, I've got a slow groove\nOn my mind\n\nI want a man with a slow hand\nI want a lover with an easy touch\nI want somebody who will spend some time\nNot come and go in a heated rush\nI want somebody who will understand\nWhen it comes to love, I want a slow hand\n\nOoh ooh ooh\nOoh ooh ooh\nOoh ooh ooh\n\nOn shadowed ground, with no one around\nAnd a blanket of stars in our eyes\nWe are driftin' free, like two lost leaves\nOn the crazy wind of the night\n\nDarlin', don't say a word, cause I already heard\nWhat your body's sayin' to mine\nIf I want it all night, you say it's alright\nOoo, we got the time\n\nCause I got a man with a slow hand\nI got a lover with an easy touch\nI've got somebody who will spend some time\nNot come and go in a heated rush\nI found somebody who will understand\nWhen it comes to love, I want a slow hand\n\nOoh ooh ooh\n\nIf I want it all night\nPlease say it's alright\nIt's not a fast move\nBut a slow groove\nOn my mind\n\nCause I got a man with a slow hand\nI've got a lover with an easy touch\nI found somebody who will spend some time\nNot come and go in a heated rush\n\nI found somebody who will understand\nI found a lover with a slow hand\nOoo, a lover with a slow hand\nAnd I get all excited with his easy touch\nI found somebody who will spend the night\nNot come and go in a heated rush\nOoh, lover with a slow hand",
  "LyricURL": "https://genius.com/Pointer-sisters-slow-hand-lyrics",
  "FullTitle": "Slow Hand"
 },
 {
  "Chart": {
   "Year": 1981,
   "ChartPosition": 20,
   "Artist": "Climax Blues Band",
   "Title": "I Love You"
  },
  "Lyrics": "When I was younger, man\nI hadn't a care\nFooling around\nHitting the town\nGrowing my hair\n\nYou came along\nAnd stole my heart\nWhen you entered my life\nOoh, babe\nYou got what it takes\nSo I made you my wife\n\nSince then\nI never looked back\nIt's almost like living a dream\nAnd, oooh\nI love you\n\nYou came along\nFrom far away\nAnd found me here\n\nI was playing around\nFeeling down\nHitting the beer\nYou picked me up\nFrom off the floor\nAnd gave me a smile\n\nYou said\nYou're much too young\nYour life ain't begun\nLet's walk for awhile\n\nAnd as my head was spinning 'round\nI gazed into your eyes\nAnd thought, oooh\nI want you\n\nThank you, babe\nFor being a friend\nAnd shining your light in my life\n'Cause, oooh\nI need you\n\nAs my head was coming round\nI gazed into your eyes\nAnd thought, oooh\nI want you\n\nThanks again for being my friend\nAnd straightening out my life\n'Cause, oooh\nI need you\n\nSince then I never looked back\nIt's almost like livin' a dream\nOooh\nI got you\n\nIf ever a man had it all\nIt would have to be me\nAnd, oooh\nI love you",
  "LyricURL": "https://genius.com/Climax-blues-band-i-love-you-lyrics",
  "FullTitle": "I Love You"
 },
 {
  "Chart": {
   "Year": 1981,
   "ChartPosition": 21,
   "Artist": "John Lennon",
   "Title": "Woman"
  },
  "Lyrics": "[Intro]\n(For the other half of the sky)\n\n[Verse 1]\nWoman, I can hardly express\nMy mixed emotions and my thoughtlessness\nAfter all, I'm forever in your debt\nAnd woman, I will try to express\nMy inner feelings and thankfulness\nFor showing me the meaning of success\n\n[Chorus]\nOoh, well, well\nDoo, doo, doo, doo, doo\nOoh, well, well\nDoo, doo, doo, doo, doo\n\n[Verse 2]\nWoman, I know you understand\nThe little child inside of the man\nPlease remember my life is in your hands\nAnd woman hold me close to your heart\nHowever distant don't keep us apart\nAfter all it is written in the stars\n\n[Chorus]\n\n[Verse 3]\nWoman please let me explain\nI never meant to cause you sorrow or pain\nSo let me tell you again and again and again\n\n[Outro]\nI love you, yeah, yeah\nNow and forever\nI love you, yeah, yeah\nNow and forever\nI love you, yeah, yeah\nNow and forever\nI love you, yeah, yeah",
  "LyricURL": "https://genius.com/John-lennon-woman-lyrics",
  "FullTitle": "Woman"
 },
 {
  "Chart": {
   "Year": 1981,
   "ChartPosition": 22,
   "Artist": "Taste Of Honey",
   "Title": "Sukiyaki"
  },
  "Lyrics": "It's all because of you, I'm feeling sad and blue \n\r\nYou went away, now my life is just a rainy day \n\r\nAnd I love you so, how much you'll never know \n\r\nYou've gone away and left me lonely \n\n\n\r\nUntouchable memories, seem to keep haunting me \n\r\nAnother love so true \n\r\nThat once turned all my gray skies blue \n\r\nBut you disappeared \n\r\nNow my eyes are filled with tears \n\r\nAnd I'm wishing you were here with me \n\n\n\r\nSoft with love are my thoughts of you \n\r\nNow that you're gone \n\r\nI just don't know what to do \n\n\n\r\nIf only you were here \n\r\nYou'd wash away my tears \n\r\nThe sun would shine once again \n\r\nYou'd be mine all mine \n\r\nBut in reality, you and I will never be \n\r\n'Cause you took your love away from me \n\r\nGirl, I don't know what I did \n\r\nTo make you leave me \n\r\nBut what I do know \n\r\nIs that since you've been gone \n\r\nThere's such an emptiness inside \n\r\nI'm wishing you'd come back to me \n\n\n\r\nIf only you were here \n\r\nYou'd wash away my tears \n\r\nThe sun would shine once again \n\r\nYou'd be mine all mine \n\r\nBut in reality, you and I will never be \n\r\n'Cause you took your love away from me \n\n\n\r\nOh, baby, you took your love away from me.",
  "LyricURL": "https://www.lyricsplanet.com/lyrics.php?id=19545",
  "FullTitle": "Sukiyaki"
 },
 {
  "Chart": {
   "Year": 1981,
   "ChartPosition": 23,
   "Artist": "Abba",
   "Title": "The Winner Takes It All"
  },
  "Lyrics": "[Verse 1]\nI don't wanna talk\nAbout things we've gone through\nThough it's hurting me, now it's history\nI've played all my cards\nAnd that's what you've done, too\nNothing more to say, no more ace to play\n\n[Chorus]\nThe winner takes it all\nThe loser's standing small\nBeside the victory\nThat's her destiny\n\n[Verse 2]\nI was in your arms\nThinking I belonged there\nI figured it made sense, building me a fence\nBuilding me a home\nThinking I'd be strong there\nBut I was a fool playing by the rules\n\n[Chorus]\nThe gods may throw a dice\nTheir minds as cold as ice\nAnd someone way down here\nLoses someone dear\nThe winner takes it all (Takes it all)\nThe loser has to fall (Has to fall)\nIt's simple and it's plain (It seems plain)\nWhy should I complain? (Why complain)\n\n[Verse 3]\nBut tell me, does she kiss\nLike I used to kiss you?\nDoes it feel the same when she calls your name?\nSomewhere deep inside\nYou must know I miss you\nBut what can I say? Rules must be obeyed\n\n[Chorus]\nThe judges will decide (They decide)\nThe likes of me abide (We abide)\nSpectators of the show (Of the show)\nAlways staying low (Staying low)\nThe game is on again (On again)\nA lover or a friend (Or a friend)\nA big thing or a small (Big or small)\nThe winner takes it all (Takes it all)\n\n[Verse 4]\nI don't wanna talk\nIf it makes you feel sad\nAnd I understand, you've come to shake my hand\nI apologise\nIf it makes you feel bad\nSeeing me so tense, no self-confidence\n\n[Bridge]\nBut you see, the winner takes it all\nThe winner takes it all\n\n[Outro]\n(So the winner)\n(Takes it all)\n(And the loser)\n(Has to fall)\n(Throw a dice)\n(Cold as ice)\n(Way down here)\n(Someone dear)\n(Takes it all)\n(Has to fall)\n(It seems plain)\n(Why complain)",
  "LyricURL": "https://genius.com/Abba-the-winner-takes-it-all-lyrics",
  "FullTitle": "The Winner Takes It All"
 },
 {
  "Chart": {
   "Year": 1981,
   "ChartPosition": 24,
   "Artist": "Stars On 45",
   "Title": "Medley"
  },
  "Lyrics": "Round round get around\n\r\nI get around, yes\n\r\n(*Laughter* *Clap*)\n\r\nGet around round round, I get around\n\r\nI get a--\n\n\n\r\nGet around round round, I get around\n\r\nFrom town to town\n\r\nGet around round round, I get around\n\r\n(Woo!)\n\r\nI'm a real cool head\n\r\nGet around round round, I get around\n\r\nI'm making real good bread\n\r\nGet around round round, I get a square\n\r\n(Ow!)\n\n\n\r\nI'm getting awfully mad driving down the street\n\r\n(Ow!)\n\r\nI just don't want to be bugged sitting next to my sweets\n\r\n(*Laughter*)\n\r\nBom bom bom ta ta ta ta ta ta ta ta ta\n\n\n\r\nThe other guys are pretty tough\n\r\nSo those other gats over there better not get tough\n\n\n\r\nI get around\n\r\nGet around round round, I get around\n\r\nFrom town to town\n\r\nGet around round round, I get around\n\r\nI'm a real cool head\n\r\n(Fake it, come on, Mike! Artistry!)\n\r\nI'm makin' real good bread\n\r\nGet around round round, I get a square\n\r\nI get around\n\r\nRound\n\r\nGet around, round round\n\r\n(Rock out, Carl!)\n\n\n\r\n(Anybody...)\n\r\n(Come on, baby!)\n\r\n([...])\n\n\n\r\nWe always take my car although it's a heap\n\r\nAnd we never get turned down by the chicks we pick up on\n\r\nNot much...\n\r\nNone of the guys go steady 'cos it wouldn't be Right Guard\n\r\nTo leave their best girls home on a Saturday night\n\n\n\r\nI get around\n\r\nGet around round round, I get around\n\r\nFrom town to town\n\r\nGet around round round, I get around\n\r\nI'm a real cool head\n\r\nGet around round round, I get around\n\r\nI'm making real good bread\n\r\nGet around round round, I get around\n\r\nI get around round woo ooooo oooo ooo ooo ooo oooo\n\n\n\r\nRound round get around, I get around\n\r\nSquare\n\r\nGet around round round, I get a square\n\r\nGet around round round, I get around\n\r\nGet around round round, I get around\n\r\n(Don't stop!)\n\r\nGet around round round, I get around\n\r\nBoop boop boop boop\n\r\nGet around round round, I get around\n\r\nI get around\n\r\n(Oh yeah!)\n\n\n\r\n(Oh, that was really bad.)\n\r\n(Let's do \"Little Deuce Coupe\" while [...]. Real fast, obviously.)\n\r\n(I've got it, Brian. Here, Bruce, do your famous [...].)\n\r\n(Oh.)\n\r\n(Bom bom.)\n\r\n(Like this.)\n\r\n(Hey, do the--)\n\r\n(Oh--)\n\n\n\r\nWell I'm not braggin', babe, so don't put me down\n\r\nWell, I've got the cutest little piece in town\n\r\nWell, I'm not braggin', babe, oh yeah\n\n\n\r\n([...] Carl [...])\n\r\n(We lost it.)\n\n\n\r\nShe's my little deuce coupe\n\r\n(Hey, Carl.)\n\r\nYou don't know what I got\n\r\nTalk to me, baby\n\r\nTalk to me, baby\n\n\n\r\nWell I'm not braggin', babe, so don't put me down\n\r\nBut I've got the fastest set of wheels in town\n\r\nWhen something comes up to me he don't even try\n\r\n'Cos if I had a set of wings, man, I know she could fly\n\n\n\r\nHey\n\r\nMy little deuce coupe\n\r\nYou don't know what I--\n\r\nLittle deuce coupe\n\r\nYeah\n\r\nYou don't know what I got\n\n\n\r\nShe's got a competition clutch with the four on the floor\n\r\nAnd she purrs like a kitten (*laugh*) till the lake pipes roar\n\r\nAh, bom bom bom bom\n\r\nAnd if that ain't enough to make you flip your lid\n\r\nThere's one more thing: I got the pink slip daddy\n\r\n(*Laughter*)\n\r\nOh yeah\n\r\nDa da dom da da dom ba da\n\r\n(Oh, let's do \"Luau\"!)\n\r\n(Talk to me, baby!)\n\n\n\r\nShe comes on like a rose, da da dap\n\r\n(Do the stroll!)\n\r\nShe's my little deuce coupe\n\r\nYou don't know what I got\n\n\n\r\n(*Laughter*)",
  "LyricURL": "https://www.lyricsplanet.com/lyrics.php?id=29792",
  "FullTitle": "Medley"
 },
 {
  "Chart": {
   "Year": 1981,
   "ChartPosition": 25,
   "Artist": "Juice Newton",
   "Title": "Angel Of The Morning"
  },
  "Lyrics": "[Intro]\n\nThere'll be no strings to bind your hands\nNot if my love can't bind your heart\nThere's no need to take a stand\nFor it was I who chose to start\n\nI see no need to take me home\nI'm old enough to face the dawn\n\nJust call me angel of the morning, angel\nJust touch my cheek before you leave me, baby\nJust call me angel of the morning, angel\nThen slowly turn away from me\n\nMaybe the sun's light will be dim\nAnd it won't matter anyhow\nIf morning's echoes say we've sinned\nWell, it was what I wanted now\n\nAnd if we're victims of the night\nI won't be blinded by the light\n\nJust call me angel of the morning, angel\nJust touch my cheek before you leave me, baby\nJust call me angel of the morning angel\nThen slowly turn away, I won't beg you to stay with me\nThrough the tears of the day, of the years, baby\n\nJust call me angel of the morning, angel\nJust touch my cheek before you leave me, baby\nJust call me angel of the morning angel\nJust touch my cheek before you leave me, darling\n\nJust call me angel of the morning, angel\nJust touch my cheek before you leave me, darling...",
  "LyricURL": "https://genius.com/Juice-newton-angel-of-the-morning-lyrics",
  "FullTitle": "Angel of the Morning"
 },
 {
  "Chart": {
   "Year": 1981,
   "ChartPosition": 26,
   "Artist": "Neil Diamond",
   "Title": "Love On The Rocks"
  },
  "Lyrics": "Love on the rocks, ain't no surprise\nJust pour me a drink and I'll tell you some lies\nGot nothing to lose, so you just sing the blues\nAll the time\n\nGave you my heart, gave you my soul\nYou left me alone here with nothing to hold\nYesterday's gone, now all I want\nIs a smile\n\nFirst they say they want you, indeed how they really need you\nSuddenly you find you're out there walking in a storm\nAnd when they know they have you then they really have you\nNothing you can do or say, you've got to leave, just get away\nWe all know the song\n\nYou need what you need, you can say what you want\nNot much you can do when the feeling is gone\nMaybe blue skies above, but it's cool\nWhen your love's on the rocks\n\nFirst they say they want you, indeed how they really need you\nSuddenly you find you're out there walking in a storm\nAnd when they know they have you then they really have you\nNothing you can do or say, you've got to leave, just get away\nWe all know the song\n\nLove on the rocks, ain't no big surprise\nJust pour me a drink and I'll tell you more lies\nYesterday's gone, now all I want\nIs a smile",
  "LyricURL": "https://genius.com/Neil-diamond-love-on-the-rocks-lyrics",
  "FullTitle": "Love on the Rocks"
 },
 {
  "Chart": {
   "Year": 1981,
   "ChartPosition": 27,
   "Artist": "Air Supply",
   "Title": "Every Woman In The World"
  },
  "Lyrics": "Overnight scenes, dinner and wine\nSaturday girls\nI was never in love, never had the time\nIn my hustle and hurry world\nLaughing myself to sleep\nWaking up lonely\nI needed someone to hold me oh oh oh\n\nIt's such a crazy old town\nIt can drag you down\nTill you run out of dreams\nSo you party all night to the music and lights\nBut you don't know what happiness means\nI was dancing in the dark with strangers\nNo love around me\nWhen suddenly you found me oh oh oh\n\nGirl you're every woman in the world to me\nYou're my fantasy, you're my reality\nGirl you're every woman in the world to me\nYou're everything I need, you're everything to me\nOh girl\n\nEverything good, everything fine\nThat's what you are\nSo put your hand in mine\nAnd together we'll climb\nAs high as the highest star\nI'm living a lifetime in every minute\nThat we're together\nAnd I'll stay right here forever oh oh oh\n\nChorus",
  "LyricURL": "https://genius.com/Air-supply-every-woman-in-the-world-lyrics",
  "FullTitle": "Every Woman in the World"
 },
 {
  "Chart": {
   "Year": 1981,
   "ChartPosition": 28,
   "Artist": "Air Supply",
   "Title": "The One That You Love"
  },
  "Lyrics": "Now the night has gone\nNow the night has gone away\nDoesn't seem that long\nWe hardly had two words to say\n\nHold me in your arms for just another day\nI promise this one will go slow\nOh, we have the right you know\nWe have the right you know\n\nDon't say the morning's come\nDon't say the morning's come so soon\nMust we end this way\nWhen so much here is hard to lose\n\nLove is everywhere, I know it is\nSuch moments as this are too few\nOh, it's all up to you\nIt's all up to you\n\nHere I am, the one that you love\nAsking for another day\nUnderstand, the one that you love\nLoves you in so many ways\n\nTell me we can stay\nTell me we can stay, oh please\nThey are the words to say\nThe only words I can believe\n\nHold me in your arms for just another day\nI promise this one will go slow\nOh, we have the right you know\nWe have the right you know\n\nHere I am, the one that you love\nAsking for another day\nUnderstand, the one that you love\nLoves you in so many ways\n\nHere I am, the one that you love\nAsking for another day\nUnderstand, the one that you love\nLoves you in so many ways\n\nThe night has gone, a part of yesterday\nI don't know what to say\nI don't know what to say\n\nHere I am, the one that you love\nAsking for another day\nUnderstand, the one that you love\nLoves you in so many ways\n\nHere I am, the one that you love\nAsking for another day\nUnderstand, the one that you love\nLoves you in so many ways\n\nHere I am, the one that you love\nAsking for another day\nUnderstand, the one that you love\nLoves you in so many ways",
  "LyricURL": "https://genius.com/Air-supply-the-one-that-you-love-lyrics",
  "FullTitle": "The One That You Love"
 },
 {
  "Chart": {
   "Year": 1981,
   "ChartPosition": 29,
   "Artist": "Barbra Streisand \u0026 Barry Gibb",
   "Title": "Guilty"
  },
  "Lyrics": "Yeah baby, I've been drinking, and I shouldn't come by I know\n\r\nBut I found myself in trouble darling, and I had nowhere else to go\n\n\n\r\nGot some whiskey from a bar man, got some cocaine from a friend\n\r\nI just had to keep on moving, till I was back in your arms again\n\n\n\r\nWell I'm guilty, yeah I'm guilty, I'll be guilty for the rest of my life\n\r\nHow come I never do, what I'm supposed to do\n\r\nHow come nothing that I try to do ever turns out right\n\n\n\r\nWell you know how it is with me baby, you know I just can't stand myself\n\r\nIt takes a whole lot of medicine, for me to pretend to be somebody else.",
  "LyricURL": "https://www.lyricsplanet.com/lyrics.php?id=8113",
  "FullTitle": "Guilty"
 },
 {
  "Chart": {
   "Year": 1981,
   "ChartPosition": 30,
   "Artist": "Styx",
   "Title": "The Best Of Times"
  },
  "Lyrics": "Tonight's the night we'll make history\nHoney, you and I\nAnd I'll take any risk to tie back the hands of time\nAnd stay with you here tonight\nI know you feel these are the worst of times\nI do believe it's true\nWhen people lock their doors and hide inside\nRumor has it, it's the end of paradise\nBut I know, if the world just passed us by\nBaby I know, I wouldn't have to cry, no no\nThe best of times are when I'm alone with you\nSome rain some shine, we'll make this a world for two\nOur memories of yesterday will last a lifetime\nWe'll take the best, forget the rest\nAnd someday we'll find\nThese are the best of times\nThese are the best of times\nThe headlines read, \"These are the worst of times\"\nI do believe it's true\nI feel so helpless like a boat against the tide\nI wish the summer winds could bring back paradise\nBut I know, if the world turned upside down\nBaby, I know you'd always be around, my my\nThe best of times are when I'm alone with you\nSome rain some shine, we'll make this a world for two\nThe best of times are when I'm alone with you\nSome rain some shine, we'll make this a world for two",
  "LyricURL": "https://genius.com/Styx-the-best-of-times-lyrics",
  "FullTitle": "The Best of Times"
 },
 {
  "Chart": {
   "Year": 1981,
   "ChartPosition": 31,
   "Artist": "Oak Ridge Boys",
   "Title": "Elvira"
  },
  "Lyrics": "Elvira, Elvira\n\r\nMy hear's on fire for Elvira\n\n\n\r\nWe look like dought, lips like sherry wine\n\r\nShe can sure enough make my little light shine\n\r\nI get a funny feelin' up and down my spine\n\r\n'Cause I know that my Elvira's mine\n\n\n\r\nGiddy up oom poppa omm poppa mow mow\n\r\nGiddy up oom poppa omm poppa mow mow\n\r\nHeigh-ho silver, away\n\n\n\r\nElvira, Elvira\n\r\nMy hear's on fire for Elvira\n\n\n\r\nTonight I'm gonna meet her to hungry house cafe\n\r\nAnd I'm gonna give her all the love I can\n\r\nShe's gonna jump and holler\n\r\n'Cause I saved up two dollars\n\r\nShe's gonna search and find that preacher man\n\n\n\r\nElvira, Elvira\n\r\nMy hear's on fire for Elvira\n\n\n\r\nElvira, Elvira\n\n\n\r\nElvira, na, na, na, na, na, na, na\n\r\nElvira, na, na, na, na, na, na, na\n\r\nElvira, na, na, na, na, na, na, na",
  "LyricURL": "https://www.lyricsplanet.com/lyrics.php?id=58823",
  "FullTitle": "Elvira"
 },
 {
  "Chart": {
   "Year": 1981,
   "ChartPosition": 32,
   "Artist": "Reo Speedwagon",
   "Title": "Take It On The Run"
  },
  "Lyrics": "[Verse 1]\nHeard it from a friend who\nHeard it from a friend who\nHeard it from another you been messin' around\nThey say you got a boy friend\nYou're out late every weekend\nThey're talkin' about you and it's bringin' me down\nBut I know the neighborhood\nAnd talk is cheap when the story is good\nAnd the tales grow taller on down the line\nBut I'm telling you, babe\nThat I don't think it's true, babe\nAnd even if it is keep this in mind\n\n[​Chorus]\nYou take it on the run baby\nIf that's the way you want it baby\nThen I don't want you around\nI don't believe it, not for a minute\nYou're under the gun so you take it on the run\n\n[Verse 2]\nYou're thinking up your white lies\nYou're putting on your bedroom eyes\nYou say you're coming home but you won't say when\nBut I can feel it coming\nIf you leave tonight keep running\nAnd you need never look back again\n\n[Chorus]\nYou take it on the run baby\nIf that's the way you want it baby\nThen I don't want you around\nI don't believe it, not for a minute\nYou're under the gun so you take it on the run\n\n[Chorus]\nYou take it on the run baby\nIf that's the way you want it baby\nThen I don't want you around\nI don't believe it, not for a minute\nYou're under the gun so you take it on the run\nYou take it on the run baby\nIf that's the way you want it baby\nThen I don't want you around\nI don't believe it, not for a minute\nYou're under the gun so you take it on the run\n\n[Outro]\nHeard it from a friend who\nHeard it from a friend who\nHeard it from another you been messin' around",
  "LyricURL": "https://genius.com/Reo-speedwagon-take-it-on-the-run-lyrics",
  "FullTitle": "Take It on the Run"
 },
 {
  "Chart": {
   "Year": 1981,
   "ChartPosition": 33,
   "Artist": "Ronnie Milsap",
   "Title": "There's No Gettin' Over Me"
  },
  "Lyrics": "Well, you can walk out on me tonight\nIf you think that it ain't feeling right\nBut darling, there's ain't no getting over me\n\nWell, you can say that you need to be free\nBut there ain't no place that I won't be\nSweet darling, there ain't no getting over me\n\nI'll be the bill you forgot to pay\nI'll be the dream that keeps you awake\nI'll be the song on the radio\nI'll be the reason that you tell the boys no\n\nDon't you know you can tell everyone that we're through\nYou might even believe it too\nBut darling, there's ain't no getting over me\nSweet darling, there ain't no getting over me\n\nI'll be the face that you see in the crowd\nI'll be the times that you cry out loud\nI'll be the smile when there's no one around\nI'll be the book that you just can't put down\nSo you can walk out on me tonight\n\nIf you think that it ain't feeling right\nBut darling, there's ain't no getting over me\nYou'll see sweet darling, there's ain't no getting over me\nNo, no, no, no, No Darling, there ain't no getting over me\n\nOoooh mmmm\nMmmm No darling, there ain't no getting over me\n\nOoooh darling, there ain't no getting over me...",
  "LyricURL": "https://genius.com/Ronnie-milsap-theres-no-gettin-over-me-lyrics",
  "FullTitle": "(There’s) No Gettin’ Over Me"
 },
 {
  "Chart": {
   "Year": 1981,
   "ChartPosition": 34,
   "Artist": "Gino Vannelli",
   "Title": "Living Inside Myself"
  },
  "Lyrics": "In my life\nI've felt so self assured\nBut suddenly it's all changed\nShe's a cloud\nThat hangs above my world\nAnd I find myself wandering in the rain\nAnd now I can't go on\n\n'Cause I am lost\nLiving inside myself\nLiving inside this shell\nLiving outside your love\nI am lost\nSomewhere inside my own dreams\nAfraid of what life really means\nLiving without your love\n\nI need her guiding light\nTo shine on my darkest days\nI was young, and time was on my side\nBut like a fool I let it slip away\nAnd now those days are gone\n\nAnd I am lost\nLiving inside myself\nLiving inside this shell\nLiving outside your love\nI am lost\nSomewhere inside my own dreams\nAfraid of what life really means\nLiving without your love\n\nIn my life\nI've felt so self-assured\nBut oh how the seasons change\nAnd now I'm not that strong\n\n'Cause I am lost\nLiving inside myself\nLiving inside this hell\nLiving outside your love\nI am lost\nSomewhere inside my own dreams\nAfraid of what life really means\nLiving without your love\n\nI am lost\nLiving inside myself\nLiving inside this shell\nLiving outside your love\nI am lost",
  "LyricURL": "https://genius.com/Gino-vannelli-living-inside-myself-lyrics",
  "FullTitle": "Living Inside Myself"
 },
 {
  "Chart": {
   "Year": 1981,
   "ChartPosition": 35,
   "Artist": "Barbra Streisand",
   "Title": "Woman In Love"
  },
  "Lyrics": "[Verse 1]\nLife is a moment in space\nWhen the dream is gone, it's a lonelier place\nI kissed the morning goodbye\nBut down inside you know we never know why\nThe road is narrow and long\nWhen eyes meet eyes and the feeling is strong\nI turn away from the wall\nI stumble and fall but I give you it all\n\n[Chorus]\nI am a woman in love and I do anything\nTo get you into my world and hold you within\nIt's a right, I defend\nOver and over again\nWhat do I do\n\n[Verse 2]\nWith you eternally mine\nIn love there is no measure of time\nWe planned it all at the start\nThat you and I live in each other's heart\nWe may be oceans away\nYou feel my love, I hear what you say\nNo truth is ever a lie\nI stumble and fall but I give you it all\n\n[Chorus]\nI am a woman in love and I do anything\nTo get you into my world and hold you within\nIt's a right, I defend\nOver and over again\nWhat do I do\n\n[Chorus 2]\nOh, oh, oh, oh, oh\nI am a woman in love and I'm talking to you\nYou know I know how you feel, what a woman can do\nIt's a right, I defend\nOver and over again\n\n[Chorus]\nI am a woman in love and I do anything\nTo get you into my world and hold you within\nIt's a right, I defend\nOver and over again",
  "LyricURL": "https://genius.com/Barbra-streisand-woman-in-love-lyrics",
  "FullTitle": "Woman In Love"
 },
 {
  "Chart": {
   "Year": 1981,
   "ChartPosition": 36,
   "Artist": "Manhattan Transfer",
   "Title": "Boy From New York City"
  },
  "Lyrics": "Ooo wah, ooo wah cool, cool kitty\n\r\nTell us about the boy from New York City\n\r\nOoo wah, ooo wah c'mon kitty\n\r\nTell us about the boy from New York City\n\n\n\r\nHe's kind of tall\n\r\nHe's really fine\n\r\nSome day I hope to make him mine, all mine\n\r\nAnd he's neat\n\r\nAnd oh so sweet\n\r\nAnd just the way he looked at me\n\r\nHe swept me off my feet\n\r\nOoo whee, you ought to come and see\n\r\nHow he walks\n\r\nAnd how he talks\n\n\n\r\nOoo wah, ooo wah cool, cool kitty\n\r\nTell us about the boy from New York City\n\n\n\r\nHe's really down\n\r\nAnd he's no clown\n\r\nHe has the finest penthouse I've ever seen in town\n\r\nAnd he's cute\n\r\nIn his mohair suit\n\r\nAnd he keeps his pockets full of spending loot\n\r\nOoo whee, say you ought to come and see\n\r\nHis dueling scar\n\r\nAnd brand new car\n\n\n\r\nEvery time he says he loves me\n\r\nChills run down my spine\n\r\nEvery time he wants to kiss me\n\r\nHe makes me feel so fine\n\r\nOoo wah, ooo wah cool, cool kitty\n\r\nTell us about the boy from New York City\n\n\n\r\nWell he can dance\n\r\n(He can dance, take a chance with a little ro-)\n\r\nAnd make romance\n\r\n(mance baby, cause he's a looker)\n\r\nThat's when I feel in love \n\r\nWith just one glance\n\r\n(He's sweet talking and cool)\n\n\n\r\nHe was shy \n\r\nAnd so was I\n\r\nAnd now I know I'll never, ever say goodbye\n\r\nOoo whee, say you ought to come and see\n\r\nHe's the most\n\r\nFrom coast to coast\n\n\n\r\nOoo wah, ooo wah cool, cool kitty\n\r\nTell us about the boy from New York City\n\r\nOoo wah, ooo wah c'mon kitty\n\r\nTell us about the boy from New York City",
  "LyricURL": "https://www.lyricsplanet.com/lyrics.php?id=42966",
  "FullTitle": "Boy From New York City"
 },
 {
  "Chart": {
   "Year": 1981,
   "ChartPosition": 37,
   "Artist": "Foreigner",
   "Title": "Urgent"
  },
  "Lyrics": "[Verse 1]\nYou're not shy, you get around\nYou want to fly, don't want your feet on the ground\nYou stay up, you won't come down\nYou want to live, you want to move to the sound\n\n[Verse 2]\nGot fire in your veins\nBurning hot but you don't feel the pain\nYour desire is insane\nYou can't stop until you do it again\n\n[Verse 3]\nBut sometimes I wonder as I look in your eyes\nMaybe you're thinking of some other guy\nBut I know, yes I know, how to treat you right\nThat's why you call me in the middle of the night\n\n[Verse 4]\nYou say it's urgent\nSo urgent, so oh oh urgent\nJust wait and see\nHow urgent my love can be\nIt's urgent\n\n[Verse 5]\nYou play tricks on my mind\nYou're everywhere but you're so hard to find\nYou're not warm or sentimental\nYou're so extreme, you can be so temperamental\n\n[Verse 6]\nBut I'm not looking for a love that will last\nI know what I need and I need it fast\nYeah, there's one thing in common that we both share\nThat's a need for for each other anytime, anywhere\n\n[Verse 7]\nIt gets so urgent\nSo urgent\nYou know it's urgent\nI want to tell you it's the same for me\nSo urgent\nJust you wait and see\nHow urgent our love can be\nIt's urgent\n\n[Verse 8]\nYou say it's urgent\nMake it fast, make it urgent\nDo it quick, do it urgent\nGot to rush, make it urgent\nWant it quick\nUrgent, urgent, emergency\n\n[Outro]\nSo urgent, emergency\nEmer... emer... emer...\nIt's urgent",
  "LyricURL": "https://genius.com/Foreigner-urgent-lyrics",
  "FullTitle": "Urgent"
 },
 {
  "Chart": {
   "Year": 1981,
   "ChartPosition": 38,
   "Artist": "Rod Stewart",
   "Title": "Passion"
  },
  "Lyrics": "[Verse 1]\nSomebody somewhere\nIn the heat of the night\nLooking pretty dangerous\nRunning out of patience\n\n[Verse 2]\nTonight in the city\nYou won't find any pity\nHearts are being twisted\nAnother lover cheated, cheated\n\n[Pre-Chorus]\nIn the bars and the cafes, passion\nIn the streets and the alleys, passion\nA lot of pretending, passion\nEverybody searching, passion\n\n[Chorus]\nOnce in love you're never out of danger\nOne hot night spent with a stranger\nAll you wanted was somebody to hold on to yeah\nPassion, passion\nPassion, passion\n\n[Pre-Chorus]\nNew York, Moscow, passion\nHong Kong, Tokyo, passion\nParis and Bangkok, passion\nA lotta people ain't got, passion\nHear it in the radio, passion\nRead it in the papers, passion\nHear it in the churches, passion\nSee it in the school yards, passion\n\n[Chorus]\nOnce in love you're never out of danger\nOne hot night spent with a stranger\nAll you wanted was somebody to hold on to yeah\nOnce in love you're never out of danger\nOne hot night spent with a stranger\nAll you wanted was somebody to hold on to yeah\n\n[Bridge]\nAlone in your bed at night, passion\nIt's half past midnight, passion\nAs you turn out your sidelight, passion\nSomething ain't right, passion\nThere's no passion, there's no passion\nThere's no passion, I need passion\nYou need passion, we need passion\nCan't live without passion\nWon't live without passion\nCan't live without passion\n\n[Outro]\nEven the president needs passion\nEverybody I know needs some passion\nSome people die and kill for passion\nNobody admits they need passion\nSome people are scared of passion\nYeah, passion",
  "LyricURL": "https://genius.com/Rod-stewart-passion-lyrics",
  "FullTitle": "Passion"
 },
 {
  "Chart": {
   "Year": 1981,
   "ChartPosition": 39,
   "Artist": "Commodores",
   "Title": "Lady (You Bring Me Up)"
  },
  "Lyrics": "[Intro]\nLady\nYou bring me up when I'm down\nMaybe\nYou're gonna change my life around\n\n[Verse 1: Lionel Richie]\nYou came to me when I was lonely\nAnd no one cared\nYou made me see that I was only\nJust running scared\nI saw your face and something told me\nYou were the one\nYou smiled at me and now I see\nMy life's begun\n\n[Chorus]\nLady\nYou brought me in from out the rain (Yeah)\nMaybe\nMy life will never be the same\n\n[Verse 2: Lionel Richie]\nOnce I was filled with desperation\nA solitary man\nYou gave me hope and inspiration\nLike only true love can\nNow I believe in what you're saying\nI'm ten feet tall\nThis love don't need no explaining\nWe've got it all\n\n[Chorus]\nLady\nYou bring me up when I'm down (Up when I'm down)\nMaybe (Maybe)\nYou're gonna change my life around\n\n[Bridge]\nLa la la la la la\nLa la la la la la\nLa la la la la la la\nLa la la la la la\nLa la la la la la\nLa la la la la la la la\n\n[Outro]\nWhoa lady\nYou bring me up when I'm down (Up when I'm down)\nMaybe (Yeah)\nYou're gonna change my life around (Yeah, yeah, yeah)\nOoh lady\n\nOoh lady\nYou bring me up when I'm down\nMaybe\nYou're gonna change my life around\nOoh lady\n\nOoh lady\nYou bring me up when I'm down",
  "LyricURL": "https://genius.com/Commodores-lady-you-bring-me-up-lyrics",
  "FullTitle": "Lady (You Bring Me Up)"
 },
 {
  "Chart": {
   "Year": 1981,
   "ChartPosition": 40,
   "Artist": "Don McLean",
   "Title": "Crying"
  },
  "Lyrics": "I was all right for a while\nI could smile for a while\nBut when I saw you last night\nYou held my hand so tight\nWhen you stopped to say 'hello'\nAnd though you wished to me well\nYou couldn't tell\n\nThat I'd been\nCrying, over you\nCrying, over you\n\nThen you said so long\nLeft me standing all alone\nAlone and crying\nCrying\nCrying\nCrying\n\nIt's hard to understand\nThat the touch of your hand\nCan start me crying\n\nI thought that I, was over you\nBut it's true, so true\nI love you even more, than I did before\nBut, darling, what can I do\n\nWhile you don't love me\nAnd I'll always be\nCrying, over you\nCrying, over you\n\nYes, now you're gone\nAnd from this moment on\nI'll be crying\n(Crying)\nCrying\n(Crying)\nCrying\n(Crying)\nCrying\nCrying\nCrying\nOver you",
  "LyricURL": "https://genius.com/Don-mclean-crying-lyrics",
  "FullTitle": "Crying"
 }
]