[
 {
  "Number": 0,
  "Words": [
   {
    "Word": "touch",
    "Rel": 0.009351113094556066
   },
   {
    "Word": "realize",
    "Rel": 0.009348504863838293
   },
   {
    "Word": "come",
    "Rel": 0.009342953030020857
   },
   {
    "Word": "one",
    "Rel": 0.009333498930754726
   },
   {
    "Word": "time",
    "Rel": 0.009323168972713528
   },
   {
    "Word": "see",
    "Rel": 0.009303904183153047
   },
   {
    "Word": "seen",
    "Rel": 0.009209162375650552
   },
   {
    "Word": "takes",
    "Rel": 0.009189045378450585
   },
   {
    "Word": "gives",
    "Rel": 0.009188413572999194
   },
   {
    "Word": "used",
    "Rel": 0.009169776076325548
   }
  ]
 },
 {
  "Number": 1,
  "Words": [
   {
    "Word": "one",
    "Rel": 0.014805610016394619
   },
   {
    "Word": "love",
    "Rel": 0.012353622296774093
   },
   {
    "Word": "baby",
    "Rel": 0.011454581458408285
   },
   {
    "Word": "think",
    "Rel": 0.011179050352170013
   },
   {
    "Word": "know",
    "Rel": 0.010728461171128629
   },
   {
    "Word": "never",
    "Rel": 0.009768256431450708
   },
   {
    "Word": "better",
    "Rel": 0.009731403792553573
   },
   {
    "Word": "gonna",
    "Rel": 0.009239757032467504
   },
   {
    "Word": "things",
    "Rel": 0.009168629572269145
   },
   {
    "Word": "say",
    "Rel": 0.008995328367368105
   }
  ]
 },
 {
  "Number": 2,
  "Words": [
   {
    "Word": "love",
    "Rel": 0.029453788239320638
   },
   {
    "Word": "like",
    "Rel": 0.025214805059054306
   },
   {
    "Word": "life",
    "Rel": 0.021655078739404945
   },
   {
    "Word": "baby",
    "Rel": 0.02145499102121728
   },
   {
    "Word": "always",
    "Rel": 0.020180304243450336
   },
   {
    "Word": "one",
    "Rel": 0.019266012948828203
   },
   {
    "Word": "heart",
    "Rel": 0.018444085739931126
   },
   {
    "Word": "time",
    "Rel": 0.016814701373618474
   },
   {
    "Word": "give",
    "Rel": 0.015793433524700442
   },
   {
    "Word": "never",
    "Rel": 0.015776161322133907
   }
  ]
 },
 {
  "Number": 3,
  "Words": [
   {
    "Word": "woman",
    "Rel": 0.011420332380036214
   },
   {
    "Word": "got",
    "Rel": 0.007662995263591146
   },
   {
    "Word": "see",
    "Rel": 0.007149738382528498
   },
   {
    "Word": "let",
    "Rel": 0.0070361463708784435
   },
   {
    "Word": "love",
    "Rel": 0.00642660339343719
   },
   {
    "Word": "wrong",
    "Rel": 0.005747254255575505
   },
   {
    "Word": "man",
    "Rel": 0.005745845241040445
   },
   {
    "Word": "still",
    "Rel": 0.005745277670685558
   },
   {
    "Word": "keep",
    "Rel": 0.005743380901887461
   },
   {
    "Word": "made",
    "Rel": 0.0057410191703167
   }
  ]
 },
 {
  "Number": 4,
  "Words": [
   {
    "Word": "make",
    "Rel": 0.01348549065518073
   },
   {
    "Word": "way",
    "Rel": 0.01346926314584662
   },
   {
    "Word": "body",
    "Rel": 0.013461868618467697
   },
   {
    "Word": "love",
    "Rel": 0.013459424455722001
   },
   {
    "Word": "see",
    "Rel": 0.01345324167817585
   },
   {
    "Word": "come",
    "Rel": 0.013450756933477855
   },
   {
    "Word": "head",
    "Rel": 0.013293457930829622
   },
   {
    "Word": "far",
    "Rel": 0.006705030153964962
   },
   {
    "Word": "man",
    "Rel": 0.006702870146318693
   },
   {
    "Word": "eyes",
    "Rel": 0.006695459551274058
   }
  ]
 },
 {
  "Number": 5,
  "Words": [
   {
    "Word": "world",
    "Rel": 0.009656623325310124
   },
   {
    "Word": "know",
    "Rel": 0.00950949472266766
   },
   {
    "Word": "one",
    "Rel": 0.009081447969813196
   },
   {
    "Word": "night",
    "Rel": 0.008465736616003538
   },
   {
    "Word": "well",
    "Rel": 0.007670152592222259
   },
   {
    "Word": "stand",
    "Rel": 0.007658478555833871
   },
   {
    "Word": "left",
    "Rel": 0.0076167452683098946
   },
   {
    "Word": "life",
    "Rel": 0.007577707451777849
   },
   {
    "Word": "long",
    "Rel": 0.006644627934330065
   },
   {
    "Word": "love",
    "Rel": 0.006535148713142063
   }
  ]
 },
 {
  "Number": 6,
  "Words": [
   {
    "Word": "face",
    "Rel": 0.004831124192807411
   },
   {
    "Word": "friend",
    "Rel": 0.00482954182363625
   },
   {
    "Word": "door",
    "Rel": 0.004829007698762014
   },
   {
    "Word": "gone",
    "Rel": 0.004827730671297483
   },
   {
    "Word": "comes",
    "Rel": 0.004827044034675195
   },
   {
    "Word": "many",
    "Rel": 0.004825436165888118
   },
   {
    "Word": "hand",
    "Rel": 0.004824342551650326
   },
   {
    "Word": "high",
    "Rel": 0.00482098897621985
   },
   {
    "Word": "lonely",
    "Rel": 0.004819295149067209
   },
   {
    "Word": "done",
    "Rel": 0.004817949655103104
   }
  ]
 },
 {
  "Number": 7,
  "Words": [
   {
    "Word": "dream",
    "Rel": 0.03380368473358317
   },
   {
    "Word": "feel",
    "Rel": 0.022297147281390827
   },
   {
    "Word": "lover",
    "Rel": 0.02131245384476321
   },
   {
    "Word": "loved",
    "Rel": 0.02092388677021156
   },
   {
    "Word": "love",
    "Rel": 0.01776326925718534
   },
   {
    "Word": "found",
    "Rel": 0.01749739469513172
   },
   {
    "Word": "need",
    "Rel": 0.016638334874743817
   },
   {
    "Word": "want",
    "Rel": 0.01656420512454757
   },
   {
    "Word": "much",
    "Rel": 0.01602454981253245
   },
   {
    "Word": "way",
    "Rel": 0.01602073454942288
   }
  ]
 },
 {
  "Number": 8,
  "Words": [
   {
    "Word": "know",
    "Rel": 0.01398646135651034
   },
   {
    "Word": "love",
    "Rel": 0.013501275577314899
   },
   {
    "Word": "tell",
    "Rel": 0.0133879173183546
   },
   {
    "Word": "time",
    "Rel": 0.01306817336090487
   },
   {
    "Word": "remember",
    "Rel": 0.01110173330239763
   },
   {
    "Word": "fell",
    "Rel": 0.011078123124032687
   },
   {
    "Word": "eyes",
    "Rel": 0.011056431514486636
   },
   {
    "Word": "forget",
    "Rel": 0.011049641077389993
   },
   {
    "Word": "end",
    "Rel": 0.010951369589218102
   },
   {
    "Word": "talk",
    "Rel": 0.010756242159780533
   }
  ]
 },
 {
  "Number": 9,
  "Words": [
   {
    "Word": "get",
    "Rel": 0.016364705194734343
   },
   {
    "Word": "see",
    "Rel": 0.013231361297205934
   },
   {
    "Word": "stop",
    "Rel": 0.012370155243462085
   },
   {
    "Word": "right",
    "Rel": 0.008331401963273347
   },
   {
    "Word": "feel",
    "Rel": 0.008331133589605414
   },
   {
    "Word": "like",
    "Rel": 0.008329204464157042
   },
   {
    "Word": "got",
    "Rel": 0.008328947599708023
   },
   {
    "Word": "way",
    "Rel": 0.008327008144679335
   },
   {
    "Word": "back",
    "Rel": 0.008323040628871691
   },
   {
    "Word": "need",
    "Rel": 0.008317219052588646
   }
  ]
 },
 {
  "Number": 10,
  "Words": [
   {
    "Word": "blow",
    "Rel": 0.033696773823054436
   },
   {
    "Word": "clothes",
    "Rel": 0.02750534831649441
   },
   {
    "Word": "eyes",
    "Rel": 0.024062363255630357
   },
   {
    "Word": "anything",
    "Rel": 0.02284206262263761
   },
   {
    "Word": "floor",
    "Rel": 0.02254722515105704
   },
   {
    "Word": "go",
    "Rel": 0.018868700358214658
   },
   {
    "Word": "girl",
    "Rel": 0.018823156988094513
   },
   {
    "Word": "tell",
    "Rel": 0.017467869177858635
   },
   {
    "Word": "wine",
    "Rel": 0.015426696408850003
   },
   {
    "Word": "ask",
    "Rel": 0.014600791846575084
   }
  ]
 },
 {
  "Number": 11,
  "Words": [
   {
    "Word": "like",
    "Rel": 0.011938772422878044
   },
   {
    "Word": "knew",
    "Rel": 0.008027653161897162
   },
   {
    "Word": "sweet",
    "Rel": 0.008017518544768053
   },
   {
    "Word": "heart",
    "Rel": 0.008006356321803803
   },
   {
    "Word": "start",
    "Rel": 0.008001364883536212
   },
   {
    "Word": "move",
    "Rel": 0.008001094269029034
   },
   {
    "Word": "boy",
    "Rel": 0.008001024169639702
   },
   {
    "Word": "new",
    "Rel": 0.007996068307996684
   },
   {
    "Word": "free",
    "Rel": 0.007991822244194865
   },
   {
    "Word": "knees",
    "Rel": 0.007990729430038248
   }
  ]
 },
 {
  "Number": 12,
  "Words": [
   {
    "Word": "never",
    "Rel": 0.007770903957703483
   },
   {
    "Word": "let",
    "Rel": 0.00776723362574034
   },
   {
    "Word": "got",
    "Rel": 0.007767169911806623
   },
   {
    "Word": "girl",
    "Rel": 0.007764273820064655
   },
   {
    "Word": "one",
    "Rel": 0.0077591296258559764
   },
   {
    "Word": "come",
    "Rel": 0.007752828811678185
   },
   {
    "Word": "like",
    "Rel": 0.007752248961310709
   },
   {
    "Word": "ever",
    "Rel": 0.007747571631985886
   },
   {
    "Word": "take",
    "Rel": 0.007747248191295283
   },
   {
    "Word": "back",
    "Rel": 0.00774404551687363
   }
  ]
 },
 {
  "Number": 13,
  "Words": [
   {
    "Word": "mean",
    "Rel": 0.009723782611830128
   },
   {
    "Word": "o",
    "Rel": 0.009692784012795939
   },
   {
    "Word": "clock",
    "Rel": 0.009687650282581622
   },
   {
    "Word": "place",
    "Rel": 0.0096750727066746
   },
   {
    "Word": "lay",
    "Rel": 0.008887987564632964
   },
   {
    "Word": "tryin",
    "Rel": 0.006501552327460546
   },
   {
    "Word": "round",
    "Rel": 0.00650055729926559
   },
   {
    "Word": "heard",
    "Rel": 0.006497818858053515
   },
   {
    "Word": "flow",
    "Rel": 0.0064944330399703395
   },
   {
    "Word": "nigga",
    "Rel": 0.006492540667500585
   }
  ]
 },
 {
  "Number": 14,
  "Words": [
   {
    "Word": "years",
    "Rel": 0.01872262932293023
   },
   {
    "Word": "name",
    "Rel": 0.018145246093360597
   },
   {
    "Word": "belong",
    "Rel": 0.01814441994650946
   },
   {
    "Word": "tears",
    "Rel": 0.01808480281661555
   },
   {
    "Word": "carry",
    "Rel": 0.017969677355178196
   },
   {
    "Word": "miss",
    "Rel": 0.017874200870938273
   },
   {
    "Word": "rain",
    "Rel": 0.017802806801055605
   },
   {
    "Word": "long",
    "Rel": 0.01779287084449904
   },
   {
    "Word": "like",
    "Rel": 0.017707114113674153
   },
   {
    "Word": "heaven",
    "Rel": 0.01690598240759476
   }
  ]
 },
 {
  "Number": 15,
  "Words": [
   {
    "Word": "make",
    "Rel": 0.01315786271651668
   },
   {
    "Word": "away",
    "Rel": 0.012816534567005464
   },
   {
    "Word": "feel",
    "Rel": 0.01014941918792881
   },
   {
    "Word": "let",
    "Rel": 0.009225813667213792
   },
   {
    "Word": "one",
    "Rel": 0.009132534280861998
   },
   {
    "Word": "go",
    "Rel": 0.009048344737066899
   },
   {
    "Word": "believe",
    "Rel": 0.008910169792805612
   },
   {
    "Word": "lonely",
    "Rel": 0.008880784174031996
   },
   {
    "Word": "dream",
    "Rel": 0.008864580624910827
   },
   {
    "Word": "love",
    "Rel": 0.008803055670182207
   }
  ]
 },
 {
  "Number": 16,
  "Words": [
   {
    "Word": "end",
    "Rel": 0.013994741887732068
   },
   {
    "Word": "say",
    "Rel": 0.013807444224835501
   },
   {
    "Word": "see",
    "Rel": 0.013757370951018946
   },
   {
    "Word": "get",
    "Rel": 0.013753239544212464
   },
   {
    "Word": "got",
    "Rel": 0.011148383904863685
   },
   {
    "Word": "going",
    "Rel": 0.00929181010550535
   },
   {
    "Word": "still",
    "Rel": 0.009286696042592992
   },
   {
    "Word": "lose",
    "Rel": 0.009276158956876552
   },
   {
    "Word": "find",
    "Rel": 0.009266041294093932
   },
   {
    "Word": "many",
    "Rel": 0.009262773097322022
   }
  ]
 },
 {
  "Number": 17,
  "Words": [
   {
    "Word": "one",
    "Rel": 0.025174806893400164
   },
   {
    "Word": "love",
    "Rel": 0.025149795187145718
   },
   {
    "Word": "want",
    "Rel": 0.022872205744837285
   },
   {
    "Word": "come",
    "Rel": 0.021419945966403366
   },
   {
    "Word": "need",
    "Rel": 0.02087838555439708
   },
   {
    "Word": "life",
    "Rel": 0.019335420416403345
   },
   {
    "Word": "make",
    "Rel": 0.01933368982048448
   },
   {
    "Word": "feel",
    "Rel": 0.018396294302732857
   },
   {
    "Word": "baby",
    "Rel": 0.01684846225692838
   },
   {
    "Word": "inside",
    "Rel": 0.01621080174370882
   }
  ]
 },
 {
  "Number": 18,
  "Words": [
   {
    "Word": "say",
    "Rel": 0.03311623129786236
   },
   {
    "Word": "start",
    "Rel": 0.029127614896603406
   },
   {
    "Word": "reason",
    "Rel": 0.025796815035945202
   },
   {
    "Word": "enough",
    "Rel": 0.023877693947469216
   },
   {
    "Word": "without",
    "Rel": 0.02134087635418465
   },
   {
    "Word": "want",
    "Rel": 0.02059950624816915
   },
   {
    "Word": "trying",
    "Rel": 0.0197610429909688
   },
   {
    "Word": "truth",
    "Rel": 0.017457185021155803
   },
   {
    "Word": "eyes",
    "Rel": 0.01730264373213387
   },
   {
    "Word": "hurt",
    "Rel": 0.016533871206928556
   }
  ]
 },
 {
  "Number": 19,
  "Words": [
   {
    "Word": "never",
    "Rel": 0.02824375367949955
   },
   {
    "Word": "red",
    "Rel": 0.02721169186038971
   },
   {
    "Word": "mind",
    "Rel": 0.025803565837789103
   },
   {
    "Word": "one",
    "Rel": 0.018674891440846095
   },
   {
    "Word": "work",
    "Rel": 0.01839872200273082
   },
   {
    "Word": "hot",
    "Rel": 0.018254430494218703
   },
   {
    "Word": "big",
    "Rel": 0.018248246128192362
   },
   {
    "Word": "shit",
    "Rel": 0.01822889713523499
   },
   {
    "Word": "soft",
    "Rel": 0.018213704914265463
   },
   {
    "Word": "guys",
    "Rel": 0.018209914704689172
   }
  ]
 },
 {
  "Number": 20,
  "Words": [
   {
    "Word": "tonight",
    "Rel": 0.024267165448489315
   },
   {
    "Word": "know",
    "Rel": 0.022307263717671565
   },
   {
    "Word": "takes",
    "Rel": 0.020786010810550513
   },
   {
    "Word": "two",
    "Rel": 0.01789171279910304
   },
   {
    "Word": "start",
    "Rel": 0.016783302517884652
   },
   {
    "Word": "need",
    "Rel": 0.01586705850598109
   },
   {
    "Word": "one",
    "Rel": 0.015544174701244015
   },
   {
    "Word": "way",
    "Rel": 0.015396305635934365
   },
   {
    "Word": "heart",
    "Rel": 0.014929531356944243
   },
   {
    "Word": "together",
    "Rel": 0.014467768229818488
   }
  ]
 },
 {
  "Number": 21,
  "Words": [
   {
    "Word": "well",
    "Rel": 0.01049216379859247
   },
   {
    "Word": "mine",
    "Rel": 0.010313512175761895
   },
   {
    "Word": "hear",
    "Rel": 0.010107220082475632
   },
   {
    "Word": "mind",
    "Rel": 0.010025628103775974
   },
   {
    "Word": "could",
    "Rel": 0.0097361130067609
   },
   {
    "Word": "give",
    "Rel": 0.009020235145212689
   },
   {
    "Word": "always",
    "Rel": 0.008621977054248912
   },
   {
    "Word": "find",
    "Rel": 0.008610217008528206
   },
   {
    "Word": "like",
    "Rel": 0.008592458014574127
   },
   {
    "Word": "know",
    "Rel": 0.008581586880906175
   }
  ]
 },
 {
  "Number": 22,
  "Words": [
   {
    "Word": "take",
    "Rel": 0.024389255409130797
   },
   {
    "Word": "heart",
    "Rel": 0.02293898214309614
   },
   {
    "Word": "change",
    "Rel": 0.02128976596072448
   },
   {
    "Word": "love",
    "Rel": 0.01862286925201655
   },
   {
    "Word": "darling",
    "Rel": 0.01648152188026545
   },
   {
    "Word": "must",
    "Rel": 0.01638586833140966
   },
   {
    "Word": "run",
    "Rel": 0.016068218795349587
   },
   {
    "Word": "like",
    "Rel": 0.014643070396605545
   },
   {
    "Word": "close",
    "Rel": 0.014248287153536592
   },
   {
    "Word": "eyes",
    "Rel": 0.014214203321797413
   }
  ]
 },
 {
  "Number": 23,
  "Words": [
   {
    "Word": "used",
    "Rel": 0.006696821246958678
   },
   {
    "Word": "boy",
    "Rel": 0.005312759066189944
   },
   {
    "Word": "g",
    "Rel": 0.0053058136538791
   },
   {
    "Word": "coming",
    "Rel": 0.005303497919043447
   },
   {
    "Word": "big",
    "Rel": 0.005303273425332726
   },
   {
    "Word": "start",
    "Rel": 0.005220657992482251
   },
   {
    "Word": "must",
    "Rel": 0.004706808065223871
   },
   {
    "Word": "feeling",
    "Rel": 0.0046149484665817435
   },
   {
    "Word": "smile",
    "Rel": 0.004534653655736472
   },
   {
    "Word": "chicks",
    "Rel": 0.003585250086996002
   }
  ]
 },
 {
  "Number": 24,
  "Words": [
   {
    "Word": "turn",
    "Rel": 0.010678585066108477
   },
   {
    "Word": "back",
    "Rel": 0.009976272570239161
   },
   {
    "Word": "day",
    "Rel": 0.008511963242111838
   },
   {
    "Word": "running",
    "Rel": 0.008273649404462825
   },
   {
    "Word": "forget",
    "Rel": 0.008090028014494691
   },
   {
    "Word": "call",
    "Rel": 0.007622826347599498
   },
   {
    "Word": "know",
    "Rel": 0.0069015001670510905
   },
   {
    "Word": "every",
    "Rel": 0.006738623119547303
   },
   {
    "Word": "feel",
    "Rel": 0.006708641572011817
   },
   {
    "Word": "around",
    "Rel": 0.0062560530353211454
   }
  ]
 },
 {
  "Number": 25,
  "Words": [
   {
    "Word": "work",
    "Rel": 0.019193303151553927
   },
   {
    "Word": "baby",
    "Rel": 0.014795708679791927
   },
   {
    "Word": "feel",
    "Rel": 0.012949937861872039
   },
   {
    "Word": "let",
    "Rel": 0.012925823989913675
   },
   {
    "Word": "see",
    "Rel": 0.01289373026801175
   },
   {
    "Word": "well",
    "Rel": 0.012871905924892405
   },
   {
    "Word": "deep",
    "Rel": 0.01282085673682221
   },
   {
    "Word": "run",
    "Rel": 0.012713146833292792
   },
   {
    "Word": "rather",
    "Rel": 0.01252468651184854
   },
   {
    "Word": "much",
    "Rel": 0.010215348110032624
   }
  ]
 },
 {
  "Number": 26,
  "Words": [
   {
    "Word": "heart",
    "Rel": 0.012337449315186922
   },
   {
    "Word": "turn",
    "Rel": 0.010759784544538097
   },
   {
    "Word": "sky",
    "Rel": 0.010756836323366253
   },
   {
    "Word": "stars",
    "Rel": 0.010744298648278012
   },
   {
    "Word": "shining",
    "Rel": 0.010706832321118815
   },
   {
    "Word": "romantic",
    "Rel": 0.010702864667355256
   },
   {
    "Word": "adore",
    "Rel": 0.010699444030725149
   },
   {
    "Word": "tender",
    "Rel": 0.010696692361389423
   },
   {
    "Word": "word",
    "Rel": 0.010643008145484932
   },
   {
    "Word": "kiss",
    "Rel": 0.009426123698002208
   }
  ]
 },
 {
  "Number": 27,
  "Words": [
   {
    "Word": "back",
    "Rel": 0.013709828391437952
   },
   {
    "Word": "body",
    "Rel": 0.013657838903481977
   },
   {
    "Word": "us",
    "Rel": 0.013633552301541802
   },
   {
    "Word": "touch",
    "Rel": 0.013618062332244326
   },
   {
    "Word": "hard",
    "Rel": 0.006873904983223478
   },
   {
    "Word": "eyes",
    "Rel": 0.006858356161376441
   },
   {
    "Word": "always",
    "Rel": 0.006855893448498545
   },
   {
    "Word": "knew",
    "Rel": 0.0068392330026433145
   },
   {
    "Word": "believe",
    "Rel": 0.006838560759481224
   },
   {
    "Word": "every",
    "Rel": 0.006838364262353358
   }
  ]
 },
 {
  "Number": 28,
  "Words": [
   {
    "Word": "maybe",
    "Rel": 0.006853440607724102
   },
   {
    "Word": "outta",
    "Rel": 0.006850221776371011
   },
   {
    "Word": "moves",
    "Rel": 0.006849393423671763
   },
   {
    "Word": "lovers",
    "Rel": 0.0067819387067614735
   },
   {
    "Word": "likes",
    "Rel": 0.006769466707053861
   },
   {
    "Word": "car",
    "Rel": 0.0066932142781553836
   },
   {
    "Word": "thought",
    "Rel": 0.006658148469944325
   },
   {
    "Word": "fast",
    "Rel": 0.006143603392477122
   },
   {
    "Word": "em",
    "Rel": 0.0060748880696625
   },
   {
    "Word": "think",
    "Rel": 0.00537033326967677
   }
  ]
 },
 {
  "Number": 29,
  "Words": [
   {
    "Word": "know",
    "Rel": 0.022803571679875165
   },
   {
    "Word": "feel",
    "Rel": 0.022734516237673617
   },
   {
    "Word": "loves",
    "Rel": 0.022683068891238167
   },
   {
    "Word": "back",
    "Rel": 0.0225241862887893
   },
   {
    "Word": "day",
    "Rel": 0.022386460482972104
   },
   {
    "Word": "get",
    "Rel": 0.02236347158622749
   },
   {
    "Word": "need",
    "Rel": 0.022363196594988134
   },
   {
    "Word": "long",
    "Rel": 0.022276973565391642
   },
   {
    "Word": "away",
    "Rel": 0.02227439440442266
   },
   {
    "Word": "whole",
    "Rel": 0.0219941196110607
   }
  ]
 },
 {
  "Number": 30,
  "Words": [
   {
    "Word": "light",
    "Rel": 0.020059966309522104
   },
   {
    "Word": "one",
    "Rel": 0.01872280598593669
   },
   {
    "Word": "see",
    "Rel": 0.014508359358191357
   },
   {
    "Word": "get",
    "Rel": 0.014415889813606387
   },
   {
    "Word": "life",
    "Rel": 0.014414086224205038
   },
   {
    "Word": "enough",
    "Rel": 0.01438215843206164
   },
   {
    "Word": "sky",
    "Rel": 0.014262442419869367
   },
   {
    "Word": "times",
    "Rel": 0.014261228666333612
   },
   {
    "Word": "bring",
    "Rel": 0.014257632034672438
   },
   {
    "Word": "moon",
    "Rel": 0.014202467702975318
   }
  ]
 },
 {
  "Number": 31,
  "Words": [
   {
    "Word": "time",
    "Rel": 0.013259303706797823
   },
   {
    "Word": "thought",
    "Rel": 0.013255395217727386
   },
   {
    "Word": "even",
    "Rel": 0.013234404295898606
   },
   {
    "Word": "em",
    "Rel": 0.01311051272605216
   },
   {
    "Word": "radio",
    "Rel": 0.013043979936757353
   },
   {
    "Word": "knew",
    "Rel": 0.006645066791677661
   },
   {
    "Word": "meant",
    "Rel": 0.006634449422846568
   },
   {
    "Word": "far",
    "Rel": 0.006622480317038313
   },
   {
    "Word": "name",
    "Rel": 0.006616117727122981
   },
   {
    "Word": "along",
    "Rel": 0.006614102127051423
   }
  ]
 },
 {
  "Number": 32,
  "Words": [
   {
    "Word": "little",
    "Rel": 0.0713145595787384
   },
   {
    "Word": "going",
    "Rel": 0.07099096278268266
   },
   {
    "Word": "get",
    "Rel": 0.0525816954440989
   },
   {
    "Word": "turn",
    "Rel": 0.04088937867326764
   },
   {
    "Word": "around",
    "Rel": 0.04056691709315519
   },
   {
    "Word": "know",
    "Rel": 0.03749164691073437
   },
   {
    "Word": "nothing",
    "Rel": 0.02428847292202867
   },
   {
    "Word": "anything",
    "Rel": 0.02244516215327114
   },
   {
    "Word": "way",
    "Rel": 0.021260780256534457
   },
   {
    "Word": "take",
    "Rel": 0.020672775627450683
   }
  ]
 },
 {
  "Number": 33,
  "Words": [
   {
    "Word": "get",
    "Rel": 0.01865883871890061
   },
   {
    "Word": "stars",
    "Rel": 0.017243161256675205
   },
   {
    "Word": "away",
    "Rel": 0.016753277113717456
   },
   {
    "Word": "never",
    "Rel": 0.015428155962028603
   },
   {
    "Word": "night",
    "Rel": 0.013021142020571856
   },
   {
    "Word": "without",
    "Rel": 0.0128985123334024
   },
   {
    "Word": "life",
    "Rel": 0.012868142001854849
   },
   {
    "Word": "want",
    "Rel": 0.011481815035523112
   },
   {
    "Word": "good",
    "Rel": 0.010708624606520386
   },
   {
    "Word": "time",
    "Rel": 0.010174857012008948
   }
  ]
 },
 {
  "Number": 34,
  "Words": [
   {
    "Word": "told",
    "Rel": 0.021230220530868753
   },
   {
    "Word": "day",
    "Rel": 0.020018531778747697
   },
   {
    "Word": "one",
    "Rel": 0.020003737169336375
   },
   {
    "Word": "things",
    "Rel": 0.018309445926685226
   },
   {
    "Word": "place",
    "Rel": 0.01829480062812169
   },
   {
    "Word": "blue",
    "Rel": 0.017921978800749312
   },
   {
    "Word": "keep",
    "Rel": 0.01772705726983953
   },
   {
    "Word": "get",
    "Rel": 0.01722006498380011
   },
   {
    "Word": "make",
    "Rel": 0.015960500074832962
   },
   {
    "Word": "take",
    "Rel": 0.0148725963478441
   }
  ]
 },
 {
  "Number": 35,
  "Words": [
   {
    "Word": "go",
    "Rel": 0.009590795757457193
   },
   {
    "Word": "like",
    "Rel": 0.009585208703505693
   },
   {
    "Word": "know",
    "Rel": 0.009577754758889846
   },
   {
    "Word": "see",
    "Rel": 0.009576625898276927
   },
   {
    "Word": "need",
    "Rel": 0.009572743581775215
   },
   {
    "Word": "get",
    "Rel": 0.009562951671332198
   },
   {
    "Word": "wait",
    "Rel": 0.009561709511013362
   },
   {
    "Word": "much",
    "Rel": 0.009559358744241275
   },
   {
    "Word": "ai",
    "Rel": 0.009544099483535799
   },
   {
    "Word": "game",
    "Rel": 0.009537801018883919
   }
  ]
 },
 {
  "Number": 36,
  "Words": [
   {
    "Word": "around",
    "Rel": 0.009159570422481809
   },
   {
    "Word": "got",
    "Rel": 0.009152437170633992
   },
   {
    "Word": "see",
    "Rel": 0.009121181298381631
   },
   {
    "Word": "know",
    "Rel": 0.009087079654839559
   },
   {
    "Word": "kiss",
    "Rel": 0.006114443815729231
   },
   {
    "Word": "gone",
    "Rel": 0.00611376437231734
   },
   {
    "Word": "girl",
    "Rel": 0.00611054917192931
   },
   {
    "Word": "tell",
    "Rel": 0.006110113007080333
   },
   {
    "Word": "wrong",
    "Rel": 0.0061079546892393935
   },
   {
    "Word": "long",
    "Rel": 0.0061069302012885535
   }
  ]
 },
 {
  "Number": 37,
  "Words": [
   {
    "Word": "could",
    "Rel": 0.013339619760429565
   },
   {
    "Word": "know",
    "Rel": 0.011807015457707182
   },
   {
    "Word": "go",
    "Rel": 0.011122066971449705
   },
   {
    "Word": "far",
    "Rel": 0.008588086685623216
   },
   {
    "Word": "nothing",
    "Rel": 0.008573334666641456
   },
   {
    "Word": "cry",
    "Rel": 0.008165129861394966
   },
   {
    "Word": "day",
    "Rel": 0.008090909085158427
   },
   {
    "Word": "time",
    "Rel": 0.0076606669782647635
   },
   {
    "Word": "baby",
    "Rel": 0.007619551799744572
   },
   {
    "Word": "around",
    "Rel": 0.007559661507187526
   }
  ]
 },
 {
  "Number": 38,
  "Words": [
   {
    "Word": "god",
    "Rel": 0.010630130690417799
   },
   {
    "Word": "used",
    "Rel": 0.00952570182143836
   },
   {
    "Word": "even",
    "Rel": 0.009080243435501574
   },
   {
    "Word": "feel",
    "Rel": 0.00870294954249175
   },
   {
    "Word": "love",
    "Rel": 0.008389946942828233
   },
   {
    "Word": "go",
    "Rel": 0.008333321335992813
   },
   {
    "Word": "walk",
    "Rel": 0.00782831385756919
   },
   {
    "Word": "hard",
    "Rel": 0.007472390177455274
   },
   {
    "Word": "back",
    "Rel": 0.007174371977402222
   },
   {
    "Word": "like",
    "Rel": 0.006903289297730944
   }
  ]
 },
 {
  "Number": 39,
  "Words": [
   {
    "Word": "day",
    "Rel": 0.01083637949963794
   },
   {
    "Word": "cry",
    "Rel": 0.010419198688316634
   },
   {
    "Word": "boy",
    "Rel": 0.010403566716342454
   },
   {
    "Word": "love",
    "Rel": 0.009648938383822095
   },
   {
    "Word": "life",
    "Rel": 0.009369863050213393
   },
   {
    "Word": "understand",
    "Rel": 0.009230983141676837
   },
   {
    "Word": "give",
    "Rel": 0.009123215181539692
   },
   {
    "Word": "everything",
    "Rel": 0.008570650295262295
   },
   {
    "Word": "get",
    "Rel": 0.008234489829524487
   },
   {
    "Word": "heart",
    "Rel": 0.008181602495928095
   }
  ]
 },
 {
  "Number": 40,
  "Words": [
   {
    "Word": "ever",
    "Rel": 0.010368659164471938
   },
   {
    "Word": "never",
    "Rel": 0.009982162816675483
   },
   {
    "Word": "love",
    "Rel": 0.009198291593079543
   },
   {
    "Word": "baby",
    "Rel": 0.0089785429296647
   },
   {
    "Word": "us",
    "Rel": 0.007365485808178683
   },
   {
    "Word": "die",
    "Rel": 0.0073591754670187595
   },
   {
    "Word": "best",
    "Rel": 0.007349328121583232
   },
   {
    "Word": "say",
    "Rel": 0.007341627182089852
   },
   {
    "Word": "life",
    "Rel": 0.007335450321749715
   },
   {
    "Word": "floor",
    "Rel": 0.00731184212647885
   }
  ]
 },
 {
  "Number": 41,
  "Words": [
   {
    "Word": "man",
    "Rel": 0.008207725021781182
   },
   {
    "Word": "something",
    "Rel": 0.007944855480513349
   },
   {
    "Word": "comes",
    "Rel": 0.00728831208242973
   },
   {
    "Word": "nothing",
    "Rel": 0.007273764338240104
   },
   {
    "Word": "car",
    "Rel": 0.007189934957277756
   },
   {
    "Word": "ai",
    "Rel": 0.007034451430143108
   },
   {
    "Word": "next",
    "Rel": 0.00697715994152199
   },
   {
    "Word": "like",
    "Rel": 0.006623303162781698
   },
   {
    "Word": "day",
    "Rel": 0.006320710977025258
   },
   {
    "Word": "good",
    "Rel": 0.006029525243735703
   }
  ]
 },
 {
  "Number": 42,
  "Words": [
   {
    "Word": "hard",
    "Rel": 0.01644603806035931
   },
   {
    "Word": "try",
    "Rel": 0.01207584147692714
   },
   {
    "Word": "love",
    "Rel": 0.011930015964714527
   },
   {
    "Word": "us",
    "Rel": 0.009963705184324673
   },
   {
    "Word": "felt",
    "Rel": 0.009865773320063415
   },
   {
    "Word": "thought",
    "Rel": 0.009799014436196709
   },
   {
    "Word": "stay",
    "Rel": 0.009759554260410502
   },
   {
    "Word": "want",
    "Rel": 0.009529576491582432
   },
   {
    "Word": "something",
    "Rel": 0.009312740377978683
   },
   {
    "Word": "things",
    "Rel": 0.008721840982317491
   }
  ]
 },
 {
  "Number": 43,
  "Words": [
   {
    "Word": "never",
    "Rel": 0.018221448409125682
   },
   {
    "Word": "heart",
    "Rel": 0.01818381166939757
   },
   {
    "Word": "way",
    "Rel": 0.017264002674315708
   },
   {
    "Word": "outside",
    "Rel": 0.016693978898762372
   },
   {
    "Word": "happiness",
    "Rel": 0.016666138545901404
   },
   {
    "Word": "began",
    "Rel": 0.016637197394579074
   },
   {
    "Word": "gave",
    "Rel": 0.016522429376000302
   },
   {
    "Word": "fall",
    "Rel": 0.016135583432021306
   },
   {
    "Word": "stand",
    "Rel": 0.012516199346048737
   },
   {
    "Word": "late",
    "Rel": 0.01157867046477593
   }
  ]
 },
 {
  "Number": 44,
  "Words": [
   {
    "Word": "world",
    "Rel": 0.0190104860783853
   },
   {
    "Word": "know",
    "Rel": 0.01688467905397942
   },
   {
    "Word": "far",
    "Rel": 0.016682545958477523
   },
   {
    "Word": "go",
    "Rel": 0.016668990152549034
   },
   {
    "Word": "tell",
    "Rel": 0.01472218330035915
   },
   {
    "Word": "need",
    "Rel": 0.011435890420542275
   },
   {
    "Word": "thought",
    "Rel": 0.01114088407134322
   },
   {
    "Word": "way",
    "Rel": 0.011136678471083069
   },
   {
    "Word": "say",
    "Rel": 0.011125887348398318
   },
   {
    "Word": "things",
    "Rel": 0.011108190103847268
   }
  ]
 },
 {
  "Number": 45,
  "Words": [
   {
    "Word": "fool",
    "Rel": 0.0054414958984376795
   },
   {
    "Word": "turn",
    "Rel": 0.004964679563527031
   },
   {
    "Word": "take",
    "Rel": 0.004444491203764598
   },
   {
    "Word": "got",
    "Rel": 0.004183207255469201
   },
   {
    "Word": "way",
    "Rel": 0.004165629986814721
   },
   {
    "Word": "get",
    "Rel": 0.0039871956893543945
   },
   {
    "Word": "love",
    "Rel": 0.003916305512628517
   },
   {
    "Word": "like",
    "Rel": 0.003904007660054107
   },
   {
    "Word": "baby",
    "Rel": 0.003772430698552086
   },
   {
    "Word": "leavin",
    "Rel": 0.0036528261069370786
   }
  ]
 },
 {
  "Number": 46,
  "Words": [
   {
    "Word": "know",
    "Rel": 0.010706405375822358
   },
   {
    "Word": "somebody",
    "Rel": 0.009528823070509012
   },
   {
    "Word": "going",
    "Rel": 0.009496048347126028
   },
   {
    "Word": "else",
    "Rel": 0.009456065447428979
   },
   {
    "Word": "feeling",
    "Rel": 0.009092810414895684
   },
   {
    "Word": "ever",
    "Rel": 0.00899231520615441
   },
   {
    "Word": "things",
    "Rel": 0.008985587868444195
   },
   {
    "Word": "baby",
    "Rel": 0.008797774366512063
   },
   {
    "Word": "keep",
    "Rel": 0.00857968417972125
   },
   {
    "Word": "back",
    "Rel": 0.008456315724398955
   }
  ]
 },
 {
  "Number": 47,
  "Words": [
   {
    "Word": "go",
    "Rel": 0.008739759922781719
   },
   {
    "Word": "let",
    "Rel": 0.0087385335635368
   },
   {
    "Word": "make",
    "Rel": 0.008737580471696614
   },
   {
    "Word": "give",
    "Rel": 0.008736939713561246
   },
   {
    "Word": "take",
    "Rel": 0.008736583166164302
   },
   {
    "Word": "back",
    "Rel": 0.008735190296001387
   },
   {
    "Word": "gonna",
    "Rel": 0.008734787869129368
   },
   {
    "Word": "time",
    "Rel": 0.008733059884059676
   },
   {
    "Word": "come",
    "Rel": 0.008731207665798582
   },
   {
    "Word": "move",
    "Rel": 0.008724437927596059
   }
  ]
 },
 {
  "Number": 48,
  "Words": [
   {
    "Word": "die",
    "Rel": 0.006748055937476517
   },
   {
    "Word": "fly",
    "Rel": 0.0067405340840372314
   },
   {
    "Word": "thinkin",
    "Rel": 0.006732556279581577
   },
   {
    "Word": "low",
    "Rel": 0.006731982592820183
   },
   {
    "Word": "blow",
    "Rel": 0.006729457259166876
   },
   {
    "Word": "top",
    "Rel": 0.006727394557087702
   },
   {
    "Word": "em",
    "Rel": 0.006726126377360231
   },
   {
    "Word": "mase",
    "Rel": 0.0067239720487642434
   },
   {
    "Word": "notorious",
    "Rel": 0.0067230946081123935
   },
   {
    "Word": "cat",
    "Rel": 0.006723076657458975
   }
  ]
 },
 {
  "Number": 49,
  "Words": [
   {
    "Word": "every",
    "Rel": 0.00996195077769799
   },
   {
    "Word": "take",
    "Rel": 0.009306380658223751
   },
   {
    "Word": "like",
    "Rel": 0.009197584824754178
   },
   {
    "Word": "sure",
    "Rel": 0.008935714607883546
   },
   {
    "Word": "day",
    "Rel": 0.008877238364543528
   },
   {
    "Word": "man",
    "Rel": 0.0073280764716744055
   },
   {
    "Word": "say",
    "Rel": 0.007147643237840714
   },
   {
    "Word": "baby",
    "Rel": 0.006944498560932181
   },
   {
    "Word": "something",
    "Rel": 0.0068173720321497355
   },
   {
    "Word": "lonely",
    "Rel": 0.0065627836878581845
   }
  ]
 },
 {
  "Number": 50,
  "Words": [
   {
    "Word": "know",
    "Rel": 0.014534892247635064
   },
   {
    "Word": "long",
    "Rel": 0.012760010689523305
   },
   {
    "Word": "let",
    "Rel": 0.011240101961370994
   },
   {
    "Word": "feel",
    "Rel": 0.011026335980457935
   },
   {
    "Word": "time",
    "Rel": 0.010562510405310133
   },
   {
    "Word": "make",
    "Rel": 0.01037876892874383
   },
   {
    "Word": "go",
    "Rel": 0.01025035305880255
   },
   {
    "Word": "mood",
    "Rel": 0.010184448222149778
   },
   {
    "Word": "dance",
    "Rel": 0.010172531421110784
   },
   {
    "Word": "hit",
    "Rel": 0.010150657945965725
   }
  ]
 },
 {
  "Number": 51,
  "Words": [
   {
    "Word": "god",
    "Rel": 0.014226951080964027
   },
   {
    "Word": "face",
    "Rel": 0.01305706242072496
   },
   {
    "Word": "one",
    "Rel": 0.00995691891695859
   },
   {
    "Word": "said",
    "Rel": 0.009505438672721852
   },
   {
    "Word": "yes",
    "Rel": 0.009497509511837665
   },
   {
    "Word": "finally",
    "Rel": 0.00948608339448663
   },
   {
    "Word": "lover",
    "Rel": 0.009473888947647514
   },
   {
    "Word": "stranger",
    "Rel": 0.00946022703078671
   },
   {
    "Word": "believe",
    "Rel": 0.009459592077254582
   },
   {
    "Word": "brother",
    "Rel": 0.009445842551322995
   }
  ]
 },
 {
  "Number": 52,
  "Words": [
   {
    "Word": "side",
    "Rel": 0.011374409742882495
   },
   {
    "Word": "say",
    "Rel": 0.011364675408666423
   },
   {
    "Word": "tell",
    "Rel": 0.011217247316780633
   },
   {
    "Word": "like",
    "Rel": 0.011217192037824288
   },
   {
    "Word": "said",
    "Rel": 0.01119638406040088
   },
   {
    "Word": "many",
    "Rel": 0.011168107398334855
   },
   {
    "Word": "love",
    "Rel": 0.011145936716915753
   },
   {
    "Word": "know",
    "Rel": 0.011132122520383687
   },
   {
    "Word": "god",
    "Rel": 0.011122797268377413
   },
   {
    "Word": "people",
    "Rel": 0.01110744177547016
   }
  ]
 },
 {
  "Number": 53,
  "Words": [
   {
    "Word": "always",
    "Rel": 0.019543051570532363
   },
   {
    "Word": "love",
    "Rel": 0.017746256712363333
   },
   {
    "Word": "know",
    "Rel": 0.017316014045037114
   },
   {
    "Word": "feel",
    "Rel": 0.017190507441934927
   },
   {
    "Word": "around",
    "Rel": 0.014531285258536518
   },
   {
    "Word": "way",
    "Rel": 0.01327789492468799
   },
   {
    "Word": "stay",
    "Rel": 0.012388051150969087
   },
   {
    "Word": "side",
    "Rel": 0.011391348784686804
   },
   {
    "Word": "heart",
    "Rel": 0.011293254812010961
   },
   {
    "Word": "everything",
    "Rel": 0.011255821553416485
   }
  ]
 },
 {
  "Number": 54,
  "Words": [
   {
    "Word": "away",
    "Rel": 0.03465707601835438
   },
   {
    "Word": "know",
    "Rel": 0.03395999674709689
   },
   {
    "Word": "go",
    "Rel": 0.030333395239386742
   },
   {
    "Word": "ever",
    "Rel": 0.02774616403865111
   },
   {
    "Word": "love",
    "Rel": 0.02754252001162036
   },
   {
    "Word": "life",
    "Rel": 0.02577989893848886
   },
   {
    "Word": "need",
    "Rel": 0.02564814323388061
   },
   {
    "Word": "one",
    "Rel": 0.025265889720150713
   },
   {
    "Word": "said",
    "Rel": 0.022823323409537855
   },
   {
    "Word": "without",
    "Rel": 0.02110852903719015
   }
  ]
 },
 {
  "Number": 55,
  "Words": [
   {
    "Word": "baby",
    "Rel": 0.03867127889363588
   },
   {
    "Word": "know",
    "Rel": 0.03278181763113719
   },
   {
    "Word": "like",
    "Rel": 0.031887014787211954
   },
   {
    "Word": "love",
    "Rel": 0.03046376727144061
   },
   {
    "Word": "let",
    "Rel": 0.02723900989702904
   },
   {
    "Word": "got",
    "Rel": 0.02693797441318143
   },
   {
    "Word": "see",
    "Rel": 0.026228177581654914
   },
   {
    "Word": "want",
    "Rel": 0.02387699727298418
   },
   {
    "Word": "make",
    "Rel": 0.023656035874316774
   },
   {
    "Word": "time",
    "Rel": 0.022942952414539305
   }
  ]
 },
 {
  "Number": 56,
  "Words": [
   {
    "Word": "tock",
    "Rel": 0.009389479451041514
   },
   {
    "Word": "tick",
    "Rel": 0.009350100051883248
   },
   {
    "Word": "dig",
    "Rel": 0.009081874495772763
   },
   {
    "Word": "ride",
    "Rel": 0.007685421430710736
   },
   {
    "Word": "close",
    "Rel": 0.005678307001937738
   },
   {
    "Word": "stop",
    "Rel": 0.005575522264160207
   },
   {
    "Word": "better",
    "Rel": 0.005558289186152226
   },
   {
    "Word": "long",
    "Rel": 0.005274660243376948
   },
   {
    "Word": "back",
    "Rel": 0.005229775329407229
   },
   {
    "Word": "real",
    "Rel": 0.00516067120467031
   }
  ]
 },
 {
  "Number": 57,
  "Words": [
   {
    "Word": "wait",
    "Rel": 0.006607976353714929
   },
   {
    "Word": "boy",
    "Rel": 0.006604442653385596
   },
   {
    "Word": "many",
    "Rel": 0.006602336352632907
   },
   {
    "Word": "show",
    "Rel": 0.006601189525960806
   },
   {
    "Word": "still",
    "Rel": 0.006599831825258114
   },
   {
    "Word": "high",
    "Rel": 0.006597667598317916
   },
   {
    "Word": "everybody",
    "Rel": 0.006588455435723372
   },
   {
    "Word": "step",
    "Rel": 0.006585150163484758
   },
   {
    "Word": "black",
    "Rel": 0.006583312748709713
   },
   {
    "Word": "em",
    "Rel": 0.006582828182046242
   }
  ]
 },
 {
  "Number": 58,
  "Words": [
   {
    "Word": "babe",
    "Rel": 0.016875385048346042
   },
   {
    "Word": "play",
    "Rel": 0.013846260790338783
   },
   {
    "Word": "trust",
    "Rel": 0.012085409776494652
   },
   {
    "Word": "things",
    "Rel": 0.011737116667460842
   },
   {
    "Word": "take",
    "Rel": 0.011512279847321628
   },
   {
    "Word": "want",
    "Rel": 0.010714387407865135
   },
   {
    "Word": "call",
    "Rel": 0.010609053689109433
   },
   {
    "Word": "said",
    "Rel": 0.010389999394599298
   },
   {
    "Word": "love",
    "Rel": 0.01024091972996675
   },
   {
    "Word": "told",
    "Rel": 0.010221943997554201
   }
  ]
 },
 {
  "Number": 59,
  "Words": [
   {
    "Word": "baby",
    "Rel": 0.006842681795985867
   },
   {
    "Word": "girl",
    "Rel": 0.006654660584364503
   },
   {
    "Word": "make",
    "Rel": 0.00652785254489519
   },
   {
    "Word": "come",
    "Rel": 0.00643604716852332
   },
   {
    "Word": "best",
    "Rel": 0.006266470849091213
   },
   {
    "Word": "began",
    "Rel": 0.006258863506163729
   },
   {
    "Word": "home",
    "Rel": 0.006250761569728273
   },
   {
    "Word": "point",
    "Rel": 0.006234745100493955
   },
   {
    "Word": "relationship",
    "Rel": 0.006234523250704288
   },
   {
    "Word": "ring",
    "Rel": 0.006230940398623503
   }
  ]
 },
 {
  "Number": 60,
  "Words": [
   {
    "Word": "took",
    "Rel": 0.009209850894217156
   },
   {
    "Word": "right",
    "Rel": 0.00919877616088213
   },
   {
    "Word": "else",
    "Rel": 0.00918717366743804
   },
   {
    "Word": "line",
    "Rel": 0.00918612754992051
   },
   {
    "Word": "feel",
    "Rel": 0.009185809609738742
   },
   {
    "Word": "light",
    "Rel": 0.009184916811270304
   },
   {
    "Word": "let",
    "Rel": 0.009175280317232859
   },
   {
    "Word": "go",
    "Rel": 0.009174759217741644
   },
   {
    "Word": "need",
    "Rel": 0.009172702267141345
   },
   {
    "Word": "life",
    "Rel": 0.009153923194863165
   }
  ]
 },
 {
  "Number": 61,
  "Words": [
   {
    "Word": "place",
    "Rel": 0.00499314680762424
   },
   {
    "Word": "fire",
    "Rel": 0.004987869051205499
   },
   {
    "Word": "rock",
    "Rel": 0.004986620962931891
   },
   {
    "Word": "red",
    "Rel": 0.004985709777334253
   },
   {
    "Word": "ho",
    "Rel": 0.004985082417372603
   },
   {
    "Word": "peter",
    "Rel": 0.004984958714853816
   },
   {
    "Word": "brooklyn",
    "Rel": 0.004984223994160841
   },
   {
    "Word": "sex",
    "Rel": 0.004984027209745146
   },
   {
    "Word": "new",
    "Rel": 0.004891856962549045
   },
   {
    "Word": "world",
    "Rel": 0.004528072583736251
   }
  ]
 },
 {
  "Number": 62,
  "Words": [
   {
    "Word": "know",
    "Rel": 0.01613438504084049
   },
   {
    "Word": "take",
    "Rel": 0.010797001487307025
   },
   {
    "Word": "want",
    "Rel": 0.010774027388567755
   },
   {
    "Word": "get",
    "Rel": 0.010756306687672062
   },
   {
    "Word": "better",
    "Rel": 0.010738556267490956
   },
   {
    "Word": "keep",
    "Rel": 0.010721425464117864
   },
   {
    "Word": "love",
    "Rel": 0.010696493714265572
   },
   {
    "Word": "hard",
    "Rel": 0.005381157616910547
   },
   {
    "Word": "try",
    "Rel": 0.005371095506241244
   },
   {
    "Word": "hold",
    "Rel": 0.005369042759052784
   }
  ]
 },
 {
  "Number": 63,
  "Words": [
   {
    "Word": "fool",
    "Rel": 0.021919743404084473
   },
   {
    "Word": "say",
    "Rel": 0.019951377075702336
   },
   {
    "Word": "cry",
    "Rel": 0.016389405334731724
   },
   {
    "Word": "take",
    "Rel": 0.0163349168185374
   },
   {
    "Word": "time",
    "Rel": 0.01611876871284759
   },
   {
    "Word": "left",
    "Rel": 0.014342066555042374
   },
   {
    "Word": "said",
    "Rel": 0.014332704854118663
   },
   {
    "Word": "look",
    "Rel": 0.01369141294987092
   },
   {
    "Word": "love",
    "Rel": 0.012721300873906523
   },
   {
    "Word": "thought",
    "Rel": 0.011110605791731938
   }
  ]
 },
 {
  "Number": 64,
  "Words": [
   {
    "Word": "cry",
    "Rel": 0.022890252424436368
   },
   {
    "Word": "go",
    "Rel": 0.02203304960888539
   },
   {
    "Word": "break",
    "Rel": 0.019593987548829524
   },
   {
    "Word": "without",
    "Rel": 0.0193134964905104
   },
   {
    "Word": "life",
    "Rel": 0.017371196196506924
   },
   {
    "Word": "heart",
    "Rel": 0.016412572479242823
   },
   {
    "Word": "love",
    "Rel": 0.015164201207121867
   },
   {
    "Word": "let",
    "Rel": 0.015015638271968786
   },
   {
    "Word": "nights",
    "Rel": 0.014895115532607743
   },
   {
    "Word": "pain",
    "Rel": 0.013287353568172799
   }
  ]
 },
 {
  "Number": 65,
  "Words": [
   {
    "Word": "every",
    "Rel": 0.010473004472042184
   },
   {
    "Word": "like",
    "Rel": 0.009792789373597703
   },
   {
    "Word": "crazy",
    "Rel": 0.009570802127215056
   },
   {
    "Word": "life",
    "Rel": 0.00956849743835558
   },
   {
    "Word": "pull",
    "Rel": 0.009544607736791805
   },
   {
    "Word": "black",
    "Rel": 0.009543680122472973
   },
   {
    "Word": "city",
    "Rel": 0.009519436027342268
   },
   {
    "Word": "water",
    "Rel": 0.009509119923679588
   },
   {
    "Word": "breath",
    "Rel": 0.009456220903552479
   },
   {
    "Word": "inside",
    "Rel": 0.009451532675531255
   }
  ]
 },
 {
  "Number": 66,
  "Words": [
   {
    "Word": "one",
    "Rel": 0.018795101693150223
   },
   {
    "Word": "know",
    "Rel": 0.01846847853135668
   },
   {
    "Word": "baby",
    "Rel": 0.018417046464583975
   },
   {
    "Word": "babe",
    "Rel": 0.017106722206164084
   },
   {
    "Word": "believe",
    "Rel": 0.014426503929709107
   },
   {
    "Word": "never",
    "Rel": 0.012563137304798
   },
   {
    "Word": "need",
    "Rel": 0.012336792112235423
   },
   {
    "Word": "way",
    "Rel": 0.01221703613870501
   },
   {
    "Word": "like",
    "Rel": 0.01217965920984585
   },
   {
    "Word": "want",
    "Rel": 0.012126284422021287
   }
  ]
 },
 {
  "Number": 67,
  "Words": [
   {
    "Word": "die",
    "Rel": 0.0036654416373093175
   },
   {
    "Word": "left",
    "Rel": 0.003665420535069015
   },
   {
    "Word": "whole",
    "Rel": 0.003664955315113804
   },
   {
    "Word": "believe",
    "Rel": 0.003664715100156526
   },
   {
    "Word": "scared",
    "Rel": 0.0036644466181096893
   },
   {
    "Word": "mean",
    "Rel": 0.003663640937122202
   },
   {
    "Word": "stay",
    "Rel": 0.0036636374766892375
   },
   {
    "Word": "hear",
    "Rel": 0.0036635375776842053
   },
   {
    "Word": "place",
    "Rel": 0.0036631229608984866
   },
   {
    "Word": "forget",
    "Rel": 0.0036630580945263744
   }
  ]
 },
 {
  "Number": 68,
  "Words": [
   {
    "Word": "give",
    "Rel": 0.015259376936031797
   },
   {
    "Word": "right",
    "Rel": 0.013078091461537635
   },
   {
    "Word": "last",
    "Rel": 0.012740519765392498
   },
   {
    "Word": "time",
    "Rel": 0.01217381695025032
   },
   {
    "Word": "world",
    "Rel": 0.010385358679550793
   },
   {
    "Word": "way",
    "Rel": 0.01031783755210936
   },
   {
    "Word": "one",
    "Rel": 0.010249133235793692
   },
   {
    "Word": "make",
    "Rel": 0.01018908134493865
   },
   {
    "Word": "love",
    "Rel": 0.009575922360275001
   },
   {
    "Word": "needed",
    "Rel": 0.009524516540487546
   }
  ]
 },
 {
  "Number": 69,
  "Words": [
   {
    "Word": "took",
    "Rel": 0.008403981343875242
   },
   {
    "Word": "find",
    "Rel": 0.008400596017441723
   },
   {
    "Word": "alone",
    "Rel": 0.008398035271908761
   },
   {
    "Word": "one",
    "Rel": 0.008314897072118436
   },
   {
    "Word": "know",
    "Rel": 0.00826783756175913
   },
   {
    "Word": "hard",
    "Rel": 0.004228851362695033
   },
   {
    "Word": "thought",
    "Rel": 0.004221828385803888
   },
   {
    "Word": "keep",
    "Rel": 0.004220724341398449
   },
   {
    "Word": "could",
    "Rel": 0.0042191309313198075
   },
   {
    "Word": "said",
    "Rel": 0.00421895890377593
   }
  ]
 },
 {
  "Number": 70,
  "Words": [
   {
    "Word": "know",
    "Rel": 0.0292204919588696
   },
   {
    "Word": "walk",
    "Rel": 0.022615343790010886
   },
   {
    "Word": "nothin",
    "Rel": 0.020710652984651533
   },
   {
    "Word": "saw",
    "Rel": 0.02043732176396134
   },
   {
    "Word": "gotta",
    "Rel": 0.019882079878725832
   },
   {
    "Word": "fine",
    "Rel": 0.019766969266086773
   },
   {
    "Word": "nothing",
    "Rel": 0.019592625730846816
   },
   {
    "Word": "baby",
    "Rel": 0.018620622567768058
   },
   {
    "Word": "say",
    "Rel": 0.01828778825054026
   },
   {
    "Word": "stay",
    "Rel": 0.016774412123082748
   }
  ]
 },
 {
  "Number": 71,
  "Words": [
   {
    "Word": "sayin",
    "Rel": 0.011289622906808482
   },
   {
    "Word": "hand",
    "Rel": 0.011179351185382576
   },
   {
    "Word": "eye",
    "Rel": 0.011171888847169048
   },
   {
    "Word": "learn",
    "Rel": 0.011155653541631502
   },
   {
    "Word": "lives",
    "Rel": 0.011151402716308606
   },
   {
    "Word": "talkin",
    "Rel": 0.0111331321128609
   },
   {
    "Word": "even",
    "Rel": 0.011089684173419385
   },
   {
    "Word": "gotta",
    "Rel": 0.010852043530066845
   },
   {
    "Word": "man",
    "Rel": 0.010800420481386491
   },
   {
    "Word": "guess",
    "Rel": 0.010761015469705842
   }
  ]
 },
 {
  "Number": 72,
  "Words": [
   {
    "Word": "back",
    "Rel": 0.0211095197084161
   },
   {
    "Word": "could",
    "Rel": 0.01978820834588451
   },
   {
    "Word": "gone",
    "Rel": 0.01788213882789571
   },
   {
    "Word": "well",
    "Rel": 0.017566036056252513
   },
   {
    "Word": "know",
    "Rel": 0.015215542847571591
   },
   {
    "Word": "goodbye",
    "Rel": 0.015043350121264962
   },
   {
    "Word": "past",
    "Rel": 0.014330727886064449
   },
   {
    "Word": "never",
    "Rel": 0.014018665794893947
   },
   {
    "Word": "old",
    "Rel": 0.013991978525154915
   },
   {
    "Word": "wish",
    "Rel": 0.013847726145898596
   }
  ]
 },
 {
  "Number": 73,
  "Words": [
   {
    "Word": "hard",
    "Rel": 0.00500884941619568
   },
   {
    "Word": "well",
    "Rel": 0.004999565113698061
   },
   {
    "Word": "stay",
    "Rel": 0.004994970983614703
   },
   {
    "Word": "tried",
    "Rel": 0.00499384297488685
   },
   {
    "Word": "help",
    "Rel": 0.004993593367788337
   },
   {
    "Word": "believe",
    "Rel": 0.004993296612960295
   },
   {
    "Word": "face",
    "Rel": 0.004993276657077943
   },
   {
    "Word": "soul",
    "Rel": 0.004991664431421087
   },
   {
    "Word": "strong",
    "Rel": 0.004990441214273121
   },
   {
    "Word": "comes",
    "Rel": 0.004990405415011412
   }
  ]
 },
 {
  "Number": 74,
  "Words": [
   {
    "Word": "still",
    "Rel": 0.00961530918329573
   },
   {
    "Word": "told",
    "Rel": 0.00840755142986808
   },
   {
    "Word": "enough",
    "Rel": 0.008079456812569831
   },
   {
    "Word": "ai",
    "Rel": 0.006293329788541339
   },
   {
    "Word": "around",
    "Rel": 0.006216615006363795
   },
   {
    "Word": "back",
    "Rel": 0.005965255788919227
   },
   {
    "Word": "could",
    "Rel": 0.005803042723310066
   },
   {
    "Word": "laid",
    "Rel": 0.005632977767684295
   },
   {
    "Word": "wit",
    "Rel": 0.005624797381691958
   },
   {
    "Word": "kick",
    "Rel": 0.005615164857034807
   }
  ]
 },
 {
  "Number": 75,
  "Words": [
   {
    "Word": "love",
    "Rel": 0.019148684349230883
   },
   {
    "Word": "let",
    "Rel": 0.01661900135321038
   },
   {
    "Word": "way",
    "Rel": 0.01594669897538992
   },
   {
    "Word": "feel",
    "Rel": 0.015735818294339943
   },
   {
    "Word": "life",
    "Rel": 0.014885611842751934
   },
   {
    "Word": "believe",
    "Rel": 0.014279189143901925
   },
   {
    "Word": "make",
    "Rel": 0.013628559229557836
   },
   {
    "Word": "know",
    "Rel": 0.011613791703831514
   },
   {
    "Word": "man",
    "Rel": 0.011406459009782053
   },
   {
    "Word": "ever",
    "Rel": 0.011374917641340996
   }
  ]
 },
 {
  "Number": 76,
  "Words": [
   {
    "Word": "go",
    "Rel": 0.01231690630946347
   },
   {
    "Word": "well",
    "Rel": 0.011597813645985267
   },
   {
    "Word": "show",
    "Rel": 0.009873717954506067
   },
   {
    "Word": "come",
    "Rel": 0.009771539681787256
   },
   {
    "Word": "gonna",
    "Rel": 0.00974938659885675
   },
   {
    "Word": "might",
    "Rel": 0.009578985353962358
   },
   {
    "Word": "man",
    "Rel": 0.009536580012425635
   },
   {
    "Word": "night",
    "Rel": 0.007778340306622477
   },
   {
    "Word": "past",
    "Rel": 0.007602627555598166
   },
   {
    "Word": "day",
    "Rel": 0.007079586519761734
   }
  ]
 },
 {
  "Number": 77,
  "Words": [
   {
    "Word": "take",
    "Rel": 0.011512919570852381
   },
   {
    "Word": "make",
    "Rel": 0.011507798865593858
   },
   {
    "Word": "kiss",
    "Rel": 0.011424995188281826
   },
   {
    "Word": "hand",
    "Rel": 0.01138460315905377
   },
   {
    "Word": "open",
    "Rel": 0.011362265287372924
   },
   {
    "Word": "broken",
    "Rel": 0.011357620529012428
   },
   {
    "Word": "makes",
    "Rel": 0.011352410547906575
   },
   {
    "Word": "got",
    "Rel": 0.01129216659894892
   },
   {
    "Word": "man",
    "Rel": 0.011267237930304172
   },
   {
    "Word": "tell",
    "Rel": 0.011264614874373396
   }
  ]
 },
 {
  "Number": 78,
  "Words": [
   {
    "Word": "like",
    "Rel": 0.014937408609884212
   },
   {
    "Word": "moon",
    "Rel": 0.014825256307074078
   },
   {
    "Word": "tell",
    "Rel": 0.00997513082222714
   },
   {
    "Word": "ever",
    "Rel": 0.009965045906922217
   },
   {
    "Word": "let",
    "Rel": 0.009964168409869948
   },
   {
    "Word": "hear",
    "Rel": 0.0099593918055469
   },
   {
    "Word": "every",
    "Rel": 0.009948593040702251
   },
   {
    "Word": "sun",
    "Rel": 0.009945019054049814
   },
   {
    "Word": "thing",
    "Rel": 0.009944918359703507
   },
   {
    "Word": "give",
    "Rel": 0.009941871965711932
   }
  ]
 },
 {
  "Number": 79,
  "Words": [
   {
    "Word": "close",
    "Rel": 0.011696142505326149
   },
   {
    "Word": "forever",
    "Rel": 0.009938551472107017
   },
   {
    "Word": "everything",
    "Rel": 0.0095046841284331
   },
   {
    "Word": "love",
    "Rel": 0.00921577387515953
   },
   {
    "Word": "touch",
    "Rel": 0.008454665074540001
   },
   {
    "Word": "need",
    "Rel": 0.00775765773405956
   },
   {
    "Word": "say",
    "Rel": 0.007375938299212767
   },
   {
    "Word": "breath",
    "Rel": 0.007280050118603958
   },
   {
    "Word": "every",
    "Rel": 0.007219346965559019
   },
   {
    "Word": "true",
    "Rel": 0.007167531913742893
   }
  ]
 },
 {
  "Number": 80,
  "Words": [
   {
    "Word": "nobody",
    "Rel": 0.018291849603857643
   },
   {
    "Word": "baby",
    "Rel": 0.01450803598750632
   },
   {
    "Word": "love",
    "Rel": 0.014498697083978149
   },
   {
    "Word": "go",
    "Rel": 0.014487620422651878
   },
   {
    "Word": "day",
    "Rel": 0.014244597663668448
   },
   {
    "Word": "like",
    "Rel": 0.014234408897151898
   },
   {
    "Word": "goes",
    "Rel": 0.014098184103569892
   },
   {
    "Word": "never",
    "Rel": 0.009766223860350977
   },
   {
    "Word": "back",
    "Rel": 0.009749031711876093
   },
   {
    "Word": "need",
    "Rel": 0.009714475961881868
   }
  ]
 },
 {
  "Number": 81,
  "Words": [
   {
    "Word": "eyes",
    "Rel": 0.02083763687519005
   },
   {
    "Word": "something",
    "Rel": 0.018891418175357676
   },
   {
    "Word": "even",
    "Rel": 0.01815882160761015
   },
   {
    "Word": "world",
    "Rel": 0.01797798784517033
   },
   {
    "Word": "warm",
    "Rel": 0.01452417880565915
   },
   {
    "Word": "reach",
    "Rel": 0.014485929976692518
   },
   {
    "Word": "though",
    "Rel": 0.014466199276060344
   },
   {
    "Word": "lost",
    "Rel": 0.014443274838732431
   },
   {
    "Word": "dreams",
    "Rel": 0.013116570551860232
   },
   {
    "Word": "could",
    "Rel": 0.012701917203060811
   }
  ]
 },
 {
  "Number": 82,
  "Words": [
   {
    "Word": "us",
    "Rel": 0.007646344772539192
   },
   {
    "Word": "talk",
    "Rel": 0.006271522999251915
   },
   {
    "Word": "little",
    "Rel": 0.005493469088032587
   },
   {
    "Word": "still",
    "Rel": 0.00533141006310857
   },
   {
    "Word": "find",
    "Rel": 0.005203332204976718
   },
   {
    "Word": "know",
    "Rel": 0.005196409503451004
   },
   {
    "Word": "ways",
    "Rel": 0.004283095853579871
   },
   {
    "Word": "mr",
    "Rel": 0.004281923100705085
   },
   {
    "Word": "eat",
    "Rel": 0.004281599307051422
   },
   {
    "Word": "buy",
    "Rel": 0.004281357071819932
   }
  ]
 },
 {
  "Number": 83,
  "Words": [
   {
    "Word": "world",
    "Rel": 0.00614640790307595
   },
   {
    "Word": "go",
    "Rel": 0.006145286307124064
   },
   {
    "Word": "take",
    "Rel": 0.006141305010201379
   },
   {
    "Word": "make",
    "Rel": 0.006139241329727678
   },
   {
    "Word": "let",
    "Rel": 0.006138914174422976
   },
   {
    "Word": "got",
    "Rel": 0.006138536657904841
   },
   {
    "Word": "right",
    "Rel": 0.006136807112371902
   },
   {
    "Word": "love",
    "Rel": 0.006136116642235569
   },
   {
    "Word": "like",
    "Rel": 0.006135393554826262
   },
   {
    "Word": "back",
    "Rel": 0.006134434374687372
   }
  ]
 },
 {
  "Number": 84,
  "Words": [
   {
    "Word": "get",
    "Rel": 0.010073338954058092
   },
   {
    "Word": "one",
    "Rel": 0.009021639737746763
   },
   {
    "Word": "track",
    "Rel": 0.007945658414455402
   },
   {
    "Word": "even",
    "Rel": 0.007925421673512
   },
   {
    "Word": "bout",
    "Rel": 0.007924131562706486
   },
   {
    "Word": "coming",
    "Rel": 0.007922439815648689
   },
   {
    "Word": "believe",
    "Rel": 0.007921623810002219
   },
   {
    "Word": "day",
    "Rel": 0.007843387453396187
   },
   {
    "Word": "little",
    "Rel": 0.007750201027326439
   },
   {
    "Word": "long",
    "Rel": 0.0076109012477814115
   }
  ]
 },
 {
  "Number": 85,
  "Words": [
   {
    "Word": "go",
    "Rel": 0.01321740300706379
   },
   {
    "Word": "time",
    "Rel": 0.010806230255448142
   },
   {
    "Word": "know",
    "Rel": 0.010683153430972807
   },
   {
    "Word": "mind",
    "Rel": 0.010587084510043384
   },
   {
    "Word": "said",
    "Rel": 0.010511091521512056
   },
   {
    "Word": "cry",
    "Rel": 0.009814498732786977
   },
   {
    "Word": "try",
    "Rel": 0.008899138318417288
   },
   {
    "Word": "find",
    "Rel": 0.008393376659536825
   },
   {
    "Word": "another",
    "Rel": 0.008337052595929874
   },
   {
    "Word": "hard",
    "Rel": 0.008325231516343042
   }
  ]
 },
 {
  "Number": 86,
  "Words": [
   {
    "Word": "eyes",
    "Rel": 0.011986180229268388
   },
   {
    "Word": "really",
    "Rel": 0.0093340503176355
   },
   {
    "Word": "walk",
    "Rel": 0.009270823916485042
   },
   {
    "Word": "ask",
    "Rel": 0.008317983258347457
   },
   {
    "Word": "problem",
    "Rel": 0.00831686515529284
   },
   {
    "Word": "e",
    "Rel": 0.008306690967707074
   },
   {
    "Word": "last",
    "Rel": 0.008259358839111585
   },
   {
    "Word": "whole",
    "Rel": 0.008259155014430582
   },
   {
    "Word": "class",
    "Rel": 0.00825061955139645
   },
   {
    "Word": "trying",
    "Rel": 0.008239679147323143
   }
  ]
 },
 {
  "Number": 87,
  "Words": [
   {
    "Word": "believe",
    "Rel": 0.021055380956849435
   },
   {
    "Word": "open",
    "Rel": 0.019941753028909073
   },
   {
    "Word": "love",
    "Rel": 0.017567236806772562
   },
   {
    "Word": "life",
    "Rel": 0.01682001537765708
   },
   {
    "Word": "touch",
    "Rel": 0.01374123215825546
   },
   {
    "Word": "see",
    "Rel": 0.013020866505033589
   },
   {
    "Word": "know",
    "Rel": 0.012801100872309427
   },
   {
    "Word": "nothing",
    "Rel": 0.012613010184866158
   },
   {
    "Word": "far",
    "Rel": 0.012505720000630714
   },
   {
    "Word": "door",
    "Rel": 0.011878632560977563
   }
  ]
 },
 {
  "Number": 88,
  "Words": [
   {
    "Word": "day",
    "Rel": 0.05067022752687059
   },
   {
    "Word": "time",
    "Rel": 0.04672742153735025
   },
   {
    "Word": "look",
    "Rel": 0.043339896272406114
   },
   {
    "Word": "together",
    "Rel": 0.04187591934402523
   },
   {
    "Word": "hold",
    "Rel": 0.041385388696401196
   },
   {
    "Word": "still",
    "Rel": 0.03811475751458834
   },
   {
    "Word": "us",
    "Rel": 0.0372017143456639
   },
   {
    "Word": "way",
    "Rel": 0.036480986454909554
   },
   {
    "Word": "every",
    "Rel": 0.03128643890534552
   },
   {
    "Word": "heart",
    "Rel": 0.031243316616701062
   }
  ]
 },
 {
  "Number": 89,
  "Words": [
   {
    "Word": "world",
    "Rel": 0.003978957584944224
   },
   {
    "Word": "always",
    "Rel": 0.0039757729505353265
   },
   {
    "Word": "really",
    "Rel": 0.0039756319609515105
   },
   {
    "Word": "man",
    "Rel": 0.003974702689565448
   },
   {
    "Word": "thought",
    "Rel": 0.003974530464975285
   },
   {
    "Word": "everything",
    "Rel": 0.0039742277764735524
   },
   {
    "Word": "could",
    "Rel": 0.003973888953271232
   },
   {
    "Word": "girl",
    "Rel": 0.003973351518749044
   },
   {
    "Word": "ever",
    "Rel": 0.003973291941276161
   },
   {
    "Word": "found",
    "Rel": 0.003972836031197016
   }
  ]
 },
 {
  "Number": 90,
  "Words": [
   {
    "Word": "could",
    "Rel": 0.005853742528236243
   },
   {
    "Word": "never",
    "Rel": 0.005849124548035762
   },
   {
    "Word": "let",
    "Rel": 0.005848627212794277
   },
   {
    "Word": "go",
    "Rel": 0.0058482317569306655
   },
   {
    "Word": "give",
    "Rel": 0.005847760095806346
   },
   {
    "Word": "one",
    "Rel": 0.0058465312576858955
   },
   {
    "Word": "take",
    "Rel": 0.005845981950240668
   },
   {
    "Word": "make",
    "Rel": 0.0058459355904766745
   },
   {
    "Word": "time",
    "Rel": 0.005845504753935934
   },
   {
    "Word": "man",
    "Rel": 0.005845381401112533
   }
  ]
 },
 {
  "Number": 91,
  "Words": [
   {
    "Word": "come",
    "Rel": 0.009488649623288326
   },
   {
    "Word": "mind",
    "Rel": 0.009487927693356626
   },
   {
    "Word": "make",
    "Rel": 0.009476216389836494
   },
   {
    "Word": "like",
    "Rel": 0.009457042918980337
   },
   {
    "Word": "stand",
    "Rel": 0.009451228062838338
   },
   {
    "Word": "remember",
    "Rel": 0.00943167801712373
   },
   {
    "Word": "boys",
    "Rel": 0.009398370334586703
   },
   {
    "Word": "wild",
    "Rel": 0.009394466866999816
   },
   {
    "Word": "feel",
    "Rel": 0.004769096796444353
   },
   {
    "Word": "around",
    "Rel": 0.004761418222989782
   }
  ]
 },
 {
  "Number": 92,
  "Words": [
   {
    "Word": "none",
    "Rel": 0.9959174810488857
   },
   {
    "Word": "time",
    "Rel": 0.000040002501868261414
   },
   {
    "Word": "living",
    "Rel": 0.000035380263569059485
   },
   {
    "Word": "hard",
    "Rel": 0.000030372081495215246
   },
   {
    "Word": "everything",
    "Rel": 0.000026543175613080413
   },
   {
    "Word": "still",
    "Rel": 0.00002482123877501209
   },
   {
    "Word": "tell",
    "Rel": 0.000023929710375647043
   },
   {
    "Word": "please",
    "Rel": 0.000023737936734906697
   },
   {
    "Word": "day",
    "Rel": 0.00001975998674034587
   },
   {
    "Word": "used",
    "Rel": 0.00001854933122975346
   }
  ]
 },
 {
  "Number": 93,
  "Words": [
   {
    "Word": "say",
    "Rel": 0.010861069210738743
   },
   {
    "Word": "look",
    "Rel": 0.009394568965682396
   },
   {
    "Word": "start",
    "Rel": 0.009388010069768072
   },
   {
    "Word": "know",
    "Rel": 0.008810332227471724
   },
   {
    "Word": "love",
    "Rel": 0.008236564246322426
   },
   {
    "Word": "one",
    "Rel": 0.007807341198979829
   },
   {
    "Word": "god",
    "Rel": 0.007497870613572525
   },
   {
    "Word": "tomorrow",
    "Rel": 0.007471337002134346
   },
   {
    "Word": "want",
    "Rel": 0.007374784102531366
   },
   {
    "Word": "believe",
    "Rel": 0.007086154003267615
   }
  ]
 },
 {
  "Number": 94,
  "Words": [
   {
    "Word": "feel",
    "Rel": 0.01113418414153809
   },
   {
    "Word": "back",
    "Rel": 0.011131270542376176
   },
   {
    "Word": "got",
    "Rel": 0.011128234298023721
   },
   {
    "Word": "never",
    "Rel": 0.011127546147879315
   },
   {
    "Word": "said",
    "Rel": 0.011117136156270115
   },
   {
    "Word": "come",
    "Rel": 0.011112620804433034
   },
   {
    "Word": "know",
    "Rel": 0.011105073837565536
   },
   {
    "Word": "turn",
    "Rel": 0.011083970536294232
   },
   {
    "Word": "people",
    "Rel": 0.010997536652601446
   },
   {
    "Word": "big",
    "Rel": 0.01096655539730642
   }
  ]
 },
 {
  "Number": 95,
  "Words": [
   {
    "Word": "right",
    "Rel": 0.006253087799145883
   },
   {
    "Word": "always",
    "Rel": 0.006252802130640466
   },
   {
    "Word": "tell",
    "Rel": 0.006251650307555329
   },
   {
    "Word": "let",
    "Rel": 0.0062512984860814405
   },
   {
    "Word": "got",
    "Rel": 0.006249957064360955
   },
   {
    "Word": "keep",
    "Rel": 0.006248664888956086
   },
   {
    "Word": "gonna",
    "Rel": 0.006248648743709023
   },
   {
    "Word": "give",
    "Rel": 0.006248476621899261
   },
   {
    "Word": "time",
    "Rel": 0.006247815234346451
   },
   {
    "Word": "said",
    "Rel": 0.006245289316084971
   }
  ]
 },
 {
  "Number": 96,
  "Words": [
   {
    "Word": "want",
    "Rel": 0.01102859118906987
   },
   {
    "Word": "time",
    "Rel": 0.010650240776903843
   },
   {
    "Word": "like",
    "Rel": 0.010396318284215313
   },
   {
    "Word": "take",
    "Rel": 0.009612598981329061
   },
   {
    "Word": "know",
    "Rel": 0.009545665867261938
   },
   {
    "Word": "sweet",
    "Rel": 0.008786235952613224
   },
   {
    "Word": "even",
    "Rel": 0.008531577921154075
   },
   {
    "Word": "close",
    "Rel": 0.008226757319490038
   },
   {
    "Word": "eyes",
    "Rel": 0.007889119063581659
   },
   {
    "Word": "hold",
    "Rel": 0.007854976669919227
   }
  ]
 },
 {
  "Number": 97,
  "Words": [
   {
    "Word": "show",
    "Rel": 0.0625679933187229
   },
   {
    "Word": "understand",
    "Rel": 0.026751753505576608
   },
   {
    "Word": "care",
    "Rel": 0.025165070884600016
   },
   {
    "Word": "alright",
    "Rel": 0.021323614965955726
   },
   {
    "Word": "air",
    "Rel": 0.020141379107428938
   },
   {
    "Word": "around",
    "Rel": 0.018956010197336184
   },
   {
    "Word": "let",
    "Rel": 0.01813245015997701
   },
   {
    "Word": "tell",
    "Rel": 0.016755238799905984
   },
   {
    "Word": "got",
    "Rel": 0.015667435685292903
   },
   {
    "Word": "like",
    "Rel": 0.01564751727558196
   }
  ]
 },
 {
  "Number": 98,
  "Words": [
   {
    "Word": "find",
    "Rel": 0.010757606637394841
   },
   {
    "Word": "let",
    "Rel": 0.009565646467433755
   },
   {
    "Word": "time",
    "Rel": 0.009268808629936433
   },
   {
    "Word": "face",
    "Rel": 0.00863241880413741
   },
   {
    "Word": "fears",
    "Rel": 0.008570882953779812
   },
   {
    "Word": "make",
    "Rel": 0.0077745943711472745
   },
   {
    "Word": "day",
    "Rel": 0.007291075120067318
   },
   {
    "Word": "need",
    "Rel": 0.007228528719196881
   },
   {
    "Word": "know",
    "Rel": 0.0068289705623388345
   },
   {
    "Word": "feel",
    "Rel": 0.006801943612565608
   }
  ]
 },
 {
  "Number": 99,
  "Words": [
   {
    "Word": "feel",
    "Rel": 0.011280041281916328
   },
   {
    "Word": "like",
    "Rel": 0.010445442726604259
   },
   {
    "Word": "change",
    "Rel": 0.010242741646058545
   },
   {
    "Word": "rain",
    "Rel": 0.010195059880022212
   },
   {
    "Word": "right",
    "Rel": 0.009880522755494031
   },
   {
    "Word": "could",
    "Rel": 0.009461546380083943
   },
   {
    "Word": "said",
    "Rel": 0.008118627847200603
   },
   {
    "Word": "past",
    "Rel": 0.006873109135604872
   },
   {
    "Word": "forever",
    "Rel": 0.006858052208044497
   },
   {
    "Word": "comes",
    "Rel": 0.006845400965149502
   }
  ]
 }
]