[
 {
  "Number": 0,
  "Words": [
   {
    "Word": "back",
    "Rel": 0.023326237916180603
   },
   {
    "Word": "got",
    "Rel": 0.02021319378696218
   },
   {
    "Word": "want",
    "Rel": 0.015867763158156564
   },
   {
    "Word": "eyes",
    "Rel": 0.01586733414780414
   },
   {
    "Word": "around",
    "Rel": 0.015780321260917964
   },
   {
    "Word": "said",
    "Rel": 0.01577256743352662
   },
   {
    "Word": "floor",
    "Rel": 0.015570231732842324
   },
   {
    "Word": "looked",
    "Rel": 0.015561136686602759
   },
   {
    "Word": "ai",
    "Rel": 0.013955336723798104
   },
   {
    "Word": "see",
    "Rel": 0.013195002022211515
   }
  ]
 },
 {
  "Number": 1,
  "Words": [
   {
    "Word": "got",
    "Rel": 0.02000965703759875
   },
   {
    "Word": "play",
    "Rel": 0.013530271478990122
   },
   {
    "Word": "say",
    "Rel": 0.013468213264701063
   },
   {
    "Word": "today",
    "Rel": 0.013442974644527652
   },
   {
    "Word": "much",
    "Rel": 0.01343956512383735
   },
   {
    "Word": "last",
    "Rel": 0.013415122384041703
   },
   {
    "Word": "boys",
    "Rel": 0.013256390680602867
   },
   {
    "Word": "night",
    "Rel": 0.012901962003092824
   },
   {
    "Word": "want",
    "Rel": 0.01271236004429874
   },
   {
    "Word": "time",
    "Rel": 0.011653869768150346
   }
  ]
 },
 {
  "Number": 2,
  "Words": [
   {
    "Word": "around",
    "Rel": 0.01220907628847179
   },
   {
    "Word": "ai",
    "Rel": 0.012041530952940943
   },
   {
    "Word": "leave",
    "Rel": 0.011295800635606468
   },
   {
    "Word": "time",
    "Rel": 0.010972418747782034
   },
   {
    "Word": "need",
    "Rel": 0.010668756981757222
   },
   {
    "Word": "got",
    "Rel": 0.009207171584076891
   },
   {
    "Word": "girl",
    "Rel": 0.008931992661612941
   },
   {
    "Word": "turn",
    "Rel": 0.008913413034240862
   },
   {
    "Word": "try",
    "Rel": 0.008912151018987102
   },
   {
    "Word": "knees",
    "Rel": 0.00890990162373872
   }
  ]
 },
 {
  "Number": 3,
  "Words": [
   {
    "Word": "boys",
    "Rel": 0.02017584723293238
   },
   {
    "Word": "eyes",
    "Rel": 0.013721180030775841
   },
   {
    "Word": "never",
    "Rel": 0.013709988727432534
   },
   {
    "Word": "come",
    "Rel": 0.01368737234567114
   },
   {
    "Word": "break",
    "Rel": 0.013672205882547646
   },
   {
    "Word": "wild",
    "Rel": 0.013574800644121414
   },
   {
    "Word": "secrets",
    "Rel": 0.013506725510325493
   },
   {
    "Word": "world",
    "Rel": 0.013506456582232278
   },
   {
    "Word": "says",
    "Rel": 0.013501998026244612
   },
   {
    "Word": "rings",
    "Rel": 0.013499000003758647
   }
  ]
 },
 {
  "Number": 4,
  "Words": [
   {
    "Word": "say",
    "Rel": 0.019931609339129224
   },
   {
    "Word": "know",
    "Rel": 0.016846447243511888
   },
   {
    "Word": "well",
    "Rel": 0.01580575667786715
   },
   {
    "Word": "another",
    "Rel": 0.012958817221975963
   },
   {
    "Word": "get",
    "Rel": 0.012710419898715172
   },
   {
    "Word": "time",
    "Rel": 0.011706436756273393
   },
   {
    "Word": "love",
    "Rel": 0.01110390551460027
   },
   {
    "Word": "words",
    "Rel": 0.010553378359945097
   },
   {
    "Word": "give",
    "Rel": 0.010548737425270906
   },
   {
    "Word": "heard",
    "Rel": 0.010500382612550974
   }
  ]
 },
 {
  "Number": 5,
  "Words": [
   {
    "Word": "none",
    "Rel": 0.9987366934539511
   },
   {
    "Word": "one",
    "Rel": 0.000013815715648332093
   },
   {
    "Word": "know",
    "Rel": 0.000012395521743041058
   },
   {
    "Word": "come",
    "Rel": 0.00001080419193195567
   },
   {
    "Word": "way",
    "Rel": 0.000008318746719006089
   },
   {
    "Word": "got",
    "Rel": 0.000008094348382329142
   },
   {
    "Word": "heart",
    "Rel": 0.000007163506681863859
   },
   {
    "Word": "think",
    "Rel": 0.0000070316356473127635
   },
   {
    "Word": "well",
    "Rel": 0.000006820166666072922
   },
   {
    "Word": "kindness",
    "Rel": 0.0000067303969942219725
   }
  ]
 },
 {
  "Number": 6,
  "Words": [
   {
    "Word": "goes",
    "Rel": 0.019184847156191502
   },
   {
    "Word": "make",
    "Rel": 0.019003741098012672
   },
   {
    "Word": "got",
    "Rel": 0.01569992744876059
   },
   {
    "Word": "like",
    "Rel": 0.012939117392946366
   },
   {
    "Word": "fire",
    "Rel": 0.012816919358976673
   },
   {
    "Word": "girl",
    "Rel": 0.01277444659114805
   },
   {
    "Word": "spinnin",
    "Rel": 0.012720120228369852
   },
   {
    "Word": "walkin",
    "Rel": 0.012715800169546699
   },
   {
    "Word": "time",
    "Rel": 0.01267170877932112
   },
   {
    "Word": "world",
    "Rel": 0.012497151923505843
   }
  ]
 },
 {
  "Number": 7,
  "Words": [
   {
    "Word": "face",
    "Rel": 0.016866338396470885
   },
   {
    "Word": "make",
    "Rel": 0.015002271311294333
   },
   {
    "Word": "gone",
    "Rel": 0.013378565357626073
   },
   {
    "Word": "hold",
    "Rel": 0.01218899442718887
   },
   {
    "Word": "us",
    "Rel": 0.010917690104113881
   },
   {
    "Word": "ever",
    "Rel": 0.010756257601836072
   },
   {
    "Word": "leave",
    "Rel": 0.010514177120697877
   },
   {
    "Word": "feel",
    "Rel": 0.01018795469425337
   },
   {
    "Word": "say",
    "Rel": 0.010126072169678655
   },
   {
    "Word": "could",
    "Rel": 0.009828792909654757
   }
  ]
 },
 {
  "Number": 8,
  "Words": [
   {
    "Word": "tell",
    "Rel": 0.012513367824156603
   },
   {
    "Word": "always",
    "Rel": 0.009098991214702973
   },
   {
    "Word": "say",
    "Rel": 0.00908165137342873
   },
   {
    "Word": "need",
    "Rel": 0.00907779258839726
   },
   {
    "Word": "know",
    "Rel": 0.009069344989997718
   },
   {
    "Word": "old",
    "Rel": 0.009059344952424423
   },
   {
    "Word": "dance",
    "Rel": 0.0090552262520444
   },
   {
    "Word": "matter",
    "Rel": 0.00904140340866236
   },
   {
    "Word": "rock",
    "Rel": 0.009037738083214997
   },
   {
    "Word": "money",
    "Rel": 0.009036717344099656
   }
  ]
 },
 {
  "Number": 9,
  "Words": [
   {
    "Word": "think",
    "Rel": 0.018405136567839358
   },
   {
    "Word": "say",
    "Rel": 0.010302228517479963
   },
   {
    "Word": "best",
    "Rel": 0.01004764961940779
   },
   {
    "Word": "want",
    "Rel": 0.009680179500417429
   },
   {
    "Word": "tell",
    "Rel": 0.009265689150971316
   },
   {
    "Word": "told",
    "Rel": 0.009217686320951922
   },
   {
    "Word": "gonna",
    "Rel": 0.008585181239626935
   },
   {
    "Word": "take",
    "Rel": 0.007713754459476995
   },
   {
    "Word": "lies",
    "Rel": 0.007684688209716888
   },
   {
    "Word": "everybody",
    "Rel": 0.0076438257751078
   }
  ]
 },
 {
  "Number": 10,
  "Words": [
   {
    "Word": "somebody",
    "Rel": 0.037269668600732664
   },
   {
    "Word": "friend",
    "Rel": 0.025466485435010452
   },
   {
    "Word": "arms",
    "Rel": 0.02233876658174516
   },
   {
    "Word": "baby",
    "Rel": 0.021231173836312237
   },
   {
    "Word": "keep",
    "Rel": 0.018908695290771403
   },
   {
    "Word": "back",
    "Rel": 0.018763185036611382
   },
   {
    "Word": "say",
    "Rel": 0.017479330839646076
   },
   {
    "Word": "man",
    "Rel": 0.017293876816676462
   },
   {
    "Word": "feel",
    "Rel": 0.016153370353947302
   },
   {
    "Word": "ever",
    "Rel": 0.01574646462232668
   }
  ]
 },
 {
  "Number": 11,
  "Words": [
   {
    "Word": "one",
    "Rel": 0.014617861638125429
   },
   {
    "Word": "never",
    "Rel": 0.014206097865773749
   },
   {
    "Word": "way",
    "Rel": 0.014060574279054005
   },
   {
    "Word": "love",
    "Rel": 0.013961581959251476
   },
   {
    "Word": "someone",
    "Rel": 0.013796117206935282
   },
   {
    "Word": "tell",
    "Rel": 0.013639374461657463
   },
   {
    "Word": "say",
    "Rel": 0.012229969895505836
   },
   {
    "Word": "long",
    "Rel": 0.012194578018320733
   },
   {
    "Word": "baby",
    "Rel": 0.012141274873894277
   },
   {
    "Word": "girl",
    "Rel": 0.011409262477469517
   }
  ]
 },
 {
  "Number": 12,
  "Words": [
   {
    "Word": "every",
    "Rel": 0.014959529814962012
   },
   {
    "Word": "make",
    "Rel": 0.01194662007702603
   },
   {
    "Word": "share",
    "Rel": 0.01132390776449073
   },
   {
    "Word": "baby",
    "Rel": 0.011023458654421734
   },
   {
    "Word": "forever",
    "Rel": 0.010328284225115343
   },
   {
    "Word": "morning",
    "Rel": 0.010261646837218944
   },
   {
    "Word": "mean",
    "Rel": 0.010217072617091028
   },
   {
    "Word": "take",
    "Rel": 0.010140511694215523
   },
   {
    "Word": "tell",
    "Rel": 0.00830218356765238
   },
   {
    "Word": "everything",
    "Rel": 0.007977531350395504
   }
  ]
 },
 {
  "Number": 13,
  "Words": [
   {
    "Word": "man",
    "Rel": 0.06873932896715039
   },
   {
    "Word": "woman",
    "Rel": 0.047889702666340205
   },
   {
    "Word": "get",
    "Rel": 0.04396005409528507
   },
   {
    "Word": "door",
    "Rel": 0.03575878756280255
   },
   {
    "Word": "night",
    "Rel": 0.034140121093683216
   },
   {
    "Word": "comes",
    "Rel": 0.02797985510762767
   },
   {
    "Word": "around",
    "Rel": 0.02765194821453095
   },
   {
    "Word": "ai",
    "Rel": 0.021770033789443696
   },
   {
    "Word": "nothing",
    "Rel": 0.021757746530011866
   },
   {
    "Word": "heart",
    "Rel": 0.02137178551887586
   }
  ]
 },
 {
  "Number": 14,
  "Words": [
   {
    "Word": "ever",
    "Rel": 0.01579287305487752
   },
   {
    "Word": "could",
    "Rel": 0.015754048892276152
   },
   {
    "Word": "feel",
    "Rel": 0.015753463619101363
   },
   {
    "Word": "else",
    "Rel": 0.015748547718065286
   },
   {
    "Word": "one",
    "Rel": 0.015742371576422047
   },
   {
    "Word": "gone",
    "Rel": 0.0157280526621703
   },
   {
    "Word": "baby",
    "Rel": 0.015550620167268235
   },
   {
    "Word": "born",
    "Rel": 0.015446425165164408
   },
   {
    "Word": "mistakes",
    "Rel": 0.015418892221418555
   },
   {
    "Word": "human",
    "Rel": 0.015398169577844447
   }
  ]
 },
 {
  "Number": 15,
  "Words": [
   {
    "Word": "stay",
    "Rel": 0.029639152514132083
   },
   {
    "Word": "done",
    "Rel": 0.022647323195913466
   },
   {
    "Word": "far",
    "Rel": 0.019899263751064173
   },
   {
    "Word": "away",
    "Rel": 0.01889159599912845
   },
   {
    "Word": "us",
    "Rel": 0.017577111660919093
   },
   {
    "Word": "ask",
    "Rel": 0.01662818542844756
   },
   {
    "Word": "dreamer",
    "Rel": 0.016575777136166946
   },
   {
    "Word": "take",
    "Rel": 0.01288940545079617
   },
   {
    "Word": "door",
    "Rel": 0.01257715916520784
   },
   {
    "Word": "leave",
    "Rel": 0.012003087825674982
   }
  ]
 },
 {
  "Number": 16,
  "Words": [
   {
    "Word": "around",
    "Rel": 0.01659394052984111
   },
   {
    "Word": "feel",
    "Rel": 0.016584080404164495
   },
   {
    "Word": "could",
    "Rel": 0.01654554486981892
   },
   {
    "Word": "like",
    "Rel": 0.016540113070719197
   },
   {
    "Word": "man",
    "Rel": 0.01639098289255504
   },
   {
    "Word": "wait",
    "Rel": 0.016333558820433112
   },
   {
    "Word": "til",
    "Rel": 0.016251489530204822
   },
   {
    "Word": "think",
    "Rel": 0.008271540549737352
   },
   {
    "Word": "well",
    "Rel": 0.008260723944316904
   },
   {
    "Word": "every",
    "Rel": 0.008249547464117345
   }
  ]
 },
 {
  "Number": 17,
  "Words": [
   {
    "Word": "close",
    "Rel": 0.013795066630871235
   },
   {
    "Word": "gonna",
    "Rel": 0.0137335633355659
   },
   {
    "Word": "always",
    "Rel": 0.013733434361564933
   },
   {
    "Word": "must",
    "Rel": 0.013665792777717742
   },
   {
    "Word": "never",
    "Rel": 0.009243423914262963
   },
   {
    "Word": "dreams",
    "Rel": 0.009203849143880777
   },
   {
    "Word": "lives",
    "Rel": 0.009188685418693925
   },
   {
    "Word": "ride",
    "Rel": 0.009178489118769177
   },
   {
    "Word": "born",
    "Rel": 0.009163140580483542
   },
   {
    "Word": "try",
    "Rel": 0.009113419367559328
   }
  ]
 },
 {
  "Number": 18,
  "Words": [
   {
    "Word": "look",
    "Rel": 0.012346344283662821
   },
   {
    "Word": "yes",
    "Rel": 0.011645577798750728
   },
   {
    "Word": "found",
    "Rel": 0.01155062166485903
   },
   {
    "Word": "seen",
    "Rel": 0.011499385273648969
   },
   {
    "Word": "listen",
    "Rel": 0.0113954807973362
   },
   {
    "Word": "stand",
    "Rel": 0.01094216617171385
   },
   {
    "Word": "eyes",
    "Rel": 0.009054951896619546
   },
   {
    "Word": "tell",
    "Rel": 0.008998867139851353
   },
   {
    "Word": "like",
    "Rel": 0.008280323258689791
   },
   {
    "Word": "still",
    "Rel": 0.007740916055709008
   }
  ]
 },
 {
  "Number": 19,
  "Words": [
   {
    "Word": "mind",
    "Rel": 0.013898085404922605
   },
   {
    "Word": "got",
    "Rel": 0.012929153694027352
   },
   {
    "Word": "get",
    "Rel": 0.012770485960148471
   },
   {
    "Word": "way",
    "Rel": 0.011381487522683321
   },
   {
    "Word": "say",
    "Rel": 0.01102129400485187
   },
   {
    "Word": "like",
    "Rel": 0.00968048751507977
   },
   {
    "Word": "better",
    "Rel": 0.009320183354141115
   },
   {
    "Word": "waiting",
    "Rel": 0.009301530396411429
   },
   {
    "Word": "man",
    "Rel": 0.009239265567924426
   },
   {
    "Word": "else",
    "Rel": 0.009118670783321446
   }
  ]
 },
 {
  "Number": 20,
  "Words": [
   {
    "Word": "far",
    "Rel": 0.010665998344777316
   },
   {
    "Word": "better",
    "Rel": 0.010616420328316467
   },
   {
    "Word": "must",
    "Rel": 0.010575576481069134
   },
   {
    "Word": "made",
    "Rel": 0.009830832862228347
   },
   {
    "Word": "want",
    "Rel": 0.00894774313738501
   },
   {
    "Word": "go",
    "Rel": 0.008299460195646837
   },
   {
    "Word": "feel",
    "Rel": 0.00817798732347064
   },
   {
    "Word": "let",
    "Rel": 0.00762250995174437
   },
   {
    "Word": "know",
    "Rel": 0.007195116857375505
   },
   {
    "Word": "love",
    "Rel": 0.0067412533751757394
   }
  ]
 },
 {
  "Number": 21,
  "Words": [
   {
    "Word": "said",
    "Rel": 0.018875540219752372
   },
   {
    "Word": "one",
    "Rel": 0.01729784976596088
   },
   {
    "Word": "heart",
    "Rel": 0.015714434328001948
   },
   {
    "Word": "life",
    "Rel": 0.012630864419534553
   },
   {
    "Word": "moment",
    "Rel": 0.009975030692401266
   },
   {
    "Word": "lose",
    "Rel": 0.009772350754914564
   },
   {
    "Word": "gonna",
    "Rel": 0.009571845599421617
   },
   {
    "Word": "understand",
    "Rel": 0.009273260282913804
   },
   {
    "Word": "hand",
    "Rel": 0.00924401115896333
   },
   {
    "Word": "fall",
    "Rel": 0.00866950045086635
   }
  ]
 },
 {
  "Number": 22,
  "Words": [
   {
    "Word": "love",
    "Rel": 0.010582974587774702
   },
   {
    "Word": "chills",
    "Rel": 0.008558432643942526
   },
   {
    "Word": "tell",
    "Rel": 0.008475491966096642
   },
   {
    "Word": "never",
    "Rel": 0.008084608751243455
   },
   {
    "Word": "know",
    "Rel": 0.007946301766340473
   },
   {
    "Word": "baby",
    "Rel": 0.007901685972079261
   },
   {
    "Word": "makes",
    "Rel": 0.0075383561933096135
   },
   {
    "Word": "feel",
    "Rel": 0.007239212970081424
   },
   {
    "Word": "live",
    "Rel": 0.007025587060926007
   },
   {
    "Word": "got",
    "Rel": 0.0068337190037684415
   }
  ]
 },
 {
  "Number": 23,
  "Words": [
   {
    "Word": "home",
    "Rel": 0.014384676521293622
   },
   {
    "Word": "feel",
    "Rel": 0.014378269465860398
   },
   {
    "Word": "nothing",
    "Rel": 0.014308900660441357
   },
   {
    "Word": "party",
    "Rel": 0.014197856665775088
   },
   {
    "Word": "done",
    "Rel": 0.014141056199250372
   },
   {
    "Word": "think",
    "Rel": 0.014084282921903788
   },
   {
    "Word": "know",
    "Rel": 0.013709535532331613
   },
   {
    "Word": "give",
    "Rel": 0.012083626307821114
   },
   {
    "Word": "get",
    "Rel": 0.01103207195228262
   },
   {
    "Word": "want",
    "Rel": 0.010747148331584461
   }
  ]
 },
 {
  "Number": 24,
  "Words": [
   {
    "Word": "around",
    "Rel": 0.01783322586290615
   },
   {
    "Word": "one",
    "Rel": 0.01655907508518448
   },
   {
    "Word": "heart",
    "Rel": 0.0157358212036305
   },
   {
    "Word": "way",
    "Rel": 0.015604014730297143
   },
   {
    "Word": "look",
    "Rel": 0.014972503258640487
   },
   {
    "Word": "place",
    "Rel": 0.012690664962025066
   },
   {
    "Word": "turn",
    "Rel": 0.012621961082897043
   },
   {
    "Word": "hearts",
    "Rel": 0.012513989028077193
   },
   {
    "Word": "cry",
    "Rel": 0.01175295271693858
   },
   {
    "Word": "love",
    "Rel": 0.011643997688002512
   }
  ]
 },
 {
  "Number": 25,
  "Words": [
   {
    "Word": "inside",
    "Rel": 0.026807767764508755
   },
   {
    "Word": "like",
    "Rel": 0.025438871998358897
   },
   {
    "Word": "touch",
    "Rel": 0.025110061420753352
   },
   {
    "Word": "hungry",
    "Rel": 0.021245778293425516
   },
   {
    "Word": "alive",
    "Rel": 0.02102252065287755
   },
   {
    "Word": "make",
    "Rel": 0.02077413664348831
   },
   {
    "Word": "give",
    "Rel": 0.016366948445370712
   },
   {
    "Word": "feel",
    "Rel": 0.01551091428817633
   },
   {
    "Word": "darling",
    "Rel": 0.014244881753083935
   },
   {
    "Word": "heat",
    "Rel": 0.014158181158971756
   }
  ]
 },
 {
  "Number": 26,
  "Words": [
   {
    "Word": "long",
    "Rel": 0.01825959020707431
   },
   {
    "Word": "say",
    "Rel": 0.015225741577700921
   },
   {
    "Word": "right",
    "Rel": 0.014675032591951699
   },
   {
    "Word": "love",
    "Rel": 0.013952420719256937
   },
   {
    "Word": "world",
    "Rel": 0.011595883257451362
   },
   {
    "Word": "home",
    "Rel": 0.011553817329894423
   },
   {
    "Word": "gone",
    "Rel": 0.011549544663453913
   },
   {
    "Word": "going",
    "Rel": 0.011548830320163423
   },
   {
    "Word": "alone",
    "Rel": 0.011531383233959237
   },
   {
    "Word": "night",
    "Rel": 0.011399774766003016
   }
  ]
 },
 {
  "Number": 27,
  "Words": [
   {
    "Word": "way",
    "Rel": 0.014416391453057615
   },
   {
    "Word": "say",
    "Rel": 0.013871576187640254
   },
   {
    "Word": "like",
    "Rel": 0.013787713809955077
   },
   {
    "Word": "one",
    "Rel": 0.013123846738139176
   },
   {
    "Word": "heart",
    "Rel": 0.013113569211437233
   },
   {
    "Word": "fire",
    "Rel": 0.013022954988199597
   },
   {
    "Word": "come",
    "Rel": 0.00956695301037082
   },
   {
    "Word": "without",
    "Rel": 0.00872502946556562
   },
   {
    "Word": "place",
    "Rel": 0.00871674139151969
   },
   {
    "Word": "broken",
    "Rel": 0.008685399435784454
   }
  ]
 },
 {
  "Number": 28,
  "Words": [
   {
    "Word": "good",
    "Rel": 0.024739627235980277
   },
   {
    "Word": "night",
    "Rel": 0.020950147558688435
   },
   {
    "Word": "heart",
    "Rel": 0.02045061521058046
   },
   {
    "Word": "sun",
    "Rel": 0.016527047717569784
   },
   {
    "Word": "stars",
    "Rel": 0.016398956804467197
   },
   {
    "Word": "falling",
    "Rel": 0.0163810527561831
   },
   {
    "Word": "blame",
    "Rel": 0.016364090990110266
   },
   {
    "Word": "along",
    "Rel": 0.016326746528786573
   },
   {
    "Word": "work",
    "Rel": 0.01632034361463378
   },
   {
    "Word": "street",
    "Rel": 0.016302401334886897
   }
  ]
 },
 {
  "Number": 29,
  "Words": [
   {
    "Word": "come",
    "Rel": 0.008267691954785706
   },
   {
    "Word": "always",
    "Rel": 0.00824427317461169
   },
   {
    "Word": "see",
    "Rel": 0.008233905244339637
   },
   {
    "Word": "could",
    "Rel": 0.00823142368897852
   },
   {
    "Word": "away",
    "Rel": 0.008226232934469275
   },
   {
    "Word": "never",
    "Rel": 0.008225602450752573
   },
   {
    "Word": "go",
    "Rel": 0.008224400308334984
   },
   {
    "Word": "hold",
    "Rel": 0.008222698763563196
   },
   {
    "Word": "far",
    "Rel": 0.008221904345727286
   },
   {
    "Word": "one",
    "Rel": 0.008220485985565426
   }
  ]
 },
 {
  "Number": 30,
  "Words": [
   {
    "Word": "way",
    "Rel": 0.012694267115302223
   },
   {
    "Word": "see",
    "Rel": 0.012676635347321615
   },
   {
    "Word": "away",
    "Rel": 0.011935356611524364
   },
   {
    "Word": "eyes",
    "Rel": 0.011929387362748562
   },
   {
    "Word": "back",
    "Rel": 0.011360033833249836
   },
   {
    "Word": "inside",
    "Rel": 0.011273001666211195
   },
   {
    "Word": "know",
    "Rel": 0.0104835755858683
   },
   {
    "Word": "late",
    "Rel": 0.01021919925538116
   },
   {
    "Word": "around",
    "Rel": 0.010182897471954798
   },
   {
    "Word": "like",
    "Rel": 0.009852910502201422
   }
  ]
 },
 {
  "Number": 31,
  "Words": [
   {
    "Word": "night",
    "Rel": 0.02076718945275127
   },
   {
    "Word": "us",
    "Rel": 0.020459426617204488
   },
   {
    "Word": "dreams",
    "Rel": 0.02044867786644183
   },
   {
    "Word": "true",
    "Rel": 0.010385864439396937
   },
   {
    "Word": "find",
    "Rel": 0.010367165439753048
   },
   {
    "Word": "come",
    "Rel": 0.0103643436319697
   },
   {
    "Word": "see",
    "Rel": 0.010330183883640787
   },
   {
    "Word": "another",
    "Rel": 0.010316733372026264
   },
   {
    "Word": "tonight",
    "Rel": 0.010315388029197865
   },
   {
    "Word": "think",
    "Rel": 0.010313275647966259
   }
  ]
 },
 {
  "Number": 32,
  "Words": [
   {
    "Word": "find",
    "Rel": 0.014526602290576342
   },
   {
    "Word": "every",
    "Rel": 0.01441491620515756
   },
   {
    "Word": "used",
    "Rel": 0.01436898589988852
   },
   {
    "Word": "still",
    "Rel": 0.010912063518646743
   },
   {
    "Word": "need",
    "Rel": 0.010776920573509288
   },
   {
    "Word": "woman",
    "Rel": 0.009891529851530774
   },
   {
    "Word": "time",
    "Rel": 0.00891883969757749
   },
   {
    "Word": "know",
    "Rel": 0.008296743000779674
   },
   {
    "Word": "love",
    "Rel": 0.00825111254274851
   },
   {
    "Word": "look",
    "Rel": 0.007280098652971888
   }
  ]
 },
 {
  "Number": 33,
  "Words": [
   {
    "Word": "love",
    "Rel": 0.020248489936588992
   },
   {
    "Word": "night",
    "Rel": 0.01209817608963012
   },
   {
    "Word": "say",
    "Rel": 0.012021793588400756
   },
   {
    "Word": "ever",
    "Rel": 0.011915682848074123
   },
   {
    "Word": "baby",
    "Rel": 0.009184502116073478
   },
   {
    "Word": "understand",
    "Rel": 0.008231542380855337
   },
   {
    "Word": "sea",
    "Rel": 0.008215536337555856
   },
   {
    "Word": "heaven",
    "Rel": 0.008215076780892486
   },
   {
    "Word": "stars",
    "Rel": 0.008157399455864143
   },
   {
    "Word": "start",
    "Rel": 0.008155921596399437
   }
  ]
 },
 {
  "Number": 34,
  "Words": [
   {
    "Word": "eyes",
    "Rel": 0.042266916190176494
   },
   {
    "Word": "see",
    "Rel": 0.039326285359743064
   },
   {
    "Word": "tell",
    "Rel": 0.03346008523620951
   },
   {
    "Word": "want",
    "Rel": 0.03194544706973872
   },
   {
    "Word": "know",
    "Rel": 0.029878667575774214
   },
   {
    "Word": "time",
    "Rel": 0.029179483760696723
   },
   {
    "Word": "feel",
    "Rel": 0.029073364255047994
   },
   {
    "Word": "mind",
    "Rel": 0.027155561865326444
   },
   {
    "Word": "give",
    "Rel": 0.024705443695180143
   },
   {
    "Word": "love",
    "Rel": 0.024400271237721528
   }
  ]
 },
 {
  "Number": 35,
  "Words": [
   {
    "Word": "away",
    "Rel": 0.02193039023013338
   },
   {
    "Word": "way",
    "Rel": 0.019718965765329784
   },
   {
    "Word": "want",
    "Rel": 0.018772174124962335
   },
   {
    "Word": "see",
    "Rel": 0.01869240824466034
   },
   {
    "Word": "know",
    "Rel": 0.01802201410059324
   },
   {
    "Word": "never",
    "Rel": 0.016362806401944152
   },
   {
    "Word": "sometimes",
    "Rel": 0.01573167782178246
   },
   {
    "Word": "said",
    "Rel": 0.01571561982514825
   },
   {
    "Word": "morning",
    "Rel": 0.015631057050497808
   },
   {
    "Word": "thought",
    "Rel": 0.015367311422352795
   }
  ]
 },
 {
  "Number": 36,
  "Words": [
   {
    "Word": "every",
    "Rel": 0.021214637697143025
   },
   {
    "Word": "time",
    "Rel": 0.021181079419284255
   },
   {
    "Word": "go",
    "Rel": 0.021083290790765114
   },
   {
    "Word": "blue",
    "Rel": 0.02066076979178294
   },
   {
    "Word": "come",
    "Rel": 0.01054502464198306
   },
   {
    "Word": "well",
    "Rel": 0.010492594729066686
   },
   {
    "Word": "look",
    "Rel": 0.010474017523834485
   },
   {
    "Word": "better",
    "Rel": 0.010471918385861652
   },
   {
    "Word": "know",
    "Rel": 0.010454377084425136
   },
   {
    "Word": "like",
    "Rel": 0.010452339211250829
   }
  ]
 },
 {
  "Number": 37,
  "Words": [
   {
    "Word": "gonna",
    "Rel": 0.013835601673617227
   },
   {
    "Word": "feel",
    "Rel": 0.013822809328382266
   },
   {
    "Word": "go",
    "Rel": 0.013783158936414871
   },
   {
    "Word": "need",
    "Rel": 0.0137570194348716
   },
   {
    "Word": "back",
    "Rel": 0.013752433403122488
   },
   {
    "Word": "new",
    "Rel": 0.013684606931187933
   },
   {
    "Word": "coming",
    "Rel": 0.013649402881469253
   },
   {
    "Word": "sky",
    "Rel": 0.013565891347590103
   },
   {
    "Word": "alone",
    "Rel": 0.006888703358065716
   },
   {
    "Word": "way",
    "Rel": 0.006875370278521217
   }
  ]
 },
 {
  "Number": 38,
  "Words": [
   {
    "Word": "ground",
    "Rel": 0.005222478460551267
   },
   {
    "Word": "rain",
    "Rel": 0.005219320220165991
   },
   {
    "Word": "rapture",
    "Rel": 0.005218250356774208
   },
   {
    "Word": "almost",
    "Rel": 0.005217862526892994
   },
   {
    "Word": "punk",
    "Rel": 0.0052177524544242725
   },
   {
    "Word": "shot",
    "Rel": 0.005217516453916352
   },
   {
    "Word": "people",
    "Rel": 0.005217422952490009
   },
   {
    "Word": "try",
    "Rel": 0.0052173694299511965
   },
   {
    "Word": "run",
    "Rel": 0.005215646921070416
   },
   {
    "Word": "em",
    "Rel": 0.005214467961756847
   }
  ]
 },
 {
  "Number": 39,
  "Words": [
   {
    "Word": "better",
    "Rel": 0.019938884423549942
   },
   {
    "Word": "next",
    "Rel": 0.019694741723297635
   },
   {
    "Word": "try",
    "Rel": 0.019644887600305666
   },
   {
    "Word": "well",
    "Rel": 0.017663475378345155
   },
   {
    "Word": "put",
    "Rel": 0.015650554929277055
   },
   {
    "Word": "right",
    "Rel": 0.012823249917747033
   },
   {
    "Word": "one",
    "Rel": 0.012434882237659478
   },
   {
    "Word": "like",
    "Rel": 0.011773293140919421
   },
   {
    "Word": "always",
    "Rel": 0.010127725899517217
   },
   {
    "Word": "make",
    "Rel": 0.009995153613783966
   }
  ]
 },
 {
  "Number": 40,
  "Words": [
   {
    "Word": "got",
    "Rel": 0.007654770763855778
   },
   {
    "Word": "nothin",
    "Rel": 0.007191354939509721
   },
   {
    "Word": "behind",
    "Rel": 0.007160157170596709
   },
   {
    "Word": "let",
    "Rel": 0.006657727866373937
   },
   {
    "Word": "keep",
    "Rel": 0.006600476899858448
   },
   {
    "Word": "mean",
    "Rel": 0.006282438892790914
   },
   {
    "Word": "never",
    "Rel": 0.006008078387552845
   },
   {
    "Word": "ai",
    "Rel": 0.005998343588186674
   },
   {
    "Word": "break",
    "Rel": 0.005944331484078561
   },
   {
    "Word": "one",
    "Rel": 0.005725915210378385
   }
  ]
 },
 {
  "Number": 41,
  "Words": [
   {
    "Word": "retrieving",
    "Rel": 0.02955637291531861
   },
   {
    "Word": "know",
    "Rel": 0.01580560289486055
   },
   {
    "Word": "see",
    "Rel": 0.01576336458696384
   },
   {
    "Word": "feel",
    "Rel": 0.01574470504382529
   },
   {
    "Word": "time",
    "Rel": 0.01570878397131052
   },
   {
    "Word": "way",
    "Rel": 0.015698183154483063
   },
   {
    "Word": "believe",
    "Rel": 0.015695753074421826
   },
   {
    "Word": "always",
    "Rel": 0.015686240408420406
   },
   {
    "Word": "around",
    "Rel": 0.015652713450277835
   },
   {
    "Word": "life",
    "Rel": 0.015620449929392587
   }
  ]
 },
 {
  "Number": 42,
  "Words": [
   {
    "Word": "havin",
    "Rel": 0.004815139888458089
   },
   {
    "Word": "intentions",
    "Rel": 0.004815131528756658
   },
   {
    "Word": "b",
    "Rel": 0.00481369502608066
   },
   {
    "Word": "straight",
    "Rel": 0.004804837292068442
   },
   {
    "Word": "hot",
    "Rel": 0.00479445811393289
   },
   {
    "Word": "sound",
    "Rel": 0.004780287667715469
   },
   {
    "Word": "tight",
    "Rel": 0.00477844031621985
   },
   {
    "Word": "catch",
    "Rel": 0.004776295079238566
   },
   {
    "Word": "city",
    "Rel": 0.0047729158779970075
   },
   {
    "Word": "high",
    "Rel": 0.00476607342275994
   }
  ]
 },
 {
  "Number": 43,
  "Words": [
   {
    "Word": "tell",
    "Rel": 0.021060968536427936
   },
   {
    "Word": "without",
    "Rel": 0.017962941193517528
   },
   {
    "Word": "really",
    "Rel": 0.01719554059699954
   },
   {
    "Word": "boy",
    "Rel": 0.01437722124034796
   },
   {
    "Word": "kiss",
    "Rel": 0.014349023156729371
   },
   {
    "Word": "hurt",
    "Rel": 0.014178780479288144
   },
   {
    "Word": "talking",
    "Rel": 0.012575397516744687
   },
   {
    "Word": "things",
    "Rel": 0.0119462605026544
   },
   {
    "Word": "think",
    "Rel": 0.011559388821244583
   },
   {
    "Word": "eyes",
    "Rel": 0.011155170991825836
   }
  ]
 },
 {
  "Number": 44,
  "Words": [
   {
    "Word": "choose",
    "Rel": 0.017875460577209446
   },
   {
    "Word": "love",
    "Rel": 0.015886457319596627
   },
   {
    "Word": "right",
    "Rel": 0.014974494415582951
   },
   {
    "Word": "give",
    "Rel": 0.011975222511359138
   },
   {
    "Word": "baby",
    "Rel": 0.011356596547521886
   },
   {
    "Word": "get",
    "Rel": 0.009748775104700286
   },
   {
    "Word": "one",
    "Rel": 0.009631972002387152
   },
   {
    "Word": "well",
    "Rel": 0.009125909468952942
   },
   {
    "Word": "feeling",
    "Rel": 0.009101234699539664
   },
   {
    "Word": "tonight",
    "Rel": 0.009096558374551504
   }
  ]
 },
 {
  "Number": 45,
  "Words": [
   {
    "Word": "never",
    "Rel": 0.018546595362980506
   },
   {
    "Word": "far",
    "Rel": 0.016970009368225448
   },
   {
    "Word": "heart",
    "Rel": 0.016625159588791735
   },
   {
    "Word": "give",
    "Rel": 0.013150661585929976
   },
   {
    "Word": "chance",
    "Rel": 0.013089576313886263
   },
   {
    "Word": "say",
    "Rel": 0.01308069032986471
   },
   {
    "Word": "need",
    "Rel": 0.013000794780377994
   },
   {
    "Word": "love",
    "Rel": 0.012943613645869698
   },
   {
    "Word": "soul",
    "Rel": 0.012911885827851946
   },
   {
    "Word": "hope",
    "Rel": 0.012862818057070149
   }
  ]
 },
 {
  "Number": 46,
  "Words": [
   {
    "Word": "want",
    "Rel": 0.023665508156515306
   },
   {
    "Word": "time",
    "Rel": 0.021710300297186538
   },
   {
    "Word": "love",
    "Rel": 0.021637888992185574
   },
   {
    "Word": "let",
    "Rel": 0.02147527117569606
   },
   {
    "Word": "got",
    "Rel": 0.02129014315364221
   },
   {
    "Word": "made",
    "Rel": 0.017684733096340936
   },
   {
    "Word": "something",
    "Rel": 0.017543331465580684
   },
   {
    "Word": "hold",
    "Rel": 0.016562657081170412
   },
   {
    "Word": "nothing",
    "Rel": 0.010937237161744781
   },
   {
    "Word": "two",
    "Rel": 0.010913199310431236
   }
  ]
 },
 {
  "Number": 47,
  "Words": [
   {
    "Word": "well",
    "Rel": 0.013582461038095048
   },
   {
    "Word": "mine",
    "Rel": 0.01147050592017273
   },
   {
    "Word": "world",
    "Rel": 0.010588733976780621
   },
   {
    "Word": "dance",
    "Rel": 0.010568407610010027
   },
   {
    "Word": "want",
    "Rel": 0.008967905884402829
   },
   {
    "Word": "come",
    "Rel": 0.008667159781275682
   },
   {
    "Word": "said",
    "Rel": 0.008488486853959023
   },
   {
    "Word": "night",
    "Rel": 0.008195026364098556
   },
   {
    "Word": "fine",
    "Rel": 0.007564356009519669
   },
   {
    "Word": "one",
    "Rel": 0.007450755212509663
   }
  ]
 },
 {
  "Number": 48,
  "Words": [
   {
    "Word": "life",
    "Rel": 0.012890019450287211
   },
   {
    "Word": "never",
    "Rel": 0.010720050101262148
   },
   {
    "Word": "night",
    "Rel": 0.010679192756141756
   },
   {
    "Word": "hands",
    "Rel": 0.010454709749542442
   },
   {
    "Word": "live",
    "Rel": 0.010448674412707647
   },
   {
    "Word": "time",
    "Rel": 0.009969236180835282
   },
   {
    "Word": "eyes",
    "Rel": 0.009812969414266045
   },
   {
    "Word": "ever",
    "Rel": 0.00940052668592747
   },
   {
    "Word": "another",
    "Rel": 0.006960975978596902
   },
   {
    "Word": "moment",
    "Rel": 0.006956096899092675
   }
  ]
 },
 {
  "Number": 49,
  "Words": [
   {
    "Word": "like",
    "Rel": 0.015459216019854961
   },
   {
    "Word": "way",
    "Rel": 0.014674834052228705
   },
   {
    "Word": "feel",
    "Rel": 0.01314591970213069
   },
   {
    "Word": "turn",
    "Rel": 0.012076741366564116
   },
   {
    "Word": "eyes",
    "Rel": 0.011719539688750044
   },
   {
    "Word": "know",
    "Rel": 0.011317990065639279
   },
   {
    "Word": "one",
    "Rel": 0.011102921608249862
   },
   {
    "Word": "make",
    "Rel": 0.010377681321422015
   },
   {
    "Word": "really",
    "Rel": 0.010360625063172575
   },
   {
    "Word": "night",
    "Rel": 0.010123224258021613
   }
  ]
 },
 {
  "Number": 50,
  "Words": [
   {
    "Word": "found",
    "Rel": 0.022757710588867275
   },
   {
    "Word": "someone",
    "Rel": 0.019483964866114204
   },
   {
    "Word": "find",
    "Rel": 0.016389539110539406
   },
   {
    "Word": "hold",
    "Rel": 0.015379264233717138
   },
   {
    "Word": "need",
    "Rel": 0.01489743935202344
   },
   {
    "Word": "love",
    "Rel": 0.012760926636890666
   },
   {
    "Word": "never",
    "Rel": 0.0118313778023119
   },
   {
    "Word": "way",
    "Rel": 0.011824670149445817
   },
   {
    "Word": "lonely",
    "Rel": 0.011663783993196857
   },
   {
    "Word": "arms",
    "Rel": 0.011452539933937066
   }
  ]
 },
 {
  "Number": 51,
  "Words": [
   {
    "Word": "around",
    "Rel": 0.012308032701680238
   },
   {
    "Word": "time",
    "Rel": 0.01217111493114286
   },
   {
    "Word": "us",
    "Rel": 0.011811864452929527
   },
   {
    "Word": "thing",
    "Rel": 0.01180709723067223
   },
   {
    "Word": "line",
    "Rel": 0.01175750096278468
   },
   {
    "Word": "get",
    "Rel": 0.011709623254395457
   },
   {
    "Word": "make",
    "Rel": 0.00843413182102737
   },
   {
    "Word": "hand",
    "Rel": 0.00836676768224486
   },
   {
    "Word": "gonna",
    "Rel": 0.008354794761802788
   },
   {
    "Word": "die",
    "Rel": 0.008344261264745433
   }
  ]
 },
 {
  "Number": 52,
  "Words": [
   {
    "Word": "thought",
    "Rel": 0.012703098710506918
   },
   {
    "Word": "though",
    "Rel": 0.012656919656293925
   },
   {
    "Word": "caught",
    "Rel": 0.012625608491246595
   },
   {
    "Word": "making",
    "Rel": 0.01256670338017196
   },
   {
    "Word": "never",
    "Rel": 0.011678430899439894
   },
   {
    "Word": "true",
    "Rel": 0.00959709037281996
   },
   {
    "Word": "feel",
    "Rel": 0.008669270757843343
   },
   {
    "Word": "know",
    "Rel": 0.008270888699173631
   },
   {
    "Word": "come",
    "Rel": 0.008221964394905282
   },
   {
    "Word": "like",
    "Rel": 0.008034016857165826
   }
  ]
 },
 {
  "Number": 53,
  "Words": [
   {
    "Word": "hold",
    "Rel": 0.01710951896292363
   },
   {
    "Word": "right",
    "Rel": 0.017037566167862853
   },
   {
    "Word": "fall",
    "Rel": 0.016572878160539144
   },
   {
    "Word": "inside",
    "Rel": 0.010586721975044702
   },
   {
    "Word": "hear",
    "Rel": 0.010571111217233411
   },
   {
    "Word": "eyes",
    "Rel": 0.010561919988403418
   },
   {
    "Word": "keep",
    "Rel": 0.0104666054628258
   },
   {
    "Word": "get",
    "Rel": 0.008403174644681724
   },
   {
    "Word": "seem",
    "Rel": 0.008312457817727452
   },
   {
    "Word": "everytime",
    "Rel": 0.008309415588252607
   }
  ]
 },
 {
  "Number": 54,
  "Words": [
   {
    "Word": "say",
    "Rel": 0.01670698719471001
   },
   {
    "Word": "like",
    "Rel": 0.014419989853952389
   },
   {
    "Word": "tonight",
    "Rel": 0.01118885993222299
   },
   {
    "Word": "know",
    "Rel": 0.011170614306600017
   },
   {
    "Word": "line",
    "Rel": 0.011149971021860263
   },
   {
    "Word": "dance",
    "Rel": 0.011108603103689938
   },
   {
    "Word": "heart",
    "Rel": 0.009891861810800108
   },
   {
    "Word": "still",
    "Rel": 0.005587860560016126
   },
   {
    "Word": "might",
    "Rel": 0.005586356920705178
   },
   {
    "Word": "always",
    "Rel": 0.0055843200172298125
   }
  ]
 },
 {
  "Number": 55,
  "Words": [
   {
    "Word": "lost",
    "Rel": 0.022696166595651598
   },
   {
    "Word": "believe",
    "Rel": 0.017251623925362763
   },
   {
    "Word": "rain",
    "Rel": 0.016826273621244375
   },
   {
    "Word": "fool",
    "Rel": 0.016645310230123292
   },
   {
    "Word": "go",
    "Rel": 0.015886572972002556
   },
   {
    "Word": "love",
    "Rel": 0.014774473753350868
   },
   {
    "Word": "need",
    "Rel": 0.013350311098219578
   },
   {
    "Word": "like",
    "Rel": 0.011978370948455788
   },
   {
    "Word": "night",
    "Rel": 0.011911670275717788
   },
   {
    "Word": "still",
    "Rel": 0.011886532928384175
   }
  ]
 },
 {
  "Number": 56,
  "Words": [
   {
    "Word": "good",
    "Rel": 0.02502083869146464
   },
   {
    "Word": "day",
    "Rel": 0.018254609700169143
   },
   {
    "Word": "people",
    "Rel": 0.015258494370996911
   },
   {
    "Word": "honey",
    "Rel": 0.015137073585089679
   },
   {
    "Word": "hear",
    "Rel": 0.01451259647476563
   },
   {
    "Word": "much",
    "Rel": 0.014401321912214424
   },
   {
    "Word": "away",
    "Rel": 0.013601155477142194
   },
   {
    "Word": "make",
    "Rel": 0.011402429676484973
   },
   {
    "Word": "like",
    "Rel": 0.011224992774159191
   },
   {
    "Word": "thing",
    "Rel": 0.01023572592506697
   }
  ]
 },
 {
  "Number": 57,
  "Words": [
   {
    "Word": "world",
    "Rel": 0.0280777479140856
   },
   {
    "Word": "looking",
    "Rel": 0.02627323312217899
   },
   {
    "Word": "fire",
    "Rel": 0.02621504620867431
   },
   {
    "Word": "find",
    "Rel": 0.025895500384375398
   },
   {
    "Word": "tell",
    "Rel": 0.020301061790692913
   },
   {
    "Word": "best",
    "Rel": 0.019730189486060964
   },
   {
    "Word": "feel",
    "Rel": 0.016553394947658975
   },
   {
    "Word": "know",
    "Rel": 0.015272319046235125
   },
   {
    "Word": "step",
    "Rel": 0.015243470444503908
   },
   {
    "Word": "baby",
    "Rel": 0.014633609188112595
   }
  ]
 },
 {
  "Number": 58,
  "Words": [
   {
    "Word": "time",
    "Rel": 0.015561848414161665
   },
   {
    "Word": "love",
    "Rel": 0.015513838868377277
   },
   {
    "Word": "say",
    "Rel": 0.011640291076380292
   },
   {
    "Word": "see",
    "Rel": 0.01163465734157781
   },
   {
    "Word": "want",
    "Rel": 0.011633208671829182
   },
   {
    "Word": "baby",
    "Rel": 0.011545909810163835
   },
   {
    "Word": "beat",
    "Rel": 0.00781678008160707
   },
   {
    "Word": "tell",
    "Rel": 0.007777903309221528
   },
   {
    "Word": "though",
    "Rel": 0.007769307526284513
   },
   {
    "Word": "knew",
    "Rel": 0.007768996848092579
   }
  ]
 },
 {
  "Number": 59,
  "Words": [
   {
    "Word": "hear",
    "Rel": 0.01921362272935298
   },
   {
    "Word": "night",
    "Rel": 0.01646424863394712
   },
   {
    "Word": "away",
    "Rel": 0.014205116995636003
   },
   {
    "Word": "time",
    "Rel": 0.013389761414214241
   },
   {
    "Word": "know",
    "Rel": 0.01286223813440567
   },
   {
    "Word": "words",
    "Rel": 0.009599547667177232
   },
   {
    "Word": "say",
    "Rel": 0.00953687205943807
   },
   {
    "Word": "way",
    "Rel": 0.009536231217979514
   },
   {
    "Word": "every",
    "Rel": 0.00952532887159633
   },
   {
    "Word": "never",
    "Rel": 0.009524520353544915
   }
  ]
 },
 {
  "Number": 60,
  "Words": [
   {
    "Word": "way",
    "Rel": 0.01638013303477148
   },
   {
    "Word": "eyes",
    "Rel": 0.011540230504225285
   },
   {
    "Word": "every",
    "Rel": 0.011505016238358682
   },
   {
    "Word": "touch",
    "Rel": 0.01150231029845299
   },
   {
    "Word": "always",
    "Rel": 0.011491529604344464
   },
   {
    "Word": "fire",
    "Rel": 0.011460497366617108
   },
   {
    "Word": "high",
    "Rel": 0.011449039504032092
   },
   {
    "Word": "free",
    "Rel": 0.011441236750075107
   },
   {
    "Word": "single",
    "Rel": 0.011433379471958433
   },
   {
    "Word": "low",
    "Rel": 0.01143211396032126
   }
  ]
 },
 {
  "Number": 61,
  "Words": [
   {
    "Word": "every",
    "Rel": 0.014346760678473227
   },
   {
    "Word": "listen",
    "Rel": 0.014292487712245594
   },
   {
    "Word": "little",
    "Rel": 0.014071676902740152
   },
   {
    "Word": "something",
    "Rel": 0.013621956860982512
   },
   {
    "Word": "much",
    "Rel": 0.01307247337091549
   },
   {
    "Word": "song",
    "Rel": 0.009540935578361815
   },
   {
    "Word": "put",
    "Rel": 0.009517477783485124
   },
   {
    "Word": "somebody",
    "Rel": 0.009516471021871899
   },
   {
    "Word": "came",
    "Rel": 0.009474568106372238
   },
   {
    "Word": "got",
    "Rel": 0.009452843721929628
   }
  ]
 },
 {
  "Number": 62,
  "Words": [
   {
    "Word": "always",
    "Rel": 0.05602124315432576
   },
   {
    "Word": "forever",
    "Rel": 0.024887343815802047
   },
   {
    "Word": "one",
    "Rel": 0.02262677575630018
   },
   {
    "Word": "know",
    "Rel": 0.020894417214654338
   },
   {
    "Word": "together",
    "Rel": 0.01937948090673686
   },
   {
    "Word": "like",
    "Rel": 0.017693092903472832
   },
   {
    "Word": "find",
    "Rel": 0.016473049118220756
   },
   {
    "Word": "love",
    "Rel": 0.016068129496435237
   },
   {
    "Word": "end",
    "Rel": 0.016061855746046173
   },
   {
    "Word": "way",
    "Rel": 0.01516465499591271
   }
  ]
 },
 {
  "Number": 63,
  "Words": [
   {
    "Word": "boy",
    "Rel": 0.021581195016330504
   },
   {
    "Word": "f",
    "Rel": 0.02093817590778624
   },
   {
    "Word": "face",
    "Rel": 0.020103671179855256
   },
   {
    "Word": "miss",
    "Rel": 0.020024814742063017
   },
   {
    "Word": "like",
    "Rel": 0.017333719427029798
   },
   {
    "Word": "baby",
    "Rel": 0.016806988805427914
   },
   {
    "Word": "know",
    "Rel": 0.016072703715111217
   },
   {
    "Word": "alone",
    "Rel": 0.010859275264615964
   },
   {
    "Word": "heart",
    "Rel": 0.010817755552293756
   },
   {
    "Word": "world",
    "Rel": 0.010775163547050175
   }
  ]
 },
 {
  "Number": 64,
  "Words": [
   {
    "Word": "something",
    "Rel": 0.011327617088855813
   },
   {
    "Word": "away",
    "Rel": 0.01131226305537441
   },
   {
    "Word": "said",
    "Rel": 0.011290280179090789
   },
   {
    "Word": "boy",
    "Rel": 0.0112856991277683
   },
   {
    "Word": "wrong",
    "Rel": 0.011284668842338993
   },
   {
    "Word": "died",
    "Rel": 0.011279570846563131
   },
   {
    "Word": "walked",
    "Rel": 0.011238667471308727
   },
   {
    "Word": "final",
    "Rel": 0.011179655833560924
   },
   {
    "Word": "arms",
    "Rel": 0.011051250094229949
   },
   {
    "Word": "way",
    "Rel": 0.010800460740805743
   }
  ]
 },
 {
  "Number": 65,
  "Words": [
   {
    "Word": "ever",
    "Rel": 0.013250137506645157
   },
   {
    "Word": "heart",
    "Rel": 0.011200974762287692
   },
   {
    "Word": "never",
    "Rel": 0.010483363524299634
   },
   {
    "Word": "always",
    "Rel": 0.010413165846248988
   },
   {
    "Word": "away",
    "Rel": 0.009968221259606206
   },
   {
    "Word": "make",
    "Rel": 0.00984741763843393
   },
   {
    "Word": "keep",
    "Rel": 0.009839112822057067
   },
   {
    "Word": "forever",
    "Rel": 0.009718374558002807
   },
   {
    "Word": "life",
    "Rel": 0.009536970531757026
   },
   {
    "Word": "like",
    "Rel": 0.008613845046267098
   }
  ]
 },
 {
  "Number": 66,
  "Words": [
   {
    "Word": "love",
    "Rel": 0.08096375436129688
   },
   {
    "Word": "know",
    "Rel": 0.05806523426725607
   },
   {
    "Word": "time",
    "Rel": 0.046600916085447
   },
   {
    "Word": "like",
    "Rel": 0.0451266177263779
   },
   {
    "Word": "let",
    "Rel": 0.04387560329925895
   },
   {
    "Word": "never",
    "Rel": 0.04032845428876347
   },
   {
    "Word": "could",
    "Rel": 0.03289118837927664
   },
   {
    "Word": "feel",
    "Rel": 0.03147619293055721
   },
   {
    "Word": "away",
    "Rel": 0.03127226557157017
   },
   {
    "Word": "come",
    "Rel": 0.030909572026278368
   }
  ]
 },
 {
  "Number": 67,
  "Words": [
   {
    "Word": "gonna",
    "Rel": 0.01529742896015268
   },
   {
    "Word": "need",
    "Rel": 0.013160460246312407
   },
   {
    "Word": "hide",
    "Rel": 0.012220992377479646
   },
   {
    "Word": "found",
    "Rel": 0.012202241003058398
   },
   {
    "Word": "show",
    "Rel": 0.011960811321986325
   },
   {
    "Word": "little",
    "Rel": 0.010715784533126674
   },
   {
    "Word": "see",
    "Rel": 0.010420347897088194
   },
   {
    "Word": "must",
    "Rel": 0.010400346748131136
   },
   {
    "Word": "mind",
    "Rel": 0.009859566330524518
   },
   {
    "Word": "give",
    "Rel": 0.009538557691894331
   }
  ]
 },
 {
  "Number": 68,
  "Words": [
   {
    "Word": "know",
    "Rel": 0.016245976272074247
   },
   {
    "Word": "feeling",
    "Rel": 0.0131904618628184
   },
   {
    "Word": "dream",
    "Rel": 0.013144300558384435
   },
   {
    "Word": "living",
    "Rel": 0.013121156111564924
   },
   {
    "Word": "man",
    "Rel": 0.013109589754709668
   },
   {
    "Word": "bad",
    "Rel": 0.013087685426438329
   },
   {
    "Word": "good",
    "Rel": 0.011762906525253119
   },
   {
    "Word": "night",
    "Rel": 0.011158349495682144
   },
   {
    "Word": "need",
    "Rel": 0.010822015950446458
   },
   {
    "Word": "take",
    "Rel": 0.01069876888177008
   }
  ]
 },
 {
  "Number": 69,
  "Words": [
   {
    "Word": "come",
    "Rel": 0.015125799819129503
   },
   {
    "Word": "head",
    "Rel": 0.014873411549673357
   },
   {
    "Word": "alone",
    "Rel": 0.007526547802381404
   },
   {
    "Word": "still",
    "Rel": 0.007525061376522868
   },
   {
    "Word": "life",
    "Rel": 0.007523665516781586
   },
   {
    "Word": "night",
    "Rel": 0.007523044087216906
   },
   {
    "Word": "far",
    "Rel": 0.007520660017081913
   },
   {
    "Word": "know",
    "Rel": 0.007520294634352687
   },
   {
    "Word": "like",
    "Rel": 0.007507541265230256
   },
   {
    "Word": "well",
    "Rel": 0.007507054862044101
   }
  ]
 },
 {
  "Number": 70,
  "Words": [
   {
    "Word": "love",
    "Rel": 0.0130550057176953
   },
   {
    "Word": "go",
    "Rel": 0.011977296880006063
   },
   {
    "Word": "give",
    "Rel": 0.008956217278419219
   },
   {
    "Word": "gotta",
    "Rel": 0.008948734404459103
   },
   {
    "Word": "man",
    "Rel": 0.008919782891971104
   },
   {
    "Word": "night",
    "Rel": 0.008910427512987883
   },
   {
    "Word": "light",
    "Rel": 0.008892393667442919
   },
   {
    "Word": "mean",
    "Rel": 0.00888192703633838
   },
   {
    "Word": "touch",
    "Rel": 0.008881327138753363
   },
   {
    "Word": "could",
    "Rel": 0.008881086840786376
   }
  ]
 },
 {
  "Number": 71,
  "Words": [
   {
    "Word": "inside",
    "Rel": 0.013123800431517249
   },
   {
    "Word": "know",
    "Rel": 0.01167517467373465
   },
   {
    "Word": "cold",
    "Rel": 0.010116732983068902
   },
   {
    "Word": "hide",
    "Rel": 0.010116673358109875
   },
   {
    "Word": "warm",
    "Rel": 0.010113255076818286
   },
   {
    "Word": "away",
    "Rel": 0.009483846141892325
   },
   {
    "Word": "say",
    "Rel": 0.008340993246304709
   },
   {
    "Word": "like",
    "Rel": 0.00810426112652573
   },
   {
    "Word": "always",
    "Rel": 0.007889155706102373
   },
   {
    "Word": "tell",
    "Rel": 0.007655145435557286
   }
  ]
 },
 {
  "Number": 72,
  "Words": [
   {
    "Word": "please",
    "Rel": 0.016458440863715142
   },
   {
    "Word": "know",
    "Rel": 0.015909921738537273
   },
   {
    "Word": "say",
    "Rel": 0.015729808291050383
   },
   {
    "Word": "baby",
    "Rel": 0.014745884645675786
   },
   {
    "Word": "come",
    "Rel": 0.013576820303663745
   },
   {
    "Word": "every",
    "Rel": 0.012711199830566466
   },
   {
    "Word": "hand",
    "Rel": 0.01268099608168255
   },
   {
    "Word": "man",
    "Rel": 0.01264483168038858
   },
   {
    "Word": "let",
    "Rel": 0.012591252233071275
   },
   {
    "Word": "got",
    "Rel": 0.010426602715905153
   }
  ]
 },
 {
  "Number": 73,
  "Words": [
   {
    "Word": "love",
    "Rel": 0.012547592251632845
   },
   {
    "Word": "wedding",
    "Rel": 0.011959497258271447
   },
   {
    "Word": "give",
    "Rel": 0.011568874427403413
   },
   {
    "Word": "true",
    "Rel": 0.011257664739234842
   },
   {
    "Word": "life",
    "Rel": 0.01095072347106642
   },
   {
    "Word": "see",
    "Rel": 0.010584545673914677
   },
   {
    "Word": "like",
    "Rel": 0.009497261866608452
   },
   {
    "Word": "feel",
    "Rel": 0.009140015214014656
   },
   {
    "Word": "still",
    "Rel": 0.008326391178030338
   },
   {
    "Word": "honey",
    "Rel": 0.008021287367295606
   }
  ]
 },
 {
  "Number": 74,
  "Words": [
   {
    "Word": "go",
    "Rel": 0.01568026540198231
   },
   {
    "Word": "get",
    "Rel": 0.01565096700553367
   },
   {
    "Word": "everybody",
    "Rel": 0.013535346135650562
   },
   {
    "Word": "music",
    "Rel": 0.013503988112459214
   },
   {
    "Word": "let",
    "Rel": 0.011953571936900964
   },
   {
    "Word": "turn",
    "Rel": 0.010166156328470686
   },
   {
    "Word": "alright",
    "Rel": 0.010140306960033305
   },
   {
    "Word": "dance",
    "Rel": 0.010123201992642916
   },
   {
    "Word": "ground",
    "Rel": 0.01011203638773682
   },
   {
    "Word": "like",
    "Rel": 0.009785399883843852
   }
  ]
 },
 {
  "Number": 75,
  "Words": [
   {
    "Word": "needs",
    "Rel": 0.04011598476889119
   },
   {
    "Word": "babe",
    "Rel": 0.0316301839660254
   },
   {
    "Word": "lonely",
    "Rel": 0.024374754685313
   },
   {
    "Word": "love",
    "Rel": 0.024367072972980214
   },
   {
    "Word": "got",
    "Rel": 0.023245075721742423
   },
   {
    "Word": "need",
    "Rel": 0.022405402741302264
   },
   {
    "Word": "way",
    "Rel": 0.020771281745257372
   },
   {
    "Word": "free",
    "Rel": 0.020557546714549638
   },
   {
    "Word": "life",
    "Rel": 0.020068867303946854
   },
   {
    "Word": "make",
    "Rel": 0.01950265845362504
   }
  ]
 },
 {
  "Number": 76,
  "Words": [
   {
    "Word": "way",
    "Rel": 0.009529960258277391
   },
   {
    "Word": "good",
    "Rel": 0.009090658416089388
   },
   {
    "Word": "better",
    "Rel": 0.008238986611464506
   },
   {
    "Word": "feet",
    "Rel": 0.008230461398876777
   },
   {
    "Word": "eyes",
    "Rel": 0.008214216308316057
   },
   {
    "Word": "sink",
    "Rel": 0.008212866433512156
   },
   {
    "Word": "running",
    "Rel": 0.008200898585665856
   },
   {
    "Word": "funny",
    "Rel": 0.00819873822763085
   },
   {
    "Word": "hanging",
    "Rel": 0.008192503952653259
   },
   {
    "Word": "money",
    "Rel": 0.00818609663535281
   }
  ]
 },
 {
  "Number": 77,
  "Words": [
   {
    "Word": "know",
    "Rel": 0.022414540330774623
   },
   {
    "Word": "life",
    "Rel": 0.022401567296555402
   },
   {
    "Word": "really",
    "Rel": 0.02212328955578062
   },
   {
    "Word": "keep",
    "Rel": 0.021392084529121426
   },
   {
    "Word": "time",
    "Rel": 0.01923343341749844
   },
   {
    "Word": "done",
    "Rel": 0.018527576313799903
   },
   {
    "Word": "gonna",
    "Rel": 0.017590408678730095
   },
   {
    "Word": "say",
    "Rel": 0.017006967564147556
   },
   {
    "Word": "hide",
    "Rel": 0.016714303830577506
   },
   {
    "Word": "knowing",
    "Rel": 0.01656668169918152
   }
  ]
 },
 {
  "Number": 78,
  "Words": [
   {
    "Word": "say",
    "Rel": 0.04450683783490458
   },
   {
    "Word": "tell",
    "Rel": 0.03332941030784972
   },
   {
    "Word": "gonna",
    "Rel": 0.03137681145356608
   },
   {
    "Word": "really",
    "Rel": 0.0243199250353675
   },
   {
    "Word": "get",
    "Rel": 0.023809044483389056
   },
   {
    "Word": "got",
    "Rel": 0.02274725855556595
   },
   {
    "Word": "see",
    "Rel": 0.019299729021156137
   },
   {
    "Word": "know",
    "Rel": 0.019017133816076164
   },
   {
    "Word": "nothing",
    "Rel": 0.018583927544873598
   },
   {
    "Word": "hard",
    "Rel": 0.017726912086448703
   }
  ]
 },
 {
  "Number": 79,
  "Words": [
   {
    "Word": "care",
    "Rel": 0.025743340119918363
   },
   {
    "Word": "heart",
    "Rel": 0.01891798724386906
   },
   {
    "Word": "love",
    "Rel": 0.01777240838859691
   },
   {
    "Word": "much",
    "Rel": 0.016637179911532716
   },
   {
    "Word": "make",
    "Rel": 0.016107688407515044
   },
   {
    "Word": "start",
    "Rel": 0.015254989810527019
   },
   {
    "Word": "think",
    "Rel": 0.014579202468517917
   },
   {
    "Word": "inside",
    "Rel": 0.014412843027346267
   },
   {
    "Word": "let",
    "Rel": 0.014006171773763378
   },
   {
    "Word": "like",
    "Rel": 0.01395614752453921
   }
  ]
 },
 {
  "Number": 80,
  "Words": [
   {
    "Word": "time",
    "Rel": 0.013777977538973333
   },
   {
    "Word": "start",
    "Rel": 0.013556906962911248
   },
   {
    "Word": "dream",
    "Rel": 0.012670705836682391
   },
   {
    "Word": "heart",
    "Rel": 0.012605008250518138
   },
   {
    "Word": "someone",
    "Rel": 0.011854646048513263
   },
   {
    "Word": "find",
    "Rel": 0.011241621100337593
   },
   {
    "Word": "people",
    "Rel": 0.010151763030096543
   },
   {
    "Word": "change",
    "Rel": 0.010037244604661547
   },
   {
    "Word": "two",
    "Rel": 0.009721115658286183
   },
   {
    "Word": "day",
    "Rel": 0.009574960749185145
   }
  ]
 },
 {
  "Number": 81,
  "Words": [
   {
    "Word": "around",
    "Rel": 0.01511120391375296
   },
   {
    "Word": "remember",
    "Rel": 0.014212021661668786
   },
   {
    "Word": "kid",
    "Rel": 0.014131094489200587
   },
   {
    "Word": "hoo",
    "Rel": 0.014125456968792027
   },
   {
    "Word": "sweet",
    "Rel": 0.014109291350953712
   },
   {
    "Word": "plans",
    "Rel": 0.014085973872876795
   },
   {
    "Word": "young",
    "Rel": 0.014026422492335879
   },
   {
    "Word": "days",
    "Rel": 0.01397707312462919
   },
   {
    "Word": "think",
    "Rel": 0.013665026084087503
   },
   {
    "Word": "take",
    "Rel": 0.013420608501264048
   }
  ]
 },
 {
  "Number": 82,
  "Words": [
   {
    "Word": "true",
    "Rel": 0.005878831332528972
   },
   {
    "Word": "still",
    "Rel": 0.005870403437422739
   },
   {
    "Word": "thing",
    "Rel": 0.0058673994599373275
   },
   {
    "Word": "something",
    "Rel": 0.005864938396686664
   },
   {
    "Word": "away",
    "Rel": 0.00586306851887528
   },
   {
    "Word": "put",
    "Rel": 0.005862902479184969
   },
   {
    "Word": "believe",
    "Rel": 0.00586285172957359
   },
   {
    "Word": "say",
    "Rel": 0.005861938569592463
   },
   {
    "Word": "ai",
    "Rel": 0.005861318345016285
   },
   {
    "Word": "time",
    "Rel": 0.005858484646905926
   }
  ]
 },
 {
  "Number": 83,
  "Words": [
   {
    "Word": "gonna",
    "Rel": 0.02219325597214499
   },
   {
    "Word": "get",
    "Rel": 0.01630411870308247
   },
   {
    "Word": "let",
    "Rel": 0.015715049988870036
   },
   {
    "Word": "try",
    "Rel": 0.015100230635998456
   },
   {
    "Word": "together",
    "Rel": 0.015059048527587736
   },
   {
    "Word": "beat",
    "Rel": 0.014482390869914654
   },
   {
    "Word": "hold",
    "Rel": 0.012464631015352607
   },
   {
    "Word": "forever",
    "Rel": 0.011936497897481937
   },
   {
    "Word": "close",
    "Rel": 0.011239458353680938
   },
   {
    "Word": "body",
    "Rel": 0.011227974350611989
   }
  ]
 },
 {
  "Number": 84,
  "Words": [
   {
    "Word": "one",
    "Rel": 0.01601752545926793
   },
   {
    "Word": "see",
    "Rel": 0.015200985123550247
   },
   {
    "Word": "never",
    "Rel": 0.01240296817783793
   },
   {
    "Word": "another",
    "Rel": 0.012063153544356118
   },
   {
    "Word": "heart",
    "Rel": 0.011928781483244331
   },
   {
    "Word": "stop",
    "Rel": 0.01088276220340586
   },
   {
    "Word": "say",
    "Rel": 0.010482645266600334
   },
   {
    "Word": "right",
    "Rel": 0.010307291361417423
   },
   {
    "Word": "know",
    "Rel": 0.009892950299460104
   },
   {
    "Word": "hear",
    "Rel": 0.008050768067157205
   }
  ]
 },
 {
  "Number": 85,
  "Words": [
   {
    "Word": "real",
    "Rel": 0.01247192279445814
   },
   {
    "Word": "money",
    "Rel": 0.01242946226802011
   },
   {
    "Word": "lot",
    "Rel": 0.012413380681859596
   },
   {
    "Word": "mind",
    "Rel": 0.011334142306566814
   },
   {
    "Word": "time",
    "Rel": 0.01132186847195949
   },
   {
    "Word": "right",
    "Rel": 0.00921630532918319
   },
   {
    "Word": "take",
    "Rel": 0.009190594805130245
   },
   {
    "Word": "know",
    "Rel": 0.0086897329097512
   },
   {
    "Word": "got",
    "Rel": 0.008208707930071833
   },
   {
    "Word": "list",
    "Rel": 0.006327041655273029
   }
  ]
 },
 {
  "Number": 86,
  "Words": [
   {
    "Word": "like",
    "Rel": 0.01672165947854798
   },
   {
    "Word": "tell",
    "Rel": 0.008331091452264698
   },
   {
    "Word": "alone",
    "Rel": 0.008309774986963931
   },
   {
    "Word": "look",
    "Rel": 0.008304113028178173
   },
   {
    "Word": "see",
    "Rel": 0.008297574816933603
   },
   {
    "Word": "little",
    "Rel": 0.008288755813960026
   },
   {
    "Word": "free",
    "Rel": 0.008288200726660162
   },
   {
    "Word": "play",
    "Rel": 0.008287938403244637
   },
   {
    "Word": "way",
    "Rel": 0.008286760391762887
   },
   {
    "Word": "maybe",
    "Rel": 0.00828051772562926
   }
  ]
 },
 {
  "Number": 87,
  "Words": [
   {
    "Word": "believe",
    "Rel": 0.048776141434119166
   },
   {
    "Word": "world",
    "Rel": 0.03605031981577723
   },
   {
    "Word": "back",
    "Rel": 0.031754001352096606
   },
   {
    "Word": "ever",
    "Rel": 0.030589010253727043
   },
   {
    "Word": "one",
    "Rel": 0.02538454040967692
   },
   {
    "Word": "make",
    "Rel": 0.02333800502188779
   },
   {
    "Word": "good",
    "Rel": 0.023235931575996852
   },
   {
    "Word": "light",
    "Rel": 0.022986965646681182
   },
   {
    "Word": "around",
    "Rel": 0.022961797508589413
   },
   {
    "Word": "eyes",
    "Rel": 0.02150583052519959
   }
  ]
 },
 {
  "Number": 88,
  "Words": [
   {
    "Word": "love",
    "Rel": 0.0241658305714569
   },
   {
    "Word": "hold",
    "Rel": 0.018478741027753133
   },
   {
    "Word": "baby",
    "Rel": 0.01821730472438448
   },
   {
    "Word": "need",
    "Rel": 0.01764559814834936
   },
   {
    "Word": "make",
    "Rel": 0.017308196954244993
   },
   {
    "Word": "free",
    "Rel": 0.017017499374005714
   },
   {
    "Word": "right",
    "Rel": 0.016324928007696582
   },
   {
    "Word": "feeling",
    "Rel": 0.015601055565217981
   },
   {
    "Word": "got",
    "Rel": 0.01522123235814477
   },
   {
    "Word": "think",
    "Rel": 0.015186458602216664
   }
  ]
 },
 {
  "Number": 89,
  "Words": [
   {
    "Word": "believe",
    "Rel": 0.02841142959833932
   },
   {
    "Word": "say",
    "Rel": 0.025802457879358948
   },
   {
    "Word": "without",
    "Rel": 0.021999067074732197
   },
   {
    "Word": "whisper",
    "Rel": 0.021524612259171197
   },
   {
    "Word": "softly",
    "Rel": 0.021511707759177812
   },
   {
    "Word": "need",
    "Rel": 0.02029028626387257
   },
   {
    "Word": "near",
    "Rel": 0.020102306310729196
   },
   {
    "Word": "love",
    "Rel": 0.017259738422286355
   },
   {
    "Word": "together",
    "Rel": 0.016892611899824935
   },
   {
    "Word": "hold",
    "Rel": 0.0160356387481357
   }
  ]
 },
 {
  "Number": 90,
  "Words": [
   {
    "Word": "time",
    "Rel": 0.018611197647558444
   },
   {
    "Word": "got",
    "Rel": 0.016416952352679242
   },
   {
    "Word": "say",
    "Rel": 0.016042631535532443
   },
   {
    "Word": "looking",
    "Rel": 0.013821701105339746
   },
   {
    "Word": "high",
    "Rel": 0.013757270709217369
   },
   {
    "Word": "walking",
    "Rel": 0.013644326586080429
   },
   {
    "Word": "maybe",
    "Rel": 0.013048010403814075
   },
   {
    "Word": "away",
    "Rel": 0.010456187368000209
   },
   {
    "Word": "love",
    "Rel": 0.008842590574833263
   },
   {
    "Word": "know",
    "Rel": 0.007591296988426737
   }
  ]
 },
 {
  "Number": 91,
  "Words": [
   {
    "Word": "night",
    "Rel": 0.033044011103587505
   },
   {
    "Word": "light",
    "Rel": 0.027873452262516137
   },
   {
    "Word": "forget",
    "Rel": 0.027048022266798456
   },
   {
    "Word": "morning",
    "Rel": 0.02211471775705492
   },
   {
    "Word": "right",
    "Rel": 0.020543584030785177
   },
   {
    "Word": "away",
    "Rel": 0.01824428852670709
   },
   {
    "Word": "tonight",
    "Rel": 0.0142726189745415
   },
   {
    "Word": "well",
    "Rel": 0.012725876212229394
   },
   {
    "Word": "see",
    "Rel": 0.012443612636338896
   },
   {
    "Word": "say",
    "Rel": 0.011989507849456255
   }
  ]
 },
 {
  "Number": 92,
  "Words": [
   {
    "Word": "never",
    "Rel": 0.01355277174231266
   },
   {
    "Word": "got",
    "Rel": 0.011578203653673555
   },
   {
    "Word": "run",
    "Rel": 0.009618501597287015
   },
   {
    "Word": "like",
    "Rel": 0.009582512599396175
   },
   {
    "Word": "need",
    "Rel": 0.008741475894923908
   },
   {
    "Word": "game",
    "Rel": 0.00861456814605754
   },
   {
    "Word": "something",
    "Rel": 0.008545627579335306
   },
   {
    "Word": "heart",
    "Rel": 0.008341234623823513
   },
   {
    "Word": "play",
    "Rel": 0.008186094971932395
   },
   {
    "Word": "true",
    "Rel": 0.00804637518997038
   }
  ]
 },
 {
  "Number": 93,
  "Words": [
   {
    "Word": "dream",
    "Rel": 0.01697790131378589
   },
   {
    "Word": "far",
    "Rel": 0.011343082033878937
   },
   {
    "Word": "never",
    "Rel": 0.011312738972292537
   },
   {
    "Word": "back",
    "Rel": 0.01129229594970529
   },
   {
    "Word": "make",
    "Rel": 0.011283610509876862
   },
   {
    "Word": "gets",
    "Rel": 0.011227314579908724
   },
   {
    "Word": "get",
    "Rel": 0.010740316226249496
   },
   {
    "Word": "could",
    "Rel": 0.010538045752167494
   },
   {
    "Word": "say",
    "Rel": 0.009950858406560625
   },
   {
    "Word": "got",
    "Rel": 0.009587282406562272
   }
  ]
 },
 {
  "Number": 94,
  "Words": [
   {
    "Word": "make",
    "Rel": 0.018722879029181846
   },
   {
    "Word": "let",
    "Rel": 0.015834896291942874
   },
   {
    "Word": "take",
    "Rel": 0.015224409497446745
   },
   {
    "Word": "right",
    "Rel": 0.013187604049360625
   },
   {
    "Word": "go",
    "Rel": 0.012484926504995185
   },
   {
    "Word": "like",
    "Rel": 0.012231083358308945
   },
   {
    "Word": "dreams",
    "Rel": 0.010170331600365056
   },
   {
    "Word": "yes",
    "Rel": 0.010112558269481601
   },
   {
    "Word": "lady",
    "Rel": 0.010099905660834501
   },
   {
    "Word": "sun",
    "Rel": 0.010096876412452074
   }
  ]
 },
 {
  "Number": 95,
  "Words": [
   {
    "Word": "away",
    "Rel": 0.02339484514486562
   },
   {
    "Word": "around",
    "Rel": 0.020256723408758233
   },
   {
    "Word": "say",
    "Rel": 0.019973947449266755
   },
   {
    "Word": "every",
    "Rel": 0.019130411187886134
   },
   {
    "Word": "take",
    "Rel": 0.017666154618345264
   },
   {
    "Word": "see",
    "Rel": 0.017389580357811685
   },
   {
    "Word": "without",
    "Rel": 0.014332551937546829
   },
   {
    "Word": "breath",
    "Rel": 0.014219446252032447
   },
   {
    "Word": "coming",
    "Rel": 0.013858604896002344
   },
   {
    "Word": "got",
    "Rel": 0.012812341594911377
   }
  ]
 },
 {
  "Number": 96,
  "Words": [
   {
    "Word": "remember",
    "Rel": 0.035666311949862486
   },
   {
    "Word": "gone",
    "Rel": 0.03024410199619506
   },
   {
    "Word": "love",
    "Rel": 0.028619815309476358
   },
   {
    "Word": "never",
    "Rel": 0.0212672263476286
   },
   {
    "Word": "forever",
    "Rel": 0.019731022532652798
   },
   {
    "Word": "many",
    "Rel": 0.019265245453886623
   },
   {
    "Word": "night",
    "Rel": 0.019016985426880934
   },
   {
    "Word": "still",
    "Rel": 0.018591826681495758
   },
   {
    "Word": "loving",
    "Rel": 0.01845707872167862
   },
   {
    "Word": "long",
    "Rel": 0.01842592819199898
   }
  ]
 },
 {
  "Number": 97,
  "Words": [
   {
    "Word": "walk",
    "Rel": 0.015438251716520893
   },
   {
    "Word": "see",
    "Rel": 0.015394280115185654
   },
   {
    "Word": "baby",
    "Rel": 0.01533764096617637
   },
   {
    "Word": "say",
    "Rel": 0.014340729248998181
   },
   {
    "Word": "like",
    "Rel": 0.014134076787447375
   },
   {
    "Word": "know",
    "Rel": 0.013350165233846193
   },
   {
    "Word": "crazy",
    "Rel": 0.010332703174695795
   },
   {
    "Word": "touch",
    "Rel": 0.010292380697416191
   },
   {
    "Word": "open",
    "Rel": 0.010258599697716538
   },
   {
    "Word": "rain",
    "Rel": 0.010255946906558223
   }
  ]
 },
 {
  "Number": 98,
  "Words": [
   {
    "Word": "baby",
    "Rel": 0.12265312802529038
   },
   {
    "Word": "got",
    "Rel": 0.06542059240429414
   },
   {
    "Word": "want",
    "Rel": 0.04694218910243866
   },
   {
    "Word": "know",
    "Rel": 0.04510247702927483
   },
   {
    "Word": "go",
    "Rel": 0.04489533342632091
   },
   {
    "Word": "heart",
    "Rel": 0.041066418281032996
   },
   {
    "Word": "take",
    "Rel": 0.037733167638959376
   },
   {
    "Word": "say",
    "Rel": 0.0374187161010068
   },
   {
    "Word": "way",
    "Rel": 0.034363404719725446
   },
   {
    "Word": "right",
    "Rel": 0.03223768242862221
   }
  ]
 },
 {
  "Number": 99,
  "Words": [
   {
    "Word": "see",
    "Rel": 0.016477140787986837
   },
   {
    "Word": "right",
    "Rel": 0.013388929813212627
   },
   {
    "Word": "heart",
    "Rel": 0.013367687273217669
   },
   {
    "Word": "turn",
    "Rel": 0.013301101629850546
   },
   {
    "Word": "tonight",
    "Rel": 0.012776007652612931
   },
   {
    "Word": "today",
    "Rel": 0.012591887471754416
   },
   {
    "Word": "us",
    "Rel": 0.01202274788988972
   },
   {
    "Word": "find",
    "Rel": 0.010548683439210673
   },
   {
    "Word": "way",
    "Rel": 0.009607940768076707
   },
   {
    "Word": "come",
    "Rel": 0.008697330567929809
   }
  ]
 }
]