[
    {
        "Topic" : "Relationship",
        "Words" : [
            "love",
            "babe",
            "lips",
            "baby",
            "kiss",
            "heart",
            "hug",
            "darling",
            "man",
            "woman",
            "honey",
            "wedding",
            "romance",
            "lovers",
            "darlin",
            "lovin",
            "marry",
            "heartache",
            "lover",
            "feel",
            "feelings",
            "shawty",
            "pregnant",
            "heartbreak",
            "boyfriend",
            "girlfriend",
            "wife",
            "woo"
        ]
    },
    {
        "Topic" : "Sex",
        "Words" : [
            "sex",
            "fuck",
            "fuckin",
            "bang",
            "bitch",
            "ass",
            "dick",
            "pussy",
            "sexy",
            "touch",
            "clothes",
            "chick",
            "chicks",
            "control",
            "juicy",
            "bitches",
            "ho",
            "passion",
            "desire",
            "hot"
        ]
    },
    {
        "Topic" : "Dance",
        "Words" : [
            "party",
            "dance",
            "night",
            "fun",
            "club",
            "nights",
            "waltz",
            "rock",
            "dancing",
            "happy",
            "smile",
            "people",
            "good",
            "thrill",
            "tune",
            "dancers",
            "song",
            "floor",
            "rhyme",
            "show",
            "groovin",
            "groove",
            "movin",
            "move",
            "crowd",
            "roll",
            "music",
            "rap",
            "rapper",
            "hips",
            "twist",
            "shake",
            "twistin",
            "pop",
            "radio",
            "dancin"
        ]
    },
    {
        "Topic" : "Drugs",
        "Words" : [
            "drink",
            "alcohol",
            "smoke",
            "smokin",
            "beer",
            "booze",
            "wine",
            "dope",
            "drugs",
            "sippin",
            "drunk",
            "high",
            "deal",
            "bottles",
            "bottle",
            "pourin",
            "drank",
            "drug",
            "addicted",
            "shots",
            "high",
            "hit"
        ]
    },
    {
        "Topic" : "Wealth",
        "Words" : [
            "poor",
            "rich",
            "money",
            "dollar",
            "diamond",
            "gold",
            "business",
            "price",
            "diamonds",
            "penny",
            "cash",
            "car",
            "pay",
            "payin",
            "cost",
            "broke"
        ]
    },
    {
        "Topic" : "Friends",
        "Words" : [
            "friend",
            "friends",
            "father",
            "mother",
            "brother",
            "sister",
            "grandpa",
            "grandfather",
            "school",
            "son",
            "daughter",
            "child",
            "kid",
            "daddy",
            "family",
            "families",
            "home",
            "homie",
            "mama",
            "papa",
            "crib"
        ]
    },
    {
        "Topic" : "Religion",
        "Words" : [
            "god",
            "devil",
            "heaven",
            "hell",
            "angel",
            "demon",
            "lord",
            "pray",
            "prayer",
            "soul",
            "paradise",
            "jesus",
            "wonder",
            "satan",
            "bible",
            "bless",
            "sign",
            "believe",
            "sinner",
            "faith",
            "angels",
            "demon",
            "demons"
        ]
    },
    {
        "Topic" : "Unhappiness",
        "Words" : [
            "cry",
            "crying",
            "wrong",
            "sad",
            "bad",
            "blues",
            "tears",
            "miss",
            "guilty",
            "guilt",
            "bitter",
            "pain",
            "hurt",
            "hurtin",
            "frown",
            "cried",
            "afraid",
            "blame",
            "alone",
            "break",
            "broken",
            "heartache",
            "tragedy",
            "heartbreak",
            "tear",
            "miss",
            "scream",
            "insane",
            "weak",
            "insecure",
            "sorry",
            "sorrow"
        ]
    },
    {
        "Topic" : "Violence",
        "Words" : [
            "torturing",
            "evil",
            "die",
            "dies",
            "death",
            "hurt",
            "shoot",
            "hate",
            "violence",
            "gun",
            "knife",
            "pain",
            "war",
            "wrong",
            "blood",
            "eliminate",
            "slayin",
            "slay", 
            "haters",
            "dead",
            "cruel",
            "enslaves",
            "fight",
            "bullets"
        ]
    }, 
    {
        "Topic" : "Nature",
        "Words" : [
            "wind",
            "river",
            "sky",
            "shore",
            "sun",
            "moon",
            "stars",
            "world",
            "sunshine",
            "rain",
            "earth",
            "ocean",
            "clouds",
            "garden",
            "cloud",
            "fire",
            "flame",
            "mountains",
            "land"
        ]
    }
]