[
 {
  "Number": 0,
  "Words": [
   {
    "Word": "baby",
    "Rel": 0.0561904480669661
   },
   {
    "Word": "love",
    "Rel": 0.04367712394146595
   },
   {
    "Word": "girl",
    "Rel": 0.041787681789299876
   },
   {
    "Word": "night",
    "Rel": 0.03263515783885414
   },
   {
    "Word": "arms",
    "Rel": 0.03192823915648424
   },
   {
    "Word": "without",
    "Rel": 0.02872312410536108
   },
   {
    "Word": "wrong",
    "Rel": 0.0254341604470492
   },
   {
    "Word": "mind",
    "Rel": 0.025371453047532085
   },
   {
    "Word": "body",
    "Rel": 0.022751229038764753
   },
   {
    "Word": "cry",
    "Rel": 0.022565768197678353
   }
  ]
 },
 {
  "Number": 1,
  "Words": [
   {
    "Word": "baby",
    "Rel": 0.012820250404816422
   },
   {
    "Word": "feel",
    "Rel": 0.012792743487876575
   },
   {
    "Word": "cry",
    "Rel": 0.012742933734322665
   },
   {
    "Word": "living",
    "Rel": 0.012729604486359089
   },
   {
    "Word": "hold",
    "Rel": 0.012721399660160636
   },
   {
    "Word": "smile",
    "Rel": 0.012718921556312608
   },
   {
    "Word": "show",
    "Rel": 0.012717577615222003
   },
   {
    "Word": "stop",
    "Rel": 0.01271688691219799
   },
   {
    "Word": "break",
    "Rel": 0.012712973522870983
   },
   {
    "Word": "wish",
    "Rel": 0.01270886450712667
   }
  ]
 },
 {
  "Number": 2,
  "Words": [
   {
    "Word": "baby",
    "Rel": 0.02537720439779802
   },
   {
    "Word": "stay",
    "Rel": 0.020324338242740228
   },
   {
    "Word": "mind",
    "Rel": 0.020287600557787933
   },
   {
    "Word": "night",
    "Rel": 0.02013309105046504
   },
   {
    "Word": "heart",
    "Rel": 0.01994303953490184
   },
   {
    "Word": "wrong",
    "Rel": 0.015331868337848555
   },
   {
    "Word": "love",
    "Rel": 0.015254413340509433
   },
   {
    "Word": "try",
    "Rel": 0.015109676180017134
   },
   {
    "Word": "turn",
    "Rel": 0.015106304380302733
   },
   {
    "Word": "feeling",
    "Rel": 0.015100194370570528
   }
  ]
 },
 {
  "Number": 3,
  "Words": [
   {
    "Word": "walks",
    "Rel": 0.11021454958953229
   },
   {
    "Word": "man",
    "Rel": 0.058282662361466835
   },
   {
    "Word": "street",
    "Rel": 0.05610493554792521
   },
   {
    "Word": "feet",
    "Rel": 0.05599243495862493
   },
   {
    "Word": "help",
    "Rel": 0.05586430119267615
   },
   {
    "Word": "lord",
    "Rel": 0.05567225719083052
   },
   {
    "Word": "seems",
    "Rel": 0.055462748341802065
   },
   {
    "Word": "sir",
    "Rel": 0.055266235508888324
   },
   {
    "Word": "lines",
    "Rel": 0.055243192173552225
   },
   {
    "Word": "starts",
    "Rel": 0.055240036620771094
   }
  ]
 },
 {
  "Number": 4,
  "Words": [
   {
    "Word": "time",
    "Rel": 0.020605388314612335
   },
   {
    "Word": "home",
    "Rel": 0.013961656116035438
   },
   {
    "Word": "touch",
    "Rel": 0.013783795197103684
   },
   {
    "Word": "baby",
    "Rel": 0.013127129331005674
   },
   {
    "Word": "good",
    "Rel": 0.01266724746924275
   },
   {
    "Word": "dreams",
    "Rel": 0.010180117664879031
   },
   {
    "Word": "body",
    "Rel": 0.009404731139970196
   },
   {
    "Word": "love",
    "Rel": 0.008607728941704735
   },
   {
    "Word": "letters",
    "Rel": 0.007066660511651537
   },
   {
    "Word": "someone",
    "Rel": 0.007056903299561764
   }
  ]
 },
 {
  "Number": 5,
  "Words": [
   {
    "Word": "baby",
    "Rel": 0.02737698616683548
   },
   {
    "Word": "time",
    "Rel": 0.024964368215419724
   },
   {
    "Word": "love",
    "Rel": 0.021025690476019
   },
   {
    "Word": "boy",
    "Rel": 0.01780804823258375
   },
   {
    "Word": "share",
    "Rel": 0.017776969290033588
   },
   {
    "Word": "first",
    "Rel": 0.017763134424571368
   },
   {
    "Word": "fine",
    "Rel": 0.015359475839001883
   },
   {
    "Word": "heart",
    "Rel": 0.013559475371832275
   },
   {
    "Word": "wrong",
    "Rel": 0.013426326422284087
   },
   {
    "Word": "face",
    "Rel": 0.013319164063740436
   }
  ]
 },
 {
  "Number": 6,
  "Words": [
   {
    "Word": "baby",
    "Rel": 0.020705933786114766
   },
   {
    "Word": "cry",
    "Rel": 0.020540589090692726
   },
   {
    "Word": "open",
    "Rel": 0.020507545679962238
   },
   {
    "Word": "goodbye",
    "Rel": 0.020467377510811752
   },
   {
    "Word": "heart",
    "Rel": 0.01047882730650165
   },
   {
    "Word": "forever",
    "Rel": 0.010454900911628451
   },
   {
    "Word": "good",
    "Rel": 0.01042107639332715
   },
   {
    "Word": "hard",
    "Rel": 0.0103991576648196
   },
   {
    "Word": "touch",
    "Rel": 0.01037750694607038
   },
   {
    "Word": "rain",
    "Rel": 0.010367418845797128
   }
  ]
 },
 {
  "Number": 7,
  "Words": [
   {
    "Word": "passion",
    "Rel": 0.02636675948120018
   },
   {
    "Word": "free",
    "Rel": 0.026013181519905698
   },
   {
    "Word": "girl",
    "Rel": 0.017570501511031303
   },
   {
    "Word": "fire",
    "Rel": 0.017561129532068218
   },
   {
    "Word": "wish",
    "Rel": 0.017534061466976687
   },
   {
    "Word": "save",
    "Rel": 0.017508002945642104
   },
   {
    "Word": "desire",
    "Rel": 0.017496398444468562
   },
   {
    "Word": "mind",
    "Rel": 0.01738612404309915
   },
   {
    "Word": "touch",
    "Rel": 0.017344955276590225
   },
   {
    "Word": "face",
    "Rel": 0.017330247798896106
   }
  ]
 },
 {
  "Number": 8,
  "Words": [
   {
    "Word": "strong",
    "Rel": 0.14453192926062536
   },
   {
    "Word": "love",
    "Rel": 0.11554781203890112
   },
   {
    "Word": "time",
    "Rel": 0.08078229907320655
   },
   {
    "Word": "good",
    "Rel": 0.07637960854814868
   },
   {
    "Word": "try",
    "Rel": 0.04907127308169181
   },
   {
    "Word": "feel",
    "Rel": 0.04814338007100836
   },
   {
    "Word": "hard",
    "Rel": 0.04337635591783217
   },
   {
    "Word": "dream",
    "Rel": 0.041009089619376174
   },
   {
    "Word": "vision",
    "Rel": 0.033036761023605525
   },
   {
    "Word": "nights",
    "Rel": 0.03168579895742436
   }
  ]
 },
 {
  "Number": 9,
  "Words": [
   {
    "Word": "good",
    "Rel": 0.04258458305804033
   },
   {
    "Word": "woman",
    "Rel": 0.042393532743376004
   },
   {
    "Word": "love",
    "Rel": 0.03817136697684732
   },
   {
    "Word": "mind",
    "Rel": 0.031128511590740204
   },
   {
    "Word": "sign",
    "Rel": 0.02453362397182674
   },
   {
    "Word": "baby",
    "Rel": 0.02312166970194078
   },
   {
    "Word": "feel",
    "Rel": 0.021227337332483654
   },
   {
    "Word": "dream",
    "Rel": 0.021117485709602275
   },
   {
    "Word": "anything",
    "Rel": 0.021108786950002168
   },
   {
    "Word": "feels",
    "Rel": 0.02098078951225715
   }
  ]
 },
 {
  "Number": 10,
  "Words": [
   {
    "Word": "baby",
    "Rel": 0.05989893997274049
   },
   {
    "Word": "world",
    "Rel": 0.036132403624686
   },
   {
    "Word": "darlin",
    "Rel": 0.035692703306815544
   },
   {
    "Word": "time",
    "Rel": 0.0352486823338447
   },
   {
    "Word": "love",
    "Rel": 0.03175556862872769
   },
   {
    "Word": "heart",
    "Rel": 0.03139128202635504
   },
   {
    "Word": "stop",
    "Rel": 0.023943035494692667
   },
   {
    "Word": "long",
    "Rel": 0.023764277682819086
   },
   {
    "Word": "free",
    "Rel": 0.023754941033504638
   },
   {
    "Word": "feeling",
    "Rel": 0.023752488870187695
   }
  ]
 },
 {
  "Number": 11,
  "Words": [
   {
    "Word": "hand",
    "Rel": 0.01441320444310738
   },
   {
    "Word": "moon",
    "Rel": 0.014357374506844168
   },
   {
    "Word": "open",
    "Rel": 0.014354378014018216
   },
   {
    "Word": "kiss",
    "Rel": 0.014323894901509475
   },
   {
    "Word": "floor",
    "Rel": 0.01429911455859757
   },
   {
    "Word": "lead",
    "Rel": 0.014296449376680901
   },
   {
    "Word": "broken",
    "Rel": 0.014292397501343545
   },
   {
    "Word": "dance",
    "Rel": 0.014281211848236894
   },
   {
    "Word": "step",
    "Rel": 0.01427894705719967
   },
   {
    "Word": "shoes",
    "Rel": 0.014266526283483566
   }
  ]
 },
 {
  "Number": 12,
  "Words": [
   {
    "Word": "friends",
    "Rel": 0.013849549008933468
   },
   {
    "Word": "cry",
    "Rel": 0.013833688837519056
   },
   {
    "Word": "girl",
    "Rel": 0.013824441603168348
   },
   {
    "Word": "white",
    "Rel": 0.013814097574470153
   },
   {
    "Word": "crazy",
    "Rel": 0.01381130856606366
   },
   {
    "Word": "rock",
    "Rel": 0.013801849239423321
   },
   {
    "Word": "roll",
    "Rel": 0.01379348459645171
   },
   {
    "Word": "long",
    "Rel": 0.006914912413825452
   },
   {
    "Word": "boy",
    "Rel": 0.00691435607461666
   },
   {
    "Word": "sun",
    "Rel": 0.006912094713177234
   }
  ]
 },
 {
  "Number": 13,
  "Words": [
   {
    "Word": "whole",
    "Rel": 0.011761701060997136
   },
   {
    "Word": "girl",
    "Rel": 0.011742019855206797
   },
   {
    "Word": "love",
    "Rel": 0.011719763943256844
   },
   {
    "Word": "world",
    "Rel": 0.007908476623202135
   },
   {
    "Word": "good",
    "Rel": 0.00790841638905306
   },
   {
    "Word": "song",
    "Rel": 0.007904492687844638
   },
   {
    "Word": "fun",
    "Rel": 0.007896261970371413
   },
   {
    "Word": "slow",
    "Rel": 0.00789566915775442
   },
   {
    "Word": "girls",
    "Rel": 0.007895135737133518
   },
   {
    "Word": "rock",
    "Rel": 0.007894833833766003
   }
  ]
 },
 {
  "Number": 14,
  "Words": [
   {
    "Word": "baby",
    "Rel": 0.01508314832141639
   },
   {
    "Word": "love",
    "Rel": 0.015031183861538056
   },
   {
    "Word": "man",
    "Rel": 0.015019304949145709
   },
   {
    "Word": "face",
    "Rel": 0.014999103670895512
   },
   {
    "Word": "people",
    "Rel": 0.014945698517536793
   },
   {
    "Word": "sorry",
    "Rel": 0.014943371797467297
   },
   {
    "Word": "home",
    "Rel": 0.014938061108214407
   },
   {
    "Word": "chance",
    "Rel": 0.014937888387582922
   },
   {
    "Word": "move",
    "Rel": 0.014918042329147571
   },
   {
    "Word": "earth",
    "Rel": 0.014895908419331041
   }
  ]
 },
 {
  "Number": 15,
  "Words": [
   {
    "Word": "baby",
    "Rel": 0.03469939585472062
   },
   {
    "Word": "time",
    "Rel": 0.03329070392988639
   },
   {
    "Word": "love",
    "Rel": 0.0200690347298666
   },
   {
    "Word": "sayin",
    "Rel": 0.017385508440638443
   },
   {
    "Word": "girl",
    "Rel": 0.017341607126175447
   },
   {
    "Word": "pain",
    "Rel": 0.01723184271060759
   },
   {
    "Word": "tears",
    "Rel": 0.017170937222970466
   },
   {
    "Word": "hear",
    "Rel": 0.011675991780296744
   },
   {
    "Word": "real",
    "Rel": 0.011605335272582019
   },
   {
    "Word": "times",
    "Rel": 0.011476747635838077
   }
  ]
 },
 {
  "Number": 16,
  "Words": [
   {
    "Word": "world",
    "Rel": 0.02562419707354938
   },
   {
    "Word": "time",
    "Rel": 0.01924513040962309
   },
   {
    "Word": "die",
    "Rel": 0.019171813007569947
   },
   {
    "Word": "arms",
    "Rel": 0.0191525561479867
   },
   {
    "Word": "wrong",
    "Rel": 0.012818419696428234
   },
   {
    "Word": "sky",
    "Rel": 0.012805506334288433
   },
   {
    "Word": "night",
    "Rel": 0.012782725460856844
   },
   {
    "Word": "heart",
    "Rel": 0.012730569167100511
   },
   {
    "Word": "anything",
    "Rel": 0.012726829129048784
   },
   {
    "Word": "man",
    "Rel": 0.012708017762441537
   }
  ]
 },
 {
  "Number": 17,
  "Words": [
   {
    "Word": "baby",
    "Rel": 0.033396263240473255
   },
   {
    "Word": "heart",
    "Rel": 0.033329840806042454
   },
   {
    "Word": "time",
    "Rel": 0.022320557791894922
   },
   {
    "Word": "world",
    "Rel": 0.02228876172936242
   },
   {
    "Word": "work",
    "Rel": 0.02219649118388246
   },
   {
    "Word": "thank",
    "Rel": 0.022000279430915273
   },
   {
    "Word": "flow",
    "Rel": 0.02185894385309461
   },
   {
    "Word": "hand",
    "Rel": 0.011090869599883098
   },
   {
    "Word": "wrong",
    "Rel": 0.011079690544647995
   },
   {
    "Word": "want",
    "Rel": 0.011072176997684867
   }
  ]
 },
 {
  "Number": 18,
  "Words": [
   {
    "Word": "cry",
    "Rel": 0.030002919174887333
   },
   {
    "Word": "heart",
    "Rel": 0.026804235345789077
   },
   {
    "Word": "baby",
    "Rel": 0.026613539032055274
   },
   {
    "Word": "time",
    "Rel": 0.02584731243190908
   },
   {
    "Word": "face",
    "Rel": 0.02553905498381416
   },
   {
    "Word": "care",
    "Rel": 0.02548370141203706
   },
   {
    "Word": "feel",
    "Rel": 0.017246125524397218
   },
   {
    "Word": "understand",
    "Rel": 0.01706684275148043
   },
   {
    "Word": "want",
    "Rel": 0.017024678413873166
   },
   {
    "Word": "mind",
    "Rel": 0.016946888410513603
   }
  ]
 },
 {
  "Number": 19,
  "Words": [
   {
    "Word": "today",
    "Rel": 0.018231552591904118
   },
   {
    "Word": "people",
    "Rel": 0.01821841646248569
   },
   {
    "Word": "better",
    "Rel": 0.018204566206672726
   },
   {
    "Word": "social",
    "Rel": 0.018154171634464335
   },
   {
    "Word": "brick",
    "Rel": 0.018154170161530522
   },
   {
    "Word": "free",
    "Rel": 0.00919220877226081
   },
   {
    "Word": "someone",
    "Rel": 0.00918455906065475
   },
   {
    "Word": "run",
    "Rel": 0.00918145187583128
   },
   {
    "Word": "friend",
    "Rel": 0.009180022902486328
   },
   {
    "Word": "hold",
    "Rel": 0.009178022536638505
   }
  ]
 },
 {
  "Number": 20,
  "Words": [
   {
    "Word": "long",
    "Rel": 0.006846527906102962
   },
   {
    "Word": "stay",
    "Rel": 0.006844584652899384
   },
   {
    "Word": "real",
    "Rel": 0.006843550939328207
   },
   {
    "Word": "girl",
    "Rel": 0.00683860838874023
   },
   {
    "Word": "game",
    "Rel": 0.006838247438245109
   },
   {
    "Word": "rump",
    "Rel": 0.006836413280132838
   },
   {
    "Word": "fat",
    "Rel": 0.006836126940154125
   },
   {
    "Word": "average",
    "Rel": 0.006836040913871583
   },
   {
    "Word": "ladies",
    "Rel": 0.006835872136581245
   },
   {
    "Word": "baby",
    "Rel": 0.006830909228405739
   }
  ]
 },
 {
  "Number": 21,
  "Words": [
   {
    "Word": "time",
    "Rel": 0.026715798793912112
   },
   {
    "Word": "good",
    "Rel": 0.026607250831625656
   },
   {
    "Word": "heart",
    "Rel": 0.013327529641651263
   },
   {
    "Word": "love",
    "Rel": 0.013301589635939328
   },
   {
    "Word": "real",
    "Rel": 0.013246876174960846
   },
   {
    "Word": "name",
    "Rel": 0.013245633804291456
   },
   {
    "Word": "night",
    "Rel": 0.013236552172991967
   },
   {
    "Word": "baby",
    "Rel": 0.013228405664141046
   },
   {
    "Word": "whole",
    "Rel": 0.013220691220131935
   },
   {
    "Word": "man",
    "Rel": 0.013216004802767328
   }
  ]
 },
 {
  "Number": 22,
  "Words": [
   {
    "Word": "soul",
    "Rel": 0.014922658725829718
   },
   {
    "Word": "truth",
    "Rel": 0.014913011652209969
   },
   {
    "Word": "rain",
    "Rel": 0.014852343462962983
   },
   {
    "Word": "mind",
    "Rel": 0.014849937971633795
   },
   {
    "Word": "pain",
    "Rel": 0.014842129705395448
   },
   {
    "Word": "candle",
    "Rel": 0.01484022756387004
   },
   {
    "Word": "hearts",
    "Rel": 0.014831671794908184
   },
   {
    "Word": "time",
    "Rel": 0.014812575587493864
   },
   {
    "Word": "name",
    "Rel": 0.010000640472790305
   },
   {
    "Word": "tears",
    "Rel": 0.009993879934867186
   }
  ]
 },
 {
  "Number": 23,
  "Words": [
   {
    "Word": "good",
    "Rel": 0.018272546691386816
   },
   {
    "Word": "cry",
    "Rel": 0.01826625039811396
   },
   {
    "Word": "strong",
    "Rel": 0.012327060185307818
   },
   {
    "Word": "hard",
    "Rel": 0.012321558254618895
   },
   {
    "Word": "lovin",
    "Rel": 0.012301647837850066
   },
   {
    "Word": "man",
    "Rel": 0.012300162054104558
   },
   {
    "Word": "try",
    "Rel": 0.012194919704536348
   },
   {
    "Word": "night",
    "Rel": 0.012004242639192357
   },
   {
    "Word": "heart",
    "Rel": 0.009278294580210684
   },
   {
    "Word": "time",
    "Rel": 0.007353368194208564
   }
  ]
 },
 {
  "Number": 24,
  "Words": [
   {
    "Word": "time",
    "Rel": 0.055215879337119037
   },
   {
    "Word": "love",
    "Rel": 0.04667324732513182
   },
   {
    "Word": "long",
    "Rel": 0.04161680960616267
   },
   {
    "Word": "night",
    "Rel": 0.03986237580481046
   },
   {
    "Word": "hold",
    "Rel": 0.03250670655231568
   },
   {
    "Word": "dreams",
    "Rel": 0.03248992390768543
   },
   {
    "Word": "touch",
    "Rel": 0.032350630487874926
   },
   {
    "Word": "breathe",
    "Rel": 0.031098942090820276
   },
   {
    "Word": "baby",
    "Rel": 0.02958138513185931
   },
   {
    "Word": "heart",
    "Rel": 0.027260462225103504
   }
  ]
 },
 {
  "Number": 25,
  "Words": [
   {
    "Word": "good",
    "Rel": 0.021912759555119347
   },
   {
    "Word": "time",
    "Rel": 0.021886801574424474
   },
   {
    "Word": "face",
    "Rel": 0.021852647892892398
   },
   {
    "Word": "sun",
    "Rel": 0.010935111485691228
   },
   {
    "Word": "man",
    "Rel": 0.010930322467640639
   },
   {
    "Word": "live",
    "Rel": 0.010923372470820475
   },
   {
    "Word": "body",
    "Rel": 0.01091029991236947
   },
   {
    "Word": "hand",
    "Rel": 0.010905807443872803
   },
   {
    "Word": "show",
    "Rel": 0.010905309347253221
   },
   {
    "Word": "long",
    "Rel": 0.01090480334341538
   }
  ]
 },
 {
  "Number": 26,
  "Words": [
   {
    "Word": "everybody",
    "Rel": 0.013775565773952048
   },
   {
    "Word": "light",
    "Rel": 0.009292412609527371
   },
   {
    "Word": "teach",
    "Rel": 0.00926335172364632
   },
   {
    "Word": "live",
    "Rel": 0.009255719099457632
   },
   {
    "Word": "hand",
    "Rel": 0.009255664064151266
   },
   {
    "Word": "heart",
    "Rel": 0.009250181488823913
   },
   {
    "Word": "mind",
    "Rel": 0.009247401812102074
   },
   {
    "Word": "understand",
    "Rel": 0.009247028415851297
   },
   {
    "Word": "night",
    "Rel": 0.009246930630146453
   },
   {
    "Word": "dreams",
    "Rel": 0.009245176594539684
   }
  ]
 },
 {
  "Number": 27,
  "Words": [
   {
    "Word": "man",
    "Rel": 0.01643028212988329
   },
   {
    "Word": "night",
    "Rel": 0.016220189130353214
   },
   {
    "Word": "good",
    "Rel": 0.011061283484206513
   },
   {
    "Word": "real",
    "Rel": 0.010966501470740934
   },
   {
    "Word": "hard",
    "Rel": 0.0109609902726126
   },
   {
    "Word": "bad",
    "Rel": 0.010957851857505778
   },
   {
    "Word": "drive",
    "Rel": 0.010933913333953738
   },
   {
    "Word": "time",
    "Rel": 0.010815069064234267
   },
   {
    "Word": "girl",
    "Rel": 0.010784343092976371
   },
   {
    "Word": "blood",
    "Rel": 0.010720561786940058
   }
  ]
 },
 {
  "Number": 28,
  "Words": [
   {
    "Word": "love",
    "Rel": 0.03406063204688025
   },
   {
    "Word": "heart",
    "Rel": 0.029838713426385055
   },
   {
    "Word": "truth",
    "Rel": 0.018041155257091622
   },
   {
    "Word": "show",
    "Rel": 0.01797743921990029
   },
   {
    "Word": "words",
    "Rel": 0.01777192874002803
   },
   {
    "Word": "night",
    "Rel": 0.01768187878294248
   },
   {
    "Word": "trust",
    "Rel": 0.01595047868084032
   },
   {
    "Word": "baby",
    "Rel": 0.0143245865430874
   },
   {
    "Word": "end",
    "Rel": 0.01203437801668686
   },
   {
    "Word": "share",
    "Rel": 0.011981555090471522
   }
  ]
 },
 {
  "Number": 29,
  "Words": [
   {
    "Word": "jam",
    "Rel": 0.016031970635782145
   },
   {
    "Word": "hot",
    "Rel": 0.012074583184842747
   },
   {
    "Word": "club",
    "Rel": 0.012021485582775045
   },
   {
    "Word": "floor",
    "Rel": 0.011968259040737804
   },
   {
    "Word": "body",
    "Rel": 0.011967236936020913
   },
   {
    "Word": "baby",
    "Rel": 0.01190966374731817
   },
   {
    "Word": "girls",
    "Rel": 0.011909365786129484
   },
   {
    "Word": "time",
    "Rel": 0.011905209837340544
   },
   {
    "Word": "work",
    "Rel": 0.0080696085572908
   },
   {
    "Word": "jerks",
    "Rel": 0.008067114445997557
   }
  ]
 },
 {
  "Number": 30,
  "Words": [
   {
    "Word": "none",
    "Rel": 0.044712360820098676
   },
   {
    "Word": "mind",
    "Rel": 0.012869961857100267
   },
   {
    "Word": "hard",
    "Rel": 0.012863429682927285
   },
   {
    "Word": "night",
    "Rel": 0.006436151839723343
   },
   {
    "Word": "real",
    "Rel": 0.00643067822107858
   },
   {
    "Word": "whole",
    "Rel": 0.0064283229323012885
   },
   {
    "Word": "boy",
    "Rel": 0.006422485058541557
   },
   {
    "Word": "high",
    "Rel": 0.006420006488807248
   },
   {
    "Word": "white",
    "Rel": 0.006418656821283198
   },
   {
    "Word": "home",
    "Rel": 0.006418205605518808
   }
  ]
 },
 {
  "Number": 31,
  "Words": [
   {
    "Word": "baby",
    "Rel": 0.05111164736556802
   },
   {
    "Word": "girl",
    "Rel": 0.03882789759680963
   },
   {
    "Word": "heart",
    "Rel": 0.03140975516754934
   },
   {
    "Word": "promises",
    "Rel": 0.030616862733020486
   },
   {
    "Word": "want",
    "Rel": 0.02408347040748323
   },
   {
    "Word": "real",
    "Rel": 0.02205995970503112
   },
   {
    "Word": "love",
    "Rel": 0.016960568610674073
   },
   {
    "Word": "time",
    "Rel": 0.01565545597855173
   },
   {
    "Word": "whole",
    "Rel": 0.015621235742282058
   },
   {
    "Word": "understand",
    "Rel": 0.015608923851133449
   }
  ]
 },
 {
  "Number": 32,
  "Words": [
   {
    "Word": "baby",
    "Rel": 0.021116883889624856
   },
   {
    "Word": "freak",
    "Rel": 0.015907566079647044
   },
   {
    "Word": "mind",
    "Rel": 0.01584145523937894
   },
   {
    "Word": "dance",
    "Rel": 0.010652659708848135
   },
   {
    "Word": "everybody",
    "Rel": 0.01065008183990702
   },
   {
    "Word": "freaky",
    "Rel": 0.010648579584378523
   },
   {
    "Word": "body",
    "Rel": 0.0106482595403709
   },
   {
    "Word": "girl",
    "Rel": 0.010625570331187283
   },
   {
    "Word": "night",
    "Rel": 0.010620318179157522
   },
   {
    "Word": "real",
    "Rel": 0.010541582995831656
   }
  ]
 },
 {
  "Number": 33,
  "Words": [
   {
    "Word": "friend",
    "Rel": 0.011387281150307568
   },
   {
    "Word": "hand",
    "Rel": 0.011379455738666286
   },
   {
    "Word": "fool",
    "Rel": 0.011373059681923385
   },
   {
    "Word": "hold",
    "Rel": 0.011295763492327996
   },
   {
    "Word": "girl",
    "Rel": 0.009745860291584288
   },
   {
    "Word": "baby",
    "Rel": 0.009539465295873333
   },
   {
    "Word": "night",
    "Rel": 0.005711933266947382
   },
   {
    "Word": "free",
    "Rel": 0.005710027233518221
   },
   {
    "Word": "time",
    "Rel": 0.0057099098662516815
   },
   {
    "Word": "face",
    "Rel": 0.005706326471687867
   }
  ]
 },
 {
  "Number": 34,
  "Words": [
   {
    "Word": "man",
    "Rel": 0.04371731603412787
   },
   {
    "Word": "night",
    "Rel": 0.038551162633787675
   },
   {
    "Word": "god",
    "Rel": 0.03321965170766759
   },
   {
    "Word": "promise",
    "Rel": 0.02554357431411532
   },
   {
    "Word": "love",
    "Rel": 0.02529255926095845
   },
   {
    "Word": "sleep",
    "Rel": 0.025283657291230874
   },
   {
    "Word": "evening",
    "Rel": 0.02526278804751884
   },
   {
    "Word": "ocean",
    "Rel": 0.020176350880089216
   },
   {
    "Word": "hope",
    "Rel": 0.01749934289037422
   },
   {
    "Word": "world",
    "Rel": 0.01613493500682719
   }
  ]
 },
 {
  "Number": 35,
  "Words": [
   {
    "Word": "time",
    "Rel": 0.015835590957424588
   },
   {
    "Word": "whole",
    "Rel": 0.011984640416648476
   },
   {
    "Word": "boy",
    "Rel": 0.011983883196722327
   },
   {
    "Word": "care",
    "Rel": 0.008042575258448308
   },
   {
    "Word": "name",
    "Rel": 0.008024349692329426
   },
   {
    "Word": "wonder",
    "Rel": 0.008005764600647348
   },
   {
    "Word": "bad",
    "Rel": 0.008004255123053498
   },
   {
    "Word": "hate",
    "Rel": 0.007999715462628721
   },
   {
    "Word": "ice",
    "Rel": 0.00799891907057506
   },
   {
    "Word": "fast",
    "Rel": 0.007998850214886468
   }
  ]
 },
 {
  "Number": 36,
  "Words": [
   {
    "Word": "real",
    "Rel": 0.009673253959678002
   },
   {
    "Word": "world",
    "Rel": 0.009671457767208598
   },
   {
    "Word": "good",
    "Rel": 0.009664422218884321
   },
   {
    "Word": "man",
    "Rel": 0.009663146351180468
   },
   {
    "Word": "suit",
    "Rel": 0.00966276291736694
   },
   {
    "Word": "hot",
    "Rel": 0.009662416733764773
   },
   {
    "Word": "step",
    "Rel": 0.009661399872721249
   },
   {
    "Word": "live",
    "Rel": 0.004843948382184836
   },
   {
    "Word": "boy",
    "Rel": 0.00484283599302849
   },
   {
    "Word": "whole",
    "Rel": 0.004840895144903941
   }
  ]
 },
 {
  "Number": 37,
  "Words": [
   {
    "Word": "world",
    "Rel": 0.015270933801973093
   },
   {
    "Word": "heart",
    "Rel": 0.015253422746513605
   },
   {
    "Word": "show",
    "Rel": 0.015249768854141723
   },
   {
    "Word": "night",
    "Rel": 0.010182556925018826
   },
   {
    "Word": "sun",
    "Rel": 0.01017634458069742
   },
   {
    "Word": "long",
    "Rel": 0.010174194949235795
   },
   {
    "Word": "whole",
    "Rel": 0.010174090479132715
   },
   {
    "Word": "reason",
    "Rel": 0.010168220689231278
   },
   {
    "Word": "open",
    "Rel": 0.010167218329811148
   },
   {
    "Word": "moon",
    "Rel": 0.010166634483787422
   }
  ]
 },
 {
  "Number": 38,
  "Words": [
   {
    "Word": "feel",
    "Rel": 0.01143668575562363
   },
   {
    "Word": "heart",
    "Rel": 0.008535338140004735
   },
   {
    "Word": "love",
    "Rel": 0.007184415696030615
   },
   {
    "Word": "stay",
    "Rel": 0.007157206400153603
   },
   {
    "Word": "high",
    "Rel": 0.007109984118018125
   },
   {
    "Word": "mind",
    "Rel": 0.007100634892620727
   },
   {
    "Word": "boy",
    "Rel": 0.007099082624635156
   },
   {
    "Word": "face",
    "Rel": 0.007094702232635629
   },
   {
    "Word": "whole",
    "Rel": 0.007092733445937598
   },
   {
    "Word": "touch",
    "Rel": 0.007088572770121158
   }
  ]
 },
 {
  "Number": 39,
  "Words": [
   {
    "Word": "time",
    "Rel": 0.011577940003486808
   },
   {
    "Word": "kind",
    "Rel": 0.011156313677190674
   },
   {
    "Word": "sweet",
    "Rel": 0.011146470018803685
   },
   {
    "Word": "close",
    "Rel": 0.011141940604514166
   },
   {
    "Word": "cherry",
    "Rel": 0.00755700729962951
   },
   {
    "Word": "baby",
    "Rel": 0.0075546843325492215
   },
   {
    "Word": "mind",
    "Rel": 0.007514291557729641
   },
   {
    "Word": "live",
    "Rel": 0.007472418562003174
   },
   {
    "Word": "mmm",
    "Rel": 0.00746759601870593
   },
   {
    "Word": "pie",
    "Rel": 0.007462219996464229
   }
  ]
 },
 {
  "Number": 40,
  "Words": [
   {
    "Word": "love",
    "Rel": 0.03391158543816
   },
   {
    "Word": "heart",
    "Rel": 0.02716182420751117
   },
   {
    "Word": "time",
    "Rel": 0.020248116737242652
   },
   {
    "Word": "night",
    "Rel": 0.02021961656654711
   },
   {
    "Word": "end",
    "Rel": 0.020198697322301697
   },
   {
    "Word": "open",
    "Rel": 0.013601579296980613
   },
   {
    "Word": "light",
    "Rel": 0.013595692706244708
   },
   {
    "Word": "questions",
    "Rel": 0.013594222421662373
   },
   {
    "Word": "shadow",
    "Rel": 0.013583587404164403
   },
   {
    "Word": "children",
    "Rel": 0.01356836512320843
   }
  ]
 },
 {
  "Number": 41,
  "Words": [
   {
    "Word": "night",
    "Rel": 0.021865220012409235
   },
   {
    "Word": "good",
    "Rel": 0.02186467186279421
   },
   {
    "Word": "heaven",
    "Rel": 0.021855724953442488
   },
   {
    "Word": "shine",
    "Rel": 0.021850247956064175
   },
   {
    "Word": "kiss",
    "Rel": 0.021735081412703215
   },
   {
    "Word": "hair",
    "Rel": 0.021689533528821067
   },
   {
    "Word": "shoes",
    "Rel": 0.02166808549610493
   },
   {
    "Word": "love",
    "Rel": 0.0215105803007199
   },
   {
    "Word": "baby",
    "Rel": 0.011141042225684962
   },
   {
    "Word": "wrong",
    "Rel": 0.011113897869198952
   }
  ]
 },
 {
  "Number": 42,
  "Words": [
   {
    "Word": "world",
    "Rel": 0.00997586362843966
   },
   {
    "Word": "time",
    "Rel": 0.009966794560570988
   },
   {
    "Word": "girl",
    "Rel": 0.009965791078194949
   },
   {
    "Word": "money",
    "Rel": 0.00995084638492652
   },
   {
    "Word": "rock",
    "Rel": 0.009950341271971875
   },
   {
    "Word": "nuttin",
    "Rel": 0.009944952091532297
   },
   {
    "Word": "long",
    "Rel": 0.005037413560294011
   },
   {
    "Word": "loud",
    "Rel": 0.005036217537227635
   },
   {
    "Word": "reason",
    "Rel": 0.005035180562728252
   },
   {
    "Word": "hard",
    "Rel": 0.005035023530293333
   }
  ]
 },
 {
  "Number": 43,
  "Words": [
   {
    "Word": "world",
    "Rel": 0.00990026374839031
   },
   {
    "Word": "cloud",
    "Rel": 0.009895611294643097
   },
   {
    "Word": "crazy",
    "Rel": 0.009892594313271342
   },
   {
    "Word": "sent",
    "Rel": 0.009821889264092656
   },
   {
    "Word": "mama",
    "Rel": 0.009818271344226186
   },
   {
    "Word": "baby",
    "Rel": 0.0098064193823295
   },
   {
    "Word": "time",
    "Rel": 0.008111427697081546
   },
   {
    "Word": "night",
    "Rel": 0.007779561120638185
   },
   {
    "Word": "love",
    "Rel": 0.006099705782714837
   },
   {
    "Word": "sweetness",
    "Rel": 0.004952546293772654
   }
  ]
 },
 {
  "Number": 44,
  "Words": [
   {
    "Word": "night",
    "Rel": 0.039569090539633034
   },
   {
    "Word": "light",
    "Rel": 0.02623265899458808
   },
   {
    "Word": "tight",
    "Rel": 0.026181353593281616
   },
   {
    "Word": "fire",
    "Rel": 0.026124428784272194
   },
   {
    "Word": "time",
    "Rel": 0.02115202791289453
   },
   {
    "Word": "anything",
    "Rel": 0.01312709927852341
   },
   {
    "Word": "girl",
    "Rel": 0.013099139967296156
   },
   {
    "Word": "want",
    "Rel": 0.01309246803654438
   },
   {
    "Word": "body",
    "Rel": 0.013087817504876509
   },
   {
    "Word": "close",
    "Rel": 0.01307621618021071
   }
  ]
 },
 {
  "Number": 45,
  "Words": [
   {
    "Word": "time",
    "Rel": 0.028816957174709563
   },
   {
    "Word": "baby",
    "Rel": 0.023017515164481334
   },
   {
    "Word": "name",
    "Rel": 0.01726871065255099
   },
   {
    "Word": "body",
    "Rel": 0.011541798801917013
   },
   {
    "Word": "history",
    "Rel": 0.011539954870556536
   },
   {
    "Word": "tears",
    "Rel": 0.01153867260353793
   },
   {
    "Word": "nights",
    "Rel": 0.011533670702458015
   },
   {
    "Word": "bed",
    "Rel": 0.011531552502787121
   },
   {
    "Word": "dreams",
    "Rel": 0.011522295245194802
   },
   {
    "Word": "light",
    "Rel": 0.011519486287378642
   }
  ]
 },
 {
  "Number": 46,
  "Words": [
   {
    "Word": "love",
    "Rel": 0.030750699086369855
   },
   {
    "Word": "girl",
    "Rel": 0.023407810401177148
   },
   {
    "Word": "baby",
    "Rel": 0.02339142921736458
   },
   {
    "Word": "man",
    "Rel": 0.022961072008077423
   },
   {
    "Word": "heart",
    "Rel": 0.015464683729999493
   },
   {
    "Word": "good",
    "Rel": 0.015449196849404549
   },
   {
    "Word": "time",
    "Rel": 0.015428745549825316
   },
   {
    "Word": "lovin",
    "Rel": 0.0154086894236589
   },
   {
    "Word": "night",
    "Rel": 0.015370609786113435
   },
   {
    "Word": "feel",
    "Rel": 0.015339831744911745
   }
  ]
 },
 {
  "Number": 47,
  "Words": [
   {
    "Word": "baby",
    "Rel": 0.029807346587334645
   },
   {
    "Word": "show",
    "Rel": 0.02127875615637851
   },
   {
    "Word": "man",
    "Rel": 0.021144861560080087
   },
   {
    "Word": "love",
    "Rel": 0.020890758165831736
   },
   {
    "Word": "could",
    "Rel": 0.017177788607332288
   },
   {
    "Word": "sweet",
    "Rel": 0.01711794302663582
   },
   {
    "Word": "night",
    "Rel": 0.01704329581018905
   },
   {
    "Word": "heart",
    "Rel": 0.017014208758830435
   },
   {
    "Word": "better",
    "Rel": 0.01695591266624091
   },
   {
    "Word": "time",
    "Rel": 0.016671843051206524
   }
  ]
 },
 {
  "Number": 48,
  "Words": [
   {
    "Word": "heart",
    "Rel": 0.02995918134211306
   },
   {
    "Word": "world",
    "Rel": 0.02438095883470485
   },
   {
    "Word": "tight",
    "Rel": 0.02406177537770446
   },
   {
    "Word": "close",
    "Rel": 0.023992478529152754
   },
   {
    "Word": "fire",
    "Rel": 0.023928073028409273
   },
   {
    "Word": "yesterday",
    "Rel": 0.023708147789818515
   },
   {
    "Word": "breaking",
    "Rel": 0.02370468311284912
   },
   {
    "Word": "goodbye",
    "Rel": 0.023665475976081176
   },
   {
    "Word": "high",
    "Rel": 0.023642689128125477
   },
   {
    "Word": "memory",
    "Rel": 0.023623417799762614
   }
  ]
 },
 {
  "Number": 49,
  "Words": [
   {
    "Word": "baby",
    "Rel": 0.01941713155119242
   },
   {
    "Word": "time",
    "Rel": 0.015433494535340297
   },
   {
    "Word": "night",
    "Rel": 0.01471104328298482
   },
   {
    "Word": "talk",
    "Rel": 0.012825769221092029
   },
   {
    "Word": "arms",
    "Rel": 0.012789039455440136
   },
   {
    "Word": "real",
    "Rel": 0.012768725392820948
   },
   {
    "Word": "good",
    "Rel": 0.012657696750742459
   },
   {
    "Word": "world",
    "Rel": 0.012610368626034764
   },
   {
    "Word": "strong",
    "Rel": 0.008732520525386943
   },
   {
    "Word": "sky",
    "Rel": 0.00858991732425303
   }
  ]
 },
 {
  "Number": 50,
  "Words": [
   {
    "Word": "time",
    "Rel": 0.010209396220662328
   },
   {
    "Word": "baby",
    "Rel": 0.010198071439775167
   },
   {
    "Word": "none",
    "Rel": 0.010195496341068313
   },
   {
    "Word": "feel",
    "Rel": 0.010173777371020381
   },
   {
    "Word": "girl",
    "Rel": 0.01016695481373346
   },
   {
    "Word": "man",
    "Rel": 0.010162982155277328
   },
   {
    "Word": "hard",
    "Rel": 0.010148988489278709
   },
   {
    "Word": "words",
    "Rel": 0.010135570663591668
   },
   {
    "Word": "fool",
    "Rel": 0.010135378806457514
   },
   {
    "Word": "close",
    "Rel": 0.01012653264436689
   }
  ]
 },
 {
  "Number": 51,
  "Words": [
   {
    "Word": "time",
    "Rel": 0.017279378564245065
   },
   {
    "Word": "repeat",
    "Rel": 0.011617217213801082
   },
   {
    "Word": "call",
    "Rel": 0.011534525105367394
   },
   {
    "Word": "feel",
    "Rel": 0.011424155256164765
   },
   {
    "Word": "first",
    "Rel": 0.01139854950623728
   },
   {
    "Word": "always",
    "Rel": 0.011386314936835822
   },
   {
    "Word": "crowd",
    "Rel": 0.01137117349778507
   },
   {
    "Word": "clown",
    "Rel": 0.01135263839111171
   },
   {
    "Word": "world",
    "Rel": 0.011261690199655451
   },
   {
    "Word": "stage",
    "Rel": 0.011244415751180747
   }
  ]
 },
 {
  "Number": 52,
  "Words": [
   {
    "Word": "close",
    "Rel": 0.0752758664485226
   },
   {
    "Word": "love",
    "Rel": 0.07339283734379624
   },
   {
    "Word": "baby",
    "Rel": 0.05170113954786963
   },
   {
    "Word": "girl",
    "Rel": 0.05138696453060127
   },
   {
    "Word": "god",
    "Rel": 0.030819059288465463
   },
   {
    "Word": "pain",
    "Rel": 0.030088608513851187
   },
   {
    "Word": "night",
    "Rel": 0.027700780849689896
   },
   {
    "Word": "sorry",
    "Rel": 0.02590764304142596
   },
   {
    "Word": "face",
    "Rel": 0.024552218113739463
   },
   {
    "Word": "smile",
    "Rel": 0.02411500221530119
   }
  ]
 },
 {
  "Number": 53,
  "Words": [
   {
    "Word": "wrong",
    "Rel": 0.023918128892897274
   },
   {
    "Word": "heart",
    "Rel": 0.02384393168379535
   },
   {
    "Word": "nights",
    "Rel": 0.023742832792873085
   },
   {
    "Word": "spirit",
    "Rel": 0.016016840759463413
   },
   {
    "Word": "girl",
    "Rel": 0.016013413277992626
   },
   {
    "Word": "baby",
    "Rel": 0.015968988726600103
   },
   {
    "Word": "real",
    "Rel": 0.01595790312394567
   },
   {
    "Word": "love",
    "Rel": 0.015917803315755333
   },
   {
    "Word": "stop",
    "Rel": 0.015887422206140638
   },
   {
    "Word": "song",
    "Rel": 0.015878628660668373
   }
  ]
 },
 {
  "Number": 54,
  "Words": [
   {
    "Word": "good",
    "Rel": 0.015231228575310408
   },
   {
    "Word": "baby",
    "Rel": 0.015185475119826925
   },
   {
    "Word": "free",
    "Rel": 0.015173396648540508
   },
   {
    "Word": "feels",
    "Rel": 0.010166436839867838
   },
   {
    "Word": "breath",
    "Rel": 0.010166161495734141
   },
   {
    "Word": "gettin",
    "Rel": 0.010160254421616869
   },
   {
    "Word": "better",
    "Rel": 0.010151669022727327
   },
   {
    "Word": "close",
    "Rel": 0.010137229974661294
   },
   {
    "Word": "time",
    "Rel": 0.010121928905791415
   },
   {
    "Word": "night",
    "Rel": 0.01011906739466806
   }
  ]
 },
 {
  "Number": 55,
  "Words": [
   {
    "Word": "world",
    "Rel": 0.025361217054795947
   },
   {
    "Word": "baby",
    "Rel": 0.02533678119007649
   },
   {
    "Word": "good",
    "Rel": 0.02533338843366949
   },
   {
    "Word": "time",
    "Rel": 0.01283178583423848
   },
   {
    "Word": "real",
    "Rel": 0.012800182877680049
   },
   {
    "Word": "girl",
    "Rel": 0.012791105826404955
   },
   {
    "Word": "name",
    "Rel": 0.01277794912945246
   },
   {
    "Word": "sun",
    "Rel": 0.012763540146193353
   },
   {
    "Word": "body",
    "Rel": 0.012751845020002331
   },
   {
    "Word": "hands",
    "Rel": 0.01274949834786216
   }
  ]
 },
 {
  "Number": 56,
  "Words": [
   {
    "Word": "memories",
    "Rel": 0.028368735370697833
   },
   {
    "Word": "time",
    "Rel": 0.02780379175604919
   },
   {
    "Word": "matter",
    "Rel": 0.02689796573594559
   },
   {
    "Word": "remember",
    "Rel": 0.02640091430049003
   },
   {
    "Word": "heart",
    "Rel": 0.014144761455718486
   },
   {
    "Word": "park",
    "Rel": 0.013852948574822412
   },
   {
    "Word": "hands",
    "Rel": 0.013798623110169975
   },
   {
    "Word": "everytime",
    "Rel": 0.013762173897670246
   },
   {
    "Word": "cry",
    "Rel": 0.013573660170476527
   },
   {
    "Word": "try",
    "Rel": 0.013536401984925898
   }
  ]
 },
 {
  "Number": 57,
  "Words": [
   {
    "Word": "sweet",
    "Rel": 0.030083140806671554
   },
   {
    "Word": "baby",
    "Rel": 0.022047789057191198
   },
   {
    "Word": "boy",
    "Rel": 0.021828534684597032
   },
   {
    "Word": "move",
    "Rel": 0.017462635753856738
   },
   {
    "Word": "night",
    "Rel": 0.017429351354189906
   },
   {
    "Word": "music",
    "Rel": 0.01646638558426951
   },
   {
    "Word": "dancin",
    "Rel": 0.01527158064554263
   },
   {
    "Word": "body",
    "Rel": 0.013867007321311613
   },
   {
    "Word": "real",
    "Rel": 0.011165886448280917
   },
   {
    "Word": "good",
    "Rel": 0.011026313069327554
   }
  ]
 },
 {
  "Number": 58,
  "Words": [
   {
    "Word": "baby",
    "Rel": 0.01690380369071642
   },
   {
    "Word": "feel",
    "Rel": 0.016873367568043578
   },
   {
    "Word": "nights",
    "Rel": 0.01678900870850618
   },
   {
    "Word": "low",
    "Rel": 0.016779120909558652
   },
   {
    "Word": "pay",
    "Rel": 0.016773277835753064
   },
   {
    "Word": "free",
    "Rel": 0.008510394298003399
   },
   {
    "Word": "good",
    "Rel": 0.008508134023344806
   },
   {
    "Word": "someone",
    "Rel": 0.008502193600960915
   },
   {
    "Word": "light",
    "Rel": 0.008494565807145823
   },
   {
    "Word": "tight",
    "Rel": 0.00849284606606247
   }
  ]
 },
 {
  "Number": 59,
  "Words": [
   {
    "Word": "heart",
    "Rel": 0.025050690355708283
   },
   {
    "Word": "girl",
    "Rel": 0.019022874811525245
   },
   {
    "Word": "world",
    "Rel": 0.018606138667443973
   },
   {
    "Word": "kicks",
    "Rel": 0.012764270875132353
   },
   {
    "Word": "live",
    "Rel": 0.012584467142857964
   },
   {
    "Word": "night",
    "Rel": 0.012576245406992788
   },
   {
    "Word": "livin",
    "Rel": 0.012513843039780261
   },
   {
    "Word": "arms",
    "Rel": 0.012455380661131258
   },
   {
    "Word": "whispers",
    "Rel": 0.01244980519601231
   },
   {
    "Word": "morning",
    "Rel": 0.01242775835111284
   }
  ]
 },
 {
  "Number": 60,
  "Words": [
   {
    "Word": "feel",
    "Rel": 0.0259869148557068
   },
   {
    "Word": "baby",
    "Rel": 0.0259276698763458
   },
   {
    "Word": "love",
    "Rel": 0.02038446589515181
   },
   {
    "Word": "time",
    "Rel": 0.020180077039090437
   },
   {
    "Word": "dream",
    "Rel": 0.019567490498110695
   },
   {
    "Word": "kiss",
    "Rel": 0.01714565403852783
   },
   {
    "Word": "long",
    "Rel": 0.011655955233376217
   },
   {
    "Word": "moment",
    "Rel": 0.011613907083235352
   },
   {
    "Word": "years",
    "Rel": 0.011475649366099416
   },
   {
    "Word": "glad",
    "Rel": 0.011471111915187543
   }
  ]
 },
 {
  "Number": 61,
  "Words": [
   {
    "Word": "time",
    "Rel": 0.009529351375902571
   },
   {
    "Word": "baby",
    "Rel": 0.009521002329120508
   },
   {
    "Word": "world",
    "Rel": 0.009518084839563326
   },
   {
    "Word": "good",
    "Rel": 0.00951532812367871
   },
   {
    "Word": "live",
    "Rel": 0.009499073638749094
   },
   {
    "Word": "wrong",
    "Rel": 0.009484171497768102
   },
   {
    "Word": "face",
    "Rel": 0.009482853082444955
   },
   {
    "Word": "strong",
    "Rel": 0.009474976630781453
   },
   {
    "Word": "hold",
    "Rel": 0.00947182706141611
   },
   {
    "Word": "soul",
    "Rel": 0.009467543684489385
   }
  ]
 },
 {
  "Number": 62,
  "Words": [
   {
    "Word": "baby",
    "Rel": 0.022065773876438554
   },
   {
    "Word": "friends",
    "Rel": 0.014827981039029053
   },
   {
    "Word": "fool",
    "Rel": 0.014613755495418206
   },
   {
    "Word": "heart",
    "Rel": 0.014604010261940477
   },
   {
    "Word": "hate",
    "Rel": 0.014596661424572646
   },
   {
    "Word": "night",
    "Rel": 0.014590632323564098
   },
   {
    "Word": "boy",
    "Rel": 0.0074096555485424756
   },
   {
    "Word": "good",
    "Rel": 0.0074049835544405555
   },
   {
    "Word": "friend",
    "Rel": 0.00739980488370281
   },
   {
    "Word": "past",
    "Rel": 0.007397997912937869
   }
  ]
 },
 {
  "Number": 63,
  "Words": [
   {
    "Word": "hope",
    "Rel": 0.03148081619763815
   },
   {
    "Word": "heart",
    "Rel": 0.021483372686179374
   },
   {
    "Word": "time",
    "Rel": 0.02118454976726943
   },
   {
    "Word": "wrong",
    "Rel": 0.021162361220466455
   },
   {
    "Word": "girl",
    "Rel": 0.02115491441713136
   },
   {
    "Word": "dream",
    "Rel": 0.021092696258080405
   },
   {
    "Word": "lovin",
    "Rel": 0.02103928182746143
   },
   {
    "Word": "someday",
    "Rel": 0.021025925104484953
   },
   {
    "Word": "everyone",
    "Rel": 0.021023661469415127
   },
   {
    "Word": "joy",
    "Rel": 0.021017810792758523
   }
  ]
 },
 {
  "Number": 64,
  "Words": [
   {
    "Word": "could",
    "Rel": 0.006470864981266033
   },
   {
    "Word": "tomorrow",
    "Rel": 0.006469167686045507
   },
   {
    "Word": "years",
    "Rel": 0.006450202237988241
   },
   {
    "Word": "ride",
    "Rel": 0.006437913402372428
   },
   {
    "Word": "fire",
    "Rel": 0.006436862617633041
   },
   {
    "Word": "world",
    "Rel": 0.006435372145307751
   },
   {
    "Word": "baby",
    "Rel": 0.006416402777748843
   },
   {
    "Word": "wrong",
    "Rel": 0.00639472913936764
   },
   {
    "Word": "bomb",
    "Rel": 0.00635974972431008
   },
   {
    "Word": "king",
    "Rel": 0.006355704527714094
   }
  ]
 },
 {
  "Number": 65,
  "Words": [
   {
    "Word": "time",
    "Rel": 0.02456420031955511
   },
   {
    "Word": "times",
    "Rel": 0.012418161385687233
   },
   {
    "Word": "fall",
    "Rel": 0.012411700408776316
   },
   {
    "Word": "words",
    "Rel": 0.01239972886358172
   },
   {
    "Word": "care",
    "Rel": 0.012304826522225455
   },
   {
    "Word": "tears",
    "Rel": 0.012282989110278777
   },
   {
    "Word": "must",
    "Rel": 0.012276578586872823
   },
   {
    "Word": "trip",
    "Rel": 0.012275743346223066
   },
   {
    "Word": "black",
    "Rel": 0.012271580771539742
   },
   {
    "Word": "nobody",
    "Rel": 0.012266858532527335
   }
  ]
 },
 {
  "Number": 66,
  "Words": [
   {
    "Word": "love",
    "Rel": 0.008691409430389456
   },
   {
    "Word": "money",
    "Rel": 0.007348178318240501
   },
   {
    "Word": "black",
    "Rel": 0.00734793569671589
   },
   {
    "Word": "mix",
    "Rel": 0.0073412494212266935
   },
   {
    "Word": "small",
    "Rel": 0.007341183529568515
   },
   {
    "Word": "spirit",
    "Rel": 0.007341179460084698
   },
   {
    "Word": "shit",
    "Rel": 0.0073411061134356645
   },
   {
    "Word": "wild",
    "Rel": 0.007340961085277834
   },
   {
    "Word": "took",
    "Rel": 0.007340624438908949
   },
   {
    "Word": "feet",
    "Rel": 0.007339982014012438
   }
  ]
 },
 {
  "Number": 67,
  "Words": [
   {
    "Word": "time",
    "Rel": 0.011817261047094244
   },
   {
    "Word": "black",
    "Rel": 0.01177675457878913
   },
   {
    "Word": "damn",
    "Rel": 0.011766466518233995
   },
   {
    "Word": "shy",
    "Rel": 0.011764945937599837
   },
   {
    "Word": "baby",
    "Rel": 0.005902370270461206
   },
   {
    "Word": "boy",
    "Rel": 0.005901656420290896
   },
   {
    "Word": "real",
    "Rel": 0.00590072688963686
   },
   {
    "Word": "name",
    "Rel": 0.0059001916330208865
   },
   {
    "Word": "man",
    "Rel": 0.005898013219411435
   },
   {
    "Word": "sun",
    "Rel": 0.005895355883391291
   }
  ]
 },
 {
  "Number": 68,
  "Words": [
   {
    "Word": "sun",
    "Rel": 0.02551375434905951
   },
   {
    "Word": "rain",
    "Rel": 0.017008486607599262
   },
   {
    "Word": "high",
    "Rel": 0.016991392299487658
   },
   {
    "Word": "morning",
    "Rel": 0.016973302520303064
   },
   {
    "Word": "light",
    "Rel": 0.016973105533509576
   },
   {
    "Word": "pray",
    "Rel": 0.016963532579853415
   },
   {
    "Word": "time",
    "Rel": 0.01694033230160986
   },
   {
    "Word": "help",
    "Rel": 0.01693312406573294
   },
   {
    "Word": "name",
    "Rel": 0.008528743409105278
   },
   {
    "Word": "feel",
    "Rel": 0.008514694332552673
   }
  ]
 },
 {
  "Number": 69,
  "Words": [
   {
    "Word": "mind",
    "Rel": 0.014619427543690649
   },
   {
    "Word": "call",
    "Rel": 0.014617347109286782
   },
   {
    "Word": "pride",
    "Rel": 0.014614011839959917
   },
   {
    "Word": "man",
    "Rel": 0.014612603373955662
   },
   {
    "Word": "boy",
    "Rel": 0.014584302811217482
   },
   {
    "Word": "time",
    "Rel": 0.014539932706547597
   },
   {
    "Word": "baby",
    "Rel": 0.014227695936004378
   },
   {
    "Word": "good",
    "Rel": 0.007358560328328796
   },
   {
    "Word": "none",
    "Rel": 0.007356697400059262
   },
   {
    "Word": "hand",
    "Rel": 0.007348833529726749
   }
  ]
 },
 {
  "Number": 70,
  "Words": [
   {
    "Word": "baby",
    "Rel": 0.021378984644388182
   },
   {
    "Word": "man",
    "Rel": 0.021289066504478878
   },
   {
    "Word": "none",
    "Rel": 0.01078924977497223
   },
   {
    "Word": "good",
    "Rel": 0.01077101052619146
   },
   {
    "Word": "girl",
    "Rel": 0.01076042694120128
   },
   {
    "Word": "real",
    "Rel": 0.010757656950597978
   },
   {
    "Word": "whole",
    "Rel": 0.010747966460485528
   },
   {
    "Word": "friends",
    "Rel": 0.010740631095555465
   },
   {
    "Word": "anything",
    "Rel": 0.010737883549878148
   },
   {
    "Word": "living",
    "Rel": 0.010733467212669365
   }
  ]
 },
 {
  "Number": 71,
  "Words": [
   {
    "Word": "love",
    "Rel": 0.025345147111636133
   },
   {
    "Word": "man",
    "Rel": 0.01707039180013469
   },
   {
    "Word": "happy",
    "Rel": 0.017029823942900715
   },
   {
    "Word": "world",
    "Rel": 0.016878818699384665
   },
   {
    "Word": "time",
    "Rel": 0.016833340469799372
   },
   {
    "Word": "offer",
    "Rel": 0.01678718464365435
   },
   {
    "Word": "friends",
    "Rel": 0.008645794557752957
   },
   {
    "Word": "song",
    "Rel": 0.008631853867114847
   },
   {
    "Word": "single",
    "Rel": 0.008619090265954968
   },
   {
    "Word": "cold",
    "Rel": 0.008614680172297062
   }
  ]
 },
 {
  "Number": 72,
  "Words": [
   {
    "Word": "time",
    "Rel": 0.050219172339000646
   },
   {
    "Word": "goodbye",
    "Rel": 0.028533260419666508
   },
   {
    "Word": "someone",
    "Rel": 0.022827285426741308
   },
   {
    "Word": "reason",
    "Rel": 0.022619742149447043
   },
   {
    "Word": "chance",
    "Rel": 0.02247314020638217
   },
   {
    "Word": "heart",
    "Rel": 0.020351918926719417
   },
   {
    "Word": "night",
    "Rel": 0.01962631269530214
   },
   {
    "Word": "good",
    "Rel": 0.015330214853864045
   },
   {
    "Word": "hear",
    "Rel": 0.015227379855898567
   },
   {
    "Word": "memories",
    "Rel": 0.015223955460943355
   }
  ]
 },
 {
  "Number": 73,
  "Words": [
   {
    "Word": "time",
    "Rel": 0.013371416926962905
   },
   {
    "Word": "eye",
    "Rel": 0.013357376130300235
   },
   {
    "Word": "lookin",
    "Rel": 0.01335107871907043
   },
   {
    "Word": "world",
    "Rel": 0.008942654526281646
   },
   {
    "Word": "girl",
    "Rel": 0.008932981901035347
   },
   {
    "Word": "caught",
    "Rel": 0.008930047504686024
   },
   {
    "Word": "kiss",
    "Rel": 0.008929811071561456
   },
   {
    "Word": "standin",
    "Rel": 0.008924065567971878
   },
   {
    "Word": "week",
    "Rel": 0.00892337652072852
   },
   {
    "Word": "love",
    "Rel": 0.008920399883420806
   }
  ]
 },
 {
  "Number": 74,
  "Words": [
   {
    "Word": "real",
    "Rel": 0.019554500226077253
   },
   {
    "Word": "good",
    "Rel": 0.01952415095609335
   },
   {
    "Word": "love",
    "Rel": 0.019443736361396863
   },
   {
    "Word": "work",
    "Rel": 0.00992883086317163
   },
   {
    "Word": "boy",
    "Rel": 0.009914790884947082
   },
   {
    "Word": "doubt",
    "Rel": 0.009914139887898034
   },
   {
    "Word": "words",
    "Rel": 0.009908281351716616
   },
   {
    "Word": "candle",
    "Rel": 0.009907158709752267
   },
   {
    "Word": "games",
    "Rel": 0.009906189174216469
   },
   {
    "Word": "danger",
    "Rel": 0.009905302034546357
   }
  ]
 },
 {
  "Number": 75,
  "Words": [
   {
    "Word": "world",
    "Rel": 0.009076870901338685
   },
   {
    "Word": "mind",
    "Rel": 0.009071898045417841
   },
   {
    "Word": "time",
    "Rel": 0.009067527355932964
   },
   {
    "Word": "fool",
    "Rel": 0.009067271889973777
   },
   {
    "Word": "baby",
    "Rel": 0.00906587381651487
   },
   {
    "Word": "maybe",
    "Rel": 0.009057925997603999
   },
   {
    "Word": "heart",
    "Rel": 0.004627173229939162
   },
   {
    "Word": "friends",
    "Rel": 0.004625659611987855
   },
   {
    "Word": "whole",
    "Rel": 0.004624990590285418
   },
   {
    "Word": "anything",
    "Rel": 0.00462459437255379
   }
  ]
 },
 {
  "Number": 76,
  "Words": [
   {
    "Word": "night",
    "Rel": 0.023339879821671128
   },
   {
    "Word": "time",
    "Rel": 0.015626375991806402
   },
   {
    "Word": "hands",
    "Rel": 0.015581275794740009
   },
   {
    "Word": "air",
    "Rel": 0.015551901736284497
   },
   {
    "Word": "girls",
    "Rel": 0.015542672258309935
   },
   {
    "Word": "music",
    "Rel": 0.015539994558182682
   },
   {
    "Word": "party",
    "Rel": 0.015533139900751015
   },
   {
    "Word": "friday",
    "Rel": 0.015527387513405325
   },
   {
    "Word": "floor",
    "Rel": 0.015428696721162554
   },
   {
    "Word": "flip",
    "Rel": 0.015422141529869678
   }
  ]
 },
 {
  "Number": 77,
  "Words": [
   {
    "Word": "babe",
    "Rel": 0.020396859747666207
   },
   {
    "Word": "hope",
    "Rel": 0.02038176901247348
   },
   {
    "Word": "call",
    "Rel": 0.020375722381149663
   },
   {
    "Word": "baby",
    "Rel": 0.010330028293478774
   },
   {
    "Word": "feel",
    "Rel": 0.010327905913818344
   },
   {
    "Word": "whole",
    "Rel": 0.010301655653582391
   },
   {
    "Word": "run",
    "Rel": 0.010284885389324231
   },
   {
    "Word": "dream",
    "Rel": 0.010283730458495729
   },
   {
    "Word": "open",
    "Rel": 0.010283650079841016
   },
   {
    "Word": "bad",
    "Rel": 0.0102834984328758
   }
  ]
 },
 {
  "Number": 78,
  "Words": [
   {
    "Word": "time",
    "Rel": 0.0310433497406651
   },
   {
    "Word": "baby",
    "Rel": 0.030076466961825424
   },
   {
    "Word": "show",
    "Rel": 0.023641484262601323
   },
   {
    "Word": "heart",
    "Rel": 0.01592243710329947
   },
   {
    "Word": "girl",
    "Rel": 0.015871240751187662
   },
   {
    "Word": "chance",
    "Rel": 0.015827532812983415
   },
   {
    "Word": "swear",
    "Rel": 0.015824319642494266
   },
   {
    "Word": "tenderness",
    "Rel": 0.015802685915411285
   },
   {
    "Word": "loneliness",
    "Rel": 0.015764202117417147
   },
   {
    "Word": "world",
    "Rel": 0.01571475142006179
   }
  ]
 },
 {
  "Number": 79,
  "Words": [
   {
    "Word": "mean",
    "Rel": 0.009439932274158264
   },
   {
    "Word": "takin",
    "Rel": 0.009437169412493809
   },
   {
    "Word": "knowin",
    "Rel": 0.009436587171662587
   },
   {
    "Word": "damn",
    "Rel": 0.009431797425978657
   },
   {
    "Word": "money",
    "Rel": 0.009431326239923038
   },
   {
    "Word": "world",
    "Rel": 0.009428670477547075
   },
   {
    "Word": "man",
    "Rel": 0.00942017620685913
   },
   {
    "Word": "girl",
    "Rel": 0.009411579625043699
   },
   {
    "Word": "wrong",
    "Rel": 0.009411052653926553
   },
   {
    "Word": "heart",
    "Rel": 0.00940330772534705
   }
  ]
 },
 {
  "Number": 80,
  "Words": [
   {
    "Word": "time",
    "Rel": 0.030095147183731404
   },
   {
    "Word": "mind",
    "Rel": 0.02000963247694327
   },
   {
    "Word": "fine",
    "Rel": 0.019933457590496813
   },
   {
    "Word": "think",
    "Rel": 0.01993052663701411
   },
   {
    "Word": "ease",
    "Rel": 0.019736279255708037
   },
   {
    "Word": "hand",
    "Rel": 0.010053643215343955
   },
   {
    "Word": "darling",
    "Rel": 0.010038256054670696
   },
   {
    "Word": "intentions",
    "Rel": 0.010031495723433684
   },
   {
    "Word": "inside",
    "Rel": 0.010028974016946657
   },
   {
    "Word": "song",
    "Rel": 0.010027868685322612
   }
  ]
 },
 {
  "Number": 81,
  "Words": [
   {
    "Word": "call",
    "Rel": 0.007326060750463192
   },
   {
    "Word": "feel",
    "Rel": 0.007305401373850038
   },
   {
    "Word": "live",
    "Rel": 0.006805989484378069
   },
   {
    "Word": "baby",
    "Rel": 0.006126411686562576
   },
   {
    "Word": "hand",
    "Rel": 0.005023968377899962
   },
   {
    "Word": "whole",
    "Rel": 0.005020778083350551
   },
   {
    "Word": "man",
    "Rel": 0.005020469130428621
   },
   {
    "Word": "anything",
    "Rel": 0.0050201872779309
   },
   {
    "Word": "bad",
    "Rel": 0.005017256726094286
   },
   {
    "Word": "break",
    "Rel": 0.005016745392364927
   }
  ]
 },
 {
  "Number": 82,
  "Words": [
   {
    "Word": "heart",
    "Rel": 0.01174152249309299
   },
   {
    "Word": "love",
    "Rel": 0.011722471111333921
   },
   {
    "Word": "people",
    "Rel": 0.011698741736707517
   },
   {
    "Word": "lady",
    "Rel": 0.011688363742848774
   },
   {
    "Word": "young",
    "Rel": 0.011685443809082844
   },
   {
    "Word": "bigger",
    "Rel": 0.01167682329617386
   },
   {
    "Word": "set",
    "Rel": 0.011595408987616282
   },
   {
    "Word": "girl",
    "Rel": 0.0059033586439514295
   },
   {
    "Word": "man",
    "Rel": 0.005902745658435503
   },
   {
    "Word": "face",
    "Rel": 0.005899094036299177
   }
  ]
 },
 {
  "Number": 83,
  "Words": [
   {
    "Word": "real",
    "Rel": 0.006606193265064555
   },
   {
    "Word": "man",
    "Rel": 0.0066052918289097595
   },
   {
    "Word": "long",
    "Rel": 0.0065996770545943195
   },
   {
    "Word": "smile",
    "Rel": 0.00659633706430896
   },
   {
    "Word": "high",
    "Rel": 0.0065951584824895425
   },
   {
    "Word": "stop",
    "Rel": 0.006589110393865186
   },
   {
    "Word": "lay",
    "Rel": 0.006588752540227932
   },
   {
    "Word": "chill",
    "Rel": 0.006587680964682988
   },
   {
    "Word": "takin",
    "Rel": 0.006585100940708973
   },
   {
    "Word": "dive",
    "Rel": 0.006584453644722062
   }
  ]
 },
 {
  "Number": 84,
  "Words": [
   {
    "Word": "call",
    "Rel": 0.011149355335129733
   },
   {
    "Word": "hand",
    "Rel": 0.009524486005299227
   },
   {
    "Word": "time",
    "Rel": 0.007063069227432622
   },
   {
    "Word": "fits",
    "Rel": 0.0056451087419340145
   },
   {
    "Word": "sentulate",
    "Rel": 0.005645102821730744
   },
   {
    "Word": "feenin",
    "Rel": 0.005644969736749007
   },
   {
    "Word": "johnny",
    "Rel": 0.005644903598261453
   },
   {
    "Word": "glove",
    "Rel": 0.005644894192745516
   },
   {
    "Word": "emergency",
    "Rel": 0.005644835770062511
   },
   {
    "Word": "nine",
    "Rel": 0.0056445989772366464
   }
  ]
 },
 {
  "Number": 85,
  "Words": [
   {
    "Word": "night",
    "Rel": 0.0152997080686843
   },
   {
    "Word": "heard",
    "Rel": 0.015287229065178211
   },
   {
    "Word": "baby",
    "Rel": 0.015265978791185915
   },
   {
    "Word": "daddy",
    "Rel": 0.015251057640853237
   },
   {
    "Word": "love",
    "Rel": 0.015250372159362355
   },
   {
    "Word": "darling",
    "Rel": 0.007716256264980022
   },
   {
    "Word": "pourin",
    "Rel": 0.00771508978008114
   },
   {
    "Word": "painful",
    "Rel": 0.007714861231417536
   },
   {
    "Word": "tires",
    "Rel": 0.007714861116517869
   },
   {
    "Word": "engine",
    "Rel": 0.007714860974901285
   }
  ]
 },
 {
  "Number": 86,
  "Words": [
   {
    "Word": "love",
    "Rel": 0.01950056841288278
   },
   {
    "Word": "nice",
    "Rel": 0.019469576440530677
   },
   {
    "Word": "friend",
    "Rel": 0.014731331095033051
   },
   {
    "Word": "feeling",
    "Rel": 0.014585859195176375
   },
   {
    "Word": "control",
    "Rel": 0.014583279674787578
   },
   {
    "Word": "girl",
    "Rel": 0.014554937561992776
   },
   {
    "Word": "talk",
    "Rel": 0.014538261909539198
   },
   {
    "Word": "fight",
    "Rel": 0.014522823243396595
   },
   {
    "Word": "problems",
    "Rel": 0.009775031971862254
   },
   {
    "Word": "tried",
    "Rel": 0.009773086252986538
   }
  ]
 },
 {
  "Number": 87,
  "Words": [
   {
    "Word": "show",
    "Rel": 0.012452939769961814
   },
   {
    "Word": "time",
    "Rel": 0.01227527655945421
   },
   {
    "Word": "long",
    "Rel": 0.008320574667413675
   },
   {
    "Word": "years",
    "Rel": 0.008312943789679566
   },
   {
    "Word": "memories",
    "Rel": 0.008310561611739292
   },
   {
    "Word": "pack",
    "Rel": 0.008307990794573943
   },
   {
    "Word": "house",
    "Rel": 0.008307987272525977
   },
   {
    "Word": "die",
    "Rel": 0.008304337885788339
   },
   {
    "Word": "past",
    "Rel": 0.008302213120137758
   },
   {
    "Word": "thoughts",
    "Rel": 0.008300447446500318
   }
  ]
 },
 {
  "Number": 88,
  "Words": [
   {
    "Word": "baby",
    "Rel": 0.022840825067642002
   },
   {
    "Word": "heart",
    "Rel": 0.015226992056327606
   },
   {
    "Word": "face",
    "Rel": 0.01519034956909892
   },
   {
    "Word": "cry",
    "Rel": 0.015188868691600237
   },
   {
    "Word": "date",
    "Rel": 0.015151933613742912
   },
   {
    "Word": "time",
    "Rel": 0.015121025133297739
   },
   {
    "Word": "good",
    "Rel": 0.007605336193319569
   },
   {
    "Word": "night",
    "Rel": 0.007599108836071242
   },
   {
    "Word": "times",
    "Rel": 0.007595070102717432
   },
   {
    "Word": "man",
    "Rel": 0.007594646681766581
   }
  ]
 },
 {
  "Number": 89,
  "Words": [
   {
    "Word": "party",
    "Rel": 0.017215228556437027
   },
   {
    "Word": "girl",
    "Rel": 0.00876968153891902
   },
   {
    "Word": "name",
    "Rel": 0.008766759376194413
   },
   {
    "Word": "whole",
    "Rel": 0.008761317663855236
   },
   {
    "Word": "someone",
    "Rel": 0.00875873959324982
   },
   {
    "Word": "touch",
    "Rel": 0.00875504469349044
   },
   {
    "Word": "hands",
    "Rel": 0.008754128796481157
   },
   {
    "Word": "fool",
    "Rel": 0.00875324372543125
   },
   {
    "Word": "try",
    "Rel": 0.008749734913077352
   },
   {
    "Word": "breath",
    "Rel": 0.008739703840714246
   }
  ]
 },
 {
  "Number": 90,
  "Words": [
   {
    "Word": "wrong",
    "Rel": 0.03621272892923762
   },
   {
    "Word": "hearts",
    "Rel": 0.03527467884169925
   },
   {
    "Word": "heart",
    "Rel": 0.018511149482090816
   },
   {
    "Word": "baby",
    "Rel": 0.018459672377717243
   },
   {
    "Word": "night",
    "Rel": 0.018405467396954815
   },
   {
    "Word": "open",
    "Rel": 0.018215034108389188
   },
   {
    "Word": "work",
    "Rel": 0.01820505735837246
   },
   {
    "Word": "turn",
    "Rel": 0.01815366347808808
   },
   {
    "Word": "broken",
    "Rel": 0.01809257138526038
   },
   {
    "Word": "morning",
    "Rel": 0.018089143971781543
   }
  ]
 },
 {
  "Number": 91,
  "Words": [
   {
    "Word": "better",
    "Rel": 0.017713359325854442
   },
   {
    "Word": "time",
    "Rel": 0.017621647073403836
   },
   {
    "Word": "face",
    "Rel": 0.017553188752394425
   },
   {
    "Word": "bug",
    "Rel": 0.01748831020815211
   },
   {
    "Word": "fast",
    "Rel": 0.017477895465458103
   },
   {
    "Word": "boy",
    "Rel": 0.0089853499747543
   },
   {
    "Word": "good",
    "Rel": 0.008967796433885568
   },
   {
    "Word": "times",
    "Rel": 0.008964852430085178
   },
   {
    "Word": "night",
    "Rel": 0.008952129908614964
   },
   {
    "Word": "songs",
    "Rel": 0.008951994182643343
   }
  ]
 },
 {
  "Number": 92,
  "Words": [
   {
    "Word": "baby",
    "Rel": 0.008253726798380325
   },
   {
    "Word": "good",
    "Rel": 0.008248532996724135
   },
   {
    "Word": "feel",
    "Rel": 0.008241345699863753
   },
   {
    "Word": "girl",
    "Rel": 0.008237133795446756
   },
   {
    "Word": "boy",
    "Rel": 0.008235266459733577
   },
   {
    "Word": "wrong",
    "Rel": 0.008230722002040312
   },
   {
    "Word": "name",
    "Rel": 0.008230372241847379
   },
   {
    "Word": "long",
    "Rel": 0.008230024668777767
   },
   {
    "Word": "friends",
    "Rel": 0.008229092901583192
   },
   {
    "Word": "sun",
    "Rel": 0.008220634838656161
   }
  ]
 },
 {
  "Number": 93,
  "Words": [
   {
    "Word": "heart",
    "Rel": 0.03184713039490667
   },
   {
    "Word": "love",
    "Rel": 0.03165775336487735
   },
   {
    "Word": "baby",
    "Rel": 0.020427251675837158
   },
   {
    "Word": "sun",
    "Rel": 0.01622760391944068
   },
   {
    "Word": "song",
    "Rel": 0.016210189886546798
   },
   {
    "Word": "strong",
    "Rel": 0.014772448447098
   },
   {
    "Word": "time",
    "Rel": 0.014479927853529652
   },
   {
    "Word": "world",
    "Rel": 0.01098294971377791
   },
   {
    "Word": "talk",
    "Rel": 0.010833543476953223
   },
   {
    "Word": "sky",
    "Rel": 0.010831532377835254
   }
  ]
 },
 {
  "Number": 94,
  "Words": [
   {
    "Word": "money",
    "Rel": 0.007538995973855383
   },
   {
    "Word": "gold",
    "Rel": 0.0075388425065923016
   },
   {
    "Word": "daddy",
    "Rel": 0.007538793138082145
   },
   {
    "Word": "jack",
    "Rel": 0.007538492908937601
   },
   {
    "Word": "baby",
    "Rel": 0.007532212741065045
   },
   {
    "Word": "time",
    "Rel": 0.007531654359749689
   },
   {
    "Word": "mountains",
    "Rel": 0.006867841860550821
   },
   {
    "Word": "land",
    "Rel": 0.006795402919569384
   },
   {
    "Word": "world",
    "Rel": 0.0064398001189548615
   },
   {
    "Word": "man",
    "Rel": 0.005916020074256048
   }
  ]
 },
 {
  "Number": 95,
  "Words": [
   {
    "Word": "baby",
    "Rel": 0.015940243763174173
   },
   {
    "Word": "god",
    "Rel": 0.015878115280435298
   },
   {
    "Word": "name",
    "Rel": 0.015731801107484858
   },
   {
    "Word": "song",
    "Rel": 0.008040190390677686
   },
   {
    "Word": "tears",
    "Rel": 0.008040171441293502
   },
   {
    "Word": "break",
    "Rel": 0.008037160880585143
   },
   {
    "Word": "wrong",
    "Rel": 0.008036967293730608
   },
   {
    "Word": "knees",
    "Rel": 0.008034621584520186
   },
   {
    "Word": "babe",
    "Rel": 0.008033893316447976
   },
   {
    "Word": "mmm",
    "Rel": 0.00803341755089727
   }
  ]
 },
 {
  "Number": 96,
  "Words": [
   {
    "Word": "love",
    "Rel": 0.019973732378373323
   },
   {
    "Word": "heart",
    "Rel": 0.018826336202123164
   },
   {
    "Word": "feel",
    "Rel": 0.015245657803148667
   },
   {
    "Word": "friend",
    "Rel": 0.015217064901419709
   },
   {
    "Word": "arms",
    "Rel": 0.015045543000878507
   },
   {
    "Word": "soul",
    "Rel": 0.01497574387405962
   },
   {
    "Word": "world",
    "Rel": 0.014946395678386128
   },
   {
    "Word": "hold",
    "Rel": 0.01485295642406353
   },
   {
    "Word": "game",
    "Rel": 0.013929924604960132
   },
   {
    "Word": "time",
    "Rel": 0.012171473507868943
   }
  ]
 },
 {
  "Number": 97,
  "Words": [
   {
    "Word": "da",
    "Rel": 0.03397217748003841
   },
   {
    "Word": "girl",
    "Rel": 0.02299036149355746
   },
   {
    "Word": "dee",
    "Rel": 0.022766875036786836
   },
   {
    "Word": "cry",
    "Rel": 0.02273622154500494
   },
   {
    "Word": "men",
    "Rel": 0.022661191836635185
   },
   {
    "Word": "ii",
    "Rel": 0.02258671936276327
   },
   {
    "Word": "boyz",
    "Rel": 0.022580717578491064
   },
   {
    "Word": "time",
    "Rel": 0.012749649989518653
   },
   {
    "Word": "feel",
    "Rel": 0.011503007883449184
   },
   {
    "Word": "night",
    "Rel": 0.011481826571691466
   }
  ]
 },
 {
  "Number": 98,
  "Words": [
   {
    "Word": "love",
    "Rel": 0.06401820364972494
   },
   {
    "Word": "part",
    "Rel": 0.04377043683141779
   },
   {
    "Word": "hold",
    "Rel": 0.0334588392222802
   },
   {
    "Word": "time",
    "Rel": 0.031991127620840804
   },
   {
    "Word": "heart",
    "Rel": 0.026536848493950584
   },
   {
    "Word": "want",
    "Rel": 0.026187146378355165
   },
   {
    "Word": "smile",
    "Rel": 0.024604639246680347
   },
   {
    "Word": "mean",
    "Rel": 0.017641099196963172
   },
   {
    "Word": "sorry",
    "Rel": 0.017638363337981907
   },
   {
    "Word": "stay",
    "Rel": 0.01761468428555854
   }
  ]
 },
 {
  "Number": 99,
  "Words": [
   {
    "Word": "heart",
    "Rel": 0.03924320414344257
   },
   {
    "Word": "run",
    "Rel": 0.038889683993282353
   },
   {
    "Word": "want",
    "Rel": 0.026261545597141386
   },
   {
    "Word": "time",
    "Rel": 0.026058321269498464
   },
   {
    "Word": "soul",
    "Rel": 0.02551017641148016
   },
   {
    "Word": "free",
    "Rel": 0.02548680739019784
   },
   {
    "Word": "hear",
    "Rel": 0.013094614789705427
   },
   {
    "Word": "distance",
    "Rel": 0.013074841866094053
   },
   {
    "Word": "late",
    "Rel": 0.013069250392263912
   },
   {
    "Word": "believe",
    "Rel": 0.013046382539894326
   }
  ]
 }
]